"15.12.08","1","077353","1918","110","Engineering ","","0","Waiting for authoring","7:00","12:00","5","0",
"15.12.08","1","077472","541","120","Codierung","","0","NCM F149 Implementing","12:00","16:00","3","60",
"17.12.08","3","077353","1918","110","Engineering ","","0","Waiting for authoring","7:00","9:00","2","0",
"17.12.08","3","077472","541","120","Codierung","","0","NCM F149 Implementing","9:00","16:00","6","60",
"18.12.08","4","077353","1918","110","Engineering ","","0","Waiting for authoring","7:00","11:00","4","0",
"18.12.08","4","077472","541","120","Codierung","","0","NCM F149 Implementing","11:00","16:00","4","60",
"19.12.08","5","077353","1918","110","Engineering ","","0","Waiting for authoring","7:00","10:00","3","0",
"19.12.08","5","077472","541","120","Codierung","","0","NCM F149 Implementing","10:00","16:00","5","60",
