"01.12.08","1","077472","562","185","Service","","0","NPB documentation completion","7:00","8:00","1","0",
"01.12.08","1","077472","859","110","Engineering ","","0","NSP documentation and simulations","8:00","12:00","4","0",
"01.12.08","1","077472","859","110","Engineering ","","0","NSP documentation and simulations","12:00","16:00","3","60",
"02.12.08","2","077472","859","110","Engineering ","","0","NPP setup and testing vs simulation","7:00","12:00","5","0",
"02.12.08","2","077472","859","110","Engineering ","","0","NPP setup and testing vs simulation","12:00","16:00","3","60",
"03.12.08","3","077472","859","110","Engineering ","","0","NPP testing vs simulation","7:00","16:00","8","60",
"04.12.08","4","077472","859","110","Engineering ","","0","NSP bug fixing after testing vs simulation","7:00","16:00","8","60",
"05.12.08","5","077472","935","185","Service","","0","NSP bug fixing after testing vs simulation","7:00","11:00","4","0",
"05.12.08","5","077472","961","185","Service","","0","NAG bug fixing after testing","11:00","16:00","4","60",
