"06.10.08","1","077353","1220","120","Codierung","","0","PAG Kombi CTS Implementation","7:00","13:00","6","0",
"06.10.08","1","077353","1090","110","Engineering ","","0","Updating NVO documentation","13:00","14:00","1","0",
"06.10.08","1","077353","1090","110","Engineering ","","0","Updating NVO documentation","14:00","16:00","1","60",
"07.10.08","2","077353","1220","120","Codierung","","0","Implementation of E1 Kombi","7:00","12:00","5","0",
"07.10.08","2","077353","1090","110","Engineering ","","0","Waiting for authoring","12:00","14:00","2","0",
"07.10.08","2","077353","1090","110","Engineering ","","0","Waiting for authoring","14:00","16:00","1","60",
"08.10.08","3","077353","1220","120","Codierung","","0","Implementation of E1 Kombi","7:00","13:00","6","0",
"08.10.08","3","077353","1090","110","Engineering ","","0","Checking ODX problems and Waiting for DSA","13:00","14:00","1","0",
"08.10.08","3","077353","1090","110","Engineering ","","0","Checking ODX problems and Waiting for DSA","14:00","16:00","1","60",
"09.10.08","4","077353","1220","120","Codierung","","100","Complete - 1 ODX problem","7:00","12:00","5","0",
"09.10.08","4","077353","1090","110","Engineering ","","0","Writing CTS to test ZDC flashing","12:00","16:00","3","60",
"10.10.08","5","077353","1090","110","Engineering ","","0","Waiting for authoring","7:00","13:00","6","0",
"10.10.08","5","077353","1090","110","Engineering ","","0","Waiting for authoring","13:00","15:00","1","60",
