"27.10.08","1","077353","1077","110","Engineering ","","0","Project Tracking","7:00","8:00","1","0",
"27.10.08","1","077472","536","110","Engineering ","","0","Updates to Short Trip Test UC","8:00","12:00","4","0",
"27.10.08","1","077353","1082","110","Engineering ","","0","ODX troubleshhoting, deliverable creation for QF test troubleshooting","12:00","16:00","3","60",
"28.10.08","2","077353","1077","110","Engineering ","","0","Phone conference, problem tracking ","7:00","10:00","3","0",
"28.10.08","2","077353","1082","110","Engineering ","","0","ODX troubleshooting, assisting other employees","10:00","15:00","4","60",
"29.10.08","3","077353","1797","110","Engineering ","","100","Task Edited","7:00","9:00","2","0",
"29.10.08","3","077472","536","110","Engineering ","","100","Task Edited","9:00","13:00","4","0",
"29.10.08","3","077353","1077","110","Engineering ","","0","Problem Tracking, phone conference with en.","13:00","14:00","1","0",
"29.10.08","3","077353","1082","110","Engineering ","","0","Timesheet assignments","14:00","16:00","1","60",
"30.10.08","4","077353","1077","110","Engineering ","","0","Phone conference with Pierre on current outstanding issues. Issue tracking.","7:00","8:00","1","0",
"30.10.08","4","077472","781","110","Engineering ","","0","Assisting with F141 Test Specs.","8:00","10:00","2","0",
"30.10.08","4","077353","1082","110","Engineering ","","0","Assisting with ODX, outstanding issues and simulation problems.","10:00","16:00","5","60",
"31.10.08","5","077353","1077","110","Engineering ","","0","Timesheet generation and checking","7:00","8:00","1","0",
"31.10.08","5","077353","1082","110","Engineering ","","0","Assiting with various Porsche issues","8:00","12:00","4","0",
"31.10.08","5","077472","781","110","Engineering ","","0","F149 NCM CTS Spec - Reworks for new changes in PO seq.","12:00","16:00","4","0",
