"15.12.08","1","077353","1897","110","Engineering ","","0","Waiting for authoring to save","7:00","8:00","1","0",
"15.12.08","1","077353","1196","120","Codierung","","0","E1: Heckstg Bugfixing and testing","8:00","16:00","7","60",
"17.12.08","3","077353","1086","110","Engineering ","","0","E1: Internationalisation - Creating howto and scripts.","7:00","16:00","8","60",
"18.12.08","4","077353","1086","110","Engineering ","","0","E1: Kessy translation of CTS's.","7:00","16:00","8","60",
"19.12.08","5","077353","1086","110","Engineering ","","0","E1: Internationalisation of AWS Anlernen","7:00","16:00","8","60",
