"01.09.08","1","077353","1149","140","Test","","0","","7:00","16:00","9","0",
"02.09.08","2","077353","1084","110","Engineering ","","0","Assisted with FUEP CTSs","7:00","8:00","1","0",
"02.09.08","2","077353","1172","120","Codierung","","0","Implementation 60%","8:00","16:00","8","0",
"03.09.08","3","077353","1084","110","Engineering ","","0","Simulation Training","7:00","10:00","3","0",
"03.09.08","3","077353","1172","120","Codierung","","0","70% Complete","10:00","16:00","6","0",
"04.09.08","4","077353","1172","120","Codierung","","0","E1 AWS: SystemTest. Implementation 80% complete","7:00","13:00","6","0",
"04.09.08","4","077353","1175","140","Test","","0","E1 AWS: SystemTest Simulations: 25% Complete. OK Simulations Done","13:00","16:00","3","0",
"05.09.08","5","077598","0","910","Urlaub","","0","Annual Leave","7:00","16:00","9","0",
