"15.12.08","1","077472","1097","120","Codierung","","0","Continued implementing NBC CTS","7:00","12:00","5","0",
"15.12.08","1","077472","1096","120","Codierung","","0","Editing sim file to work for new ODX","12:00","16:00","3","60",
"17.12.08","3","077472","1096","120","Codierung","","0","Adding simulations for mcdfail, negative response, timeout and so on","7:00","9:00","2","0",
"17.12.08","3","077472","1097","120","Codierung","","0","Continued implementing NBC CTS","9:00","16:00","6","60",
"18.12.08","4","077472","1096","120","Codierung","","0","Changed Sim file work with new ODX update","7:00","10:00","3","0",
"18.12.08","4","077472","1097","120","Codierung","","0","Completed NBC implemention","10:00","14:00","4","0",
"18.12.08","4","077472","860","110","Engineering ","","0","Waiting time for authoring to respond","14:00","16:00","1","60",
"19.12.08","5","077472","860","110","Engineering ","","0","Testing NCR against simulation","7:00","16:00","8","60",
