"17.11.08","1","077353","1259","140","Test","","0","Test against simulation for pcm2mmi","7:00","16:00","8","60",
"18.11.08","2","077353","1259","140","Test","","0","test agains simulation for pcm2mmi","7:00","13:00","6","0",
"18.11.08","2","077353","1336","110","Engineering ","","0","create test spec for WZH","13:00","16:00","2","60",
"19.11.08","3","077353","1336","110","Engineering ","","0","create test spec for WZH","7:00","16:00","8","60",
"20.11.08","4","077353","1336","110","Engineering ","","0","create test spec for WZH","7:00","8:00","1","0",
"20.11.08","4","077353","1089","110","Engineering ","","0","make changes to ignition sate request scripts","8:00","16:00","7","60",
"21.11.08","5","077353","1336","110","Engineering ","","0","create test spec for WZH","7:00","16:00","8","60",
