"24.11.08","1","077353","1918","110","Engineering ","","0","Waiting for authoring","7:00","9:00","2","0",
"24.11.08","1","077472","789","110","Engineering ","","0","NCM F149 Implementing","9:00","11:00","2","0",
"24.11.08","1","077353","1212","185","Service","","0","Bug fixing kessy E1","11:00","13:00","2","0",
"24.11.08","1","077353","1163","185","Service","","0","Bugfixing E1 Airbag Lock","13:00","16:00","2","60",
"25.11.08","2","077353","1163","185","Service","","0","Bugfixing E1 Airbag Lock","7:00","8:00","1","0",
"25.11.08","2","077353","1918","110","Engineering ","","0","","8:00","10:00","2","0",
"25.11.08","2","077472","541","120","Codierung","","0","NCM F149 Implementing","10:00","16:00","5","60",
"26.11.08","3","077472","541","120","Codierung","","0","NCM F149 Implementing","7:00","13:00","6","0",
"26.11.08","3","077353","1918","110","Engineering ","","0","Waiting for authoring","13:00","16:00","2","60",
"27.11.08","4","077472","541","120","Codierung","","0","NCM F149 Implementing","7:00","12:00","5","0",
"27.11.08","4","077353","1918","110","Engineering ","","0","Waiting for authoring","12:00","16:00","3","60",
"28.11.08","5","077353","1918","110","Engineering ","","0","Waiting for authoring","7:00","9:00","2","0",
"28.11.08","5","077472","541","120","Codierung","","0","NCM F149 Implementing","9:00","16:00","6","60",
