"22.09.08","1","077353","1806","120","Codierung","","0","ZDC Transfer Data Implementation 70% complete.","7:00","10:00","3","0",
"22.09.08","1","077353","1084","110","Engineering ","","0","GESIC Updates","10:00","16:00","5","60",
"23.09.08","2","077353","1806","120","Codierung","","0","ZDC Transfer Data Implementation. Complete.","7:00","16:00","8","60",
"25.09.08","4","077353","1084","110","Engineering ","","0","GESIC UPDATES","7:00","16:00","8","60",
