"17.11.08","1","077598","0","910","Urlaub","","0","Study Leave","7:00","16:00","9","0",
"18.11.08","2","077353","1162","140","Test","","0","E1 Airbag Lock - began test v sim, assisted with bug fixing and trouble shooting, no test v sim done","7:00","11:00","4","0",
"18.11.08","2","077353","1223","140","Test","","0","E1 Kombi Gesam - Completed task","11:00","12:00","1","0",
"18.11.08","2","077353","1914","110","Engineering ","","0","Waiting for Authoring","12:00","14:00","1","60",
"19.11.08","3","077353","1162","140","Test","","0","E1 Airbag Lock - Continued with bugfixing and attempted to continue with test v sim","7:00","14:00","7","0",
"19.11.08","3","077353","1083","110","Engineering ","","0","Meeting - General project review and Code freeze instructions","14:00","16:00","1","60",
"20.11.08","4","077353","1162","140","Test","","0","E1 Airbag Lock - More errors found, continued with Test v Sim","7:00","16:00","8","60",
"21.11.08","5","077353","1235","140","Test","","0","E1 Airbag Lock  - Continued with TestVSim","7:00","16:00","8","60",
