"01.12.08","1","077353","1196","120","Codierung","","0","E1: Heckstg CTS Implementation completed, bugfixing awaits","7:00","12:00","5","0",
"01.12.08","1","077353","1086","110","Engineering ","","0","E1: PCM2MMI: Attempt to clear the check-in problem, but problem is still unsolved.","12:00","16:00","3","60",
"02.12.08","2","077353","1086","110","Engineering ","","0","E1: Fixing up documentation of delivered CTSs, and installing new PIDT and authoring.","7:00","16:00","8","60",
"03.12.08","3","077353","1086","110","Engineering ","","0","E1: Regression testing of RDK, found errors in test spec.","7:00","16:00","8","60",
"04.12.08","4","077353","1897","110","Engineering ","","0","E1: Waiting for authoring to install and save, run, etc.","7:00","11:00","4","0",
"04.12.08","4","077353","2460","140","Test","","0","E1: RDK Regression testing, found possible errors.","11:00","13:00","2","0",
"04.12.08","4","077353","2394","190","Optimierung bei bestehenden Sys.","","0","E1: RDK Regression Fixing: changed config file, found possible error in ODX.","13:00","16:00","2","60",
"05.12.08","5","077353","2394","190","Optimierung bei bestehenden Sys.","","0","E1: Regression Bugfixing RDK, PCM2MMI CTS.","7:00","11:00","4","0",
"05.12.08","5","077353","2460","140","Test","","0","E1: Regression Testing RDK, PCM2MMI CTSs. ","11:00","16:00","4","60",
