"24.11.08","1","077472","784","110","Engineering ","","0","Installation and correct configuration of files for Ferrari Authoring & correcting test spec to NCS.","7:00","15:00","7","60",
"25.11.08","2","077472","784","110","Engineering ","","0","Correcting test spec for Ferrari F141 NCS.","7:00","10:00","3","0",
"25.11.08","2","077353","1344","185","Service","","0","Corrected and completed problems in PAG_MIG_E1_WZH_TeachRemoteControl.","10:00","14:00","4","0",
"25.11.08","2","077353","1236","185","Service","","0","Correcting problems in PAG E1 Verstarker.","14:00","16:00","1","60",
"26.11.08","3","077353","1085","110","Engineering ","","0","Completed packaging for WZH delivery & weekly meeting on work issues.","7:00","10:00","3","0",
"26.11.08","3","077353","1236","185","Service","","0","Confirmed bus logging is correct for PAG E1 Verstarker and correcting problems.","10:00","16:00","5","60",
"27.11.08","4","077353","1896","110","Engineering ","","0","Waiting for Porsche ODA Authoring.","7:00","8:00","1","0",
"27.11.08","4","077353","1236","185","Service","","0","Correcting problems in PAG E1 Verstarker CTS's/simulation files, documented release notes, packaging","8:00","16:00","7","60",
"28.11.08","5","077353","1896","110","Engineering ","","0","Waiting for Porsche ODA Authoring.","7:00","8:00","1","0",
"28.11.08","5","077353","1236","185","Service","","0","Correcting problems in PAG E1 Verstarker.","8:00","13:00","5","0",
"28.11.08","5","077353","1085","110","Engineering ","","0","Create packaging for delivery of PAG E1 Verstarker, release notes, video capture & bus log capture.","13:00","16:00","2","60",
