"06.10.08","1","077353","1083","110","Engineering ","","0","E1 - Collecting ODX Data and setting up feedback for open issues","7:00","9:00","2","0",
"06.10.08","1","077353","1216","110","Engineering ","","0","E1 Kombi gesamtwegstrecke - Read all current documents and open issues. Started with Simulation file","9:00","16:00","6","60",
"07.10.08","2","077353","1216","110","Engineering ","","0","E1 Kombi Gesam - Compiling list of open issues and start test spec","7:00","13:00","6","0",
"07.10.08","2","077353","1083","110","Engineering ","","0","ODX Follow up. Finiliaed report style and doc location","13:00","15:00","1","60",
"08.10.08","3","077353","1216","110","Engineering ","","0","E1 Kombi Gesam - Discussed uncertainties, continued with test spec, Simulation creation.","7:00","14:00","6","60",
"09.10.08","4","077353","1216","110","Engineering ","","0","E1 Kombi Gesam - Documentation and querying test steps. Bus loggin complete.","7:00","13:00","5","60",
"10.10.08","5","077353","1216","110","Engineering ","","0","E1 Kombi Gesam - Continued making simulations and test specification documention. Logged ODX Problem","7:00","16:00","8","60",
