"15.09.08","1","077353","1084","110","Engineering ","","0","Imported current S4 CTS work from database to new database","7:00","16:00","8","60",
"16.09.08","2","077353","1084","110","Engineering ","","0","Imported current S4 CTS work from database to new database","7:00","16:00","8","60",
"17.09.08","3","077353","1084","110","Engineering ","","0","Imported GESIC Updates into new Database","7:00","16:00","8","60",
"18.09.08","4","077353","1084","110","Engineering ","","0","GESIC Updates","7:00","13:00","6","0",
"18.09.08","4","077353","1806","120","Codierung","","0","ZDC Transfer Data Implementation 10%","13:00","16:00","2","60",
"19.09.08","5","077353","1806","120","Codierung","","0","ZDC Transfer Data Implementation 60%","7:00","16:00","8","60",
