"24.11.08","1","077353","1898","110","Engineering ","","0","Authoring Wait Time While Testing Kessy","7:00","9:00","2","0",
"24.11.08","1","077353","1088","110","Engineering ","","0","E1_Kessy_LearnKessy : Test vs Simulation and Bug Fixing","9:00","16:00","6","60",
"25.11.08","2","077353","1088","110","Engineering ","","0","E1_Kessy_LearnKessy : Packaging and Release Notes","7:00","14:00","7","0",
"25.11.08","2","077353","1898","110","Engineering ","","0","Authoring Wait Time While Packaging","14:00","16:00","1","60",
"26.11.08","3","077353","1088","110","Engineering ","","0","F149 NCM li/re Motor: Initial Implementation of TestSpec","7:00","16:00","8","60",
"27.11.08","4","077353","1088","110","Engineering ","","0","F149 NCM li/re Motor: Initial Implementation of  Simulations","7:00","16:00","8","60",
"28.11.08","5","077472","537","110","Engineering ","","0","F149 NCM li/re Motor: Continued Implementation of additional Use Cases","7:00","16:00","8","60",
