"08.09.08","1","077353","1086","110","Engineering ","","0","Meeting regarding documentation and ways to make it shorter and quicker","7:00","8:00","1","0",
"08.09.08","1","077353","1154","110","Engineering ","","0","E1 Airbag locking documentation. Merged all files, nearing completion: 75%","8:00","16:00","7","60",
"09.09.08","2","077353","1154","110","Engineering ","","0","","7:00","8:00","1","0",
"09.09.08","2","077353","1156","120","Codierung","","0","","8:00","13:00","5","0",
"09.09.08","2","077472","653","140","Test","","0","F149 NFR Testing complete","13:00","14:00","1","0",
"09.09.08","2","077472","656","185","Service","","0","F149 NFR Bugfixing complete","14:00","16:00","1","60",
"11.09.08","4","077353","1086","110","Engineering ","","0","Meeting regarding issues and problems","7:00","9:00","2","0",
"11.09.08","4","077353","1154","110","Engineering ","","0","E1 Airbag Locking: Nearing completion of documentation, only Bus Loggin left.","9:00","15:00","6","0",
"11.09.08","4","077353","1086","110","Engineering ","","0","Meeting regarding issues and problems","15:00","17:00","1","60",
"12.09.08","5","077353","1086","110","Engineering ","","0","","7:00","9:00","2","0",
"12.09.08","5","077353","1154","110","Engineering ","","0","","9:00","16:00","6","60",
