"29.09.08","1","077353","1083","110","Engineering ","","0","Complete and check deliverables for E1 airbag lock and AWS System test, found errors, informed coder","7:00","10:00","3","0",
"29.09.08","1","077353","1083","110","Engineering ","","0","Complete and check deliverables for E1 airbag lock and AWS System test, found errors, informed coder","10:00","14:00","3","60",
"30.09.08","2","077353","1319","140","Test","","0","Started with the test review, Unable to complete due to the Open issues.","7:00","11:00","4","0",
"30.09.08","2","077353","1083","110","Engineering ","","0","Completed Authoring Webstart installation and confirmed correct working.","11:00","14:00","2","60",
"01.10.08","3","077353","1319","140","Test","","0","E1 SWSG - Continued testing against simulation and highlighting issues. ","7:00","9:00","2","0",
"01.10.08","3","077472","782","110","Engineering ","","0","Install and Test DEIS application. Set up configuration","9:00","13:00","3","60",
"02.10.08","4","077353","1319","140","Test","","0","E1 SWSG - Completed testing and checked the delivery. Also created a capture and a flash image.","7:00","10:00","3","0",
"02.10.08","4","077472","782","110","Engineering ","","0","Ferrari ODA Authoring, installed and configured the application, still waiting for login details","10:00","13:00","2","60",
"03.10.08","5","077472","782","110","Engineering ","","0","ODX Logging structure for internal monitoring and feed back","7:00","11:00","4","0",
"03.10.08","5","077472","782","110","Engineering ","","0","ODX Logging structure for internal monitoring and feed back","11:00","13:00","1","60",
