"24.11.08","1","077353","1914","110","Engineering ","","0","Waiting for Authoring, Parameter changes tested and saving","7:00","9:00","2","0",
"24.11.08","1","077353","1162","140","Test","","0","E1 Airbag Lock  - Reworked test cases that have been corrected, continued with outstanding Test Case","9:00","16:00","6","60",
"25.11.08","2","077353","1914","110","Engineering ","","0","Wating for Authoring, bugfixing for Airbag Lock","7:00","8:00","1","0",
"25.11.08","2","077353","1162","140","Test","","0","E1 Airbag Lock  - Completed Test v Sim and assisted with bug corrections","8:00","13:00","5","0",
"25.11.08","2","077472","782","110","Engineering ","","0","DSA-077353-1953-130-1412: E1 M5: Airbag verriegeln: Package B3.13/ae19 started checking docs","13:00","16:00","2","60",
"26.11.08","3","077353","1083","110","Engineering ","","0","077353-1953-130-1412: E1 M5: Airbag verriegeln: Package B3.13/ae19-Captures and document update comp","7:00","11:00","4","0",
"26.11.08","3","077353","1914","110","Engineering ","","0","Waiting for Authoring on minor changes to script and CTS","11:00","13:00","1","60",
"27.11.08","4","077353","1192","110","Engineering ","","0","E1 Heck Param - Began updating Test Spec after review, assisted coder with MY get from PIDT","7:00","11:00","4","0",
"27.11.08","4","077353","1914","110","Engineering ","","0","Waiting for Authoring on minor changes to script and CTS","11:00","13:00","1","60",
"28.11.08","5","077353","1235","140","Test","","0","E1 Verstarker - Re Tested all TC's after bugfixing done on CTS.","7:00","13:00","6","0",
"28.11.08","5","077353","1192","110","Engineering ","","0","E1 Heck Param -  Completed test specification after review, added simulations","13:00","16:00","2","60",
