"15.12.08","1","077353","2177","110","Engineering ","","0","Further documentation","7:00","10:00","3","0",
"15.12.08","1","077353","1082","110","Engineering ","","0","E1 runtime updates, assisting other employees.","10:00","14:00","4","0",
"15.12.08","1","077472","781","110","Engineering ","","0","Ferrai CTs deliveries","14:00","16:00","1","60",
"16.12.08","2","077598","0","910","Urlaub","","0","Public Holiday","7:00","16:00","9","0",
"17.12.08","3","077353","1082","110","Engineering ","","0","Testing internationalization. Eventually found ODX project is broken.","7:00","16:00","9","0",
"18.12.08","4","077353","2177","110","Engineering ","","0","Documenting all scripts used for internationalization.","7:00","13:00","6","0",
"18.12.08","4","077472","781","110","Engineering ","","0","Assisting f4 with questions regarding NCR.","13:00","14:00","1","0",
"18.12.08","4","077353","1077","110","Engineering ","","0","Arrangements for S43, S47, S50 trip to DSA.","14:00","16:00","1","60",
"19.12.08","5","077353","1077","110","Engineering ","","0","Timesheet generation and checking, server backups.","7:00","13:00","6","0",
"19.12.08","5","077353","2177","110","Engineering ","","0","Updating documents for additional scripts developed.","13:00","16:00","2","60",
