"27.10.08","1","077353","1896","110","Engineering ","","0","Waiting for Porsche ODA Authoring.","7:00","8:00","1","0",
"27.10.08","1","077353","1232","120","Codierung","","0","Reworking CTS's in Verstaerker due to changes being made in specification & testing of services.","8:00","13:00","5","0",
"27.10.08","1","077353","1340","120","Codierung","","0","Creating string resources and began implementation of UC_E1_WZH_TeachRemoteControl.001.","13:00","16:00","2","60",
"28.10.08","2","077353","1896","110","Engineering ","","0","Waiting for Porsche ODA Authoring.","7:00","8:00","1","0",
"28.10.08","2","077353","1232","120","Codierung","","0","Spent time testing  PAG E1 Verstarker UC_E1_PCM2_ExtAmp_AudiotestSelftest.003 with services changing","8:00","16:00","7","60",
"29.10.08","3","077353","1896","110","Engineering ","","0","Waiting for Porsche ODA Authoring.","7:00","8:00","1","0",
"29.10.08","3","077353","1232","120","Codierung","","0","Reworking CTS's in Verstaerker due to changes being made in specification & testing of services.","8:00","11:00","3","0",
"29.10.08","3","077353","1340","120","Codierung","","0","Implentation of PAG_MIG_E1_WZH_TeachRemoteControl.","11:00","13:00","2","0",
"29.10.08","3","077353","1356","185","Service","","0","Correcting bugs in PCM_Wakeup.","13:00","16:00","2","60",
"30.10.08","4","077353","1896","110","Engineering ","","0","Waiting for Porsche ODA Authoring.","7:00","8:00","1","0",
"30.10.08","4","077353","1356","185","Service","","0","Completed correcting bugs in PCM_Wakeup.","8:00","11:00","3","0",
"30.10.08","4","077353","1340","120","Codierung","","0","Implentation of PAG_MIG_E1_WZH_TeachRemoteControl.","11:00","13:00","2","0",
"30.10.08","4","077353","1232","120","Codierung","","0","Reworking CTS's in Verstaerker due to changes being made in specification & testing of services.","13:00","16:00","2","60",
"31.10.08","5","077353","1896","110","Engineering ","","0","Waiting for Porsche ODA Authoring.","7:00","8:00","1","0",
"31.10.08","5","077353","1232","120","Codierung","","0","Reworking CTS's in Verstaerker due to changes being made in specification & testing of services.","8:00","12:00","4","0",
"31.10.08","5","077353","1340","120","Codierung","","0","Implentation of PAG_MIG_E1_WZH_TeachRemoteControl.","12:00","16:00","3","60",
