"15.09.08","1","077353","1086","110","Engineering ","","0","E1 Airbag locking: Documentation almost complete, need to have open issues fixed to complete buslog.","7:00","9:00","2","0",
"15.09.08","1","077353","1086","110","Engineering ","","0","E1 Airbag locking: Documentation almost complete, need to have open issues fixed to complete buslog.","9:00","16:00","6","60",
"16.09.08","2","077472","593","110","Engineering ","","0","F149 NQS Worked on test specification, added CTS 002 Speed Controls.","7:00","16:00","8","60",
"17.09.08","3","077472","566","110","Engineering ","","0","F149 NFAM Documentation: Did navigation section, should complete rest of document tomorrow.,","7:00","11:00","4","0",
"17.09.08","3","077472","593","110","Engineering ","","0","F149 NQS Documentation: 80% completed, just numbering and simulation references left over.","11:00","16:00","4","60",
"18.09.08","4","077472","566","110","Engineering ","","0","F149 NFAM Documentation 95% completed, only need to do heading messages ","7:00","16:00","8","60",
"19.09.08","5","077472","566","110","Engineering ","","100","F149 NFAM NFAS Documentation completed.","7:00","9:00","2","0",
"19.09.08","5","077472","593","110","Engineering ","","100","Ferrari F149 NQS Documentation completed.","9:00","16:00","6","60",
