"24.11.08","1","077353","1235","140","Test","","100","E1 M5: PCM Verstärker Test against Simulations","7:00","16:00","8","60",
"25.11.08","2","077353","1087","110","Engineering ","","0","E1 M5:PCM Verstärker Test against Simulations","7:00","12:00","5","0",
"25.11.08","2","077353","1714","110","Engineering ","","0","E1Kombi: Updating Test Specification Bus Logging fro new simulations","12:00","16:00","3","60",
"26.11.08","3","077353","1087","110","Engineering ","","0","weekly meeting from 7:00 to 8:00","7:00","8:00","1","0",
"26.11.08","3","077353","1714","110","Engineering ","","0","E1Kombi: Updating Test Specification Bus Logging for new simulations","8:00","16:00","7","60",
"27.11.08","4","077353","1714","110","Engineering ","","0","E1Kombi: Updating Bus Logging using CTS in Authoring","7:00","16:00","8","60",
"28.11.08","5","077353","1087","110","Engineering ","","0","E1 M5:Reviewing Bug fixed CTS for PCM Verstärker Test against Simulations","7:00","16:00","8","60",
