"29.09.08","1","077353","1209","120","Codierung","","0","PAG E1 Kessy_LearnKessy, Key, ELV : CTS implementation","7:00","14:00","6","60",
"30.09.08","2","077353","1209","120","Codierung","","100","PAG E1 Kessy : CTS implementation, Changes for exporting","7:00","13:00","6","0",
"30.09.08","2","077472","597","140","Test","","0","Installing DEIS and preparing for testing","13:00","16:00","2","60",
"01.10.08","3","077472","597","140","Test","","0","Testing F149 NQS against specification","7:00","9:00","1","60",
"02.10.08","4","077472","597","140","Test","","100","Completed - NOK","7:00","11:00","4","0",
"02.10.08","4","077472","805","140","Test","","0","Testing F149 NVO against specification","11:00","13:00","1","60",
"03.10.08","5","077353","1090","110","Engineering ","","0","Debugging GESIC problems","7:00","12:00","5","0",
"03.10.08","5","077472","805","140","Test","","0","F149 NVO testing against specification","12:00","16:00","3","60",
