"20.10.08","1","077472","609","110","Engineering ","","0","writing test specification for F149 NAB","7:00","16:00","8","60",
"21.10.08","2","077472","609","110","Engineering ","","100","Completed","7:00","13:00","6","0",
"21.10.08","2","077472","789","110","Engineering ","","0","Made changes to general message and service handler and how to document","13:00","16:00","2","60",
"22.10.08","3","077353","1964","130","Installation + Konfiguration","","100","Completed: Also did testing against spec","7:00","9:00","2","0",
"22.10.08","3","077472","789","110","Engineering ","","0","Added to Ferrari General Service and Message Handlers","9:00","12:00","3","0",
"22.10.08","3","077353","1918","110","Engineering ","","0","","12:00","14:00","1","60",
"23.10.08","4","077353","1883","140","Test","","0","Started but discovered ODX problem and had to stop","7:00","8:00","1","0",
"23.10.08","4","077353","1090","110","Engineering ","","0","Worked on scripts to request ignition status, with S48 (training)","8:00","16:00","7","60",
"24.10.08","5","077353","1090","110","Engineering ","","0","Worked on scripts for requesting ignition status with S48, E1 project","7:00","11:00","4","0",
"24.10.08","5","077472","789","110","Engineering ","","0","Worked on General Message and Service Handler and Service Tester","11:00","16:00","4","60",
