"29.09.08","1","077353","1084","110","Engineering ","","0","Waiting for Authoring","7:00","9:00","2","0",
"29.09.08","1","077353","1084","110","Engineering ","","0","Waiting for Authoring","9:00","13:00","4","0",
"29.09.08","1","077353","1084","110","Engineering ","","0","Waiting for Authoring","13:00","16:00","2","60",
"30.09.08","2","077353","1084","110","Engineering ","","0","Waiting for Authoring","7:00","8:00","1","0",
"30.09.08","2","077353","1084","110","Engineering ","","0","Waiting for Authoring","8:00","15:00","6","60",
"01.10.08","3","077353","1084","110","Engineering ","","0","Waiting for GESIC","7:00","9:00","2","0",
"01.10.08","3","077353","1084","110","Engineering ","","0","Waiting for GESIC","9:00","10:00","1","0",
"01.10.08","3","077353","1134","110","Engineering ","","0","GESIC coding: GESIC_GetAutoExitDiagFlagFromInfoMap. GESIC_GetGlobalInfoMap. GESIC_GetGroupMap.. Code for multiple DBLocations","10:00","14:00","3","60",
