"01.12.08","1","077353","2488","140","Test","","0","Cleaning up documentation for Verstarker and WZH & tried to export new PAG_BASIC_Application_Start.","7:00","16:00","8","60",
"02.12.08","2","077353","1085","110","Engineering ","","0","Fixing previous Porsche documentation & installation of new Prodis Authoring & PIDT.","7:00","13:00","6","0",
"02.12.08","2","077472","784","110","Engineering ","","0","Completed script for Ferrari NBC ReadIdentifications (Proxy).","13:00","16:00","2","60",
"03.12.08","3","077353","2488","140","Test","","0","Regression testing on various Cts's.","7:00","16:00","8","60",
"04.12.08","4","077353","1896","110","Engineering ","","0","Waiting for Porsche Authoring.","7:00","9:00","2","0",
"04.12.08","4","077353","2488","140","Test","","0","Regression testing on PAG E1 Sonderfunktion Cts's.","9:00","16:00","6","60",
"05.12.08","5","077353","1896","110","Engineering ","","0","Waiting for Porsche Authoring.","7:00","8:00","1","0",
"05.12.08","5","077353","2488","140","Test","","0","Regression testing on PAG E1 Kombi_ZeitAbInspektion Cts.","8:00","13:00","5","0",
"05.12.08","5","077353","2393","190","Optimierung bei bestehenden Sys.","","0","Ensuring that PAG E1 Kombi_ZeitAbInspektion works according to updated PIDT & Authoring.","13:00","16:00","2","60",
