"08.09.08","1","077353","1159","120","Codierung","","0","PAG E1 Airbag  lockairbag CTS implementation","7:00","16:00","8","60",
"09.09.08","2","077353","1159","120","Codierung","","0","PAG E1 Airbag_lockairbag : CTS implementation","7:00","16:00","8","60",
"10.09.08","3","077353","1208","120","Codierung","","0","PAG E1 Kessy_LearnKessy : CTS implementation","7:00","16:00","8","60",
"11.09.08","4","077353","1208","120","Codierung","","0","PAG E1 Kessy_LearnKessy : CTS implementation","7:00","16:00","8","60",
"12.09.08","5","077353","1208","120","Codierung","","0","PAG E1 Kessy_LearnKessy : CTS implementation","7:00","16:00","8","60",
