"07.11.08","5","077615","184","170","Schulung","","0","Introduction to CTS","7:00","9:00","2","0",
"07.11.08","5","077615","185","170","Schulung","","0","Introduction to systematic testing","9:00","12:00","3","0",
"07.11.08","5","077615","186","170","Schulung","","0","Introduction to QF testing","12:00","16:00","3","60",
