"10.11.08","1","077353","1084","110","Engineering ","","0","Server Updates. PAGMIG DB import. Deployed new Authoring.","7:00","16:00","8","60",
"11.11.08","2","077353","1810","185","Service","","0","Script Transfer-Data: Bugfixing: Updated script to detect file format 70%.","7:00","14:00","7","0",
"11.11.08","2","077353","1915","110","Engineering ","","0","","14:00","16:00","1","60",
"12.11.08","3","077353","1810","185","Service","","0","Script Transfer-Data: Bugfixing nach Test: rework complete","7:00","12:00","5","0",
"12.11.08","3","077353","1719","120","Codierung","","0","Kombi Wartungsint schr: Impl 90% complete","12:00","14:00","2","0",
"12.11.08","3","077353","1915","110","Engineering ","","0","","14:00","16:00","1","60",
"13.11.08","4","077353","1719","120","Codierung","","0","1 M5: Kombi Wartungsint schr: Impl 95% complete, Sim 50% complete","7:00","14:00","7","0",
"13.11.08","4","077353","1915","110","Engineering ","","0","","14:00","16:00","1","60",
"14.11.08","5","077353","1719","120","Codierung","","0","E1 M5: Kombi Wartungsint schr: COMPLETE","7:00","14:00","7","0",
"14.11.08","5","077353","1915","110","Engineering ","","0","Porsche - Waiting for Authoring","14:00","16:00","1","60",
