"01.12.08","1","077472","860","110","Engineering ","","0","Exploring source code for Authoring program","7:00","8:00","1","0",
"01.12.08","1","077472","954","140","Test","","0","Continued testing of NPP CTS against simulation","8:00","13:00","5","0",
"01.12.08","1","077472","860","110","Engineering ","","0","Exploring source code for Authoring program","13:00","16:00","2","60",
"02.12.08","2","077472","860","110","Engineering ","","0","Reading through OET users guide","7:00","8:00","1","0",
"02.12.08","2","077472","946","140","Test","","0","Continued testing NPG CTS against simulation","8:00","14:00","6","0",
"02.12.08","2","077472","860","110","Engineering ","","0","Reading through OET users guide","14:00","16:00","1","60",
"03.12.08","3","077472","860","110","Engineering ","","0","Experimenting with NPG simulation file","7:00","8:00","1","0",
"03.12.08","3","077472","946","140","Test","","0","Continued testing NPG CTS against simulation","8:00","16:00","7","60",
"04.12.08","4","077472","860","110","Engineering ","","0","Looking at source code for NPP CTS as alternative to implementation","7:00","9:00","2","0",
"04.12.08","4","077472","946","140","Test","","0","Completed testing NPG CTS against simulation","9:00","13:00","4","0",
"04.12.08","4","077472","1078","185","Service","","0","Fixing error message bug on gear check CTS","13:00","16:00","2","60",
"05.12.08","5","077472","860","110","Engineering ","","0","","7:00","16:00","8","60",
