"27.10.08","1","077353","1292","120","Codierung","","100","Complete","7:00","13:00","6","0",
"27.10.08","1","077353","1196","120","Codierung","","0","E1 Heck: Started CTS Implementation.","13:00","16:00","2","60",
"28.10.08","2","077353","1196","120","Codierung","","0","E1: Heckstg CTS Implementation","7:00","16:00","8","60",
"29.10.08","3","077353","1196","120","Codierung","","0","E1: Heckstg CTS Implementation","7:00","16:00","8","60",
"30.10.08","4","077353","1196","120","Codierung","","0","E1: Heck CTS Implementation. 85% complete.","7:00","16:00","8","60",
"31.10.08","5","077353","1196","120","Codierung","","0","E1: Heckstg CTS Implementation nearing completion.","7:00","16:00","8","60",
