"10.11.08","1","077353","1249","140","Test","","100","Complete auto test","7:00","16:00","8","60",
"11.11.08","2","077353","1249","140","Test","","0","debug auto test","7:00","16:00","8","60",
"12.11.08","3","077353","1249","140","Test","","100","Complete auto test","7:00","12:00","5","0",
"12.11.08","3","077353","1321","140","Test","","0","auto test","12:00","16:00","3","60",
