"27.10.08","1","077353","1918","110","Engineering ","","0","Waiting for authoring","7:00","8:00","1","0",
"27.10.08","1","077472","789","110","Engineering ","","0","Implementing F141 NPP Central Locking and Window Movement","8:00","16:00","7","60",
"28.10.08","2","077472","789","110","Engineering ","","0","Implementing F141 NPP Mirror Movement and Door Light","7:00","12:00","5","0",
"28.10.08","2","077598","0","920","Krankheit","","0","Docots appointment","12:00","16:00","3","60",
"30.10.08","4","077472","854","110","Engineering ","","0","Writing F141 NAG Tesp Spec","7:00","9:00","2","0",
"30.10.08","4","077472","855","110","Engineering ","","0","Writing F141 NAP Test Spec","9:00","11:00","2","0",
"30.10.08","4","077472","789","110","Engineering ","","0","Minor changes to F141 NPP CTS","11:00","14:00","3","0",
"30.10.08","4","077472","789","110","Engineering ","","0","Minor changes to F141 NPP CTS","14:00","16:00","1","60",
"31.10.08","5","077472","789","110","Engineering ","","0","writing test specification for F141 NPP","7:00","10:00","3","0",
"31.10.08","5","077353","1883","140","Test","","0","Working on Ferrari General Service and Message Handler","10:00","16:00","5","60",
