"15.09.08","1","077353","1208","120","Codierung","","0","PAG E1 Kessy_Learn_ELV : CTS implementation","7:00","11:00","4","0",
"15.09.08","1","077353","1208","120","Codierung","","0","PAG E1 Kessy_Learn_ELV : CTS implementation","11:00","14:00","3","0",
"15.09.08","1","077353","1159","120","Codierung","","0","PAG E1 Airbag_lockairbag : CTS implementation","14:00","16:00","1","60",
"16.09.08","2","077472","773","110","Engineering ","","0","F149 NVO - Wrote test specication for Volume and Scan button CTS and Knob position CTS, plus sims","7:00","16:00","8","60",
"17.09.08","3","077472","773","110","Engineering ","","0","F149 NVO - Wrote test specication for Volume and Scan button CTS and Knob position CTS, plus sims","7:00","16:00","8","60",
"18.09.08","4","077472","773","110","Engineering ","","0","F149 NVO - Wrote test specication for Backlight and Crown LEDs TS, plus sims","7:00","16:00","8","60",
"19.09.08","5","077472","773","110","Engineering ","","100","Task Edited","7:00","16:00","8","60",
