"15.12.08","1","077353","1199","140","Test","","0","E1 Heck: Testing Against Simulations for bug fixed Heck CTS ","7:00","16:00","8","60",
"16.12.08","2","077598","0","910","Urlaub","","0","Holiday on December 16","7:00","16:00","9","0",
"17.12.08","3","077353","1283","140","Test","","0","E1 PDC: Testing against simulations the bug fixed PDC CTS","7:00","16:00","8","60",
"18.12.08","4","077353","1954","130","Installation + Konfiguration","","0","E1 Heck: Packaging Heck for delivering","7:00","11:00","4","0",
"18.12.08","4","077353","1981","130","Installation + Konfiguration","","0","E1 PDC: Packaging PDC for delivering","11:00","16:00","4","60",
"19.12.08","5","077353","1087","110","Engineering ","","0","E1 PDC: Debuging PDC open issue in Authoring","7:00","16:00","8","60",
