"08.12.08","1","077472","860","110","Engineering ","","0","Bugfixing NPG to work in the DEIS environment, Bugfixing NPP CTS, Studying NPP as template for impl ","7:00","16:00","8","60",
"09.12.08","2","077472","860","110","Engineering ","","0","Bugfixing NPG CTS, Creating NBC sim file, Studying NPP for future impl, Studying Internation documen","7:00","16:00","8","60",
"10.12.08","3","077472","860","110","Engineering ","","0","Studying NPP implementation as template for NBC","7:00","8:00","1","0",
"10.12.08","3","077472","1096","120","Codierung","","0","Modifying NBC sim file and testing in OET","8:00","11:00","3","0",
"10.12.08","3","077472","1097","120","Codierung","","0","Continued implementing NBC CTS","11:00","16:00","4","60",
"11.12.08","4","077472","1096","120","Codierung","","0","Changed NBC sim file to work for services in new NBC specification","7:00","9:00","2","0",
"11.12.08","4","077472","860","110","Engineering ","","0","Services in NBC Spec not implementable, requested new ODX","9:00","10:00","1","0",
"11.12.08","4","077472","1097","120","Codierung","","0","Continued implementing NBC CTS","10:00","16:00","5","60",
"12.12.08","5","077472","1097","120","Codierung","","0","Continued implementing NBC CTS","7:00","13:00","6","0",
"12.12.08","5","077472","1096","120","Codierung","","0","Modifying NBC sim file and testing in OET","13:00","16:00","2","60",
