"29.09.08","1","077353","1086","110","Engineering ","","0","E1 Airbag Locking: Created deliverable ZIP file, containing all the required folders and files.","7:00","10:00","3","0",
"29.09.08","1","077353","1256","120","Codierung","","0","E1 PCM2MMI: Continued with CTS implementation","10:00","16:00","5","60",
"30.09.08","2","077353","1256","120","Codierung","","0","E1 PCM2MMI: Continued with CTS implementation","7:00","13:00","6","0",
"30.09.08","2","077353","1086","110","Engineering ","","0","E1 PCM2MMI: Waiting for Authoring (saving, errors, etc)","13:00","16:00","2","60",
"01.10.08","3","077353","1256","120","Codierung","","0","E1: PCM2MMI: Implementation of CTS - need to still do some bug fixing.","7:00","9:00","2","0",
"01.10.08","3","077353","1256","120","Codierung","","0","E1: PCM2MMI: Implementation of CTS - need to still do some bug fixing.","9:00","16:00","6","60",
"02.10.08","4","077353","1256","120","Codierung","","0","E1: PCM2MMI: Made changes from old version to new version, and did more implementation","7:00","10:00","3","0",
"02.10.08","4","077472","653","140","Test","","0","F149:NFR Testing against simulation: Nearing completion of testing, found errors","10:00","16:00","5","60",
"03.10.08","5","077353","1086","110","Engineering ","","0","E1: Meeting regarding current issues surrounding the projects we are working on.","7:00","8:00","1","0",
"03.10.08","5","077472","653","140","Test","","0","F149:NFR Testing against simulation: Noted required changes to test spec, simulations. ","8:00","11:00","3","0",
"03.10.08","5","077472","785","110","Engineering ","","0","F149 NFR: Made changes to simulation menu tags as required by test spec.","11:00","12:00","1","0",
"03.10.08","5","077353","1256","120","Codierung","","0","E1: PCM2MMI: Further implementation of CTS","12:00","16:00","3","60",
