"27.10.08","1","077353","1087","110","Engineering ","","0","Creating CTS for Tesitng execution of Services","7:00","15:00","8","0",
"28.10.08","2","077353","1714","110","Engineering ","","0","E1 Kombi:Creating simulations for Job_Anpassung_Writ fro Kombi CTS","7:00","15:00","8","0",
"29.10.08","3","077472","786","110","Engineering ","","0","F149 NCR: Correcting test Spec  for NCR ","7:00","15:00","8","0",
"30.10.08","4","077353","1304","120","Codierung","","0","E1 RDK:Making  Implemantation changes in error handler of RDK CTS","7:00","15:00","8","0",
"31.10.08","5","077353","1087","110","Engineering ","","0","E1 RDK: Doing Test Against simulation for RDK RadsatzSchreiben","7:00","15:00","8","0",
