"17.11.08","1","077353","1088","110","Engineering ","","0","E1 AWS System Test : Final Testing After minor Bug Fixing - E1 AWS System Test : Packaging","7:00","11:00","4","0",
"17.11.08","1","077353","1088","110","Engineering ","","0","E1 AWS System Test : Final Testing After minor Bug Fixing - E1 AWS System Test : Packaging","11:00","16:00","4","60",
"18.11.08","2","077353","1088","110","Engineering ","","0","E1_Kessy_LearnKessy : Test Specification Review before testing","7:00","11:00","4","0",
"18.11.08","2","077353","1718","110","Engineering ","","0","E1_2008_Kombiinstrument_WartungsintervalSchreiben: Test Specification review","11:00","17:00","5","60",
"19.11.08","3","077353","1088","110","Engineering ","","0","Ferrari Test Spec Training(2hr)-Meeting(1hr)-RDK Rad RadsatzSchreiben repackage(1hr)               ","7:00","11:00","4","0",
"19.11.08","3","077353","1718","110","Engineering ","","0","E1_2008_Kombiinstrument_WartungsintervalSchreiben: Test Specification review","11:00","14:00","3","0",
"19.11.08","3","077353","1718","110","Engineering ","","0","E1_2008_Kombiinstrument_WartungsintervalSchreiben: Test Specification review","14:00","16:00","1","60",
"20.11.08","4","077353","1088","110","Engineering ","","0","E1_Kessy_LearnKessy : Test vs Simulation","7:00","16:00","8","60",
"21.11.08","5","077353","1088","110","Engineering ","","0","E1_Kessy_LearnKessy : Test vs Simulation","7:00","16:00","8","60",
