"09.02.09","1","077353","1083","110","Engineering ","","0","See E-mail - Timesheets s42 - Week 7 - 2009","7:00","16:00","8","60",
"10.02.09","2","077353","1083","110","Engineering ","","0","See E-mail - Timesheets s42 - Week 7 - 2009","7:00","16:00","8","60",
"11.02.09","3","077353","1083","110","Engineering ","","0","See E-mail - Timesheets s42 - Week 7 - 2009","7:00","16:00","8","60",
"12.02.09","4","077353","1083","110","Engineering ","","0","See E-mail - Timesheets s42 - Week 7 - 2009","7:00","16:00","8","60",
"13.02.09","5","077353","1083","110","Engineering ","","0","See E-mail - Timesheets s42 - Week 7 - 2009","7:00","16:00","8","60",
