"23.11.09","1","077353","11764","120","Codierung","","90"," 5806: E1 M5: CDR23-GW: MOST Sollverbauliste: ODX-Bedatung. Attempted to fix bug 19962 (ODX Related)","07:00","16:00","3,5","60",
"23.11.09","1","077353","11755","110","Engineering","","100","5805: E1 M5: CDR23-GW: MOST-Istverbauliste (GESiC): PH. Created the PH from implementation","","","0,5","0",
"23.11.09","1","077353","1897","110","Engineering","","0","8185: Warten auf Authoring (Performance-Probleme bei Ausführung). ODX authoring export","","","4","0",
"24.11.09","2","077353","11753","140","Test","","20","5803: E1 M5: CDR23-GW: SG-Tausch: Modultest. Tested the option items and simulations","07:00","16:00","4","60",
"24.11.09","2","077353","11221","110","Engineering","","70","5803: E1 M5: CDR23-GW: SG-Tausch: Testspec + erw. Sim.. Started to rework the test spec","","","4","0",
"25.11.09","3","077353","11753","140","Test","","25"," 5803: E1 M5: CDR23-GW: SG-Tausch: Modultest. Testing against simulation","07:00","16:00","3","60",
"25.11.09","3","077353","11754","181","Fehlerbes. vor Ausl. (Bugzilla)","","25","5803: E1 M5: CDR23-GW: SG-Tausch: Bugfixing zum Modultest. Bugfixing according to testing","","","2","0",
"25.11.09","3","077353","10611","170","Schulung","","0","8501: E1 M5: Assisting colleagues","","","1","0",
"25.11.09","3","077353","11758","120","Codierung","","0","	 5805: E1 M5: CDR23-GW: MOST-Istverbauliste (GESiC): ODX-Bedatung. Updated ODX according to bug 19962","","","2","0",
"26.11.09","4","077353","11753","140","Test","","50","5803: E1 M5: CDR23-GW: SG-Tausch: Modultest. Testing against simulation","07:00","16:00","3","60",
"26.11.09","4","077353","11754","181","Fehlerbes. vor Ausl. (Bugzilla)","","50","5803: E1 M5: CDR23-GW: SG-Tausch: Bugfixing zum Modultes. Bugfixing during testing","","","2","0",
"26.11.09","4","077353","10611","170","Schulung","","0","8501: E1 M5: Assisting colleagues","","","1,5","0",
"26.11.09","4","077353","1897","110","Engineering","","0","8185: Warten auf Authoring (Performance-Probleme bei Ausführung)","","","1,5","0",
"27.11.09","5","077353","11755","110","Engineering","","100","5805: E1 M5: CDR23-GW: MOST-Istverbauliste (GESiC): PH. Completed","07:00","16:00","0","60",
"27.11.09","5","077353","11764","120","Codierung","","100","5806: E1 M5: CDR23-GW: MOST Sollverbauliste: ODX-Bedatung. There seemed to be no issues regarding this.","","","0","0",
"27.11.09","5","077353","11752","110","Engineering","","100","5803: E1 M5: CDR23-GW: SG-Tausch: Implementierung. Completed","","","0","0",
"27.11.09","5","077353","11753","140","Test","","90","5803: E1 M5: CDR23-GW: SG-Tausch: Modultest. Testing against simulation, having PTTD issues.","","","3","0",
"27.11.09","5","077353","11754","181","Fehlerbes. vor Ausl. (Bugzilla)","","90","5803: E1 M5: CDR23-GW: SG-Tausch: Bugfixing zum Modultest. Bugfixing as per testing","","","3","0",
"27.11.09","5","077353","11758","120","Codierung","","100","5805: E1 M5: CDR23-GW: MOST-Istverbauliste (GESiC): ODX-Bedatung. Completed.","","","0","0",
"27.11.09","5","077353","1897","110","Engineering","","0","8185: Warten auf Authoring (Performance-Probleme bei Ausführung). Waiting for authoring installation and deliverable problems.","","","1","0",
"27.11.09","5","077353","10611","170","Schulung","","0","8501: E1 M5: Assisting colleagues. General colleague assistance.","","","1","0",
