"14.09.09","1","077353","1087","110","Engineering","","0","Bug fixing E1_PASM_Calibration CTS","07:00","16:00","8","60",
"15.09.09","2","077251","3169","110","Engineering","","0","Updating PASM_Calibration CTS due to PH being changed","07:00","16:00","8","60",
"16.09.09","3","077353","1087","110","Engineering","","0","Creating Test Spec and Simulations for PASM_Calibration","07:00","16:00","8","60",
"17.09.09","4","077353","1087","110","Engineering","","0","Creating Test Spec and Simulations for PASM_Calibration","07:00","16:00","8","60",
"18.09.09","5","077251","3169","110","Engineering","","0","Updating PASM_Calibration CTS due to PH being changed","07:00","16:00","8","60",
