"08.06.09","1","077472","1710","110","Engineering","","100","F141 NBC Body Computer: PH überarbeiten","07:00","16:00","1","60",
"08.06.09","1","077472","1629","185","Service","","85","F141 AWS Gewicht Airbag: Bugfixing nach Tets /Sim B22.8/ae15","","","2","0",
"08.06.09","1","077472","0","110","Engineering","","0","F141 NBC Body Computer: TestSpec rework","","","5","0",
"09.06.09","2","077472","1629","185","Service","","90","F141 AWS Gewicht Airbag: Bugfixing nach Tets /Sim B22.8/ae15","07:00","16:00","3","60",
"09.06.09","2","077472","859","110","Engineering","","0","Allg. Projekttätigkeiten A1.6/ae15","","","1","0",
"09.06.09","2","077472","0","110","Engineering","","0","F141 NBC Body Computer: TestSpec rework","","","1","0",
"09.06.09","2","077472","0","110","Engineering","","0","F141 NBC Simulation setup","","","3","0",
"10.06.09","3","077472","1629","185","Service","","95","F141 AWS Gewicht Airbag: Bugfixing nach Tets /Sim B22.8/ae15","07:00","16:00","1","60",
"10.06.09","3","077472","0","110","Engineering","","0","F141 NBC Simulation setup","","","7","0",
"11.06.09","4","077472","1629","185","Service","","100","F141 AWS Gewicht Airbag: Bugfixing nach Tets /Sim B22.8/ae15","07:00","16:00","2","60",
"11.06.09","4","077472","859","110","Engineering","","0","Allg. Projekttätigkeiten A1.6/ae15","","","1","0",
"11.06.09","4","077472","0","110","Engineering","","0","F141 NBC Simulation setup","","","5","0",
"12.06.09","5","077472","859","110","Engineering","","0","Allg. Projekttätigkeiten A1.6/ae15","07:00","16:00","0,5","60",
"12.06.09","5","077472","0","110","Engineering","","0","F141 NBC Simulation setup","","","7,5","0",
