"13.07.09","1","09.00052","24","170","Schulung","","0","ODX Authoring Training","08:50","17:20","6","30",
"13.07.09","1","077353","8188","120","Codierung","","0","E1 - RDK Read Wheel ID ECU Job Testing","","","2","0",
"14.07.09","2","077353","6631","190","Optimierung bei bestehenden Sys.","","100","Bug 17841 E1_ME711_Kurztests","08:50","17:20","2","30",
"14.07.09","2","077353","6631","190","Optimierung bei bestehenden Sys.","","0","17994 E1_DME_Shorttests","","","2","0",
"14.07.09","2","077353","6631","190","Optimierung bei bestehenden Sys.","","0","Bug 17996 E1_DME_Shorttests","","","1","0",
"14.07.09","2","077353","8129","190","Optimierung bei bestehenden Sys.","","0","Bug 18002 E1_KLIMA_Kalibrierung","","","1","0",
"14.07.09","2","077353","7825","110","Engineering","","100","5523: E1 M5: Heck-SG: SG-Tausch: PH Review  Already Done","","","0","0",
"14.07.09","2","077353","7830","120","Codierung","","100","5523: E1 M5: Heck-SG: SG-Tausch: Single-ECU-Job Not needed","","","0","0",
"14.07.09","2","077353","1088","110","Engineering","","0","Get into subject ODX Test Specifications","","","2","0",
"15.07.09","3","077353","1088","110","Engineering","","0","Get into subject PTTD Text Mapping","08:50","17:20","4","30",
"15.07.09","3","077353","7734","110","Engineering","","0","E1 PDCC Kodier: TestSpec + erw. Sim.","","","4","0",
"16.07.09","4","077353","7734","110","Engineering","","100","E1 PDCC Kodier: TestSpec + erw. Sim.","08:50","17:20","4","30",
"16.07.09","4","077353","1088","110","Engineering","","0","PAGMIG Meeting","","","1","0",
"16.07.09","4","077353","7781","110","Engineering","","100","E1ORS Kodier: TestSpec + erw. Sim.","","","3","0",
"16.07.09","4","077353","7735","190","Optimierung bei bestehenden Sys.","","100","E1 PDCC: Gen ODX-Bedat: Kodier: No Bugs need fixing","","","0","0",
"17.07.09","5","077353","7736","140","Test","","100","E1 PDCC: Gen ODX-Bedat: Kodier: Modultest","08:50","17:20","4","30",
"17.07.09","5","077353","7782","140","Test","","0","E1 ORS: Gen ODX-Bedat: Kodier: Modultest","","","4","0",
