"12.01.09","1","077472","861","110","Engineering ","","0","Ferrari F149 NCM implementation.","7:00","16:00","8","60",
"13.01.09","2","077472","861","110","Engineering ","","0","Ferrari F149 NCM implementation.","7:00","16:00","8","60",
"14.01.09","3","077472","861","110","Engineering ","","0","Ferrari F149 NCM implementation.","7:00","16:00","8","60",
"15.01.09","4","077472","861","110","Engineering ","","0","Ferrari F149 NCM implementation.","7:00","16:00","8","60",
"16.01.09","5","077472","861","110","Engineering ","","0","Implementing Ferrari F149 NCM.","7:00","16:00","8","60",
