"17.08.09","1","077353","9238","120","Codierung","","90"," 5368: E1 M5: SWSG: SG-Tausch: Implementierung Implemented step3 to step 8.","07:00","16:00","5","60",
"17.08.09","1","077353","7687","110","Engineering","","0","8501: E1 M5: allg. Projekttätigkeiten: ODX training and studied Gesic XML creation.","","","3","0",
"18.08.09","2","077353","7687","110","Engineering","","0","8501: E1 M5: allg. Projekttätigkeiten: Posted bug #18711, installed Authoring 4 and general meeting.","07:00","16:00","4","60",
"18.08.09","2","077353","9238","120","Codierung","","100","5368: E1 M5: SWSG: SG-Tausch: Implementierung: Testing GESIC sequence execution and error handling.","","","4","0",
"19.08.09","3","077353","7687","110","Engineering","","0"," 8501: E1 M5: allg. Projekttätigkeiten: Meeting, testing Authoring installation, read documentation.","07:00","16:00","6","60",
"19.08.09","3","077353","0","181","Fehlerbes. vor Ausl. (Bugzilla)","","20","PAG_E1_ME711_MED91_Fahrzeugdaten_Auslesen   Bugfixing  #15687 Tested simulations for services.","","","2","0",
"20.08.09","4","077353","7687","110","Engineering","","0","8501: E1 M5: allg. Projekttätigkeiten: Meeting, software resources maintenance reading ODA basics.","07:00","16:00","2","60",
"20.08.09","4","077353","0","181","Fehlerbes. vor Ausl. (Bugzilla)","","60","Module Testing and fixing Bug# 15687: PAG_E1_ME711_MED91_Fahrzeugdaten_Auslesen Step 1 to step 11","","","6","0",
"21.08.09","5","077353","10045","140","Test","","100","5368: E1 M5: SWSG: SG-Tausch: Modultest:Tested the  PRE_WRITE CTS using the correct MOTS document.","07:00","16:00","2","60",
"21.08.09","5","077353","9240","181","Fehlerbes. vor Ausl. (Bugzilla)","","99","5368: E1 M5: SWSG: SG-Tausch: Bugfixing zum Modultest: Fixed bugs according to the MOTR document.","","","3","0",
"21.08.09","5","077353","0","110","Engineering","","0"," 8501: E1 M5: allg. Projekttätigkeiten: Meeting  and resource maintenance (e.g. updated software)","","","2","0",
"21.08.09","5","077353","1","181","Fehlerbes. vor Ausl. (Bugzilla)","","99","Fixed Bug # 15687 on PAG_E1_ME711_MED91_Fahrzeugdaten_Auslesen","","","1","0",
