"20.07.09","1","077472","2104","120","Codierung","","71","Implementing  F141 NCR CTS.","07:00","16:00","7,17","60",
"20.07.09","1","077472","1895","110","Engineering","","0","Waiting for Authoring.","","","0,83","0",
"21.07.09","2","077472","1895","110","Engineering","","0","Waiting for Authoring.","07:00","16:00","1","60",
"21.07.09","2","077472","2104","120","Codierung","","72","Implementing  F141 NCR CTSs.","","","7","0",
"22.07.09","3","077472","2104","120","Codierung","","73","Implementing  F141 NCR CTS.","07:00","16:00","6,75","60",
"22.07.09","3","077472","1895","110","Engineering","","0","Waiting for Authoring.","","","1,25","0",
"23.07.09","4","077472","0","120","Codierung","","25","Creating F141 NCR simulations.","07:00","16:00","2","60",
"23.07.09","4","077472","1895","110","Engineering","","0","Waiting for Authoring.","","","0,63","0",
"23.07.09","4","077472","2104","120","Codierung","","73","Implementing  F141 NCR CTSs.","","","4,37","0",
"23.07.09","4","077472","1722","140","Test","","0","F141 NCR Part 1 - Test vs Simulation","","","1","0",
"24.07.09","5","077472","1722","140","Test","","10","F141 NCR Part 1 - Test vs Simulation","07:00","16:00","8","60",
