"06.07.09","1","077472","0","140","Test","","60","F141 NQS Test vs Simulation","07:00","16:00","3","60",
"06.07.09","1","077472","0","120","Codierung","","30","Implementing  F141 NCR CTSs.","","","4,32","0",
"06.07.09","1","077472","1895","110","Engineering","","0","Waiting for Authoring.","","","0,68","0",
"07.07.09","2","077472","0","140","Test","","85","F141 NQS Test vs Simulation","07:00","16:00","4","60",
"07.07.09","2","077472","0","120","Codierung","","35","Implementing  F141 NCR CTSs.","","","2,82","0",
"07.07.09","2","077472","1895","110","Engineering","","0","Waiting for Authoring.","","","1,18","0",
"08.07.09","3","077472","0","140","Test","","100","F141 NQS Test vs Simulation","07:00","16:00","5,5","60",
"08.07.09","3","077472","1895","110","Engineering","","0","Waiting for Authoring.","","","0,2","0",
"08.07.09","3","077472","0","120","Codierung","","40","Implementing  F141 NCR CTSs.","","","2,3","0",
"09.07.09","4","077472","1895","110","Engineering","","0","Waiting for Authoring.","07:00","16:00","1,28","60",
"09.07.09","4","077472","0","120","Codierung","","45","Implementing  F141 NCR CTSs.","","","6,72","0",
"10.07.09","5","077472","1895","110","Engineering","","0","Waiting for Authoring.","07:00","16:00","1","60",
"10.07.09","5","077472","0","120","Codierung","","50","Implementing  F141 NCR CTSs.","","","7","0",
