"16.02.09","1","077353","1916","110","Engineering ","","0","Waiting For Authoring","7:00","8:00","1","0",
"16.02.09","1","077353","1087","110","Engineering ","","0","G1 Pasm: Implementing G1 Pasm CTS","8:00","16:00","7","60",
"17.02.09","2","077353","1916","110","Engineering ","","0","Waiting For Authoring","7:00","8:00","1","0",
"17.02.09","2","077353","1087","110","Engineering ","","0","G1 Pasm: Implementing G1 Pasm CTS","8:00","16:00","7","60",
"18.02.09","3","077353","1916","110","Engineering ","","0","Waiting For Authoring","7:00","9:00","2","0",
"18.02.09","3","077353","1087","110","Engineering ","","0","G1 Pasm: Implementing G1 Pasm CTS","9:00","10:00","1","0",
"18.02.09","3","077353","1087","110","Engineering ","","0","G1 Pasm: Implementing G1 Pasm CTS","10:00","16:00","5","60",
"19.02.09","4","077353","1916","110","Engineering ","","0","Waiting For Authoring","7:00","9:00","2","0",
"19.02.09","4","077353","1087","110","Engineering ","","0","G1 Pasm: Implementing G1 Pasm CTS","9:00","16:00","6","60",
"20.02.09","5","077353","1916","110","Engineering ","","0","Waiting For Authoring","7:00","9:00","2","0",
"20.02.09","5","077353","1087","110","Engineering ","","0","G1 Pasm: Implementing G1 Pasm CTS","9:00","16:00","6","60",
