DATE;NAME;PROJECT;ACTIVITY;DESCRIPTION;NORMAL HOURS;LUNCH HOURS;OVERTIME HOURS;
01.06.09;Nico Claassen;077251-2058;185;Rework and delivery for G1_PSM_Abgleich_Sensorcluster;3.00;1;0;
01.06.09;Nico Claassen;077251-1545;110;Fixing corrupt decision blocks in APP01A database;1.00;0;0;
01.06.09;Nico Claassen;077251-1545;110;Investigating and fixing bug with MODULE_READ_DTC in cases where not CTS's found.;4;0;0;
01.06.09;Malcolm Vorster;077598-0;910;Holiday;8;1;0;
01.06.09;Graham Meyer;077251-2027;185;BUGFIX: Bug# 16978;8;1;0;
01.06.09;Thando Katywa;077353-4048;120;4369: E1 M5: SWSG: Flashen: Implementierung CTS;7.00;1;0;
01.06.09;Thando Katywa;077353-6170;110;8185: Warten auf Authoring;1;0;0;
01.06.09;Andre Esterhuyse;077251-1373;110;Bugfixing: Assisting colleagues with general bugfixing.;8;1;0;
01.06.09;Ludumo Sankobe;077251-1372;185;Fixed Bug # 16826 CTS PASM::Tausch einer Luftfeder::Befüllen einer Luftfeder;8;1;0;
01.06.09;Paul Helliwell;077251-2059;185;[Bug 17087]  FÜP - [F11] nicht aktiv bei falscher VIN;1.00;1;0;
01.06.09;Paul Helliwell;077251-2059;185;[Bug 17074] Gesamtablauf Kalibrierung:Falsche Fehlermeldung bei fehlendem Service in diff Result;2.00;0;0;
01.06.09;Paul Helliwell;077251-2059;185;[Bug 16792] PASM::Tausch einer  Luftfeder::Entlüften einer Luftfeder;1.00;0;0;
01.06.09;Paul Helliwell;077251-2059;185;[Bug 17039] ICS : FunktionsFreischaltung : 100014 : Unexpected return Code;2.00;0;0;
01.06.09;Paul Helliwell;077251-2059;185;[Bug 16960]  Befüllen einer Luftfeder - erwarteter Fehler nicht aufgetaucht;2;0;0;
01.06.09;Lonwabo Dlova;077373-0;170;E1 - Training - re-implementation PAG_MIG_E1_Airbag_LearnAWS Using modules;8;1;0;
01.06.09;Johannes Geldenhuys;077373-0;170;E1 Airbag CTS rework using modular design;8;1;0;
01.06.09;Brendan van Zyl;077472-1893;110;Waiting for Authoring;0.50;1;0;
01.06.09;Brendan van Zyl;077472-1943;120;F141 AWS Gewicht Airbag: Impl B22.6/ae15 (Zusatz);7.00;0;0;
01.06.09;Brendan van Zyl;077472-859;110;Allg. Projekttätigkeiten A1.6/ae15;0.5;0;0;
01.06.09;Michael Wells;077472-0;120;F141 NVO Implimentation;8;1;0;
01.06.09;Jason Smith;077472-0;140;Testing 141 NQS against simulation;8;1;0;
01.06.09;Justin Jansen Van Vuuren;077472-1623;110;Setting F141 AWS test specification - Review Changes;8;1;0;
02.06.09;Nico Claassen;077251-2058;185;Fixing Livetable bug with PAG_G1_SWSG_0_Synchrontests;3.00;1;0;
02.06.09;Nico Claassen;077251-1545;110;Assisting with various bugs and simulation problems;5;0;0;
02.06.09;Malcolm Vorster;077598-0;910;Holiday;8;1;0;
02.06.09;Graham Meyer;077251-2027;185;BUGFIX: Bug# 16981;1.00;1;0;
02.06.09;Graham Meyer;077251-2027;185;BUGFIX: Bug# 17057;7;0;0;
02.06.09;Thando Katywa;077353-6170;110;8185: Warten auf Authoring;1.00;1;0;
02.06.09;Thando Katywa;077353-4048;120;4369: E1 M5: SWSG: Flashen: Implementierung CTS;7;0;0;
02.06.09;Andre Esterhuyse;077251-1373;110;Bugfixing: bug 17163;8;1;0;
02.06.09;Ludumo Sankobe;077353-1087;185;Fixed Bug # 16596 CTS  E1_Gateway_0202: Allgemeine Funktionen;8;1;0;
02.06.09;Paul Helliwell;077251-2059;185;Bug 17145] Permanente Fehlerspeicher lesen - Beim OK-Ablauf kommt eine Fehlermeldung;2.00;1;0;
02.06.09;Paul Helliwell;077251-2059;185;[Bug 17074] Gesamtablauf Kalibrierung:Falsche Fehlermeldung bei fehlendem Service in diff Result;1.00;0;0;
02.06.09;Paul Helliwell;077251-2059;185;Assisting collegue with bugs/distribution of bug;1.00;0;0;
02.06.09;Paul Helliwell;077251-2059;185;[Bug 17174] Kalibrierung Hoehensensorik : Invalid RequestParameter;4;0;0;
02.06.09;Lonwabo Dlova;077373-0;170;E1 - Training - re-implementation PAG_MIG_E1_Airbag_LearnAWS Using modules;8;1;0;
02.06.09;Johannes Geldenhuys;077373-0;170;E1 Airbag CTS rework using modular design;8;1;0;
02.06.09;Brendan van Zyl;077472-1712;110;F141 NBC Body Computer: TestSpec B44.1/ae17;7.00;1;0;
02.06.09;Brendan van Zyl;077472-1629;185;F141 AWS Gewicht Airbag: Bugfixing nach Tets /Sim B22.8/ae15;1;0;0;
02.06.09;Michael Wells;077472-1735;110;F141 NVO Test Spec;5.00;1;0;
02.06.09;Michael Wells;077472-1737;140;F141 NVO Creating simulations;2.00;0;0;
02.06.09;Michael Wells;077472-0;120;F141 NVO Implimentation;1;0;0;
02.06.09;Jason Smith;077472-0;120;Reworking 141 NQS Rpm Tachometer;8;1;0;
02.06.09;Justin Jansen Van Vuuren;077472-1623;110;Setting F141 AWS test specification - Review Changes;8;1;0;
03.06.09;Nico Claassen;077251-2058;185;Working on G1 SWSG bugs 17168, 17167, 16392;3.00;1;0;
03.06.09;Nico Claassen;077251-2058;185;Working on G1 BCM bug 16463;1.00;0;0;
03.06.09;Nico Claassen;077251-1545;110;Training staff on CTS Modular Implementations;2.00;0;0;
03.06.09;Nico Claassen;077251-1545;110;Creating Modular CTS HowTo documentation;2;0;0;
03.06.09;Malcolm Vorster;077251-1710;110;G1 - BDE Kurztest: Testspec Review - This task was re-assigned;0.00;1;0;
03.06.09;Malcolm Vorster;077251-2026;185;G1 - Bugfixing E2.1/ae70 - (16748) Confirmed correct working of Sensor Cluster CTS, updated DEV210;8;0;0;
03.06.09;Graham Meyer;077251-2027;185;BUGFIX: Bug# 16978;8;1;0;
03.06.09;Thando Katywa;077353-2946;110;common project tasks;1.50;1;0;
03.06.09;Thando Katywa;077353-6170;110;8185: Warten auf Authoring;0.50;0;0;
03.06.09;Thando Katywa;077353-4048;120;4369: E1 M5: SWSG: Flashen: Implementierung CTS;6;0;0;
03.06.09;Andre Esterhuyse;077251-1373;110;Bugfixing: Bug 17175;8;1;0;
03.06.09;Ludumo Sankobe;077251-1372;185;Fixed Bug # 17057 CTS KLSM : FunktionFreischaltung;8;1;0;
03.06.09;Paul Helliwell;077251-2059;185;Assisting collegue with bugs/distribution of bugs;2.00;1;0;
03.06.09;Paul Helliwell;077353-0;185;E1 Bugfixing - [Bug 14903] E1_Kombi_0504: WartungsintervallSchreiben Rows are not activated;3.00;0;0;
03.06.09;Paul Helliwell;077353-0;185;E1 Bugfixing - [Bug 16596] E1_Gateway_0202: Allgemeine Funktionen: Neg. resp.;3;0;0;
03.06.09;Lonwabo Dlova;077373-0;170;E1 - Training - re-implementation PAG_MIG_E1_Airbag_LearnAWS Using modules;8;1;0;
03.06.09;Johannes Geldenhuys;077373-0;170;E1 Airbag CTS rework using modular design;8;1;0;
03.06.09;Brendan van Zyl;077472-1712;110;F141 NBC Body Computer: TestSpec B44.1/ae17;7.00;1;0;
03.06.09;Brendan van Zyl;077472-1629;185;F141 AWS Gewicht Airbag: Bugfixing nach Tets /Sim B22.8/ae15;1;0;0;
03.06.09;Michael Wells;077472-1735;110;F141 NVO Test Spec;5.00;1;0;
03.06.09;Michael Wells;077472-1737;140;F141 Creatinf Simulations;3;0;0;
03.06.09;Jason Smith;077472-0;120;Reworking 141 NQS Rpm Tachometer;8;1;0;
03.06.09;Justin Jansen Van Vuuren;077472-1739;110;Setting F141 NQS test specification.;8;1;0;
04.06.09;Nico Claassen;077472-781;110;Modular implementations discussion and documentation;1.00;1;0;
04.06.09;Nico Claassen;077251-1545;110;Further work on Modular CTS implementation HowTo + testing;2.00;0;0;
04.06.09;Nico Claassen;077251-1545;110;Discussions about new Modules that need to be implemented.;2.00;0;0;
04.06.09;Nico Claassen;077353-2938;110;E1 SG-Tausch implementation discussions;1.00;0;0;
04.06.09;Nico Claassen;077251-1545;110;General office admin work. Month end reports.;2;0;0;
04.06.09;Malcolm Vorster;09.00065-28;170;Assisted colleague with comunication and service handling method;2.00;1;0;
04.06.09;Malcolm Vorster;077251-2026;185;G1 - Bugfixing - (15857) and (13943) - bugs updated and resolved;6;0;0;
04.06.09;Graham Meyer;077251-2027;185;BUGFIX: Bug# 16875;2.00;1;0;
04.06.09;Graham Meyer;077251-2027;185;BUGFIX: Bug# 17222;3.00;0;0;
04.06.09;Graham Meyer;077251-2027;185;BUGFIX: Bug# 17211;3;0;0;
04.06.09;Thando Katywa;077353-6170;110;8185: Warten auf Authoring;1.00;1;0;
04.06.09;Thando Katywa;077353-4048;120;4369: E1 M5: SWSG: Flashen: Implementierung CTS;7;0;0;
04.06.09;Andre Esterhuyse;077251-1373;110;G1: Creating modules for ECU COnfig read.;8;1;0;
04.06.09;Ludumo Sankobe;077353-1087;185;Fixed Bug # 14903 CTS E1_Kombi_0504: WartungsintervallSchreiben;8;1;0;
04.06.09;Paul Helliwell;077251-2059;185;Assisting collegue with bugs/distribution of bugs;1.00;1;0;
04.06.09;Paul Helliwell;077251-2059;185;[Bug 17188] PSM::Statischer Test::unpassende Fehlermeldung;3.00;0;0;
04.06.09;Paul Helliwell;077251-2059;185;[Bug 17237] New: Servotronic Notlauf : Font too small in table;4;0;0;
04.06.09;Lonwabo Dlova;077373-0;170;E1 - Training - re-implementation PAG_MIG_E1_Airbag_LearnAWS Using modules;8;1;0;
04.06.09;Johannes Geldenhuys;077373-0;170;E1 Airbag CTS rework using modular design;8;1;0;
04.06.09;Brendan van Zyl;077472-1712;110;F141 NBC Body Computer: TestSpec B44.1/ae17;8;1;0;
04.06.09;Michael Wells;077472-1;110;F141 NVO reworking PH Document;3.00;1;0;
04.06.09;Michael Wells;077472-1738;185;F141 NVO bugfixing according to PH doc changes;4.00;0;0;
04.06.09;Michael Wells;077472-1735;110;F141 NVO Test Spec;1;0;0;
04.06.09;Jason Smith;077472-1628;140;Testing 141 AWS against simulation;8;1;0;
04.06.09;Justin Jansen Van Vuuren;077472-1739;110;Setting F141 NQS test specification.;1.00;1;0;
04.06.09;Justin Jansen Van Vuuren;077472-1895;110;Waiting for Authoring.;1.68;0;0;
04.06.09;Justin Jansen Van Vuuren;077472-1960;140;Bug fixing F141 AWS.;5.32;0;0;
05.06.09;Nico Claassen;077353-2929;110;Timesheet generation;1.00;1;0;
05.06.09;Nico Claassen;0900065-278;170;Training for Gareth and Lonwabo;4.00;0;0;
05.06.09;Nico Claassen;077251-1545;110;General office admin. Arrangements for new laptop equipment for Richard.;3;0;0;
05.06.09;Malcolm Vorster;09.00065-28;170;Assisted with training and assiting new colleges;2.00;1;0;
05.06.09;Malcolm Vorster;077251-0;110;E1 - Modular implementation, began updating all Modules on local S4 Server (Updating);6;0;0;
05.06.09;Graham Meyer;077251-2027;185;BUGFIX: Bug# 16978;8;1;0;
05.06.09;Thando Katywa;077353-4048;397;Waiting for bugs 17094 & 17728 to finish 4369: E1 M5: SWSG: Flashen: Implementierung CTS;0.00;1;0;
05.06.09;Thando Katywa;077353-4048;110;Creating simulations for 4369: E1 M5: SWSG: Flashen: Implementierung CTS;6.00;0;0;
05.06.09;Thando Katywa;077353-4048;120;4369: E1 M5: SWSG: Flashen: Implementierung CTS;2;0;0;
05.06.09;Andre Esterhuyse;077251-1373;110;G1: Creating modules for ECU COnfig read.;8;1;0;
05.06.09;Ludumo Sankobe;077353-1087;185;Fixed Bug # 14903 CTS E1_Kombi_0504: WartungsintervallSchreiben;8;1;0;
05.06.09;Paul Helliwell;077353-1088;110;Compiling List of E1 VEC Sequences;1.00;1;0;
05.06.09;Paul Helliwell;077353-1088;110;Assisting collegue with read ecu config Module;2.00;0;0;
05.06.09;Paul Helliwell;077353-5451;185;	 4163: E1 M5: KESSY: Schlüssel anlernen: Bugfixing /Modultest;5;0;0;
05.06.09;Lonwabo Dlova;077373-0;170;E1 - Training - re-implementation PAG_MIG_E1_Airbag_LearnAWS Using modules;6.00;1;0;
05.06.09;Lonwabo Dlova;077373-0;170;E1 - Training - PROCOM Simulation;2;0;0;
05.06.09;Johannes Geldenhuys;077373-0;170;E1 Airbag CTS rework using modular design;8;1;0;
05.06.09;Brendan van Zyl;077472-1712;110;F141 NBC Body Computer: TestSpec B44.1/ae17;3.00;1;0;
05.06.09;Brendan van Zyl;077472-1740;110;F141: NQS Instrument Ablauf: Review TestSpecs B47.2/ae16;5;0;0;
05.06.09;Michael Wells;077472-1735;110;F141 NVO Test Spec;5.00;1;0;
05.06.09;Michael Wells;077472-1737;140;F141 NVO Simulations;3;0;0;
05.06.09;Jason Smith;077472-1628;140;Testing 141 AWS against simulation;8;1;0;
05.06.09;Justin Jansen Van Vuuren;077472-1960;140;Bug fixing F141 AWS.;7.00;1;0;
05.06.09;Justin Jansen Van Vuuren;077472-1895;110;Waiting for Authoring.;1;0;0;
08.06.09;Nico Claassen;077251-1545;110;Setup of new Laptop for S41. Transferring all information from old Laptop.;7.00;1;0;
08.06.09;Nico Claassen;077251-1545;110;Discussions on modules and E1 implementations;1;0;0;
08.06.09;Malcolm Vorster;077251-1915;185;G1 - Bugfixing: PSM: P2 #13943 (normal);8;1;0;
08.06.09;Graham Meyer;077353-3;110;GESIC: Testing and fixing E1 specific features;8;1;0;
08.06.09;Thando Katywa;077353-4048;110;Creating simulations for 4369: E1 M5: SWSG: Flashen And Testing services for bugs;8;1;0;
08.06.09;Andre Esterhuyse;077251-2094;185;Created script DSA_UTIL_ReadOptionItemsFromConfig and test the script;8;1;0;
08.06.09;Ludumo Sankobe;077353-1087;185;Fixed Bug # 14903 CTS E1_Kombi_0504: WartungsintervallSchreiben;8;1;0;
08.06.09;Paul Helliwell;077251-2059;185;(Assisting collegue) Bug 14903 E1_Kombi_0504: WartungsintervallSchreiben Rows are not activated;2.00;1;0;
08.06.09;Paul Helliwell;077251-2059;185;[Bug 17098] Kombi: Restaurierung Tankgeberabgleichwerte: Start button labeled Weiter;2.00;0;0;
08.06.09;Paul Helliwell;077251-2059;185;[Bug 16893] Inbetriebnahme - Testabbruch;4;0;0;
08.06.09;Lonwabo Dlova;077373-0;170;General - Training - Simulation And VCI Documentation;8;1;0;
08.06.09;Brendan van Zyl;077472-1710;110;F141 NBC Body Computer: PH überarbeiten;1.00;1;0;
08.06.09;Brendan van Zyl;077472-1629;185;F141 AWS Gewicht Airbag: Bugfixing nach Tets /Sim B22.8/ae15;2.00;0;0;
08.06.09;Brendan van Zyl;077472-0;110;F141 NBC Body Computer: TestSpec rework;5;0;0;
08.06.09;Michael Wells;077472-1737;140;F141 NVO Creating simulations, had problems with simulaltions;4.00;1;0;
08.06.09;Michael Wells;077472-1735;110;Writing F141 NVO Test Spec;4;0;0;
08.06.09;Jason Smith;077472-1628;140;Testing 141 AWS against simulation;8;1;0;
08.06.09;Justin Jansen Van Vuuren;077472-1739;110;Setting F141 NQS test specification.;0.50;1;0;
08.06.09;Justin Jansen Van Vuuren;077472-1895;110;Waiting for Authoring.;0.80;0;0;
08.06.09;Justin Jansen Van Vuuren;077472-1960;140;Bug fixing F141 AWS.;6.7;0;0;
09.06.09;Nico Claassen;077251-1545;110;Setup of old Laptop for new staff member;2.00;1;0;
09.06.09;Nico Claassen;077251-0;110;Planning and implementation of new features for Service Execution Module;6;0;0;
09.06.09;Nico Claassen;077251-2058;185;Assisintg with problem finding and bugfixing for G1 Einschleifen and SWSG Synchrontests;0;0;3;
09.06.09;Malcolm Vorster;077251-1915;185;G1 - Bugfixing: PSM: P2 #13943 (normal) - Completed task and re-assigned;4.00;1;0;
09.06.09;Malcolm Vorster;077251-2026;185;G1 - Bugfixing E2.1 - Assisted with implementation and CTS structure;4;0;0;
09.06.09;Graham Meyer;077353-3;110;GESIC: Testing and fixing E1 specific features;8;1;0;
09.06.09;Thando Katywa;077353-4048;120;4369: E1 M5: SWSG: Flashen: Implementierung CTS;7.00;1;0;
09.06.09;Thando Katywa;077353-6170;110;8185: Warten auf Authoring;1;0;0;
09.06.09;Andre Esterhuyse;077251-2094;185;Create script DSA_UTIL_ReadECUConfig and test it.;8;1;0;
09.06.09;Ludumo Sankobe;077353-1087;185;Fixed Bug # 15342 CTS E1_Kombi_0504: WartungsintervallSchreiben;8;1;0;
09.06.09;Paul Helliwell;077353-6413;190;E1 M5: PDCC: Reset (GESiC): Anp CTS-Impl Rework and Test;2.00;1;0;
09.06.09;Paul Helliwell;077251-2059;185;[Bug 16893] Inbetriebnahme - Testabbruch;4.00;0;0;
09.06.09;Paul Helliwell;077251-2059;185;Bug 15342 E1_Kombi_0504: WartungsintervallSchreiben: Description text missing updating PH Doucment;2;0;0;
09.06.09;Lonwabo Dlova;077373-0;170;General - Training - Simulation And VCI Documentation;8;1;0;
09.06.09;Brendan van Zyl;077472-1629;185;F141 AWS Gewicht Airbag: Bugfixing nach Tets /Sim B22.8/ae15;3.00;1;0;
09.06.09;Brendan van Zyl;077472-859;110;Allg. Projekttätigkeiten A1.6/ae15;1.00;0;0;
09.06.09;Brendan van Zyl;077472-0;110;F141 NBC Body Computer: TestSpec rework;1.00;0;0;
09.06.09;Brendan van Zyl;077472-0;110;F141 NBC Simulation setup;3;0;0;
09.06.09;Michael Wells;077472-1738;185;F141 NVO Testing against simualtion;3.00;1;0;
09.06.09;Michael Wells;077472-0;130;Updating SVN;3.00;0;0;
09.06.09;Michael Wells;077472-1;120;F141 NQS Reset Service;2;0;0;
09.06.09;Jason Smith;077472-1628;140;Testing 141 AWS against simulation;6.00;1;0;
09.06.09;Jason Smith;077472-1959;140;Bugfixing F141 AWS;2;0;0;
09.06.09;Justin Jansen Van Vuuren;077472-1960;140;Bug fixing F141 AWS.;7.30;1;0;
09.06.09;Justin Jansen Van Vuuren;077472-1895;110;Waiting for Authoring.;0.70;0;0;
10.06.09;Nico Claassen;077353-2938;110;Discussion and planning of E1 implementations and modules.;2.00;1;0;
10.06.09;Nico Claassen;077251-0;110;Further development on Service Execution module. Deprecating scripts, BB and SDT.;6;0;0;
10.06.09;Malcolm Vorster;09.00065-28;170;Assisted new colleague with Complete installation of software and basic overview;8;1;0;
10.06.09;Graham Meyer;077353-1;110;Updated GESIC documentation;8;1;0;
10.06.09;Thando Katywa;077353-4048;120;4369: E1 M5: SWSG: Flashen: Implementierung CTS: And Testing services for bugs;7.00;1;0;
10.06.09;Thando Katywa;077353-6170;110;8185: Warten auf Authoring;1;0;0;
10.06.09;Andre Esterhuyse;077251-2094;185;Test and document module DSA_Module_ReadECUConfig;8;1;0;
10.06.09;Ludumo Sankobe;077251-1372;185;Fixed Bug # 16953 CTS PASM - Kalibrierung Höhensensorik;8;1;0;
10.06.09;Paul Helliwell;077353-0;110;E1 PDCC Ventiltaktung - Reimplementation with Modules;4.00;1;0;
10.06.09;Paul Helliwell;077353-5463;110;E1 M5: Gateway CAN: S/I Konfig: Bugfixing /Modultest;2.00;0;0;
10.06.09;Paul Helliwell;077353-6342;110;E1 M5: Kombi: Wartungsintervall schreiben: Bugfixing;2;0;0;
10.06.09;Lonwabo Dlova;077373-0;170;General - Training - MFT, DT2 Training;8;1;0;
10.06.09;Brendan van Zyl;077472-1629;185;F141 AWS Gewicht Airbag: Bugfixing nach Tets /Sim B22.8/ae15;1.00;1;0;
10.06.09;Brendan van Zyl;077472-0;110;F141 NBC Simulation setup;7;0;0;
10.06.09;Michael Wells;077472-1;120;F141 NQS Reset Service;4.00;1;0;
10.06.09;Michael Wells;077472-2;110;F141 NQS Reset Service. Re-work PH document;1.00;0;0;
10.06.09;Michael Wells;077472-1738;185;F141 NVO Bugfixing;2.00;0;0;
10.06.09;Michael Wells;077472-3;120;F141 NQS Reset Service creating simulations;1;0;0;
10.06.09;Jason Smith;077472-1628;140;Continued testing F141 AWS against simulation;5.00;1;0;
10.06.09;Jason Smith;077472-1959;140;Continued bugfixing F141 AWS;3;0;0;
10.06.09;Justin Jansen Van Vuuren;077472-1895;110;Waiting for Authoring.;1.00;1;0;
10.06.09;Justin Jansen Van Vuuren;077472-1960;140;Bug fixing F141 AWS.;3.00;0;0;
10.06.09;Justin Jansen Van Vuuren;077472-0;140;F141 NVO Test vs Simulation.;4;0;0;
11.06.09;Nico Claassen;077353-2938;110;Discussions on modules and implementations;1.00;1;0;
11.06.09;Nico Claassen;077251-0;110;Implementation of new SDT, new handling of services. Updating documentation.;6.00;0;0;
11.06.09;Nico Claassen;077353-0;110;Review and discussion of S45 module implementations;1;0;0;
11.06.09;Malcolm Vorster;09.00065-28;170;Assisted new colleague with training and system understanding;4.00;1;0;
11.06.09;Malcolm Vorster;077251-1125;110;G1: allg. Projekttätigkeiten - meeting() - Exporting and copying of modules from DSA;4;0;0;
11.06.09;Graham Meyer;077251-1371;110;Meeting;0.50;1;0;
11.06.09;Graham Meyer;077251-2027;185;BUGFIXING: Bug 15815.;7.5;0;0;
11.06.09;Thando Katywa;077353-2946;110;common project tasks;0.50;1;0;
11.06.09;Thando Katywa;077353-4048;110;Creating simulations for 4369: E1 M5: SWSG: Flashen: And Testing services for bugs;7.5;0;0;
11.06.09;Andre Esterhuyse;077251-1373;110;Project meeting;0.50;1;0;
11.06.09;Andre Esterhuyse;077251-2094;185;G1: Develop module DSA_MODULE_WriteECUConfig;7.5;0;0;
11.06.09;Ludumo Sankobe;077251-1372;185;Fixed Bug # 16953 CTS PASM - Kalibrierung Höhensensorik;8;1;0;
11.06.09;Paul Helliwell;077353-1088;110;S4 Team Meeting;1.00;1;0;
11.06.09;Paul Helliwell;077353-1;110;E1 PDCC Ventiltaktung - Reimplementation with Modules;3.00;0;0;
11.06.09;Paul Helliwell;077353-4;110;Assisting Collegues with Module Implementations;2.00;0;0;
11.06.09;Paul Helliwell;077353-0;110;E1 Kessy Anlernen - Reimplementing  with modules;2;0;0;
11.06.09;Lonwabo Dlova;077373-0;170;General -Training - CTS Module Exercise;8;1;0;
11.06.09;Brendan van Zyl;077472-1629;185;F141 AWS Gewicht Airbag: Bugfixing nach Tets /Sim B22.8/ae15;2.00;1;0;
11.06.09;Brendan van Zyl;077472-859;110;Allg. Projekttätigkeiten A1.6/ae15;1.00;0;0;
11.06.09;Brendan van Zyl;077472-0;110;F141 NBC Simulation setup;5;0;0;
11.06.09;Michael Wells;077472-1676;120;F141 NQS Start Warranty Implementation;6.00;1;0;
11.06.09;Michael Wells;077472-1672;120;F141 NQS Start Warranty Creating Simulations;2;0;0;
11.06.09;Jason Smith;077472-1628;140;Continued testing 141 AWS against simulation;6.00;1;0;
11.06.09;Jason Smith;077472-1959;140;Completed bugfixing of F141 AWS;2;0;0;
11.06.09;Justin Jansen Van Vuuren;077472-1895;110;Waiting for Authoring.;0.85;1;0;
11.06.09;Justin Jansen Van Vuuren;077472-1960;140;Bug fixing F141 AWS.;7.15;0;0;
12.06.09;Nico Claassen;077353-0;110;Updating ODA Basic documentation with new module features;3.00;1;0;
12.06.09;Nico Claassen;077251-0;110;Continue with implementation on service handling changes. Updating reading of configuration, results;4.00;0;0;
12.06.09;Nico Claassen;077353-2929;110;Timesheet generation. Discussions on preventing module problems.;1;0;0;
12.06.09;Malcolm Vorster;077251-1125;110;Bugfixing - Comparing and merging updated Scripts, Building Blocks and CTS's between DSA and S4;8;1;0;
12.06.09;Graham Meyer;077251-1371;110;Meeting;0.50;1;0;
12.06.09;Graham Meyer;077251-2027;185;BUGFIXING: Bug 15815.;3.50;0;0;
12.06.09;Graham Meyer;077353-2;120;ZDC Flashing Module Implementation;4;0;0;
12.06.09;Thando Katywa;077353-2946;110;common project tasks;0.60;1;0;
12.06.09;Thando Katywa;077353-4044;110;Creating simulations for 4369: E1 M5: SWSG: Flashen:;5.40;0;0;
12.06.09;Thando Katywa;077353-2946;397;Simulation training;1.00;0;0;
12.06.09;Thando Katywa;077353-2946;110;Test spec creation training;1;0;0;
12.06.09;Andre Esterhuyse;077251-2094;185;G1: Develop and test of module DSA_MODULE_WriteECUConfig;7.50;1;0;
12.06.09;Andre Esterhuyse;077251-1373;110;Project meeting;0.5;0;0;
12.06.09;Ludumo Sankobe;077251-1372;185;Fixed Bug # 17177 CTS PASM - Kalibrierung Höhensensorik;5.00;1;0;
12.06.09;Ludumo Sankobe;077353-0;910;Afternoon Off;3;0;0;
12.06.09;Paul Helliwell;077353-1088;110;S4 Team Meeting;1.00;1;0;
12.06.09;Paul Helliwell;077353-2;110;E1 SWSG Systemtausch - Reimplementing  with modules;5.00;0;0;
12.06.09;Paul Helliwell;077353-1;110;E1 Kessy Anlernen - Reimplementing  with modules;2;0;0;
12.06.09;Lonwabo Dlova;077373-0;170;General - Training;8;1;0;
12.06.09;Brendan van Zyl;077472-859;110;Allg. Projekttätigkeiten A1.6/ae15;0.50;1;0;
12.06.09;Brendan van Zyl;077472-0;110;F141 NBC Simulation setup;7.5;0;0;
12.06.09;Michael Wells;077472-1678;120;F141 NQS Start Warranty Impl.;5.00;1;0;
12.06.09;Michael Wells;077472-1672;120;F141 NQS Start Warranty Creating Simulations;1.00;0;0;
12.06.09;Michael Wells;077472-4;110;F141 NQS Start Warrant, re-working PH document;2;0;0;
12.06.09;Jason Smith;077472-1741;140;Testing F141 NQS against simulation;4.00;1;0;
12.06.09;Jason Smith;077472-1715;140;Testing F141 NBC against simulation;4;0;0;
12.06.09;Justin Jansen Van Vuuren;077472-1645;110;F141 NCM Test Spec review.;0.00;1;0;
12.06.09;Justin Jansen Van Vuuren;077472-1650;110;Setting F141 NCM  test spec.;0.00;0;0;
12.06.09;Justin Jansen Van Vuuren;077472-1639;140;F141 NCM Test vs Simulation;0.00;0;0;
12.06.09;Justin Jansen Van Vuuren;077472-0;110;F141 NIM PH rework;1.00;0;0;
12.06.09;Justin Jansen Van Vuuren;077472-0;185;F141 NIM Bug fixing;7;0;0;
15.06.09;Nico Claassen;077353-0;110;Reworking DSA_MODULE_RunServices module and surrounding scripts.;8;1;0;
15.06.09;Malcolm Vorster;09.00065-28;270;Assisted new colleague with Authoring questions and Simulations;1.00;1;0;
15.06.09;Malcolm Vorster;077251-2066;185;4100: Bugfixing - Finalized testing on Modular system and reviewed modular scripts;7;0;0;
15.06.09;Graham Meyer;077353-6615;185;Updating GESIC documentation;0.50;1;0;
15.06.09;Graham Meyer;077353-6616;140;FZGweite Fkt: GESiC allg: Test (Zusatz);1.00;0;0;
15.06.09;Graham Meyer;077353-1;120;Implementing Read ZDC Flash data module;6.5;0;0;
15.06.09;Thando Katywa;077353-4044;110;Creating simulations for  E1 M5: SWSG: Flashen:;3.00;1;0;
15.06.09;Thando Katywa;09.00065-0;170;ODA Basics and Modular implementation;5;0;0;
15.06.09;Andre Esterhuyse;077251-1373;110;Assiting colleagues with coding.;1.00;1;0;
15.06.09;Andre Esterhuyse;077251-0;110;E1: Kessy: Worked on send-flash-data module;7;0;0;
15.06.09;Ludumo Sankobe;077251-1372;185;Fixed Bug # Bug 16953 CTS PASM - Kalibrierung Höhensensorik;8;1;0;
15.06.09;Paul Helliwell;077353-0;185;E1 SWSG: Systemtausch - Testing new Modular CTS vs simulation;4.00;1;0;
15.06.09;Paul Helliwell;077353-0;185;E1 PDCC: Ventiltaktung - Testing new Modular CTS vs simulation;4;0;0;
15.06.09;Richard Raymond;09.00065-26;170;Get into subject: Introduction to ECU communication / diagnostics;8;1;0;
15.06.09;Lonwabo Dlova;077373-0;170;E1 - Training - re-implementation PAG_UC_E1_GW_AllgFunk_001 Using modules;8;1;0;
15.06.09;Brendan van Zyl;077472-1712;110;F141 NBC Body Computer: TestSpec and PH rework;6.00;1;0;
15.06.09;Brendan van Zyl;077472-1720;120;F141 NCR Getriebe:Anpassung Impl. Teilabläufe;2;0;0;
15.06.09;Michael Wells;077472-1676;120;F141 NQS Start Warranty Impl.;4.00;1;0;
15.06.09;Michael Wells;077472-0;110;Problems with connecting to DSA, did general house keeping on Ferrari SVN;4;0;0;
15.06.09;Jason Smith;077472-1714;140;Testing 141 NBC against simulation;3.00;1;0;
15.06.09;Jason Smith;077472-1715;185;Reworking F141 NBC CTS;5;0;0;
15.06.09;Justin Jansen Van Vuuren;077472-2091;185;F141 NIM Bug fixing - Reworking the NIM CTS;6.15;1;0;
15.06.09;Justin Jansen Van Vuuren;077472-1895;110;Waiting for Authoring.;0.35;0;0;
15.06.09;Justin Jansen Van Vuuren;077472-2090;110;F141 NIM PH rework;1.5;0;0;
16.06.09;Nico Claassen;077598;910;Public Holiday;9;0;0;
16.06.09;Malcolm Vorster;077598-0;910;Public Holiday;8;1;0;
16.06.09;Graham Meyer;077598-0;910;Public Holiday;8;1;0;
16.06.09;Thando Katywa;077598-0;910;Holiday;9;0;0;
16.06.09;Andre Esterhuyse;077598-0;910;Public holiday;8;1;0;
16.06.09;Ludumo Sankobe;077598-0;910;Holiday;8;1;0;
16.06.09;Paul Helliwell;077598-0;910;Public Holiday;8;1;0;
16.06.09;Richard Raymond;077598-0 91;170;Public Holiday;8;1;0;
16.06.09;Lonwabo Dlova;077598-0;910;Public Holiday;8;1;0;
16.06.09;Brendan van Zyl;077598-0;910;Holiday;8;1;0;
16.06.09;Michael Wells;077472-1;910;Holiday;8;1;0;
16.06.09;Jason Smith;077598-0;910;Holiday;0.00;1;0;
16.06.09;Justin Jansen Van Vuuren;077598-0;910;Holiday;8;1;0;
17.06.09;Nico Claassen;077353-0;110;Reworking modular implementation scripts. Fixing L10nText assignments.;7.00;1;0;
17.06.09;Nico Claassen;077353-2938;110;Modular E1 implementation + module design discussions.;1;0;0;
17.06.09;Malcolm Vorster;077251-1125;110;Meeting;1.00;1;0;
17.06.09;Malcolm Vorster;077251-2066;185;G1 - Bugfixing - Module re-work for extracting additional data, also reviewed module workings;7;0;0;
17.06.09;Graham Meyer;077251-2;120;Implemented wrapper script for APuC sub-CTSs;7.50;1;0;
17.06.09;Graham Meyer;077251-1371;110;Meeting;0.5;0;0;
17.06.09;Thando Katywa;077353-2946;110;common project tasks;0.60;1;0;
17.06.09;Thando Katywa;09.00065-27;170;Get into subject: Simulations;4.00;0;0;
17.06.09;Thando Katywa;09.00065-1;170;Creating and testing Procom menu driven simulations;3.40;0;0;
17.06.09;Andre Esterhuyse;077251-1373;110;Meeting regarding project;1.00;1;0;
17.06.09;Andre Esterhuyse;077251-1373;110;Assiting colleagues with coding.;1.00;0;0;
17.06.09;Andre Esterhuyse;077251-0;110;E1: Kessy: Worked on send-flash-data module;6;0;0;
17.06.09;Ludumo Sankobe;077251-1372;185;Fixed Bug # 16815 CTS PASM - Kalibrierung Höhensensorik;7.00;1;0;
17.06.09;Ludumo Sankobe;07251-1372;;Meeting;1;0;0;
17.06.09;Paul Helliwell;077353-1088;110;S4 Team Meeting;1.00;1;0;
17.06.09;Paul Helliwell;077353-1;110;GESIC Interpretor Feature Request;1.00;0;0;
17.06.09;Paul Helliwell;077353-6617;190;E1 Kessy - Updating to Modular Implementation;5.00;0;0;
17.06.09;Paul Helliwell;077353-1088;110;Assisting new Collegue with modular implementations;1;0;0;
17.06.09;Richard Raymond;09.00065-27;170; Get into subject: PRODIS.Authoring;4.00;1;0;
17.06.09;Richard Raymond;09.00065-26;170; Get into subject: Introduction to ECU communication / diagnostics;4;0;0;
17.06.09;Lonwabo Dlova;077373-0;170;E1 - Training - re-implementation PAG_UC_E1_GW_AllgFunk_001 Using modules;8;1;0;
17.06.09;Brendan van Zyl;077472-1893;110;Waiting for Authoring;0.50;1;0;
17.06.09;Brendan van Zyl;077472-859;110;Allg. Projekttätigkeiten A1.6/ae15;0.50;0;0;
17.06.09;Brendan van Zyl;077472-1720;120;F141 NCR Getriebe:Anpassung Impl. Teilabläufe;7;0;0;
17.06.09;Michael Wells;077472-2;110;Bugfixing F141 NQS NVO due to check-in problems;4.00;1;0;
17.06.09;Michael Wells;077472-1676;120;F141 NQS Start Warranty Impl.;2.00;0;0;
17.06.09;Michael Wells;077472-1672;120;Creating simulations for F141 NQS Start Warranty;2;0;0;
17.06.09;Jason Smith;077472-1715;185;Reworking 141 NBC Body Computer;8;1;0;
17.06.09;Justin Jansen Van Vuuren;077472-2091;185;F141 NIM Bug fixing;7.00;1;0;
17.06.09;Justin Jansen Van Vuuren;077472-1895;110;Waiting for Authoring.;1;0;0;
18.06.09;Nico Claassen;077353-0;110;DSA_MODULE_RunServices rework completed.;2.00;1;0;
18.06.09;Nico Claassen;077353-1;110;DSA_UTIL_Init_CTS reworks and L10nText fixes completed.;3.00;0;0;
18.06.09;Nico Claassen;077353-2;110;DSA_MODULE_IgnitionStatus fixes.;1.00;0;0;
18.06.09;Nico Claassen;077353-2938;110;E1 Modular implementation verbal reviews and discussions.;1.00;0;0;
18.06.09;Nico Claassen;077353-3;110;Creating documentation for new Modules and scripts;1;0;0;
18.06.09;Malcolm Vorster;077251-1125;110;Meeting;1.00;1;0;
18.06.09;Malcolm Vorster;077353-4044;110;E1 - SWSG: Flashen Test Specification + Sim;7;0;0;
18.06.09;Graham Meyer;077251-2;120;Implemented wrapper script for APuC sub-CTSs;7.50;1;0;
18.06.09;Graham Meyer;077251-1371;110;Meeting;0.5;0;0;
18.06.09;Thando Katywa;077353-4051;185;E1 M5: SWSG: Flashen: Bug fixing;6.90;1;0;
18.06.09;Thando Katywa;077353-2946;110;common project tasks;0.60;0;0;
18.06.09;Thando Katywa;077353-6170;110;8185: Warten auf Authoring;0.5;0;0;
18.06.09;Andre Esterhuyse;077251-1373;110;Meeting regarding project;1.00;1;0;
18.06.09;Andre Esterhuyse;077251-2094;185;Working on module for send-flash-data;6.00;0;0;
18.06.09;Andre Esterhuyse;077251-1373;110;Assiting colleagues with coding.;1;0;0;
18.06.09;Ludumo Sankobe;077353-1087;110;Implementing Module CTS Heckklappe Service;8;1;0;
18.06.09;Paul Helliwell;077353-1088;110;S4 Team Meeting;1.00;1;0;
18.06.09;Paul Helliwell;077353-1;110;GESIC Interpretor Feature Request;1.00;0;0;
18.06.09;Paul Helliwell;077353-2;110;E1 Kessy - Modular Implementation Testing vs Simulation;4.00;0;0;
18.06.09;Paul Helliwell;077353-1088;110;Assiting new Collegue with modular implementations;2;0;0;
18.06.09;Richard Raymond;09.00065-26;170;Get into subject: PRODIS.OET;2.00;1;0;
18.06.09;Richard Raymond;09.00065-27;170;Get into subject: PRODIS.Authoring;6;0;0;
18.06.09;Lonwabo Dlova;077373-0;170;E1 - Training - re-implementation PAG_UC_E1_GW_AllgFunk_001 Using modules;8;1;0;
18.06.09;Brendan van Zyl;077472-1893;110;Waiting for Authoring;1.00;1;0;
18.06.09;Brendan van Zyl;077472-859;110;Allg. Projekttätigkeiten A1.6/ae15;1.00;0;0;
18.06.09;Brendan van Zyl;077472-1720;120;F141 NCR Getriebe:Anpassung Impl. Teilabläufe;6;0;0;
18.06.09;Michael Wells;077472-1676;120;Completed impl. for F141 NQS Start Warranty;8;1;0;
18.06.09;Jason Smith;077472-1715;185;Reworking 141 NBC Body Computer;8;1;0;
18.06.09;Justin Jansen Van Vuuren;077472-2091;185;F141 NIM Bug fixing;4.00;1;0;
18.06.09;Justin Jansen Van Vuuren;077472-1895;110;Waiting for Authoring.;0.75;0;0;
18.06.09;Justin Jansen Van Vuuren;077472-0;110;F141 NIM - Setting Simulations;3.25;0;0;
19.06.09;Nico Claassen;077353-3;110;Creating documentation for modules and scripts;6.00;0;0;
19.06.09;Nico Claassen;077472-781;110;Ferrari modular specification and implementation discussions;1.00;0;0;
19.06.09;Nico Claassen;077353-2929;110;Timesheet generation and check;1.00;0;0;
19.06.09;Nico Claassen;077353-2938;110;E1 module implementation review and discussion.;1;0;0;
19.06.09;Malcolm Vorster;077353-4044;110;E1 - SWSG: Flashen Test Specification + Sim;8;1;0;
19.06.09;Graham Meyer;077353-1;120;Implementing ZDC Flashing module;8;1;0;
19.06.09;Thando Katywa;077353-0;110;ODA Basics and Modular implementation;4.00;1;0;
19.06.09;Thando Katywa;077353-3890;120;4310: E1 M5: Gateway CAN: Flashen: Implementierung CTS;4;0;0;
19.06.09;Thando Katywa;077353-4044;110;Closed and reassigned to S42;0;0;0;
19.06.09;Andre Esterhuyse;077251-0;185;E1: Kessy: Finalising module for send-flash-data;7.00;1;0;
19.06.09;Andre Esterhuyse;077251-1373;110;Assiting colleagues with coding.;1;0;0;
19.06.09;Ludumo Sankobe;077353-1087;110;Implementing Module CTS Heckklappe Service;8;1;0;
19.06.09;Paul Helliwell;077353-1088;110;Assiting new Collegue with modular implementations;4.00;1;0;
19.06.09;Paul Helliwell;077353-6617;190;E1 Kessy - Updating to Modular Implementation;4;0;0;
19.06.09;Richard Raymond;09.00065-26;170;Get into subject: PRODIS.OET;8;1;0;
19.06.09;Lonwabo Dlova;077373-0;170;E1 - Training - re-implementation PAG_UC_E1_GW_AllgFunk_001 Using modules;8;1;0;
19.06.09;Brendan van Zyl;077472-1893;110;Allg. Projekttätigkeiten A1.6/ae15;1.50;1;0;
19.06.09;Brendan van Zyl;077472-859;110;Waiting for Authoring;1.00;0;0;
19.06.09;Brendan van Zyl;077472-1720;120;F141 NCR Getriebe:Anpassung Impl. Teilabläufe;5.5;0;0;
19.06.09;Michael Wells;077472-4;110;Research and Implementation of modules;8;1;0;
19.06.09;Jason Smith;077472-1715;185;Reworking 141 NBC Body Computer;8;1;0;
19.06.09;Justin Jansen Van Vuuren;077472-2089;140;F141 NVO Test vs Simulation.;3.00;1;0;
19.06.09;Justin Jansen Van Vuuren;077472-0;110;Developing/Researching modules for Ferrari implementation.;5;0;0;
21.06.09;Lonwabo Dlova;077373-0;170;E1 - Training - re-implementation PAG_UC_E1_GW_AllgFunk_001 Using modules;0.00;1;0;
22.06.09;Nico Claassen;077353-6487;110;Closed: Re-assigned to S48 in prio-lists.;1.00;1;0;
22.06.09;Malcolm Vorster;077353-7352;110;E1 - SWSG: Flashen Test Specification + Sim;5.00;1;0;
22.06.09;Malcolm Vorster;077598-0;910;Time Off;3;0;0;
22.06.09;Graham Meyer;077251-1964;185;Bug 14569. Fixed and Closed;8;1;0;
22.06.09;Thando Katywa;077353-0;110;ODA Basics and Modular implementation Training;8;1;0;
22.06.09;Andre Esterhuyse;077251-2068;185;Bug 17584 and 17098;8;1;0;
22.06.09;Ludumo Sankobe;077353-1087;110;Implementing Module CTS Heckklappe Service;8;1;0;
22.06.09;Paul Helliwell;077353-6617;190;Reintegrate Updated Modules into PDCC Ventiltaktung;4.00;1;0;
22.06.09;Paul Helliwell;077353-6617;190;Reintegrate Updated Modules into SWSG Systemtausch;4;0;0;
22.06.09;Lonwabo Dlova;077373-0;170;E1 - Training - re-implementation PAG_UC_E1_GW_AllgFunk_001 Using modules;8;1;0;
22.06.09;Brendan van Zyl;077472-1720;120;F141 NCR Getriebe:Anpassung Impl. Teilabläufe;5.00;1;0;
22.06.09;Brendan van Zyl;077472-1893;110;Waiting for Authoring;0.50;0;0;
22.06.09;Brendan van Zyl;077472-859;110;Allg. Projekttätigkeiten A1.6/ae15;0.50;0;0;
22.06.09;Brendan van Zyl;077472-0;120;Module development for future CTS impl;2;0;0;
22.06.09;Michael Wells;077472-0;120;Creating modules;8;1;0;
22.06.09;Jason Smith;077472-1715;185;Reworking F141 NBC CTS;8;1;0;
22.06.09;Justin Jansen Van Vuuren;077472-0;110;Developing/Working on modules for Ferrari implementation.;7.34;1;0;
22.06.09;Justin Jansen Van Vuuren;077472-1895;110;Waiting for Authoring.;0.66;0;0;
23.06.09;Nico Claassen;077353-2929;110;Checking all staff prio-lists, SVN and E1 Project plan for work.;3.00;1;0;
23.06.09;Nico Claassen;077353-2929;110;Communication with DSA on prio-list items.;1.00;0;0;
23.06.09;Malcolm Vorster;077353-7352;110;E1 - SWSG: Flashen Test Specification + Sim;8;1;0;
23.06.09;Graham Meyer;077251-1964;185;Bug 4025.;4.00;1;0;
23.06.09;Graham Meyer;077251-2067;185;Bug 17508: GESIC: using two or more ECU's in one script;4;0;0;
23.06.09;Thando Katywa;077353-3890;120;4310: E1 M5: Gateway CAN: Flashen: Implementierung CTS;1.00;1;0;
23.06.09;Thando Katywa;077353-1;130;Installing OET;0.50;0;0;
23.06.09;Thando Katywa;09.00065-27;170;Get into subject: Simulations;6.5;0;0;
23.06.09;Andre Esterhuyse;077251-2068;185;Bug 16249 and 16248;8;1;0;
23.06.09;Ludumo Sankobe;077353-1087;110;All PAG_MIG_E1_* scripts renamed to PAG_E1_*;2.00;1;0;
23.06.09;Ludumo Sankobe;077251-2069;185;Fixed Bug # 17177 CTS PASM - Kalibrierung Höhensensorik;6;0;0;
23.06.09;Paul Helliwell;077353-6874;110;E1- MED9.1/ME7.11 - FZGdaten lesen/schreiben: Updating PH;5.00;1;0;
23.06.09;Paul Helliwell;077353-6876;110;E1- MED9.1/ME7.11:  FZGdaten lesen/schreiben: Testspec update due to updated MORS;3;0;0;
23.06.09;Lonwabo Dlova;077373-0;170;E1_PDCC_EcuReplacement_MORS -CTS Implementation;8;1;0;
23.06.09;Brendan van Zyl;077472-0;185;F141 AWS Gewicht Airbag: Bugfixing nach Tets /Sim B22.8/ae15;5.00;1;0;
23.06.09;Brendan van Zyl;077472-1893;110;Waiting for Authoring;0.50;0;0;
23.06.09;Brendan van Zyl;077472-859;110;Allg. Projekttätigkeiten A1.6/ae15;0.50;0;0;
23.06.09;Brendan van Zyl;077472-0;120;Module development for future CTS impl;2;0;0;
23.06.09;Michael Wells;077472-0;120;Creating modules;8;1;0;
23.06.09;Jason Smith;077472-1742;185;Reworking F141 NQS CTS;8;1;0;
23.06.09;Justin Jansen Van Vuuren;077598-0;920;Mouth infection.;8;1;0;
24.06.09;Nico Claassen;077251-3027;185;Bugfixing: Airbag: P1 #16978 - Bug fixed.;1.00;1;0;
24.06.09;Nico Claassen;077251-3084;185;Bugfixing: SWSG: P2 #16392 - Bug fixed;1.00;0;0;
24.06.09;Nico Claassen;077251-3085;185;Bugfixing: SWSG: P2 #16711 - Bug Fixed;1.00;0;0;
24.06.09;Nico Claassen;077251-3086;185;Bugfixing: SWSG: P2 #17168 - Bug fixed;1.00;0;0;
24.06.09;Nico Claassen;077353-2929;110;Communicating with DSA on prio-lists.;2.00;0;0;
24.06.09;Nico Claassen;077353-0;110;ODA Basics module documentation updates.;2;0;0;
24.06.09;Malcolm Vorster;077353-7352;110;E1 - SWSG: Flashen Test Specification + Sim;4.00;1;0;
24.06.09;Malcolm Vorster;077251-1125;110;Meeting;1.00;0;0;
24.06.09;Malcolm Vorster;077251-2066;185;G1 Bugfixing - Updated Bugzilla;2.00;0;0;
24.06.09;Malcolm Vorster;077251-3056;185;G1 - Bugfixing: DME / BDE - (17584) - Found bug to be resolved;1;0;0;
24.06.09;Graham Meyer;077251-2067;185;Bug 17508: GESIC: using two or more ECU's in one script;8;1;0;
24.06.09;Thando Katywa;077353-2;110;Creating simulations to check for Gateway services for bugs;2.00;1;0;
24.06.09;Thando Katywa;077353-0;170;Practice modular implementation;6;0;0;
24.06.09;Andre Esterhuyse;077251-2068;185;Bug 16248 and 16768;8;1;0;
24.06.09;Ludumo Sankobe;077251-2069;185;Fixed Bug # 17420 PASM Luftfeder gesamt befüllen;6.00;1;0;
24.06.09;Ludumo Sankobe;077251-2069;185;Fixed Bug # 17552 E1_RDK;2;0;0;
24.06.09;Paul Helliwell;077353-1088;110;S4 Team Meeting;1.00;1;0;
24.06.09;Paul Helliwell;077353-6876;110;E1 - MED9.1/ME7.11 - FZGdaten lesen/schreiben: Updating Simulations and Test Spec;6.00;0;0;
24.06.09;Paul Helliwell;077353-1088;110;Assisitng New Collegues with Multi ECU Communication;1;0;0;
24.06.09;Richard Raymond;077353-6864;110;5044: E1 M5: MED9.1/ME7.11: SG-Program: WFS: PH;4.00;1;0;
24.06.09;Lonwabo Dlova;077373-0;170;E1_PDCC_EcuReplacement_MORS -CTS Implementation;8;1;0;
24.06.09;Brendan van Zyl;077472-0;185;F141 AWS Gewicht Airbag: Bugfixing nach Tets /Sim B22.8/ae15;2.00;1;0;
24.06.09;Brendan van Zyl;077472-1893;110;Waiting for Authoring;0.50;0;0;
24.06.09;Brendan van Zyl;077472-859;110;Allg. Projekttätigkeiten A1.6/ae15;1.50;0;0;
24.06.09;Brendan van Zyl;077472-0;120;Module development for future CTS impl;4;0;0;
24.06.09;Michael Wells;077472-0;120;Creating modules;6.00;1;0;
24.06.09;Michael Wells;077472-1957;120;F141 NAB Impl.;2;0;0;
24.06.09;Jason Smith;077472-1742;185;Reworking F141 NQS CTS;8;1;0;
24.06.09;Justin Jansen Van Vuuren;077598-0;920;Mouth infection.;8;1;0;
25.06.09;Nico Claassen;09.00065-27;170;Training S48 and S49 for implementation without modules for E1 SG-Tausch.;2.00;1;0;
25.06.09;Nico Claassen;077353-2938;110;Meeting.;2.00;0;0;
25.06.09;Nico Claassen;077353-0;110;ODA Basics updating module documentation.;2.00;0;0;
25.06.09;Nico Claassen;09.00065-26;170;Installation of latest PRODIS.OET, how to configure, etc.;1.00;0;0;
25.06.09;Nico Claassen;077353-2938;110;Testing of E1 Binary Flash Job for E1 SWSG.;1;0;0;
25.06.09;Malcolm Vorster;077353-7352;110;E1 - SWSG: Flashen Test Specification + Sim - Flashing Job and bus-logging;8;1;0;
25.06.09;Malcolm Vorster;077251-3095;185;G1 - 4100: Bugfixing: Kombi: P2 #17098(minor) - Closed bug, details as per bugzilla;0;0;0;
25.06.09;Graham Meyer;077251-2067;185;Bug 16768:  KLSM::Funktionsfreischaltung::Kodec falscher Länge;8;1;0;
25.06.09;Thando Katywa;077353-0;170;Practice modular implementation;8;1;0;
25.06.09;Andre Esterhuyse;077251-2068;185;Bug 15792;8;1;0;
25.06.09;Ludumo Sankobe;077251-2069;185;Fixing Bug # 17551 E1_RDK;8;1;0;
25.06.09;Paul Helliwell;077353-7628;140;E1 Bugfixing - [Bug 17508] GESIC: using two or more ECU's in one script;2.00;1;0;
25.06.09;Paul Helliwell;077353-7628;140;E1 Bugfixing - [Bug 17656] E1_ME7.11_9203: Kurztests: column heading is false;1.00;0;0;
25.06.09;Paul Helliwell;077353-6876;140;E1 - MED9.1/ME7.11 - FZGdaten lesen/schreiben: Updating Test Spec;5;0;0;
25.06.09;Lonwabo Dlova;077373-0;170;E1_PDCC_EcuReplacement_MORS -CTS Implementation;8;1;0;
25.06.09;Brendan van Zyl;077472-1893;110;Waiting for Authoring;0.50;1;0;
25.06.09;Brendan van Zyl;077472-859;110;Allg. Projekttätigkeiten A1.6/ae15;1.50;0;0;
25.06.09;Brendan van Zyl;077472-0;120;Module development for future CTS impl;2.00;0;0;
25.06.09;Brendan van Zyl;077472-0;185;F141 AWS Gewicht Airbag: Bugfixing nach Tets /Sim B22.8/ae15;0.50;0;0;
25.06.09;Brendan van Zyl;077472-0;140;F141 NBC testing vs simulation;3.5;0;0;
25.06.09;Michael Wells;077472-0;120;Creating modules;6.00;1;0;
25.06.09;Michael Wells;077472-1957;120;F141 NAB Impl.;2;0;0;
25.06.09;Jason Smith;077472-1742;185;Reworking F141 NQS CTS;8;1;0;
25.06.09;Justin Jansen Van Vuuren;077472-0;110;Developing/Working on modules for Ferrari implementation.;6.00;1;0;
25.06.09;Justin Jansen Van Vuuren;077472-2091;185;F141 NIM Bug fixing;0.90;0;0;
25.06.09;Justin Jansen Van Vuuren;077472-1895;110;Waiting for Authoring.;1.1;0;0;
26.06.09;Nico Claassen;077353-1;110;Preparing and reviewing modules for export to dev210 for review.;3.00;1;0;
26.06.09;Nico Claassen;077353-2;110;CTS review for PAG_E1_SWSG_Systemtausch_MODULE_TEST;0.50;0;0;
26.06.09;Nico Claassen;077353-0;110;ODA Basics documentation updates for scripts.;2.00;0;0;
26.06.09;Nico Claassen;077353-2929;110;E1 work discussion with sc and mi.;0.50;0;0;
26.06.09;Nico Claassen;077353-2938;110;Meeting on E1 issues.;1.50;0;0;
26.06.09;Nico Claassen;077251-2065;185;Assisting with bug 16768;0.5;0;0;
26.06.09;Graham Meyer;077251-2067;185;Bug 16768:  KLSM::Funktionsfreischaltung::Kodec falscher Länge;8;1;0;
26.06.09;Thando Katywa;077598-0;910;Holiday;9;0;0;
26.06.09;Andre Esterhuyse;077251-2068;185;Bugfix for bug 15792 (FUEP related). Had issues with connecting to the remote database.;8;1;0;
26.06.09;Ludumo Sankobe;077251-2069;185;Fixing Bug # 17551 E1_RDK;8;1;0;
26.06.09;Paul Helliwell;077353-6925;110;E1- SDI4.1 - WFS: Updating Test Specification and Simulations;4.00;1;0;
26.06.09;Paul Helliwell;077353-6934;110;E1 - SDI4.1 - FZGdaten lesen/schreiben - Updating Test Specification and Simulations;4;0;0;
26.06.09;Richard Raymond;077353-0;110;5309: Gateway CAN: SG-Tausch: Implementierung;8;1;0;
26.06.09;Lonwabo Dlova;077373-0;170;E1_PDCC_EcuReplacement_MORS -CTS Implementation;8;1;0;
26.06.09;Brendan van Zyl;077472-1893;110;Waiting for Authoring;0.50;1;0;
26.06.09;Brendan van Zyl;077472-859;110;Allg. Projekttätigkeiten A1.6/ae15;0.50;0;0;
26.06.09;Brendan van Zyl;077472-0;120;Module development for future CTS impl;2.00;0;0;
26.06.09;Brendan van Zyl;077472-0;140;F141 NBC testing vs simulation;5;0;0;
26.06.09;Michael Wells;077472-0;120;Creating modules;4.00;1;0;
26.06.09;Michael Wells;077472-1957;120;F141 NAB Impl.;4;0;0;
26.06.09;Justin Jansen Van Vuuren;077472-0;110;Developing/Working on modules for Ferrari implementation.;7.50;1;0;
26.06.09;Justin Jansen Van Vuuren;077472-1895;110;Waiting for Authoring.;0.5;0;0;
29.06.09;Thando Katywa;077353-6170;110;8185: Warten auf Authoring;0.40;1;0;
29.06.09;Thando Katywa;077353-4;130;Prodis MCD setup;0.60;0;0;
29.06.09;Thando Katywa;077353-5;140;SWSG Binary Flash Job testing;2.50;0;0;
29.06.09;Thando Katywa;077353-6;110;CTS reworks to avoid bugs 17228 & 17444;4.5;0;0;
29.06.09;Lonwabo Dlova;077373-0;170;E1_PDCC_EcuReplacement_MORS -CTS Implementation;8;1;0;
29.06.09;Michael Wells;077472-0;110;Creating modules;3.00;1;0;
29.06.09;Michael Wells;077472-1957;120;F141 NAB Impl.;5;0;0;
30.06.09;Thando Katywa;077353-6;110;CTS reworks to avoid bugs 17228 & 17444;7.20;1;0;
30.06.09;Thando Katywa;077353-6170;110;8185: Warten auf Authoring;0.8;0;0;
30.06.09;Lonwabo Dlova;077373-0;170;E1_PDCC_EcuReplacement_MORS -CTS Implementation;8;1;0;
30.06.09;Michael Wells;077472-1957;120;F141 NAB Impl.;6.00;1;0;
30.06.09;Michael Wells;077472-0;110;Module creation;2;0;0;