"18.05.09","1","077251","1693","185","Service","","0","G1: EPB Einschleifen testing and bugfixing after codefreeze","07:00","16:00","8","60",
"19.05.09","2","077251","1693","185","Service","","0","G1: EPB Einschleifen bugfixing and testing.","07:00","16:00","8","60",
"20.05.09","3","077251","1373","110","Engineering","","0","E1: Assisting colleague with E1 Kessy updating test specification","07:00","16:00","5","60",
"20.05.09","3","077251","1693","185","Service","","0","G1: EPB Einschleifen bugfixing and testing.","","","3","0",
"21.05.09","4","077251","1693","185","Service","","0","G1: Bugfixing and testing of EPB Einschleifen","07:00","16:00","8","60",
"22.05.09","5","077251","1693","185","Service","","0","G1: Bugfixing and testing of EPB_Einschleifen","07:00","16:00","8","60",
