"07.12.09","1","077353","11778","120","Codierung","","70","	5425: E1 M5: PCM2-MMI: Komplex Codier: Implementierung","07:00","16:00","6","60",
"07.12.09","1","077353","7685","110","Engineering","","45","8185: Warten auf Authoring (Performance-Probleme bei Ausführung). Crash, slow","","","2","0",
"08.12.09","2","077353","11778","120","Codierung","","80","	 5425: E1 M5: PCM2-MMI: Komplex Codier: Implementierung","07:00","16:00","5","60",
"08.12.09","2","077353","7685","110","Engineering","","50","8185: Warten auf Authoring (Performance-Probleme bei Ausführung). App Server down. Crash","","","3","0",
"09.12.09","3","077353","11778","120","Codierung","","85","5425: E1 M5: PCM2-MMI: Komplex Codier: Implementierung","07:00","16:00","3","60",
"09.12.09","3","077353","7685","110","Engineering","","55","8185: Warten auf Authoring (Performance-Probleme bei Ausführung)","","","1","0",
"09.12.09","3","077591","0","910","Urlaub","","0","Leave","","","4","0",
"10.12.09","4","077353","7685","110","Engineering","","60","8185: Warten auf Authoring (Performance-Probleme bei Ausführung). Battled to get application start to work. Crashed afew times","07:00","16:00","3","60",
"10.12.09","4","077353","11778","120","Codierung","","90","	5425: E1 M5: PCM2-MMI: Komplex Codier: Implementierung","","","5","0",
"11.12.09","5","077353","11252","110","Engineering","","80"," 5425: E1 M5: PCM2-MMI: Komplex Codier: Testspec","07:00","16:00","4","60",
"11.12.09","5","077591","0","910","Urlaub","","0","Leave","","","4","0",
