"03.08.09","1","077353","9521","110","Engineering","","0","Rework GESIC Modularize: Spec","07:00","16:00","8","60",
"04.08.09","2","077251","1371","110","Engineering","","0","Assisted collegues","07:00","16:00","8","60",
"05.08.09","3","077251","1371","110","Engineering","","0","Assisted collegues","07:00","16:00","8","60",
"06.08.09","4","077251","1371","110","Engineering","","0","Meeting","07:00","16:00","1,5","60",
"06.08.09","4","077251","1371","110","Engineering","","0","Assisted collegues","","","6,5","0",
"07.08.09","5","077251","1371","110","Engineering","","0","Meeting","07:00","16:00","1","60",
"07.08.09","5","077251","1371","110","Engineering","","0","Simulation flag calculator","","","4","0",
"07.08.09","5","077598","","910","Urlaub","","0","Leave","","","3","0",
