"11.05.09","1","077251","1687","185","Service","","100","G1 PCM SelbTest : Bugfixing","07:00","16:00","8","60",
"12.05.09","2","077251","1685","140","Test","","100","G1 PCM SelbTest : Testing vs simulation","07:00","16:00","8","60",
"13.05.09","3","077251","1681","110","Engineering","","100","PCM Selbsttest: Testspec erstellen","07:00","16:00","0","60",
"13.05.09","3","077251","1722","120","Codierung","","100","BDE Perm. FSP lesen: Simulation erzeugen","","","0","0",
"13.05.09","3","077251","1729","120","Codierung","","100","BDE Perm. FSP lesen: Simulation erzeugen","","","0","0",
"13.05.09","3","077251","1374","110","Engineering","","100","G1 Consistancy Checking Sequences / Bug Fixing / Updating Documentation","","","8","0",
"14.05.09","4","077251","1681","110","Engineering","","0","G1 Consistancy Checking Sequences / Bug Fixing / Updating Documentation","07:00","16:00","8","60",
"15.05.09","5","077251","1681","110","Engineering","","100","G1 Consistancy Checking Sequences / Bug Fixing / Updating Documentation","07:00","16:00","8","60",
