"22.06.09","1","077472","0","120","Codierung","","0","Creating modules","07:00","16:00","8","60",
"23.06.09","2","077472","0","120","Codierung","","0","Creating modules","07:00","16:00","8","60",
"24.06.09","3","077472","0","120","Codierung","","0","Creating modules","07:00","16:00","6","60",
"24.06.09","3","077472","1957","120","Codierung","","5","F141 NAB Impl.","","","2","0",
"25.06.09","4","077472","0","120","Codierung","","0","Creating modules","07:00","16:00","6","60",
"25.06.09","4","077472","1957","120","Codierung","","10","F141 NAB Impl.","","","2","0",
"26.06.09","5","077472","0","120","Codierung","","0","Creating modules","07:00","16:00","4","60",
"26.06.09","5","077472","1957","120","Codierung","","20","F141 NAB Impl.","","","4","0",
