"21.09.09","1","077353","9824","140","Test","","80","	5281: E1 M5: RDK: Gen  ODX-Bedat: Kodier: Modultest","07:00","16:00","4","60",
"21.09.09","1","077353","9825","181","Fehlerbes. vor Ausl. (Bugzilla)","","100","5281: E1 M5: RDK: Gen  ODX-Bedat: Kodier: Bugfixing","","","4","0",
"22.09.09","2","077353","9932","140","Test","","90","E1 M5:  Lenkradelektronik: Gen  ODX-Bedat: Kodier: Modultest (Problems with Auto Test Suite)","07:00","16:00","8","60",
"23.09.09","3","077353","9824","140","Test","","95","Continued testing coding for E1 RDK. Problems accessing PIWIS so was delayed","07:00","16:00","6","60",
"23.09.09","3","077353","9932","140","Test","","10","Started testing E1 Lenk Coding","","","2","0",
"24.09.09","4","077353","0","910","Urlaub","","0","Heritage day public holiday","07:00","16:00","8","60",
"25.09.09","5","077353","9824","140","Test","","100","5281: E1 M5: RDK: Gen  ODX-Bedat: Kodier: Modultest","07:00","16:00","3","60",
"25.09.09","5","077353","9932","140","Test","","40","5541: E1 M5:  Lenkradelektronik: Gen  ODX-Bedat: Kodier: Modultest","","","5","0",
