"27.04.09","1","077598","0","910","Urlaub","","0","Holiday","07:00","16:00","9","0",
"28.04.09","2","077353","0","397","Allgemein","","0","DSA Development Meeting","07:00","16:00","0,58","60",
"28.04.09","2","077353","6208","120","Codierung","","0","Implementing the PAG_MIG_E1_ME711_MED91_Fahrzeugdaten_Schreiben CTS","","","4","0",
"28.04.09","2","077353","4048","120","Codierung","","0","4369: E1 M5: SWSG: Flashen: Implementierung CTS","","","3,42","0",
"29.04.09","3","077353","6170","110","Engineering","","0","8185: Warten auf Authoring","07:00","16:00","1","60",
"29.04.09","3","077353","4048","120","Codierung","","0","4369: E1 M5: SWSG: Flashen: Implementierung CTS","","","6,5","0",
"29.04.09","3","077353","0","397","Allgemein","","0","Porsche G1 Meeting","","","0,5","0",
"30.04.09","4","077353","4048","120","Codierung","","0","4369: E1 M5: SWSG: Flashen: Implementierung CTS","07:00","16:00","7,5","60",
"30.04.09","4","077353","6170","110","Engineering","","0","8185: Warten auf Authoring","","","0,5","0",
"01.05.09","5","077598","0","910","Urlaub","","0","Holiday","07:00","16:00","9","0",
