"06.07.09","1","077251","2069","185","Service","","0","Fixing Bug # 17509 PASM CTS's","07:00","16:00","8","60",
"07.07.09","2","077251","2069","185","Service","","0","Fixed Bug # 17243 PASM","07:00","16:00","4","60",
"07.07.09","2","077251","2069","","","","0","Fixed Bug # 17418 PASM","","","4","0",
"08.07.09","3","077251","2069","185","Service","","0","Fixing Bug # 17544 RDK","07:00","16:00","8","60",
"09.07.09","4","077251","2069","","","","0","Waiting for a Go ahead for Bug # 17917","07:00","16:00","2","60",
"09.07.09","4","077251","2069","185","Service","","0","Fixed Bug # 17917","","","4","0",
"09.07.09","4","077353","7681","110","Engineering","","0","Implemantation of E1 PASM Calibration","","","2","0",
"10.07.09","5","077353","7681","110","Engineering","","0","Implemantation of E1 PASM Calibration","07:00","16:00","8","60",
