"13.04.09","1","077598","0","910","Urlaub","","1","","07:00","16:00","8","60",
"14.04.09","2","077472","1894","110","Engineering","","1","Waiting for authoring","07:00","16:00","1,35","60",
"14.04.09","2","077472","1566","120","Codierung","","25","F149 Fuel Pressure Check (Check DTC)","","","6,65","0",
"15.04.09","3","077472","1894","110","Engineering","","1","Waiting for authoring","07:00","16:00","2","60",
"15.04.09","3","077472","1566","120","Codierung","","50","F149 NCM Fuel Pressure Check (Initial Filling)","","","6","0",
"16.04.09","4","077472","1894","110","Engineering","","1","Waiting for authoring","07:00","16:00","1,86","60",
"16.04.09","4","077472","1566","120","Codierung","","99","F149 NCM Fuel Pressure Check (Deairing + Flow Control)","","","6,14","0",
"17.04.09","5","077472","1582","120","Codierung","","100","F149 NCM Fuel Pressure Release","07:00","16:00","0","60",
"17.04.09","5","077472","1582","120","Codierung","","100","F149 Garage Braking Test Specification","","","0","0",
"17.04.09","5","077472","1566","120","Codierung","","100","Finalizing implementation of all CTS for Fuel Pressure Check","","","8","0",
