"15.06.09","1","077472","1676","120","Codierung","","85","F141 NQS Start Warranty Impl.","07:00","16:00","4","60",
"15.06.09","1","077472","0","110","Engineering","","100","Problems with connecting to DSA, did general house keeping on Ferrari SVN","","","4","0",
"16.06.09","2","077472","1","910","Urlaub","","0","Holiday","07:00","16:00","8","60",
"17.06.09","3","077472","2","110","Engineering","","100","Bugfixing F141 NQS NVO due to check-in problems","07:00","16:00","4","60",
"17.06.09","3","077472","1676","120","Codierung","","80","F141 NQS Start Warranty Impl.","","","2","0",
"17.06.09","3","077472","1672","120","Codierung","","90","Creating simulations for F141 NQS Start Warranty","","","2","0",
"18.06.09","4","077472","1676","120","Codierung","","100","Completed impl. for F141 NQS Start Warranty","07:00","16:00","8","60",
"19.06.09","5","077472","4","110","Engineering","","0","Research and Implementation of modules","07:00","16:00","8","60",
