"02.02.09","1","077472","1156","140","Test","","0","Worked on setting up the simulations correctly.","7:00","16:00","8","60",
"03.02.09","2","077472","1156","140","Test","","0","Started test vs sim on positive and cancel cases","7:00","16:00","8","60",
"04.02.09","3","077472","1157","185","Service","","0","Fixed a few detected bugs on NCM","7:00","9:00","2","0",
"04.02.09","3","077472","1156","140","Test","","0","Performed test vs sim on timeout and error cases.","9:00","16:00","6","60",
"05.02.09","4","077472","1156","140","Test","","0","Performed final testing on NCM, especially the complete test case and worked on NCM documentation.","7:00","16:00","8","60",
"06.02.09","5","077472","1156","140","Test","","0","Final testing and packaging of NCM","7:00","15:00","8","0",
"06.02.09","5","077472","1157","185","Service","","0","Fix final NCM bugs","15:00","17:00","1","60",
