"20.07.09","1","077353","7925","110","Engineering","","100","5044: E1 M5: MED9.1/ME7.11: SG-Program: WFS: Testspec Review -Completed review, all doc's checked in","07:00","16:00","5","60",
"21.07.09","2","077251","2080","185","Service, Telefon-Support","","0","G1 - BUG 18019 - 4190: Bugfixing /pa - Replaced all deprecated Modules","07:00","16:00","8","60",
"22.07.09","3","077353","1914","110","Engineering","","0","8185: Warten auf Authoring (Performance-Probleme bei Ausführung) - Installing OET, deliverable fail","07:00","16:00","4","60",
"22.07.09","3","077251","2080","185","Service, Telefon-Support","","0","G1 - Bug 18017 - 4190: Bugfixing /pa -  Configuration not working, using VNC PC","","","2","0",
"23.07.09","4","077353","4044","110","Engineering","","100","E1 - SWSG: Flashen Test Specification + Sim - re-worked simulations and updated test specification","07:00","16:00","3","60",
"23.07.09","4","077353","0","110","Engineering","","100","E1 - ECU Replacement summary and work report","","","4","0",
"23.07.09","4","077353","1914","110","Engineering","","0","8185: Warten auf Authoring (Performance-Probleme bei Ausführung)","","","1","0",
"24.07.09","5","077251","2080","185","Service, Telefon-Support","","0","G1 - BUG 18019 -4190: Bugfixing /pa - looking in to the error messages not being displayed correctly","07:00","16:00","5","60",
"24.07.09","5","077251","1125","110","Engineering","","0","8501: G1: allg. Projekttätigkeiten - Assisted with project administration","","","2","0",
"24.07.09","5","077353","1914","110","Engineering","","0","	 8185: Warten auf Authoring (Performance-Probleme bei Ausführung)","","","1","0",
