"01.06.09","1","077251","2058","185","Service","","0","Rework and delivery for G1_PSM_Abgleich_Sensorcluster","07:00","16:00","3","60",
"01.06.09","1","077251","1545","110","Engineering","","0","Fixing corrupt decision blocks in APP01A database","","","1","0",
"01.06.09","1","077251","1545","110","Engineering","","0","Investigating and fixing bug with MODULE_READ_DTC in cases where not CTS's found.","","","4","0",
"02.06.09","2","077251","2058","185","Service","","0","Fixing Livetable bug with PAG_G1_SWSG_0_Synchrontests","07:00","16:00","3","60",
"02.06.09","2","077251","1545","110","Engineering","","0","Assisting with various bugs and simulation problems","","","5","0",
"03.06.09","3","077251","2058","185","Service","","0","Working on G1 SWSG bugs 17168, 17167, 16392","07:00","16:00","3","60",
"03.06.09","3","077251","2058","185","Service","","0","Working on G1 BCM bug 16463","","","1","0",
"03.06.09","3","077251","1545","110","Engineering","","0","Training staff on CTS Modular Implementations","","","2","0",
"03.06.09","3","077251","1545","110","Engineering","","0","Creating Modular CTS HowTo documentation","","","2","0",
"04.06.09","4","077472","781","110","Engineering","","0","Modular implementations discussion and documentation","07:00","16:00","1","60",
"04.06.09","4","077251","1545","110","Engineering","","0","Further work on Modular CTS implementation HowTo + testing","","","2","0",
"04.06.09","4","077251","1545","110","Engineering","","0","Discussions about new Modules that need to be implemented.","","","2","0",
"04.06.09","4","077353","2938","110","Engineering","","0","E1 SG-Tausch implementation discussions","","","1","0",
"04.06.09","4","077251","1545","110","Engineering","","0","General office admin work. Month end reports.","","","2","0",
"05.06.09","5","077353","2929","110","Engineering","","0","Timesheet generation","07:00","16:00","1","60",
"05.06.09","5","0900065","278","170","Schulung","","0","Training for Gareth and Lonwabo","","","4","0",
"05.06.09","5","077251","1545","110","Engineering","","0","General office admin. Arrangements for new laptop equipment for Richard.","","","3","0",
