"13.07.09","1","077472","2136","120","Codierung","","30","Implementing F141 NCR (Clutch actuator bleeding)","07:00","16:00","7,5","60",
"13.07.09","1","077472","1894","110","Engineering","","0","Waiting for authoring","","","0,5","0",
"14.07.09","2","077472","2136","120","Codierung","","35","Continued implementation of F141 NCR (gear engagement)","07:00","16:00","7,34","60",
"14.07.09","2","077472","1894","110","Engineering","","0","Waiting for authoring","","","0,66","0",
"15.07.09","3","077472","2136","120","Codierung","","38","Continued implementation of F141 NCR (upload download)","07:00","16:00","7,5","60",
"15.07.09","3","077472","1894","110","Engineering","","0","Waiting for authoring","","","0,5","0",
"16.07.09","4","077472","2136","120","Codierung","","40","Continued with F141 NCR implementation (Upload download)","07:00","16:00","6","60",
"16.07.09","4","077472","1894","110","Engineering","","0","Waiting for authoring","","","2","0",
"17.07.09","5","077472","2136","120","Codierung","","45","continued f141 ncr implementation (upload download and PIS Configuration)","07:00","16:00","8","60",
