"27.04.09","1","077598","0","910","Urlaub","","0","Holiday","07:00","16:00","9","0",
"28.04.09","2","077472","1893","110","Engineering","","0","Waiting for Authoring","07:00","16:00","1","60",
"28.04.09","2","077472","1640","120","Codierung","","100","F141 NCM li/re Motor: Bugfixing nach Tets /Sim B24.8/ae15","","","6,5","0",
"28.04.09","2","077472","859","397","Allgemein","","0","DSA development meeting","","","0,5","0",
"29.04.09","3","077472","1893","110","Engineering","","0","Waiting for Authoring","07:00","16:00","1","60",
"29.04.09","3","077472","1647","120","Codierung","","100","F141 NCM li/re Motor: Bugfixing nach Tets /Sim B24.8/ae15","","","7","0",
"30.04.09","4","077472","1893","110","Engineering","","0","Waiting for Authoring","07:00","16:00","1","60",
"30.04.09","4","077472","1659","120","Codierung","","25","F141 NCM li/re Motor: Bugfixing nach Tets /Sim B24.8/ae15","","","7","0",
"01.05.09","5","077598","0","910","Urlaub","","0","Holiday","07:00","16:00","9","0",
