"13.07.09","1","077353","7241","120","Codierung","","0"," 5310: E1 M5: Gateway CAN: Flashen: Implementierung CTS","07:00","16:00","7,7","60",
"13.07.09","1","077353","6170","110","Engineering","","0","8185: Warten auf Authoring","","","0,3","0",
"14.07.09","2","077353","7241","120","Codierung","","0","5310: E1 M5: Gateway CAN: Flashen: Implementierung CTS","07:00","16:00","7","60",
"14.07.09","2","077353","6170","110","Engineering","","0","8185: Warten auf Authoring","","","1","0",
"15.07.09","3","077353","7241","120","Codierung","","100","5310: E1 M5: Gateway CAN: Flashen: Implementierung CTS","07:00","16:00","5","60",
"15.07.09","3","077353","2946","110","Engineering","","0","common project tasks","","","0,5","0",
"15.07.09","3","077353","6170","110","Engineering","","0","8185: Warten auf Authoring","","","0,8","0",
"15.07.09","3","077353","8172","140","Test","","0","	 5283: E1 M5: RDK: Systemanpassung: Modultest","","","1,7","0",
"16.07.09","4","077353","3481","120","Codierung","","0","Updating the PAG_MIG_E1_ME711_Immobiliser_Code_Programming_MED91 CTS according to CTS spec changes","07:00","16:00","1","60",
"16.07.09","4","077353","0","130","Installation + Konfiguration","","0","Setting up pidt 3.1","","","0,7","0",
"16.07.09","4","077353","8172","140","Test","","0","5283: E1 M5: RDK: Systemanpassung: Modultest","","","6,3","0",
"17.07.09","5","077353","1","160","Dokumentation","","0","Updating RDK Systemanpassung Test Spec","07:00","16:00","1","60",
"17.07.09","5","077353","2","110","Engineering","","0","Updating RDK Systemanpassung Simulations","","","0,5","0",
"17.07.09","5","077353","8173","185","Service","","0","5283: E1 M5: RDK: Systemanpassung: Bugfixing","","","6,5","0",
