"29.06.09","1","077373","0","170","Schulung","","60","E1_PDCC_EcuReplacement_MORS -CTS Implementation","07:00","16:00","8","60",
"30.06.09","2","077373","0","170","Schulung","","90","E1_PDCC_EcuReplacement_MORS -CTS Implementation","07:00","16:00","8","60",
"01.07.09","3","077353","0","110","Engineering","","50","SG-Tausch PH rework (ecu names: Kombiinstruments, Lenk & PCM2.0)","07:00","16:00","3","60",
"01.07.09","3","077353","0","110","Engineering","","95","E1_PDCC_EcuReplacement_MORS -CTS","","","5","0",
"02.07.09","4","077353","0","110","Engineering","","100","SG-Tausch PH rework (ecu names: Kombiinstruments, Lenk & PCM2.0)","07:00","16:00","8","60",
"03.07.09","5","077353","0","160","Dokumentation","","100","Readjusting Code In Module CTS's On PAGPC13","07:00","16:00","8","60",
