"23.03.09","1","077251","1514","185","Service","","0","Update GESIC on dev260 DB","07:00","16:00","4","60",
"23.03.09","1","077251","1236","120","Codierung","","0","Implemented CTS","","","4","0",
"24.03.09","2","077251","1497","110","Engineering","","0","Waiting for Authoring","07:00","16:00","0,5","60",
"24.03.09","2","077251","1236","120","Codierung","","0","Implemented CTS","","","7,5","0",
"25.03.09","3","077251","1236","120","Codierung","","0","Update CTS for updates to Spec","07:00","16:00","6","60",
"25.03.09","3","077251","1497","110","Engineering","","0","Waiting for Authoring","","","0,5","0",
"25.03.09","3","077251","1514","185","Service","","0","Fixed NegResponse bug caused by previous","","","1,5","0",
"26.03.09","4","077251","1514","185","Service","","0","Fixed NegResponse bug caused by previous","07:00","16:00","7","60",
"26.03.09","4","077251","1497","110","Engineering","","0","Waiting for Authoring","","","1","0",
"27.03.09","5","077251","1237","120","Codierung","","0","Simulations","07:00","16:00","6","60",
"27.03.09","5","077251","1514","185","Service","","100","Fixed NegResponse bug caused by previous","","","2","0",
