"27.04.09","1","077251","0","910","Urlaub","","0","Holiday (Freedom Day)","07:00","16:00","8","60",
"28.04.09","2","07","","120","Codierung","","0","E1: SG_Tausch impementation","07:00","16:00","7","60",
"28.04.09","2","077251","1371","110","Engineering","","0","Meeting","","","1","0",
"29.04.09","3","077251","1721","120","Codierung","","90","BDE Perm. FSP lesen: Impl.","07:00","16:00","7,5","60",
"29.04.09","3","077251","1371","110","Engineering","","0","Meeting","","","0,5","0",
"30.04.09","4","077251","1721","120","Codierung","","100","BDE Perm. FSP lesen: Impl.","07:00","16:00","3","60",
"30.04.09","4","077353","1","110","Engineering","","100","Rework of fix for Bug 15804","","","5","0",
"01.05.09","5","077251","0","910","Urlaub","","0","Holiday (Workers Day)","07:00","16:00","8","60",
