"30.11.09","1","09.00455","250","110","Engineering","","0","F142 Allg. Projekttätigkeiten: Deliverables erzeugen/ Base Line Konfig","07:00","16:00","2","60",
"30.11.09","1","09.00455","151","140","Test","","0","F142 NCM Short Trip: Test vs sim","","","1","0",
"30.11.09","1","09.00455","152","181","Fehlerbes. vor Ausl. (Bugzilla)","","0","F142 NCM Short Trip: Bug fix","","","5","0",
"01.12.09","2","09.00455","250","110","Engineering","","0","F142 Allg. Projekttätigkeiten: Deliverables erzeugen/ Base Line Konfig. Waiting for authoring and general work","07:00","16:00","2","60",
"01.12.09","2","09.00455","151","140","Test","","100","F142 NCM Short Trip: Test vs sim","","","2","0",
"01.12.09","2","09.00455","152","181","Fehlerbes. vor Ausl. (Bugzilla)","","100","F142 NCM Short Trip: Bug fix","","","4","0",
"02.12.09","3","09.00455","250","110","Engineering","","0","F142 Allg. Projekttätigkeiten: Deliverables erzeugen/ Base Line Konfig. Installation of new DEIS and Authoring","07:00","16:00","4","60",
"02.12.09","3","09.00455","288","190","Optimierung bei bestehenden Sys.","","0","F142 NCM Short Trip: Update new database. Manual merge of new CTSs","","","4","0",
"03.12.09","4","09.00455","250","110","Engineering","","0","F142 Allg. Projekttätigkeiten: Deliverables erzeugen/ Base Line Konfig","07:00","16:00","2","60",
"03.12.09","4","09.00455","288","190","Optimierung bei bestehenden Sys.","","0","F142 NCM Short Trip: Update new database","","","6","0",
"04.12.09","5","09.00455","250","110","Engineering","","0","F142 Allg. Projekttätigkeiten: Deliverables erzeugen/ Base Line Konfig","07:00","16:00","2","60",
"04.12.09","5","09.00455","288","190","Optimierung bei bestehenden Sys.","","100","F142 NCM Short Trip: Update new database","","","2","0",
"04.12.09","5","09.00455","154","181","Fehlerbes. vor Ausl. (Bugzilla)","","0","NCM CTS: bug-fix nach test an Fzg","","","4","0",
