"04.05.09","1","077251","1691","140","Test","","100","EPB Einschleifen: Test  gegen Simulation","07:00","16:00","4","60",
"04.05.09","1","077251","1","140","Test","","100","G1 BCM Vorne Zentralverriegelungshistorie testing against simulation","","","2","0",
"04.05.09","1","077251","2","110","Engineering","","0","Waiting for work from DSA","","","2","0",
"05.05.09","2","077251","1719","110","Engineering","","100","G1 EPB Read Fault Codes test spec creating","07:00","16:00","3","60",
"05.05.09","2","077251","1726","110","Engineering","","100","G1 PDKit Read Fault Codes test spec creation","","","3","0",
"05.05.09","2","077251","3","120","Codierung","","100","Creating simulations for G1 EPB and PDKit","","","2","0",
"06.05.09","3","077252","1","110","Engineering","","0","Waiting for work from DSA","07:00","16:00","2","60",
"06.05.09","3","077252","4","130","Installation + Konfiguration","","100","Installing PIDT3.0 and Authoring 3.0 and configuring","","","3","0",
"06.05.09","3","077251","1688","110","Engineering","","40","EPB Einschleifen:  Testspec erstellen after review","","","3","0",
"07.05.09","4","077251","1688","110","Engineering","","100","Reworking G1 EPB Einscheiflen after review","07:00","16:00","5","60",
"07.05.09","4","077251","5","120","Codierung","","100","Bugfixing G1 Airnbag lock. Bug #15446","","","3","0",
"08.05.09","5","077251","1719","110","Engineering","","90","Reworking - G1 EPB Read Fault Codes test spec creating due to review","07:00","16:00","2","60",
"08.05.09","5","077251","1726","","","","90","Reworking - G1 PDKit Read Fault Codes test spec due to review","","","3","0",
"08.05.09","5","077251","3","120","Codierung","","100","Reworking simulations for G1 EPB/PDKit Read Fault Codes","","","3","0",
