"30.11.09","1","077353","11789","120","Codierung","","15"," 5428: E1 M5: PCM2-MMI: SG-Tausch: Implementierung. Implementing Pre-Read","07:00","16:00","5","60",
"30.11.09","1","077353","11654","181","Fehlerbes. vor Ausl. (Bugzilla)","","100","	 5540: E1 M5: Lenkradelektronik: Bugfixing zu Integrationstest. Bugfixing","","","2","0",
"30.11.09","1","077353","10867","110","Engineering","","0","8185: Warten auf Authoring (Performance-Probleme bei Ausführung). Waiting for Authoring","","","1","0",
"01.12.09","2","077353","10867","110","Engineering","","0","8185: Warten auf Authoring (Performance-Probleme bei Ausführung). Waiting for Authoring","07:00","16:00","1","60",
"01.12.09","2","077353","11789","120","Codierung","","70","	 5428: E1 M5: PCM2-MMI: SG-Tausch: Implementierung.  Implementation","","","7","0",
"02.12.09","3","077353","11789","120","Codierung","","48","	 5428: E1 M5: PCM2-MMI: SG-Tausch: Implementierung. Implementation","07:00","16:00","7","60",
"02.12.09","3","077353","10867","110","Engineering","","0","8185: Warten auf Authoring (Performance-Probleme bei Ausführung). Waiting for Authoring","","","1","0",
"03.12.09","4","077353","9560","110","Engineering","","0","8501: E1 M5: allg. Projekttätigkeiten. Bugfixing Bug","07:00","16:00","4","60",
"03.12.09","4","077353","11789","120","Codierung","","75"," 5428: E1 M5: PCM2-MMI: SG-Tausch: Implementierung. Implementation","","","3","0",
"03.12.09","4","077353","10867","110","Engineering","","0","8185: Warten auf Authoring (Performance-Probleme bei Ausführung). Waitng for Authoring","","","1","0",
"04.12.09","5","077353","11120","140","Test","","100","5825: E1 M5: PCM2-CD-Navi: SG-Tausch: Modultest. PTTD Attributation test","07:00","16:00","4","60",
"04.12.09","5","077353","11789","120","Codierung","","95","5428: E1 M5: PCM2-MMI: SG-Tausch: Implementierung. Implementation","","","3","0",
"04.12.09","5","077353","10867","110","Engineering","","0","8185: Warten auf Authoring (Performance-Probleme bei Ausführung). Waiting for Authoring","","","1","0",
