"14.12.09","1","077353","1087","110","Engineering","","0","8501: E1 M5: allg. Projekttätigkeiten A1.15/ae15. Reworking Test Pec and CTS for PAG_E1_PCM2_ExtAmp_Audiotest...","07:00","16:00","4","60",
"14.12.09","1","077353","1087","110","Engineering","","0","8501: E1 M5: allg. Projekttätigkeiten A1.15/ae15. Fixing E1 Bug  20214","","","2","0",
"14.12.09","1","077251","3398","110","Engineering","","0","8185: Warten auf Authoring (Performance-Probleme bei Ausführung). Waiting for Authoring","","","2","0",
"15.12.09","2","077353","1087","110","Engineering","","0","8501: E1 M5: allg. Projekttätigkeiten A1.15/ae15. Installing PIDT","07:00","16:00","1","60",
"15.12.09","2","077251","1372","110","Engineering","","0"," 8501: G1: allg. Projekttätigkeiten. Fixing G1 Bug 18734","","","5","0",
"15.12.09","2","077353","1087","110","Engineering","","0"," 8501: G1: allg. Projekttätigkeiten. Fixing G1 Bug 20477","","","1","0",
"15.12.09","2","077251","3398","110","Engineering","","0","8185: Warten auf Authoring (Performance-Probleme bei Ausführung). Waiting For Authoring","","","1","0",
"16.12.09","3","077353","1087","110","Engineering","","0","	 8501: E1 M5: allg. Projekttätigkeiten A1.15/ae15. Helping Collegue","07:00","16:00","2","60",
"16.12.09","3","077353","1087","110","Engineering","","0","8501: E1 M5: allg. Projekttätigkeiten A1.15/ae15. Fixing E1 Bug 20699","","","2","0",
"16.12.09","3","077353","1087","110","Engineering","","0"," 8501: E1 M5: allg. Projekttätigkeiten A1.15/ae15. ReBug fixing E1_PCM2_Bose_Audiotest(Test Spec/Simulations/CTS)","","","1","0",
"16.12.09","3","077251","3398","110","Engineering","","0","8185: Warten auf Authoring (Performance-Probleme bei Ausführung). Waiting for Authoring/PIDT","","","3","0",
"17.12.09","4","077251","3398","110","Engineering","","0","8185: Warten auf Authoring (Performance-Probleme bei Ausführung). Waiting For Authoring / Pidt issues","07:00","16:00","2","60",
"17.12.09","4","077353","1087","110","Engineering","","0","8501: E1 M5: allg. Projekttätigkeiten A1.15/ae15. ReBug fixing E1_PCM2_Bose_Audiotest(Test Spec/Simulations/CTS)","","","4","0",
"17.12.09","4","077353","1087","110","Engineering","","0","8501: E1 M5: allg. Projekttätigkeiten A1.15/ae15. Bugfixing E1 Bugs","","","2","0",
"18.12.09","5","077598","0","910","Urlaub","","0","We closed yesterday. Holiday","07:00","16:00","8","60",
