"19.10.09","1","077598","0","910","Urlaub","","0","Time Off","07:00","16:00","4","60",
"19.10.09","1","077353","10366","140","Test","","75","	 5905: E1 M5: PCM2-TV-Tuner: Videoanschluss (GESiC): Modultest","","","2","0",
"19.10.09","1","077353","9551","110","Engineering","","0","8501: E1 M5: allg. Projekttätigkeiten - Basic Admin and general assisting","","","1","0",
"19.10.09","1","077353","10380","120","Codierung","","10","	 5907: E1 M5: PCM2-TV-Tuner: SG-Tausch: Implementierung","","","1","0",
"20.10.09","2","077353","10380","120","Codierung","","40","5907: E1 M5: PCM2-TV-Tuner: SG-Tausch: Implementierung","07:00","16:00","5","60",
"20.10.09","2","077353","9551","110","Engineering","","0","8501: E1 M5: allg. Projekttätigkeiten -  Admin and genrel assisting","","","2","0",
"20.10.09","2","077353","1914","110","Engineering","","0","8185: Warten auf Authoring (Performance-Probleme bei Ausführung)","","","1","0",
"21.10.09","3","077353","9551","110","Engineering","","0","8501: E1 M5: allg. Projekttätigkeiten -  Admin, genrel assisting and Meeting","07:00","16:00","2,5","60",
"21.10.09","3","077353","1914","110","Engineering","","0","8185: Warten auf Authoring (Performance-Probleme bei Ausführung)","","","1,5","0",
"21.10.09","3","077353","10377","110","Engineering","","10","	 5907: E1 M5: PCM2-TV-Tuner: SG-Tausch: Testspec + erw. Sim. - Just simulations","","","1","0",
"21.10.09","3","077353","10380","120","Codierung","","50","5907: E1 M5: PCM2-TV-Tuner: SG-Tausch: Implementierung - trouble with ECU Variant Identification","","","3","0",
"22.10.09","4","077353","9551","110","Engineering","","0","8501: E1 M5: allg. Projekttätigkeiten -  Admin and genrel assisting - Meeting","07:00","16:00","2","60",
"22.10.09","4","077353","1914","110","Engineering","","0","	 8185: Warten auf Authoring (Performance-Probleme bei Ausführung)","","","2","0",
"22.10.09","4","077353","10380","120","Codierung","","80","	 5907: E1 M5: PCM2-TV-Tuner: SG-Tausch: Implementierung - Need to intergrate","","","4","0",
"23.10.09","5","077353","10380","120","Codierung","","100","5907: E1 M5: PCM2-TV-Tuner: SG-Tausch: Implementierung - Complete","07:00","16:00","4","60",
"23.10.09","5","077353","10377","110","Engineering","","40","	 5907: E1 M5: PCM2-TV-Tuner: SG-Tausch: Testspec + erw. Sim. - Simulations finilised","","","1","0",
"23.10.09","5","077353","9551","110","Engineering","","0","8501: E1 M5: allg. Projekttätigkeiten -  Admin and genrel assisting","","","1","0",
"23.10.09","5","077353","1914","110","Engineering","","0","8185: Warten auf Authoring (Performance-Probleme bei Ausführung)","","","2","0",
