"09.02.09","1","077472","1157","185","Service","","0","Completed NCM bugfixing.","7:00","16:00","8","60",
"10.02.09","2","077472","1157","185","Service","","0","Finalized F149 NCM","7:00","11:00","4","0",
"10.02.09","2","077472","1313","140","Test","","0","Started creating simulations for F141 NCL testing.","11:00","16:00","4","60",
"11.02.09","3","077472","1313","140","Test","","0","Started testing F141 NCL","7:00","16:00","8","60",
"12.02.09","4","077472","1313","140","Test","","0","F141 NCL - Completed testing and performed some bugfixing.","7:00","16:00","8","60",
"13.02.09","5","077472","1368","140","Test","","0","Started testing F141 NTP.","7:00","16:00","8","60",
