"27.07.09","1","077472","1719","110","Engineering","","0","NCR Getriebe: TestSpec B45.1/ae17","07:00","16:00","4","60",
"27.07.09","1","077472","1720","120","Codierung","","0","NCR Getriebe:Anpassung Impl. Teilabläufe","","","3","0",
"27.07.09","1","077472","1893","110","Engineering","","0","Waiting for Authoring","","","1","0",
"28.07.09","2","077598","0","910","Urlaub","","0","Paternity leave","07:00","16:00","9","0",
"29.07.09","3","077598","0","910","Urlaub","","0","Paternity leave","07:00","16:00","9","0",
"30.07.09","4","077598","0","910","Urlaub","","0","Paternity leave","07:00","16:00","9","0",
"31.07.09","5","077598","0","910","Urlaub","","0","Paternity leave","07:00","16:00","9","0",
