"12.10.09","1","09.00052","261","170","Schulung","","0","Schulungen 2009 ODX  Training on Bug #19168 and ODX Authoring.","07:00","16:00","4","60",
"12.10.09","1","077353","0","110","Engineering","","100","5862: E1 M5: PCM2-SBS2: Löschen Spracheinträge (GESiC): Testspec + erw. Sim. Updated per review.","","","1,5","0",
"12.10.09","1","077353","1","110","Engineering","","100","E1 M5: PCM2-SBS2: Mikrofontest (GESiC): Testspec + erw. Sim. Updated per review.","","","1,5","0",
"12.10.09","1","077353","7687","110","Engineering","","0","8501: E1 M5: allg. Projekttätigkeiten Updated software and installed remote ODX  Authoring.","","","1","0",
"13.10.09","2","077353","10146","110","Engineering","","80"," 5863: E1 M5: PCM2-SBS2: Mikrofontest (GESiC): Implementierung added/ tested error handling.","07:00","16:00","4","60",
"13.10.09","2","077353","10138","110","Engineering","","50","5862: E1 M5: PCM2-SBS2: Löschen Spracheinträge (GESiC): Implementierung: Added/ test error handling.","","","3","0",
"13.10.09","2","077353","7687","110","Engineering","","0","8501: E1 M5: allg. Projekttätigkeiten Closed bug fixed bugs and  maintained workstation.","","","1","0",
"14.10.09","3","077353","10138","110","Engineering","","99","5862: E1 M5: PCM2-SBS2: Löschen Spracheinträge (GESiC): Implementierung Implemented  service.","07:00","16:00","4","60",
"14.10.09","3","077353","10146","110","Engineering","","80","5863: E1 M5: PCM2-SBS2: Mikrofontest (GESiC): Implementierung added services and posted bug 19392","","","3","0",
"14.10.09","3","077353","7687","110","Engineering","","0","	8501: E1 M5: allg. Projekttätigkeiten Closed bug fixed bugs and maintained workstation.","","","1","0",
"15.10.09","4","077598","0","920","Krankheit","","0","Off sick.","07:00","16:00","8","60",
"16.10.09","5","077353","10138","110","Engineering","","100","5862: E1 M5: PCM2-SBS2: Löschen Spracheinträge (GESiC): Implementierung Implemented the correct GUI.","07:00","16:00","3","60",
"16.10.09","5","077353","9235","110","Engineering","","99"," 5368: E1 M5: SWSG: SG-Tausch: Testspec + erw. Sim. Updated to the latest SG Tausch format tes spec.","","","2","0",
"16.10.09","5","077353","10139","140","Test","","90"," 5862: E1 M5: PCM2-SBS2: Löschen Spracheinträge (GESiC): Modultest Creation of the MOTR document.","","","3","0",
