"20.04.09","1","077472","1587","110","Engineering","","100","F149: NPB Garrage braking: Test /Sim","07:00","16:00","2","60",
"20.04.09","1","077472","1643","110","Engineering","","100","F141 NCM li/re Motor: Sim B24.3/ae15 (Shorttrip)","","","2","0",
"20.04.09","1","077472","1634","110","Engineering","","100","F141 NCM li/re Motor: Sim B24.3/ae15 (carbuartion)","","","2","0",
"20.04.09","1","077472","1640","120","Codierung","","70","NCM li/re Motor: Bugfixing nach Tets /Sim B24.8/ae15","","","1","0",
"20.04.09","1","077472","1893","110","Engineering","","0","Waiting for Authoring","","","1","0",
"21.04.09","2","077472","1893","110","Engineering","","0","Waiting for Authoring","07:00","16:00","1","60",
"21.04.09","2","077472","1647","120","Codierung","","72","F141 NCM li/re Motor: Bugfixing nach Tets /Sim B24.8/ae15","","","7","0",
"22.04.09","3","077598","0","910","Urlaub","","0","Holiday","07:00","16:00","9","0",
"23.04.09","4","077472","1647","120","Codierung","","75","F141 NCM li/re Motor: Bugfixing nach Tets /Sim B24.8/ae15","07:00","16:00","7","60",
"23.04.09","4","077472","1893","110","Engineering","","0","Waiting for Authoring","","","1","0",
"24.04.09","5","077472","1893","110","Engineering","","0","Waiting for Authoring","07:00","16:00","1","60",
"24.04.09","5","077472","1647","120","Codierung","","76","F141 NCM li/re Motor: Bugfixing nach Tets /Sim B24.8/ae15","","","7","0",
