"15.06.09","1","09.00065","28","270","Schulung","","0","Assisted new colleague with Authoring questions and Simulations","07:00","16:00","1","60",
"15.06.09","1","077251","2066","185","Service","","0","4100: Bugfixing - Finalized testing on Modular system and reviewed modular scripts","","","7","0",
"16.06.09","2","077598","0","910","Urlaub","","0","Public Holiday","07:00","16:00","8","60",
"17.06.09","3","077251","1125","110","Engineering","","0","Meeting","07:00","16:00","1","60",
"17.06.09","3","077251","2066","185","Service","","0","G1 - Bugfixing - Module re-work for extracting additional data, also reviewed module workings","","","7","0",
"18.06.09","4","077251","1125","110","Engineering","","0","Meeting","07:00","16:00","1","60",
"18.06.09","4","077353","4044","110","Engineering","","20","E1 - SWSG: Flashen Test Specification + Sim","","","7","0",
"19.06.09","5","077353","4044","110","Engineering","","50","E1 - SWSG: Flashen Test Specification + Sim","07:00","16:00","8","60",
