"30.03.09","1","077251","1236","120","Codierung","","100","Implemented CTS","07:00","16:00","1","60",
"30.03.09","1","077251","0","120","Codierung","","0","Reworking GESIC","","","6","0",
"30.03.09","1","077251","1497","110","Engineering","","0","Waiting for Authoring","","","1","0",
"31.03.09","2","077251","0","120","Codierung","","0","Reworking GESIC","07:00","16:00","7,5","60",
"31.03.09","2","077251","1497","110","Engineering","","0","Waiting for Authoring","","","0,5","0",
"01.04.09","3","077251","0","185","Service","","100","Fixed bug #15365","07:00","16:00","3,5","60",
"01.04.09","3","077251","1497","110","Engineering","","0","Waiting for Authoring","","","0,5","0",
"01.04.09","3","077251","0","120","Codierung","","0","Reworking GESIC","","","4","0",
"02.04.09","4","077251","0","120","Codierung","","0","Reworking GESIC","07:00","16:00","5","60",
"02.04.09","4","077251","0","160","Dokumentation","","0","PCM Self-test Spec","","","2,5","0",
"02.04.09","4","077251","1497","110","Engineering","","0","Waiting for Authoring","","","0,5","0",
"03.04.09","5","077251","0","160","Dokumentation","","100","PCM Self-test Spec","07:00","16:00","4","60",
"03.04.09","5","077251","1497","110","Engineering","","0","Waiting for Authoring","","","0,5","0",
"03.04.09","5","077251","0","120","Codierung","","0","Reworking GESIC","","","3,5","0",
