"01.06.09","1","077353","4048","120","Codierung","","0","4369: E1 M5: SWSG: Flashen: Implementierung CTS","07:00","16:00","7","60",
"01.06.09","1","077353","6170","110","Engineering","","0","8185: Warten auf Authoring","","","1","0",
"02.06.09","2","077353","6170","110","Engineering","","0","8185: Warten auf Authoring","07:00","16:00","1","60",
"02.06.09","2","077353","4048","120","Codierung","","0","4369: E1 M5: SWSG: Flashen: Implementierung CTS","","","7","0",
"03.06.09","3","077353","2946","110","Engineering","","0","common project tasks","07:00","16:00","1,5","60",
"03.06.09","3","077353","6170","110","Engineering","","0","8185: Warten auf Authoring","","","0,5","0",
"03.06.09","3","077353","4048","120","Codierung","","0","4369: E1 M5: SWSG: Flashen: Implementierung CTS","","","6","0",
"04.06.09","4","077353","6170","110","Engineering","","0","8185: Warten auf Authoring","07:00","16:00","1","60",
"04.06.09","4","077353","4048","120","Codierung","","0","4369: E1 M5: SWSG: Flashen: Implementierung CTS","","","7","0",
"05.06.09","5","077353","4048","397","Allgemein","","0","Waiting for bugs 17094 & 17728 to finish 4369: E1 M5: SWSG: Flashen: Implementierung CTS","07:00","16:00","0","60",
"05.06.09","5","077353","4048","110","Engineering","","0","Creating simulations for 4369: E1 M5: SWSG: Flashen: Implementierung CTS","","","6","0",
"05.06.09","5","077353","4048","120","Codierung","","92","4369: E1 M5: SWSG: Flashen: Implementierung CTS","","","2","0",
