"30.11.09","1","077353","11929","120","Codierung","","60","6015: E1 M5: Airbag verriegeln (24.100): Implementierung. Implementation of selection sequence","07:00","16:00","8","60",
"01.12.09","2","077353","11929","120","Codierung","","100"," 6015: E1 M5: Airbag verriegeln (24.100): Implementierung. Implementation of unlock Sequence","07:00","16:00","7","60",
"01.12.09","2","077353","1088","110","Engineering","","0","8501: E1 M5: allg. Projekttätigkeiten A1.15/ae15. Assiting collegue with AWS System test bug analaysis","","","1","0",
"02.12.09","3","077353","11927","110","Engineering","","100","6015: E1 M5: Airbag verriegeln (24.100): Testspec. Creation of test specification","07:00","16:00","8","60",
"03.12.09","4","077353","11930","140","Test","","100","	 6015: E1 M5: Airbag verriegeln (24.100): Modultest. Testing","07:00","16:00","7","60",
"03.12.09","4","077353","1088","110","Engineering","","0","8501: E1 M5: allg. Projekttätigkeiten A1.15/ae15. Assisting collegue with ODX bugs","","","1","0",
"04.12.09","5","077353","11931","181","Fehlerbes. vor Ausl. (Bugzilla)","","100"," 6015: E1 M5: Airbag verriegeln (24.100): Bugfixing zum Modultest. Bugfixing","07:00","16:00","8","60",
