"07.12.09","1","077353","11788","120","Codierung","","0","5428: E1 M5: PCM2-MMI: SG-Tausch: ODX-Bedatung (#14826 and #14965). Working on some bugs.","07:00","16:00","3","60",
"07.12.09","1","077353","11583","170","Schulung","","0","8501: E1 M5: Assisting colleagues. Helping colleagues with simulations","","","1","0",
"07.12.09","1","077353","11777","120","Codierung","","0","5425: E1 M5: PCM2-MMI: Komplex Codier: ODX Bedatung from s42 (#14743 and #14974). Working on the ODX bedatung","","","4","0",
"08.12.09","2","077353","11777","120","Codierung","","100","5425: E1 M5: PCM2-MMI: Komplex Codier: ODX Bedatung from s42 (#14743 and #14974). Completed the ODX Bedatung task","07:00","16:00","4","60",
"08.12.09","2","077353","11788","120","Codierung","","100","5428: E1 M5: PCM2-MMI: SG-Tausch: ODX-Bedatung (#14826 and #14965). Completed the required bugs.","","","4","0",
"09.12.09","3","077353","0","181","Fehlerbes. vor Ausl. (Bugzilla)","","0","Worked on CD-Navi bug #14752. (No valid open CD-Navi task available to book on)","07:00","16:00","3","60",
"09.12.09","3","077251","3399","182","Fehlerbes. nach Ausl. (Bugzilla)","","0","8501: allg. Einarbeitung G1. Worked on Bug #20282. Working on bugs from bugzilla","","","4","0",
"09.12.09","3","077353","11583","170","Schulung","","0","8501: E1 M5: Assisting colleagues. Assisting with simulation issues.","","","1","0",
"10.12.09","4","077251","3399","182","Fehlerbes. nach Ausl. (Bugzilla)","","0","4195: Erprobung: Bugfixing (#20282 and #20569)","07:00","16:00","5","60",
"10.12.09","4","077251","0","140","Test","","0","Waiting for Authoring (no general task to book it under)","","","3","0",
"11.12.09","5","077353","11331","181","Fehlerbes. vor Ausl. (Bugzilla)","","0","5664: E1 M5: PCM2-Telefon: SG-Tausch: Bugfixing zum Modultest (#14750). Verified that the bug has been resolved.","07:00","16:00","0,5","60",
"11.12.09","5","077251","3399","182","Fehlerbes. nach Ausl. (Bugzilla)","","0","4195: Erprobung: Bugfixing (#20569). Working on bug","","","7,5","0",
