"11.05.09","1","077472","1893","110","Engineering","","0","Waiting for Authoring","07:00","16:00","0,5","60",
"11.05.09","1","077472","0","120","Codierung","","5","F141 AWS Gewicht Airbag: CTS Implementation","","","7,5","0",
"12.05.09","2","077472","1893","110","Engineering","","0","Waiting for Authoring","07:00","16:00","0,5","60",
"12.05.09","2","077472","0","120","Codierung","","10","F141 AWS Gewicht Airbag: CTS Implementation","","","7,5","0",
"13.05.09","3","077472","0","110","Engineering","","0","Waiting for Authoring","07:00","16:00","0,5","60",
"13.05.09","3","077472","0","120","Codierung","","15","F141 AWS Gewicht Airbag: CTS Implementation","","","7,5","0",
"14.05.09","4","077472","1893","110","Engineering","","0","Waiting for Authoring","07:00","16:00","0,5","60",
"14.05.09","4","077472","0","120","Codierung","","17","F141 AWS Gewicht Airbag: CTS Implementation","","","7,5","0",
"15.05.09","5","077472","1893","110","Engineering","","0","Waiting for Authoring","07:00","16:00","1","60",
"15.05.09","5","077472","0","120","Codierung","","0","F141 AWS Gewicht Airbag: CTS Implementation","","","4","0",
"15.05.09","5","077472","1917","185","Service","","0","F149: CTS Bugs f2","","","3","0",
