"12.01.09","1","077353","1089","110","Engineering ","","0","test spec review - heckklappe","7:00","16:00","8","60",
"13.01.09","2","077353","1089","110","Engineering ","","0","Internationalization of aws system test","7:00","16:00","8","60",
"14.01.09","3","077353","1813","110","Engineering ","","0","review test spec","7:00","16:00","8","60",
"15.01.09","4","077353","1813","110","Engineering ","","0","Ran test against simulation and review of test spec","7:00","16:00","8","60",
