"18.05.09","1","077472","1944","120","Codierung","","30","F141 AWS - CTS Implementation.","07:00","16:00","6,9","60",
"18.05.09","1","077472","1895","110","Engineering","","0","Waiting for Authoring.","","","1,1","0",
"19.05.09","2","077472","1895","110","Engineering","","0","Waiting for Authoring.","07:00","16:00","1,4","60",
"19.05.09","2","077472","1944","120","Codierung","","40","F141 AWS - CTS Implementation.","","","6,6","0",
"20.05.09","3","077472","1895","110","Engineering","","0","Waiting for Authoring.","07:00","16:00","0,56","60",
"20.05.09","3","077472","1944","120","Codierung","","60","F141 AWS - CTS Implementation","","","7,44","0",
"21.05.09","4","077472","1895","110","Engineering","","0","Waiting for Authoring.","07:00","16:00","0,5","60",
"21.05.09","4","077472","1944","120","Codierung","","80","F141 AWS - CTS Implementation.","","","7,5","0",
"22.05.09","5","077472","1895","110","Engineering","","0","Waiting for Authoring.","07:00","16:00","0,5","60",
"22.05.09","5","077472","1944","120","Codierung","","90","F141 AWS - CTS Implementation","","","7,5","0",
