"25.05.09","1","077353","4048","120","Codierung","","0","Implementing 4369: E1 SWSG: Flashen CTS","07:00","16:00","7","60",
"25.05.09","1","077353","6170","110","Engineering","","0","8185: Warten auf Authoring","","","1","0",
"26.05.09","2","077353","4048","120","Codierung","","0","Implementing 4369: E1 SWSG: Flashen CTS","07:00","16:00","7","60",
"26.05.09","2","077353","6170","110","Engineering","","0","8185: Warten auf Authoring","","","1","0",
"27.05.09","3","077353","4048","120","Codierung","","0","Implementing 4369: E1 SWSG: Flashen CTS","07:00","16:00","7","60",
"27.05.09","3","077353","6170","110","Engineering","","0","8185: Warten auf Authoring","","","1","0",
"28.05.09","4","077353","4048","120","Codierung","","0","Implementing 4369: E1 SWSG: Flashen CTS","07:00","16:00","7","60",
"28.05.09","4","077353","6170","110","Engineering","","0","8185: Warten auf Authoring","","","1","0",
"29.05.09","5","077353","6170","110","Engineering","","0","8185: Warten auf Authoring","07:00","16:00","1","60",
"29.05.09","5","077353","4048","120","Codierung","","0","4369: E1 M5: SWSG: Flashen: Implementierung CTS","","","7","0",
