"05.10.09","1","077353","9741","140","Test","","50","5083: E1 M5: Tiptronic: SG-Tausch: Modultest - Having problems with testing in new DSA_GESIC.","07:00","16:00","8","60",
"06.10.09","2","077353","9741","140","Test","","80"," 5083: E1 M5: Tiptronic: SG-Tausch: Modultest : New Gesic Problems","07:00","16:00","5","60",
"06.10.09","2","077353","9765","140","Test","","10","5103: E1 M5: PSM: SG-Tausch: Modultest","","","3","0",
"07.10.09","3","077353","9741","140","Test","","100","5083: E1 M5: Tiptronic: SG-Tausch: Modultest","07:00","16:00","4","60",
"07.10.09","3","077353","9765","140","Test","","20","5103: E1 M5: PSM: SG-Tausch: Modultest","","","1","0",
"07.10.09","3","077353","0","181","Fehlerbes. vor Ausl. (Bugzilla)","","10","Heck SG Tausch Bug Fixing","","","3","0",
"08.10.09","4","077353","9765","140","Test","","20","0	5103: E1 M5: PSM: SG-Tausch: Modultest","07:00","16:00","1","60",
"08.10.09","4","077353","0","181","Fehlerbes. vor Ausl. (Bugzilla)","","30","Heck SG Tausch Bug Fixing","","","7","0",
"09.10.09","5","077353","9765","140","Test","","80","	0 5103: E1 M5: PSM: SG-Tausch: Modultest","07:00","16:00","8","60",
