"14.09.09","1","077353","1897","110","Engineering","","99","Waiting for new authoring installation, and trying to get it to work.","07:00","16:00","4","60",
"14.09.09","1","077353","0","110","Engineering","","99","Assisting colleagues with coding","","","1","0",
"14.09.09","1","077353","1","120","Codierung","","70","DTC Module testing and bugfixing.","","","3","0",
"15.09.09","2","077353","10611","110","Engineering","","99","Assisting colleagues","07:00","16:00","1,5","60",
"15.09.09","2","077353","1","110","Engineering","","80","DTC Module implemented into Kessy, DTC Module bugfixing","","","5","0",
"15.09.09","2","077353","1897","110","Engineering","","99","Waiting for Authoring","","","1,5","0",
"16.09.09","3","077353","10611","110","Engineering","","99","Assisting colleagues","07:00","16:00","1","60",
"16.09.09","3","067527","3128","120","Codierung","","60","implementation of Pflege Auftrage Vehicle Order Module","","","5","0",
"16.09.09","3","077353","1897","110","Engineering","","99","Problems with screens, application server connection issues","","","2","0",
"17.09.09","4","067527","3128","110","Engineering","","90","Implemented module vehicle-order","07:00","16:00","8","60",
"18.09.09","5","077353","9537","181","Fehlerbes. vor Ausl. (Bugzilla)","","50","Fixed a bug in SGTausch","07:00","16:00","2","60",
"18.09.09","5","077353","10611","110","Engineering","","99","Assiting colleagues with coding.","","","2","0",
"18.09.09","5","077353","2","120","Codierung","","15","5804: CDR23-GW: Audiotest manuell: Implementierung","","","4","0",
