"16.11.09","1","077251","1372","110","Engineering","","0","Fixing Bug # 19052","07:00","16:00","1","60",
"16.11.09","1","077251","1372","110","Engineering","","0","Fixing Bug # 17707","","","4","0",
"16.11.09","1","077251","1372","110","Engineering","","0","Installing New Authoring and PIDT","","","1","0",
"16.11.09","1","077353","1916","110","Engineering","","0","Waiting for Authoring","","","2","0",
"17.11.09","2","077251","1372","110","Engineering","","0","Closing and reassigning all my fixed bugs","07:00","16:00","1","60",
"17.11.09","2","077251","1372","110","Engineering","","0","Fix Bug # 19208","","","3","0",
"17.11.09","2","077251","1372","110","Engineering","","0","Fixing Bug # 19052","","","2","0",
"17.11.09","2","077353","1916","110","Engineering","","0","Waiting for Authoring","","","2","0",
"18.11.09","3","077251","1372","110","Engineering","","0","Fix Bug # 19555","07:00","16:00","2","60",
"18.11.09","3","077251","1372","110","Engineering","","0","Fix Bug # 16904","","","4","0",
"18.11.09","3","077251","1372","110","Engineering","","0","Waiting for Authoring","","","2","0",
"19.11.09","4","077251","1372","110","Engineering","","0","Fix Bug # 16904","07:00","16:00","4","60",
"19.11.09","4","077353","1916","110","Engineering","","0","Waiting for Authoring","","","3","0",
"19.11.09","4","077251","1372","110","Engineering","","0","Helping collegue s52","","","1","0",
"20.11.09","5","077251","1372","110","Engineering","","0","Fix Bug # 16904","07:00","16:00","5","60",
"20.11.09","5","077353","1916","110","Engineering","","0","Waiting for Authoring","","","2","0",
"20.11.09","5","077251","1372","110","Engineering","","0","Helping collegue s52","","","1","0",
