"16.03.09","1","077353","1090","110","Engineering ","","0","Worked on execution handler","7:00","16:00","8","60",
"17.03.09","2","077353","1090","110","Engineering ","","0","Worked on execution handler","7:00","16:00","8","60",
"18.03.09","3","077353","1090","110","Engineering ","","0","Worked on execution handler","7:00","16:00","8","60",
"19.03.09","4","077353","1090","110","Engineering ","","0","Worked on execution handler and Doc(5hrs) and attempted to connect to DSA to debug Apuc CTS(3 hrs)","7:00","16:00","8","60",
"20.03.09","5","077353","1090","110","Engineering ","","0","Finished Execution Handler documentation(4 hrs) and worked on Apuc CTS(4 hrs)","7:00","16:00","8","60",
