"09.02.09","1","077472","1315","110","Engineering ","","0","Completed F141 NCM PH. Sent for review.","7:00","16:00","8","60",
"10.02.09","2","077472","781","110","Engineering ","","0","","7:00","11:00","4","0",
"10.02.09","2","077353","1082","110","Engineering ","","0","Troubleshooting Porsche server problems and applying fixes.","11:00","16:00","4","60",
"11.02.09","3","077472","781","110","Engineering ","","0","Applying fixes to F141 NCM Short Trips after review.","7:00","10:00","3","0",
"11.02.09","3","077353","1077","110","Engineering ","","0","Project tracking and problem tracking.","10:00","11:00","1","0",
"11.02.09","3","077353","1082","110","Engineering ","","0","Assisting with CTS issues and server issues ","11:00","16:00","4","60",
"12.02.09","4","077472","781","110","Engineering ","","0","Updating F141 NCM PH for Carburetion checks after review.","7:00","10:00","3","0",
"12.02.09","4","077353","1082","110","Engineering ","","0","Assisting with CTS PH issues for Porsche. Download + install updates for PIDT, Authoring","10:00","14:00","4","0",
"12.02.09","4","077353","1077","110","Engineering ","","0","Problem tracking.","14:00","16:00","1","60",
"13.02.09","5","077353","1077","110","Engineering ","","0","timesheet generate and check","7:00","8:00","1","0",
"13.02.09","5","077353","1082","110","Engineering ","","0","Training for S44 replacement.","8:00","16:00","7","60",
