"01.06.09","1","077472","0","120","Codierung","","99","F141 NVO Implimentation","07:00","16:00","8","60",
"02.06.09","2","077472","1735","110","Engineering","","30","F141 NVO Test Spec","07:00","16:00","5","60",
"02.06.09","2","077472","1737","140","Test","","30","F141 NVO Creating simulations","","","2","0",
"02.06.09","2","077472","0","120","Codierung","","100","F141 NVO Implimentation","","","1","0",
"03.06.09","3","077472","1735","110","Engineering","","60","F141 NVO Test Spec","07:00","16:00","5","60",
"03.06.09","3","077472","1737","140","Test","","70","F141 Creatinf Simulations","","","3","0",
"04.06.09","4","077472","1","110","Engineering","","100","F141 NVO reworking PH Document","07:00","16:00","3","60",
"04.06.09","4","077472","1738","185","Service","","99","F141 NVO bugfixing according to PH doc changes","","","4","0",
"04.06.09","4","077472","1735","110","Engineering","","75","F141 NVO Test Spec","","","1","0",
"05.06.09","5","077472","1735","110","Engineering","","100","F141 NVO Test Spec","07:00","16:00","5","60",
"05.06.09","5","077472","1737","140","Test","","95","F141 NVO Simulations","","","3","0",
