"30.11.09","1","077353","2938","110","Engineering","","0","8501: E1 M5: allg. Projekttätigkeiten A1.15/ae19. Assisting colleagues, genral admin, bug tracking","07:00","16:00","8","60",
"01.12.09","2","077353","7704","160","Dokumentation","","100","8501: E1 M5: Doc Modular Impl CTS. Task can be closed","07:00","16:00","0","60",
"01.12.09","2","077353","7682","190","Optimierung bei bestehenden Sys.","","100","8501: E1 M5: Modular Impl old CTS. Task can be closed","","","0","0",
"01.12.09","2","077353","2938","110","Engineering","","0","8501: E1 M5: allg. Projekttätigkeiten A1.15/ae19. Assisting colleagues, genral admin","","","6","0",
"01.12.09","2","077353","2929","110","Engineering","","0","8501: E1 M5: CoMod A1.4/ae19. Task + Bug tracking. Work assignments","","","2","0",
"02.12.09","3","077353","2938","110","Engineering","","0","8501: E1 M5: allg. Projekttätigkeiten A1.15/ae19. Assisting colleagues, genral admin","07:00","16:00","4","60",
"02.12.09","3","077353","2929","110","Engineering","","0","8501: E1 M5: CoMod A1.4/ae19. Task + Bug tracking. Work assignments","","","4","0",
"03.12.09","4","077353","9235","110","Engineering","","100"," 5368: E1 M5: SWSG: SG-Tausch: Testspec + erw. Sim.. From S49: Complete rework of Test Spec and simulations.","07:00","16:00","4","60",
"03.12.09","4","077353","2938","110","Engineering","","0","8501: E1 M5: allg. Projekttätigkeiten A1.15/ae19. Assisting colleagues, genral admin","","","4","0",
"04.12.09","5","077353","11586","181","Fehlerbes. vor Ausl. (Bugzilla)","","100","5863: E1 M5: PCM2-SBS2: Mikrofontest (GESiC): Bugfixing zum Modultest. From S43: Rework of original S49 implementation as it was NOK","07:00","16:00","4","0",
"04.12.09","5","077353","11585","140","Test","","100","5863: E1 M5: PCM2-SBS2: Mikrofontest (GESiC): Modultest. From S43: Re-test rework","","","2","0",
"04.12.09","5","077353","10144","110","Engineering","","100","5863: E1 M5: PCM2-SBS2: Mikrofontest (GESiC): Testspec Review. From ne: Re-review and fixes to Test Spec","","","2","0",
"04.12.09","5","077353","9240","181","Fehlerbes. vor Ausl. (Bugzilla)","","100","5368: E1 M5: SWSG: SG-Tausch: Bugfixing zum Modultest. From S49: Working on Bug 18811","","","1","0",
