"08.06.09","1","077251","2094","185","Service","","0","Created script DSA_UTIL_ReadOptionItemsFromConfig and test the script","07:00","16:00","8","60",
"09.06.09","2","077251","2094","185","Service","","0","Create script DSA_UTIL_ReadECUConfig and test it.","07:00","16:00","8","60",
"10.06.09","3","077251","2094","185","Service","","0","Test and document module DSA_Module_ReadECUConfig","07:00","16:00","8","60",
"11.06.09","4","077251","1373","110","Engineering","","0","Project meeting","07:00","16:00","0,5","60",
"11.06.09","4","077251","2094","185","Service","","0","G1: Develop module DSA_MODULE_WriteECUConfig","","","7,5","0",
"12.06.09","5","077251","2094","185","Service","","0","G1: Develop and test of module DSA_MODULE_WriteECUConfig","07:00","16:00","7,5","60",
"12.06.09","5","077251","1373","110","Engineering","","0","Project meeting","","","0,5","0",
