"26.01.09","1","077353","1083","110","Engineering ","","0","077353-2665 - Kombi Gesamtewegstreke - Debugging and Internationalization, referred cts and issues","7:00","13:00","6","0",
"26.01.09","1","077353","1914","110","Engineering ","","0","Waiting for Authoring","13:00","16:00","2","60",
"27.01.09","2","077353","1083","110","Engineering ","","0","077353-2136-110-Klima GESIC-Began CTS specifications and simulations for all assigned GESIC","7:00","16:00","8","60",
"28.01.09","3","077353","1083","110","Engineering ","","0","077353-2136-110-Klima GESIC-Began CTS specifications and simulations for all assigned GESIC ","7:00","16:00","8","60",
"29.01.09","4","077353","1083","110","Engineering ","","0","Update GESIC config files, test CTS nit working. log files, waiting for response","7:00","16:00","8","60",
"30.01.09","5","077353","1083","110","Engineering ","","0","Continued with GESIC testing and Buslogging, need fully working Config files, rework CTS specis","7:00","16:00","8","60",
