"02.11.09","1","077353","11037","110","Engineering","","80","5405: E1 M5: PCM2-GW: Audiotest manuell: Testspec + erw. Sim.","07:00","16:00","4,5","60",
"02.11.09","1","077353","10611","170","Schulung","","0","8501: E1 M5: Assisting colleagues","","","2","0",
"02.11.09","1","09.00052","257","170","Schulung","","0","Schulungen 2009","","","1,5","0",
"03.11.09","2","077353","11032","110","Engineering","","0","5405: E1 M5: PCM2-GW: Audiotest autom (GESIC): Testspec + erw. Sim.","07:00","16:00","4","60",
"03.11.09","2","077353","10611","170","Schulung","","0","	 8501: E1 M5: Assisting colleagues","","","1","0",
"03.11.09","2","077353","11037","110","Engineering","","99","5405: E1 M5: PCM2-GW: Audiotest manuell: Testspec + erw. Sim.","","","3","0",
"04.11.09","3","077353","11032","110","Engineering","","95","5405: E1 M5: PCM2-GW: Audiotest autom (GESIC): Testspec + erw. Sim.","07:00","16:00","7","60",
"04.11.09","3","077353","10611","170","Schulung","","0","8501: E1 M5: Assisting colleagues","","","1","0",
"05.11.09","4","077353","11032","110","Engineering","","99","5405: E1 M5: PCM2-GW: Audiotest autom (GESIC): Testspec + erw. Sim.","07:00","16:00","8","60",
"06.11.09","5","077353","1897","110","Engineering","","0","	 8185: Warten auf Authoring (Performance-Probleme bei Ausführung)","07:00","16:00","2","60",
"06.11.09","5","077353","11224","120","Codierung","","0","5803: E1 M5: CDR23-GW: SG-Tausch: Implementierung","","","3","0",
"06.11.09","5","077353","11223","120","Codierung","","0","5803: E1 M5: CDR23-GW: SG-Tausch: ODX-Bedatung","","","3","0",
