"17.08.09","1","09.00052","260","170","Schulung","","0","Schulungen 2009","07:00","16:00","3","30",
"17.08.09","1","077353","9009","190","Optimierung bei bestehenden Sys.","","0","	5027: E1 M5: FZGweite Fkt: Bugfixing Abläufe 5.3: BF+Test (BUG: 18292 + 18293 + 18294 + 18296)","","","5","0",
"17.08.09","1","077353","7686","110","Engineering","","0","Building interface cables for MFTs","","","0,5","0",
"18.08.09","2","077353","9009","190","Optimierung bei bestehenden Sys.","","0"," 5027: E1 M5: FZGweite Fkt: Bugfixing Abläufe 5.3: BF+Test (18292,18293,18294,18296)","07:00","16:00","4","60",
"18.08.09","2","077353","7686","110","Engineering","","0","Meeting x 2","","","1","0",
"18.08.09","2","077353","8871","140","Test","","0"," 5063: E1 M5: SDI4.1. SG-Program: WFS: Modultest","","","2","0",
"18.08.09","2","077353","7686","110","Engineering","","0","Migrating to Authoring 4.0.0 (+ Correct Routing Setup)","","","1","0",
"19.08.09","3","077353","7686","110","Engineering","","0","8501: E1 M5: allg. Projekttätigkeiten","07:00","16:00","5","60",
"19.08.09","3","077353","9720","140","Test","","0","Module Test: SDI4.1 WFS Anlernin","","","3","0",
"20.08.09","4","077353","7686","110","Engineering","","0","8501: E1 M5: allg. Projekttätigkeiten (Helping collegues)","07:00","16:00","1","60",
"20.08.09","4","077353","9720","140","Test","","10","SDI4.1 WFS Anlernin (Have to create simulation before module test can begin)","","","7","0",
"21.08.09","5","077353","9720","140","Test","","15","5063: E1 M5: SDI4.1. SG-Program: WFS: Modultest (+Simulation Creation)","07:00","16:00","4","60",
"21.08.09","5","077353","9721","181","Fehlerbes. vor Ausl. (Bugzilla)","","15","5063: E1 M5: SDI4.1. SG-Program: WFS: Bugfixing zum Modultest","","","4","0",
