"23.11.09","1","077353","2938","110","Engineering","","0","8501: E1 M5: allg. Projekttätigkeiten A1.15/ae19. New colleagues at S4. Arranging hardware, documentation, orientation, email, etc.","07:00","16:00","7","60",
"23.11.09","1","077353","2929","110","Engineering","","0","8501: E1 M5: CoMod A1.4/ae19. Task tracking and assignments.","","","1","0",
"24.11.09","2","077353","2929","110","Engineering","","0","8501: E1 M5: CoMod A1.4/ae19. Task tracking and assignments.","07:00","16:00","4","60",
"24.11.09","2","077353","2938","110","Engineering","","0","8501: E1 M5: allg. Projekttätigkeiten A1.15/ae19. Orientation with new colleagues.","","","2","0",
"24.11.09","2","077353","2938","110","Engineering","","0","8501: E1 M5: allg. Projekttätigkeiten A1.15/ae19. Assisting S47 with GESIC MORS generator","","","2","0",
"25.11.09","3","077353","2929","110","Engineering","","0","8501: E1 M5: CoMod A1.4/ae19. Task tracking and assignments.","07:00","16:00","2","60",
"25.11.09","3","077353","2938","110","Engineering","","0","8501: E1 M5: allg. Projekttätigkeiten A1.15/ae19. Assisting colleagues, genral admin","","","6","0",
"26.11.09","4","077353","0","120","Codierung","","90","Job_LangeCodierung_Write. Modifications to job to re-calculate send telegram size.","07:00","16:00","1,5","60",
"26.11.09","4","077353","11796","181","Fehlerbes. vor Ausl. (Bugzilla)","","100","5901: E1 M5: PCM2-TV-Tuner: Gen ODX-Bedat: Kodier: Bugfixing. Task closed. Nothing to do.","","","0","0",
"26.11.09","4","077353","2929","110","Engineering","","0","8501: E1 M5: CoMod A1.4/ae19. Task tracking and assignments.","","","3,5","0",
"26.11.09","4","077353","2938","110","Engineering","","0","8501: E1 M5: allg. Projekttätigkeiten A1.15/ae19. Assisting colleagues with problems.","","","3","0",
"27.11.09","5","077353","11871","110","Engineering","","20","5923: E1 M5: PCM2 MOST-KomponentPrüf: PCM MOST Komp Zähler rücksetzen: PH Review. Started review.","07:00","16:00","0,1","60",
"27.11.09","5","077353","2929","110","Engineering","","0","8501: E1 M5: CoMod A1.4/ae19. Timesheets, work assignments, bug tracking and reporting.","","","5","0",
"27.11.09","5","077353","0","120","Codierung","","100","Job_LangeCodierung_Write. Modifications to job to re-calculate send telegram size.","","","1","0",
"27.11.09","5","077353","2938","110","Engineering","","0","8501: E1 M5: allg. Projekttätigkeiten A1.15/ae19. Assisting colleagues with problems.","","","1,9","0",
