"26.10.09","1","077353","11084","110","Engineering","","90","	 5361: E1 M5: SWSG: Gen ODX-Bedat: Kodier: TestSpec + erw. Sim","07:00","16:00","2","60",
"26.10.09","1","077353","11085","140","Test","","50","	 5361: E1 M5: SWSG: Gen ODX-Bedat: Kodier: Modultes","","","5","0",
"26.10.09","1","077353","7688","110","Engineering","","100","	 8501: E1 M5: allg. Projekttätigkeiten - timesheets redo","","","1","0",
"27.10.09","2","077353","11084","110","Engineering","","95","	 5361: E1 M5: SWSG: Gen ODX-Bedat: Kodier: TestSpec + erw. Sim","07:00","16:00","2","60",
"27.10.09","2","077353","11085","140","Test","","60","5361: E1 M5: SWSG: Gen ODX-Bedat: Kodier: Modultest","","","1","0",
"27.10.09","2","077353","10043","120","Codierung","","0","	 5368: E1 M5: SWSG: SG-Tausch: ODX-Bedatung","","","5","0",
"28.10.09","3","077353","11085","140","Test","","70","5361: E1 M5: SWSG: Gen ODX-Bedat: Kodier: Modultest","07:00","16:00","3","60",
"28.10.09","3","077353","10950","181","Fehlerbes. vor Ausl. (Bugzilla)","","100"," 5103: E1 M5: PSM: SG-Tausch: Bugfixing zu Integrationstest","","","0","0",
"28.10.09","3","077353","10952","181","Fehlerbes. vor Ausl. (Bugzilla)","","100"," 5100: E1 M5: PSM: Bugfixing zu Integrationstest","","","0","0",
"28.10.09","3","077353","10043","120","Codierung","","90"," 5368: E1 M5: SWSG: SG-Tausch: ODX-Bedatung","","","3","0",
"28.10.09","3","077353","7685","110","Engineering","","0","8185: Warten auf Authoring (Performance-Probleme bei Ausführung) - ODX","","","2","0",
"29.10.09","4","077353","11086","181","Fehlerbes. vor Ausl. (Bugzilla)","","60","5361: E1 M5: SWSG: Gen ODX-Bedat: Kodier: Bugfixing","07:00","16:00","8","60",
"30.10.09","5","077353","11086","181","Fehlerbes. vor Ausl. (Bugzilla)","","85","5361: E1 M5: SWSG: Gen ODX-Bedat: Kodier: Bugfixing","07:00","16:00","3","60",
"30.10.09","5","09.00052","263","170","Schulung","","10","SWSG Postcoding Job training","","","1","0",
"30.10.09","5","077353","0","120","Codierung","","0","SWSG Post Coding Job Implementation","","","4","0",
