"04.05.09","1","077472","1646","140","Test","","70","F141 NCM MY08 Test vs Simulation","07:00","16:00","8","60",
"05.05.09","2","077472","1646","140","Test","","75","F141 NCM MY08 Test vs Simulation","07:00","16:00","8","60",
"06.05.09","3","077472","1646","140","Test","","80","F141 NCM MY09 Test vs Simulation","07:00","18:30","10,5","60",
"07.05.09","4","077472","1646","140","Test","","90","F141 NCM MY09 Test vs Simulation","07:00","18:30","10,5","60",
"08.05.09","5","077472","1646","140","Test","","100","F141 NCM MY09 Test vs Simulation","07:00","16:00","8","60",
"08.05.09","5","077472","1635","120","Codierung","","100","F141 NCM Simulations","","","0","0",
