"11.05.09","1","077472","1641","110","Engineering","","100","Completed F141 NCM Test Specification","07:00","16:00","0","60",
"11.05.09","1","077472","1627","120","Codierung","","30","Continued with AWS Implementation (Wiring Check)","","","6,75","0",
"11.05.09","1","077472","1894","110","Engineering","","0","Waiting for authoring","","","1,25","0",
"12.05.09","2","077472","1627","120","Codierung","","40","Continued with AWS Implementation (Offset Calibration)","07:00","16:00","8","60",
"13.05.09","3","077472","1627","120","Codierung","","45","Continued with AWS Implementation (Unladen Weight Check)","07:00","16:00","8","60",
"14.05.09","4","077472","1627","120","Codierung","","50","Continued with AWS Implementation (Unladen Weight Check)","07:00","16:00","7,55","60",
"14.05.09","4","077472","1894","110","Engineering","","0","Waiting for authoring","","","0,45","0",
"15.05.09","5","077472","1627","120","Codierung","","65","Continued with AWS Implementation (Test Data Check + Temperature Check)","07:00","16:00","8","60",
