"15.06.09","1","077353","0","110","Engineering","","0","Reworking DSA_MODULE_RunServices module and surrounding scripts.","07:00","16:00","8","60",
"16.06.09","2","077598","","910","Urlaub","","0","Public Holiday","07:00","16:00","9","0",
"17.06.09","3","077353","0","110","Engineering","","0","Reworking modular implementation scripts. Fixing L10nText assignments.","07:00","16:00","7","60",
"17.06.09","3","077353","2938","110","Engineering","","0","Modular E1 implementation + module design discussions.","","","1","0",
"18.06.09","4","077353","0","110","Engineering","","100","DSA_MODULE_RunServices rework completed.","07:00","16:00","2","60",
"18.06.09","4","077353","1","110","Engineering","","100","DSA_UTIL_Init_CTS reworks and L10nText fixes completed.","","","3","0",
"18.06.09","4","077353","2","110","Engineering","","100","DSA_MODULE_IgnitionStatus fixes.","","","1","0",
"18.06.09","4","077353","2938","110","Engineering","","0","E1 Modular implementation verbal reviews and discussions.","","","1","0",
"18.06.09","4","077353","3","110","Engineering","","0","Creating documentation for new Modules and scripts","","","1","0",
"19.06.09","5","077353","3","110","Engineering","","0","Creating documentation for modules and scripts","07:00","16:00","6","0",
"19.06.09","5","077472","781","110","Engineering","","0","Ferrari modular specification and implementation discussions","","","1","0",
"19.06.09","5","077353","2929","110","Engineering","","0","Timesheet generation and check","","","1","0",
"19.06.09","5","077353","2938","110","Engineering","","0","E1 module implementation review and discussion.","","","1","0",
