"25.05.09","1","077472","1944","120","Codierung","","95","F141 AWS - CTS Implementation","07:00","16:00","7,63","60",
"25.05.09","1","077472","1895","110","Engineering","","0","Waiting for Authoring.","","","0,37","0",
"26.05.09","2","077472","1623","110","Engineering","","95","F141 AWS test specification - Review Changes","07:00","16:00","8","60",
"27.05.09","3","077472","1895","110","Engineering","","0","Waiting for Authoring.","07:00","16:00","0,4","60",
"27.05.09","3","077472","1944","120","Codierung","","100","F141 AWS - CTS Implementation","","","5,6","0",
"27.05.09","3","077472","0","120","Codierung","","50","F141 AWS Simulations","","","2","0",
"28.05.09","4","077472","1623","110","Engineering","","97","Setting F141 AWS test specification - Review Changes","07:00","16:00","5","60",
"28.05.09","4","077472","0","120","Codierung","","100","F141 AWS Simulations","","","3","0",
"29.05.09","5","077472","1623","110","Engineering","","98","Setting F141 AWS test specification - Review Changes","07:00","16:00","8","60",
