"20.01.09","2","077353","1089","110","Engineering ","","0","Airbag lock Test against simulation","7:00","16:00","8","60",
"21.01.09","3","077353","1089","110","Engineering ","","0","Airbag lock Test spec update","7:00","12:00","5","0",
"21.01.09","3","077353","1089","110","Engineering ","","0","Airbag lock Test spec update","12:00","16:00","3","60",
"22.01.09","4","077353","1089","110","Engineering ","","0","Update airbag lock test spec","7:00","13:00","6","0",
"22.01.09","4","077353","1089","110","Engineering ","","0","Update airbag lock test spec","13:00","16:00","2","60",
"23.01.09","5","077353","1089","110","Engineering ","","0","Retest airbag lock against simulation with changes","7:00","10:00","3","0",
"23.01.09","5","077353","1089","110","Engineering ","","0","Retest airbag lock against simulation with changes","10:00","16:00","5","60",
