"04.05.09","1","077598","0","920","Krankheit","","0","Off Sick","07:00","16:00","8","60",
"05.05.09","2","077598","0","920","Krankheit","","0","Off Sick","07:00","16:00","8","60",
"06.05.09","3","077251","1702","110","Engineering","","100","Rework after review","07:00","16:00","8","60",
"07.05.09","4","077251","1","110","Engineering","","0","BDE Erststart: Testspec erstellen","07:00","16:00","8","60",
"08.05.09","5","077251","1","110","Engineering","","0","BDE Erststart: Testspec erstellen","07:00","16:00","3","60",
"08.05.09","5","077251","2","110","Engineering","","0","Worked on possible GESIC bugs","","","5","0",
