"21.09.09","1","077353","9525","181","Fehlerbes. vor Ausl. (Bugzilla)","","90","7001: E1: Rework GESiC Modularize: Bugfixing B1.5/ae20","07:00","16:00","8","60",
"22.09.09","2","077353","9525","181","Fehlerbes. vor Ausl. (Bugzilla)","","95","7001: E1: Rework GESiC Modularize: Bugfixing B1.5/ae20","07:00","16:00","8","60",
"23.09.09","3","077353","9525","181","Fehlerbes. vor Ausl. (Bugzilla)","","98","7001: E1: Rework GESiC Modularize: Bugfixing B1.5/ae20","07:00","16:00","8","60",
"24.09.09","4","077598","0","910","Urlaub","","0","Public Holiday","07:00","16:00","9","0",
"25.09.09","5","077353","9525","181","Fehlerbes. vor Ausl. (Bugzilla)","","99","7001: E1: Rework GESiC Modularize: Bugfixing B1.5/ae20","07:00","16:00","4","60",
"25.09.09","5","077353","9526","160","Dokumentation","","50","7001: E1: Rework GESiC Modularize: Doc B1.6/ae20","","","4","0",
