"19.01.09","1","077353","1077","110","Engineering ","","0","Project discussion, project tracking.","7:00","9:00","2","0",
"19.01.09","1","077353","1082","110","Engineering ","","0","Assisting employees, meeting, new Authoring installation","9:00","16:00","6","60",
"20.01.09","2","077472","781","110","Engineering ","","0","Ferrari DB export, assisting with check-in problems","7:00","10:00","3","0",
"20.01.09","2","077353","1077","110","Engineering ","","0","Project discussions","10:00","11:00","1","0",
"20.01.09","2","077353","1082","110","Engineering ","","0","Assisting employees, Porsche check-in problems","11:00","16:00","4","60",
"21.01.09","3","077472","781","110","Engineering ","","0","Ferrari database backup + corrupt data fix","7:00","10:00","3","0",
"21.01.09","3","077353","1082","110","Engineering ","","0","SPLIT - GESIC update document hr1, Assisting with bugs and translation issues.","10:00","16:00","5","60",
"22.01.09","4","077472","781","110","Engineering ","","0","CHANGE - NCM F141 - Started with documentation","7:00","8:00","1","0",
"22.01.09","4","077353","1077","110","Engineering ","","0","Progress report","8:00","9:00","1","0",
"22.01.09","4","077353","1082","110","Engineering ","","0","SPLIT - GESIC documentation 1hr, Porsche old CTS import + check-in","9:00","14:00","5","0",
"22.01.09","4","077353","1913","110","Engineering ","","0","Waiting for Authoring","14:00","16:00","1","60",
