"03.08.09","1","077472","1723","185","Service, Telefon-Support","","100","F141 NCR Testing and bugfixing","07:00","16:00","7","60",
"03.08.09","1","077472","2157","110","Engineering","","0","Waiting for authoring","","","1","0",
"04.08.09","2","077472","2113","120","Codierung","","0","F141 NCM Carb. Impl.","07:00","16:00","7","60",
"04.08.09","2","077472","2157","110","Engineering","","0","Waiting for authoring","","","1","0",
"05.08.09","3","077472","2157","110","Engineering","","0","Waiting for authoring","07:00","16:00","1","60",
"05.08.09","3","077472","2113","120","Codierung","","0","F141 NCM Carb. Impl.","","","7","0",
"06.08.09","4","077472","2113","120","Codierung","","0","F141 NCM Carb. Impl.","07:00","16:00","7","60",
"06.08.09","4","077472","2157","110","Engineering","","0","Waiting for authoring","","","1","0",
"07.08.09","5","077472","2157","110","Engineering","","0","Waiting for authoring","07:00","16:00","1","60",
"07.08.09","5","077472","2113","120","Codierung","","0","F141 NCM Carb. Impl.","","","7","0",
