"04.02.09","3","077353","1896","110","Engineering ","","0","Waiting for Porsche Authoring.","7:00","8:00","1","0",
"04.02.09","3","077353","2180","120","Codierung","","0","Making changes to PCM_Sonderfunktion_Feldstarke according to updated cts-spec & Zeit Inspektion.","8:00","16:00","7","60",
"05.02.09","4","077353","1896","110","Engineering ","","0","Waiting for Porsche Authoring.","7:00","8:00","1","0",
"05.02.09","4","077353","2180","120","Codierung","","0","Made modifications in PAG Sonderfunktion Antenne_Feldstärke.","8:00","16:00","7","60",
"06.02.09","5","077353","1896","110","Engineering ","","0","Waiting for Porsche Authoring.","7:00","8:00","1","0",
"06.02.09","5","077353","2180","120","Codierung","","0","Made modifications to Kombi_ZeitAbInspektion and Verstarker Selftest.","8:00","16:00","7","60",
