"03.08.09","1","077472","1722","140","Test","","90","F141 NCR Test vs Simulation","07:00","16:00","8","60",
"04.08.09","2","077472","1722","140","Test","","95","F141 NCR Test vs Simulation","07:00","16:00","8","60",
"04.08.09","2","077472","2145","110","Engineering","","100","F141 NCR - Test Spec","","","0","0",
"04.08.09","2","077472","2104","120","Codierung","","100","Implementing  F141 NCR CTSs.","","","0","0",
"05.08.09","3","077472","1722","140","Test","","100","F141 NCR Test vs Simulation","07:00","16:00","8","60",
"06.08.09","4","077472","0","120","Codierung","","5","F141 NCM 06/07 implementation","07:00","16:00","7,17","60",
"06.08.09","4","077472","1895","110","Engineering","","0","Waiting for Authoring.","","","0,83","0",
"07.08.09","5","077472","1895","110","Engineering","","0","Waiting for Authoring.","07:00","16:00","1","60",
"07.08.09","5","077472","0","120","Codierung","","10","F141 NCM 06/07 implementation","","","7","0",
