"09.03.09","1","077353","1084","110","Engineering ","","0","3219: Bugfixing: Sonstige: P2 #13595 (nor)","7:00","14:00","7","0",
"09.03.09","1","077353","1915","110","Engineering ","","0","Waiting for Authoring","14:00","16:00","1","60",
"10.03.09","2","077251","1474","85","","","0","Bugfix: GESIC","7:00","14:00","7","0",
"10.03.09","2","077353","1915","110","Engineering ","","0","Waiting for Authoring","14:00","16:00","1","60",
"11.03.09","3","077251","1474","85","","","0","Bugfix: GESIC","7:00","14:00","7","0",
"11.03.09","3","077353","1915","110","Engineering ","","0","Waiting for Authoring","14:00","16:00","1","60",
"12.03.09","4","077251","1474","85","","","0","Bugfix: GESIC","7:00","14:00","7","0",
"12.03.09","4","077353","1915","110","Engineering ","","0","Waiting for Authoring","14:00","16:00","1","60",
"13.03.09","5","077251","1474","85","","","0","Bugfix: GESIC","7:00","14:00","7","0",
"13.03.09","5","077353","1915","110","Engineering ","","0","Waiting for Authoring","14:00","16:00","1","60",
