DATE;NAME;1;2;3;4;5;6;7;8;9;10;11;12;13;14;15;16;17;18;19;20;21;22;23;24;
01.02.09;Nico Claassen;
01.02.09;Malcolm Vorster;
01.02.09;Graham Meyer;
01.02.09;Michael Preller;
01.02.09;Andre Esterhuyse;
01.02.09;Ludumo Sankobe;
01.02.09;Paul Helliwell;
01.02.09;Stuart John Todd;
01.02.09;Michael Wells;
01.02.09;Pierre Jansen;
01.02.09;Brendan van Zyl;
01.02.09;Jason Smith;
01.02.09;Justin Jansen Van Vuuren;
02.02.09;Nico Claassen;077472-1315-110;077472-1315-110;077472-1315-110;077353-1082-110;077353-1082-110;00000-000-100;077353-1082-110;077353-1082-110;077353-1077-110;
02.02.09;Malcolm Vorster;077353-1083-110;077353-1083-110;077353-1083-110;077353-1083-110;077353-1083-110;00000-000-100;077353-1083-110;077353-1083-110;077353-1083-110;
02.02.09;Graham Meyer;
02.02.09;Michael Preller;00000-000-108;00000-000-108;00000-000-108;00000-000-108;00000-000-108;00000-000-108;00000-000-108;00000-000-108;00000-000-108;
02.02.09;Andre Esterhuyse;077353-2182-120;077353-2182-120;077353-2182-120;077353-2182-120;077353-2182-120;00000-000-100;077353-2182-120;077353-2182-120;077353-2182-120;
02.02.09;Ludumo Sankobe;077353-1087-110;077353-1087-110;077353-1087-110;077353-1087-110;077353-1087-110;00000-000-100;077353-1087-110;077353-1087-110;077353-1087-110;
02.02.09;Paul Helliwell;
02.02.09;Stuart John Todd;
02.02.09;Michael Wells;077353-1918-110;077353-1090-110;077353-1090-110;077353-1090-110;077353-1090-110;00000-000-100;077353-1090-110;077353-1090-110;077353-1090-110;077353-1090-110;077353-1090-110;
02.02.09;Pierre Jansen;
02.02.09;Brendan van Zyl;077472-859-110;077472-859-110;077472-859-110;077472-859-110;077472-859-110;00000-000-100;077472-859-110;077472-859-110;077472-859-110;
02.02.09;Jason Smith;077472-1309-120;077472-1309-120;077472-1309-120;077472-1309-120;077472-1312-120;00000-000-100;077472-1312-120;077472-1312-120;077472-1312-120;
02.02.09;Justin Jansen Van Vuuren;077472-1156-140;077472-1156-140;077472-1156-140;077472-1156-140;077472-1156-140;00000-000-100;077472-1156-140;077472-1156-140;077472-1156-140;
03.02.09;Nico Claassen;077472-781-110;077472-781-110;077353-1082-110;077353-1082-110;077353-1082-110;077353-1082-110;077353-1077-110;077472-1315-110;077472-1315-110;
03.02.09;Malcolm Vorster;077353-1083-110;077353-1083-110;077353-1083-110;077353-1083-110;077353-1083-110;00000-000-100;077353-1083-110;077353-1083-110;077353-1083-110;
03.02.09;Graham Meyer;
03.02.09;Michael Preller;00000-000-108;00000-000-108;00000-000-108;00000-000-108;00000-000-108;00000-000-108;00000-000-108;00000-000-108;00000-000-108;
03.02.09;Andre Esterhuyse;077353-2182-120;077353-2182-120;077353-2182-120;077353-2182-120;077353-2182-120;00000-000-100;077353-2182-120;077353-2182-120;077353-1897-110;077353-1897-110;
03.02.09;Ludumo Sankobe;077353-1087-110;077353-1087-110;077353-1087-110;077353-1087-110;077353-1087-110;00000-000-100;077353-1087-110;077353-1087-110;077353-1087-110;
03.02.09;Paul Helliwell;
03.02.09;Stuart John Todd;
03.02.09;Michael Wells;077353-1918-110;077353-1090-110;077353-1090-110;077353-1090-110;077353-1090-110;00000-000-100;077353-1090-110;077353-1090-110;077353-1090-110;077353-1090-110;077353-1090-110;
03.02.09;Pierre Jansen;
03.02.09;Brendan van Zyl;077472-859-110;077472-859-110;077472-859-110;077472-859-110;077472-859-110;00000-000-100;077472-859-110;077472-859-110;077472-859-110;
03.02.09;Jason Smith;077472-1312-120;077472-1312-120;077472-1312-120;077472-1312-120;077472-1312-120;00000-000-100;077472-1312-120;077472-1312-120;077472-1312-120;
03.02.09;Justin Jansen Van Vuuren;077472-1156-140;077472-1156-140;077472-1156-140;077472-1156-140;077472-1156-140;00000-000-100;077472-1156-140;077472-1156-140;077472-1156-140;
04.02.09;Nico Claassen;077472-781-110;077472-781-110;077472-781-110;077472-1315-110;077472-1315-110;077353-1082-110;077353-1082-110;077353-1082-110;077353-1082-110;
04.02.09;Malcolm Vorster;077353-1083-110;077353-1083-110;077353-1083-110;077353-1083-110;077353-1083-110;00000-000-100;077353-1083-110;077353-1083-110;077353-1083-110;
04.02.09;Graham Meyer;
04.02.09;Michael Preller;077353-1896-110;077353-2180-120;077353-2180-120;077353-2180-120;077353-2180-120;00000-000-100;077353-2180-120;077353-2180-120;077353-2180-120;
04.02.09;Andre Esterhuyse;077353-2182-120;077353-2182-120;077353-2182-120;077353-2182-120;077353-2182-120;00000-000-100;077353-2182-120;077353-2182-120;077353-2182-120;077353-1897-110;
04.02.09;Ludumo Sankobe;077353-1087-110;077353-1087-110;077353-1087-110;077353-1087-110;077353-1087-110;00000-000-100;077353-1087-110;077353-1087-110;077353-1087-110;
04.02.09;Paul Helliwell;
04.02.09;Stuart John Todd;
04.02.09;Michael Wells;077353-1918-110;077353-1090-110;077353-1090-110;077353-1090-110;077353-1090-110;00000-000-100;077353-1090-110;077353-1090-110;077353-1090-110;077353-1090-110;077353-1090-110;
04.02.09;Pierre Jansen;
04.02.09;Brendan van Zyl;077472-1308-110;077472-1308-110;077472-1308-110;077472-1308-110;077472-1308-110;00000-000-100;077472-1308-110;077472-1308-110;077472-1308-110;
04.02.09;Jason Smith;077472-1312-120;077472-1312-120;077472-1312-120;077472-1312-120;077472-1312-120;00000-000-100;077472-1312-120;077472-1312-120;077472-1312-120;
04.02.09;Justin Jansen Van Vuuren;077472-1157-185;077472-1157-185;077472-1156-140;077472-1156-140;077472-1156-140;00000-000-100;077472-1156-140;077472-1156-140;077472-1156-140;
05.02.09;Nico Claassen;077472-1315-110;077353-1082-110;077353-1082-110;077353-1082-110;077353-1082-110;077353-1082-110;077472-781-110;077472-781-110;077472-781-110;
05.02.09;Malcolm Vorster;077353-1083-110;077353-1083-110;077353-1083-110;077353-1083-110;077353-1083-110;00000-000-100;077353-1083-110;077353-1083-110;077353-1083-110;
05.02.09;Graham Meyer;
05.02.09;Michael Preller;077353-1896-110;077353-2180-120;077353-2180-120;077353-2180-120;077353-2180-120;00000-000-100;077353-2180-120;077353-2180-120;077353-2180-120;
05.02.09;Andre Esterhuyse;077353-1897-110;077353-2182-120;077353-2182-120;077353-2182-120;077353-2182-120;00000-000-100;077353-2182-120;077353-2182-120;077353-2182-120;
05.02.09;Ludumo Sankobe;077353-1087-110;077353-1087-110;077353-1087-110;077353-1087-110;077353-1087-110;00000-000-100;077353-1087-110;077353-1087-110;077353-1087-110;
05.02.09;Paul Helliwell;
05.02.09;Stuart John Todd;
05.02.09;Michael Wells;077472-789-110;077472-789-110;077472-789-110;077353-1918-110;077353-1918-110;00000-000-100;077353-1918-110;077353-1918-110;077353-1918-110;077353-1918-110;
05.02.09;Pierre Jansen;
05.02.09;Brendan van Zyl;077472-1308-110;077472-1308-110;077472-1308-110;077472-1308-110;077472-1308-110;00000-000-100;077472-1308-110;077472-1308-110;077472-1308-110;
05.02.09;Jason Smith;077472-1312-120;077472-1312-120;077472-1312-120;077472-1312-120;077472-1312-120;00000-000-100;077472-1312-120;077472-1312-120;077472-1312-120;
05.02.09;Justin Jansen Van Vuuren;077472-1156-140;077472-1156-140;077472-1156-140;077472-1156-140;077472-1156-140;00000-000-100;077472-1156-140;077472-1156-140;077472-1156-140;
06.02.09;Nico Claassen;077353-1077-110;077353-1082-110;077353-1082-110;077472-1315-110;077472-1315-110;00000-000-100;077472-1315-110;077472-1315-110;077472-1315-110;
06.02.09;Malcolm Vorster;077353-1083-110;077353-1083-110;077353-1083-110;077353-1083-110;077353-1083-110;00000-000-100;077353-1083-110;077353-1083-110;077353-1083-110;
06.02.09;Graham Meyer;
06.02.09;Michael Preller;077353-1896-110;077353-2180-120;077353-2180-120;077353-2180-120;077353-2180-120;00000-000-100;077353-2180-120;077353-2180-120;077353-2180-120;
06.02.09;Andre Esterhuyse;077353-2182-120;077353-2182-120;077353-2182-120;077353-2182-120;077353-2182-120;00000-000-100;077353-2182-120;077353-2182-120;077353-2182-120;
06.02.09;Ludumo Sankobe;077353-1087-110;077353-1087-110;077353-1087-110;077353-1087-110;077353-1087-110;00000-000-100;077353-1087-110;077353-1087-110;077353-1087-110;
06.02.09;Paul Helliwell;
06.02.09;Stuart John Todd;
06.02.09;Michael Wells;077472-789-110;077472-789-110;077472-789-110;077472-789-110;077472-789-110;00000-000-100;077472-789-110;077353-1918-110;077353-1918-110;
06.02.09;Pierre Jansen;
06.02.09;Brendan van Zyl;077472-1308-110;077472-1308-110;077472-1308-110;077472-1308-110;077472-1308-110;00000-000-100;077472-1308-110;077472-1308-110;077472-1308-110;
06.02.09;Jason Smith;077472-1312-120;077472-1312-120;077472-1312-120;077472-1312-120;077472-1312-120;00000-000-100;077472-1312-120;077472-1312-120;077472-1312-120;
06.02.09;Justin Jansen Van Vuuren;077472-1157-185;077472-1156-140;077472-1156-140;077472-1156-140;077472-1156-140;00000-000-100;077472-1156-140;077472-1156-140;077472-1156-140;077472-1156-140;
07.02.09;Nico Claassen;
07.02.09;Malcolm Vorster;
07.02.09;Graham Meyer;
07.02.09;Michael Preller;
07.02.09;Andre Esterhuyse;
07.02.09;Ludumo Sankobe;
07.02.09;Paul Helliwell;
07.02.09;Stuart John Todd;
07.02.09;Michael Wells;
07.02.09;Pierre Jansen;
07.02.09;Brendan van Zyl;
07.02.09;Jason Smith;
07.02.09;Justin Jansen Van Vuuren;
08.02.09;Nico Claassen;
08.02.09;Malcolm Vorster;
08.02.09;Graham Meyer;
08.02.09;Michael Preller;
08.02.09;Andre Esterhuyse;
08.02.09;Ludumo Sankobe;
08.02.09;Paul Helliwell;
08.02.09;Stuart John Todd;
08.02.09;Michael Wells;
08.02.09;Pierre Jansen;
08.02.09;Brendan van Zyl;
08.02.09;Jason Smith;
08.02.09;Justin Jansen Van Vuuren;
09.02.09;Nico Claassen;077472-1315-110;077472-1315-110;077472-1315-110;077472-1315-110;077472-1315-110;00000-000-100;077472-1315-110;077472-1315-110;077472-1315-110;
09.02.09;Malcolm Vorster;077353-1083-110;077353-1083-110;077353-1083-110;077353-1083-110;077353-1083-110;00000-000-100;077353-1083-110;077353-1083-110;077353-1083-110;
09.02.09;Graham Meyer;
09.02.09;Michael Preller;
09.02.09;Andre Esterhuyse;077353-2061-120;077353-2061-120;077353-2061-120;077353-2061-120;077353-2061-120;00000-000-100;077353-2061-120;077353-2061-120;077353-2061-120;
09.02.09;Ludumo Sankobe;077353-2133-110;077353-2133-110;077353-2133-110;077353-2133-110;077353-2133-110;00000-000-100;077353-2133-110;077353-2133-110;077353-2133-110;
09.02.09;Paul Helliwell;
09.02.09;Stuart John Todd;
09.02.09;Michael Wells;077472-789-110;077472-789-110;077472-789-110;077472-789-110;077472-789-110;00000-000-100;077472-789-110;077472-789-110;077472-789-110;
09.02.09;Pierre Jansen;
09.02.09;Brendan van Zyl;077472-1308-110;077472-1308-110;077472-1308-110;077472-1308-110;077472-859-110;00000-000-100;077472-859-110;077472-859-110;077472-859-110;
09.02.09;Jason Smith;077472-1312-120;077472-1312-120;077472-1312-120;077472-1312-120;077472-1312-120;00000-000-100;077472-1312-120;077472-1312-120;077472-1309-120;
09.02.09;Justin Jansen Van Vuuren;077472-1157-185;077472-1157-185;077472-1157-185;077472-1157-185;077472-1157-185;00000-000-100;077472-1157-185;077472-1157-185;077472-1157-185;
10.02.09;Nico Claassen;077472-781-110;077472-781-110;077472-781-110;077472-781-110;077353-1082-110;00000-000-100;077353-1082-110;077353-1082-110;077353-1082-110;
10.02.09;Malcolm Vorster;077353-1083-110;077353-1083-110;077353-1083-110;077353-1083-110;077353-1083-110;00000-000-100;077353-1083-110;077353-1083-110;077353-1083-110;
10.02.09;Graham Meyer;
10.02.09;Michael Preller;
10.02.09;Andre Esterhuyse;077353-2061-120;077353-2061-120;077353-2061-120;077353-2061-120;077353-2061-120;00000-000-100;077353-2061-120;077353-1897-110;077353-1897-110;
10.02.09;Ludumo Sankobe;077353-2132-110;077353-2132-110;077353-2132-110;077353-2132-110;077353-2132-110;00000-000-100;077353-2132-110;077353-2132-110;077353-2132-110;
10.02.09;Paul Helliwell;
10.02.09;Stuart John Todd;
10.02.09;Michael Wells;077472-541-120;077472-541-120;077472-541-120;077472-541-120;077353-1918-110;00000-000-100;077353-1090-110;077353-1090-110;077353-1090-110;
10.02.09;Pierre Jansen;
10.02.09;Brendan van Zyl;077472-859-110;077472-859-110;077472-859-110;077472-859-110;077472-1321-120;00000-000-100;077472-1321-120;077472-1321-120;077472-1321-120;
10.02.09;Jason Smith;077472-1312-120;077472-1312-120;077472-1312-120;077472-1312-120;077472-1312-120;00000-000-100;077472-1312-120;077472-1312-120;077472-860-110;
10.02.09;Justin Jansen Van Vuuren;077472-1157-185;077472-1157-185;077472-1157-185;077472-1157-185;077472-1313-140;00000-000-100;077472-1313-140;077472-1313-140;077472-1313-140;
11.02.09;Nico Claassen;077472-781-110;077472-781-110;077472-781-110;077353-1077-110;077353-1082-110;00000-000-100;077353-1082-110;077353-1082-110;077353-1082-110;
11.02.09;Malcolm Vorster;077353-1083-110;077353-1083-110;077353-1083-110;077353-1083-110;077353-1083-110;00000-000-100;077353-1083-110;077353-1083-110;077353-1083-110;
11.02.09;Graham Meyer;
11.02.09;Michael Preller;
11.02.09;Andre Esterhuyse;077353-1086-110;077353-2061-120;077353-2061-120;077353-2061-120;077353-2061-120;00000-000-100;077353-2061-120;077353-2061-120;077353-2061-120;
11.02.09;Ludumo Sankobe;077353-2131-110;077353-2131-110;077353-2131-110;077353-2131-110;077353-2131-110;00000-000-100;077353-2131-110;077353-2131-110;077353-1087-110;
11.02.09;Paul Helliwell;
11.02.09;Stuart John Todd;
11.02.09;Michael Wells;077353-1918-110;077353-1090-110;077353-1090-110;077353-1090-110;077353-1090-110;00000-000-100;077353-1090-110;077353-1090-110;077353-1090-110;
11.02.09;Pierre Jansen;
11.02.09;Brendan van Zyl;077472-1321-120;077472-1321-120;077472-1321-120;077472-1321-120;077472-1321-120;00000-000-100;077472-1321-120;077472-1321-120;077472-1321-120;
11.02.09;Jason Smith;077472-860-110;077472-860-110;077472-860-110;077472-860-110;077472-860-110;00000-000-100;077472-860-110;077472-860-110;077472-860-110;
11.02.09;Justin Jansen Van Vuuren;077472-1313-140;077472-1313-140;077472-1313-140;077472-1313-140;077472-1313-140;00000-000-100;077472-1313-140;077472-1313-140;077472-1313-140;
12.02.09;Nico Claassen;077472-781-110;077472-781-110;077472-781-110;077353-1082-110;077353-1082-110;00000-000-100;077353-1082-110;077353-1082-110;077353-1077-110;
12.02.09;Malcolm Vorster;077353-1083-110;077353-1083-110;077353-1083-110;077353-1083-110;077353-1083-110;00000-000-100;077353-1083-110;077353-1083-110;077353-1083-110;
12.02.09;Graham Meyer;
12.02.09;Michael Preller;
12.02.09;Andre Esterhuyse;077353-1897-110;077353-1897-110;077353-2061-120;077353-2061-120;077353-2061-120;00000-000-100;077353-2061-120;077353-2061-120;077353-2061-120;
12.02.09;Ludumo Sankobe;077353-1087-110;077353-1087-110;077353-1087-110;077353-1087-110;077353-1087-110;00000-000-100;077353-1087-110;077353-1087-110;077353-1087-110;
12.02.09;Paul Helliwell;
12.02.09;Stuart John Todd;
12.02.09;Michael Wells;077353-1090-110;077353-1090-110;077353-1090-110;077353-1090-110;077353-1090-110;00000-000-100;077353-1090-110;077353-1090-110;077353-1090-110;
12.02.09;Pierre Jansen;
12.02.09;Brendan van Zyl;077472-1321-120;077472-1321-120;077472-1321-120;077472-1321-120;077472-1321-120;00000-000-100;077472-1321-120;077472-1321-120;077472-1321-120;
12.02.09;Jason Smith;077472-860-110;077472-860-110;077472-860-110;077472-860-110;077472-860-110;00000-000-100;077472-860-110;077472-860-110;077472-860-110;
12.02.09;Justin Jansen Van Vuuren;077472-1313-140;077472-1313-140;077472-1313-140;077472-1313-140;077472-1313-140;00000-000-100;077472-1313-140;077472-1313-140;077472-1313-140;
13.02.09;Nico Claassen;077353-1077-110;077353-1082-110;077353-1082-110;077353-1082-110;077353-1082-110;00000-000-100;077353-1082-110;077353-1082-110;077353-1082-110;
13.02.09;Malcolm Vorster;077353-1083-110;077353-1083-110;077353-1083-110;077353-1083-110;077353-1083-110;00000-000-100;077353-1083-110;077353-1083-110;077353-1083-110;
13.02.09;Graham Meyer;
13.02.09;Michael Preller;
13.02.09;Andre Esterhuyse;077353-1897-110;077353-2061-120;077353-2061-120;077353-2061-120;077353-2061-120;00000-000-100;077353-2061-120;077353-2061-120;077353-2061-120;
13.02.09;Ludumo Sankobe;077353-1087-110;077353-1087-110;077353-1087-110;077353-1087-110;077353-1087-110;00000-000-100;077353-1087-110;077353-1087-110;077353-1087-110;
13.02.09;Paul Helliwell;
13.02.09;Stuart John Todd;
13.02.09;Michael Wells;077353-1090-110;077353-1090-110;077353-1090-110;077353-1090-110;077353-1090-110;00000-000-100;077353-1090-110;077353-1090-110;077353-1090-110;
13.02.09;Pierre Jansen;
13.02.09;Brendan van Zyl;077472-1321-120;077472-1321-120;077472-1321-120;077472-1321-120;077472-1321-120;00000-000-100;077472-1321-120;077472-1321-120;077472-1321-120;
13.02.09;Jason Smith;077472-860-110;077472-860-110;077472-860-110;077472-860-110;077472-1314-185;00000-000-100;077472-1314-185;077472-1314-185;077472-1314-185;
13.02.09;Justin Jansen Van Vuuren;077472-1368-140;077472-1368-140;077472-1368-140;077472-1368-140;077472-1368-140;00000-000-100;077472-1368-140;077472-1368-140;077472-1368-140;
14.02.09;Nico Claassen;
14.02.09;Malcolm Vorster;
14.02.09;Graham Meyer;
14.02.09;Michael Preller;
14.02.09;Andre Esterhuyse;
14.02.09;Ludumo Sankobe;
14.02.09;Paul Helliwell;
14.02.09;Stuart John Todd;
14.02.09;Michael Wells;
14.02.09;Pierre Jansen;
14.02.09;Brendan van Zyl;
14.02.09;Jason Smith;
14.02.09;Justin Jansen Van Vuuren;
15.02.09;Nico Claassen;
15.02.09;Malcolm Vorster;
15.02.09;Graham Meyer;
15.02.09;Michael Preller;
15.02.09;Andre Esterhuyse;
15.02.09;Ludumo Sankobe;
15.02.09;Paul Helliwell;
15.02.09;Stuart John Todd;
15.02.09;Michael Wells;
15.02.09;Pierre Jansen;
15.02.09;Brendan van Zyl;
15.02.09;Jason Smith;
15.02.09;Justin Jansen Van Vuuren;
16.02.09;Nico Claassen;077353-1082-110;077353-1082-110;077353-1082-110;077353-1082-110;077353-1082-110;00000-000-100;077353-1082-110;077353-1082-110;077353-1082-110;
16.02.09;Malcolm Vorster;077353-1083-110;077353-1083-110;077353-1083-110;077353-1083-110;077353-1083-110;00000-000-100;077353-1083-110;077353-1083-110;077353-1083-110;
16.02.09;Graham Meyer;
16.02.09;Michael Preller;
16.02.09;Andre Esterhuyse;077353-2061-120;077353-2061-120;077353-2061-120;077353-2061-120;077353-2061-120;00000-000-100;077353-2061-120;077353-2061-120;077353-2061-120;
16.02.09;Ludumo Sankobe;077353-1916-110;077353-1087-110;077353-1087-110;077353-1087-110;077353-1087-110;00000-000-100;077353-1087-110;077353-1087-110;077353-1087-110;
16.02.09;Paul Helliwell;
16.02.09;Stuart John Todd;
16.02.09;Michael Wells;077353-1090-110;077353-1090-110;077353-1090-110;077353-1090-110;077353-1090-110;00000-000-100;077353-1090-110;077353-1090-110;077353-1090-110;
16.02.09;Pierre Jansen;
16.02.09;Brendan van Zyl;077472-1318-120;077472-1318-120;077472-1321-120;077472-1321-120;077472-1321-120;00000-000-100;077472-1321-120;077472-1321-120;077472-1321-120;
16.02.09;Jason Smith;077472-860-110;077472-860-110;077472-860-110;077472-860-110;077472-860-110;00000-000-100;077472-860-110;077472-860-110;077472-1314-185;
16.02.09;Justin Jansen Van Vuuren;077472-1313-140;077472-1313-140;077472-1313-140;077472-1313-140;077472-1313-140;00000-000-100;077472-1313-140;077472-1313-140;077472-1313-140;
17.02.09;Nico Claassen;077353-1082-110;077353-1082-110;077353-1082-110;077353-1082-110;077353-1082-110;00000-000-100;077353-1082-110;077353-1082-110;077353-1082-110;
17.02.09;Malcolm Vorster;077353-1083-110;077353-1083-110;077353-1083-110;077353-1083-110;077353-1083-110;00000-000-100;077353-1083-110;077353-1083-110;077353-1083-110;
17.02.09;Graham Meyer;
17.02.09;Michael Preller;
17.02.09;Andre Esterhuyse;077353-1897-110;077353-2061-120;077353-2061-120;077353-2061-120;077353-2061-120;00000-000-100;077353-2061-120;077353-2061-120;077353-2061-120;
17.02.09;Ludumo Sankobe;077353-1916-110;077353-1087-110;077353-1087-110;077353-1087-110;077353-1087-110;00000-000-100;077353-1087-110;077353-1087-110;077353-1087-110;
17.02.09;Paul Helliwell;
17.02.09;Stuart John Todd;
17.02.09;Michael Wells;077353-1090-110;077353-1090-110;077353-1090-110;077353-1090-110;077353-1090-110;00000-000-100;077353-1090-110;077353-1090-110;077353-1090-110;
17.02.09;Pierre Jansen;
17.02.09;Brendan van Zyl;077472-1321-120;077472-1321-120;077472-1321-120;077472-1321-120;077472-1321-120;00000-000-100;077472-1321-120;077472-1321-120;077472-1321-120;
17.02.09;Jason Smith;077472-860-110;077472-860-110;077472-860-110;077472-860-110;077472-860-110;00000-000-100;077472-860-110;077472-860-110;077472-860-110;
17.02.09;Justin Jansen Van Vuuren;077472-1369-185;077472-1369-185;077472-1369-185;077472-1369-185;077472-1369-185;00000-000-100;077472-1369-185;077472-1369-185;077472-1369-185;
18.02.09;Nico Claassen;077353-1082-110;077353-1082-110;077353-1082-110;077353-1082-110;077353-1082-110;00000-000-100;077353-1082-110;077353-1082-110;077353-1913-110;
18.02.09;Malcolm Vorster;077353-1083-110;077353-1083-110;077353-1083-110;077353-1083-110;077353-1083-110;00000-000-100;077353-1083-110;077353-1083-110;077353-1083-110;
18.02.09;Graham Meyer;
18.02.09;Michael Preller;
18.02.09;Andre Esterhuyse;077353-1897-110;077353-2061-120;077353-2061-120;077353-2061-120;077353-2061-120;00000-000-100;077353-2061-120;077353-2061-120;077353-2061-120;
18.02.09;Ludumo Sankobe;077353-1916-110;077353-1916-110;077353-1087-110;077353-1087-110;077353-1087-110;00000-000-100;077353-1087-110;077353-1087-110;077353-1087-110;
18.02.09;Paul Helliwell;
18.02.09;Stuart John Todd;
18.02.09;Michael Wells;077353-1918-110;077353-1918-110;077353-1090-110;077353-1090-110;077353-1090-110;00000-000-100;077353-1090-110;077353-1090-110;077353-1090-110;
18.02.09;Pierre Jansen;
18.02.09;Brendan van Zyl;077472-1321-120;077472-1321-120;077472-1321-120;077472-1321-120;077472-1321-120;00000-000-100;077472-1321-120;077472-859-110;077472-859-110;
18.02.09;Jason Smith;077472-860-110;077472-860-110;077472-860-110;077472-860-110;077472-860-110;00000-000-100;077472-860-110;077472-860-110;077472-860-110;
18.02.09;Justin Jansen Van Vuuren;077472-1369-185;077472-1369-185;077472-1369-185;077472-1369-185;077472-1369-185;00000-000-100;077472-1369-185;077472-1369-185;077472-1369-185;
19.02.09;Nico Claassen;077353-1082-110;077353-1082-110;077353-1082-110;077353-1082-110;077353-1082-110;00000-000-100;077353-1913-110;077353-1913-110;077353-1913-110;
19.02.09;Malcolm Vorster;077353-1083-110;077353-1083-110;077353-1083-110;077353-1083-110;077353-1083-110;00000-000-100;077353-1083-110;077353-1083-110;077353-1083-110;
19.02.09;Graham Meyer;
19.02.09;Michael Preller;
19.02.09;Andre Esterhuyse;077353-1897-110;077353-2061-120;077353-2061-120;077353-2061-120;077353-2061-120;00000-000-100;077353-2061-120;077353-2061-120;077353-2061-120;
19.02.09;Ludumo Sankobe;077353-1916-110;077353-1916-110;077353-1087-110;077353-1087-110;077353-1087-110;00000-000-100;077353-1087-110;077353-1087-110;077353-1087-110;
19.02.09;Paul Helliwell;
19.02.09;Stuart John Todd;
19.02.09;Michael Wells;077353-1918-110;077353-1090-110;077353-1090-110;077353-1090-110;077353-1090-110;00000-000-100;077353-1090-110;077353-1090-110;077353-1090-110;
19.02.09;Pierre Jansen;
19.02.09;Brendan van Zyl;077472-1321-120;077472-1321-120;077472-1321-120;077472-1321-120;077472-1321-120;00000-000-100;077472-1321-120;077472-1321-120;077472-1321-120;
19.02.09;Jason Smith;077472-860-110;077472-860-110;077472-860-110;077472-860-110;077472-860-110;00000-000-100;077472-860-110;077472-860-110;077472-860-110;
19.02.09;Justin Jansen Van Vuuren;077472-1369-185;077472-1369-185;077472-1369-185;077472-1369-185;077472-1369-185;00000-000-100;077472-1369-185;077472-1369-185;077472-1369-185;
20.02.09;Nico Claassen;077353-1082-110;077353-1082-110;077353-1082-110;077353-1082-110;077353-1077-110;077353-1082-110;077353-1082-110;077353-1082-110;077353-1082-110;
20.02.09;Malcolm Vorster;077353-1083-110;077353-1083-110;077353-1083-110;077353-1083-110;077353-1083-110;00000-000-100;077353-1083-110;077353-1083-110;077353-1083-110;
20.02.09;Graham Meyer;
20.02.09;Michael Preller;
20.02.09;Andre Esterhuyse;077353-1897-110;077353-2061-120;077353-2061-120;077353-2061-120;077353-2061-120;00000-000-100;077353-2061-120;077353-2061-120;077353-2061-120;
20.02.09;Ludumo Sankobe;077353-1916-110;077353-1916-110;077353-1087-110;077353-1087-110;077353-1087-110;00000-000-100;077353-1087-110;077353-1087-110;077353-1087-110;
20.02.09;Paul Helliwell;
20.02.09;Stuart John Todd;
20.02.09;Michael Wells;077353-1918-110;077353-1090-110;077353-1090-110;077353-1090-110;077353-1090-110;00000-000-100;077353-1090-110;077353-1090-110;077353-1090-110;
20.02.09;Pierre Jansen;
20.02.09;Brendan van Zyl;077472-1321-120;077472-1321-120;077472-1321-120;077472-1321-120;077472-1321-120;00000-000-100;077472-1321-120;077472-1321-120;077472-1321-120;
20.02.09;Jason Smith;077472-860-110;077472-860-110;077472-860-110;077472-860-110;077472-860-110;00000-000-100;077472-860-110;077472-860-110;077472-860-110;
20.02.09;Justin Jansen Van Vuuren;077472-1369-185;077472-1369-185;077472-1369-185;077472-1369-185;077472-1369-185;00000-000-100;077472-1369-185;077472-1369-185;077472-1369-185;
21.02.09;Nico Claassen;
21.02.09;Malcolm Vorster;
21.02.09;Graham Meyer;
21.02.09;Michael Preller;
21.02.09;Andre Esterhuyse;
21.02.09;Ludumo Sankobe;
21.02.09;Paul Helliwell;
21.02.09;Stuart John Todd;
21.02.09;Michael Wells;
21.02.09;Pierre Jansen;
21.02.09;Brendan van Zyl;
21.02.09;Jason Smith;
21.02.09;Justin Jansen Van Vuuren;
22.02.09;Nico Claassen;
22.02.09;Malcolm Vorster;
22.02.09;Graham Meyer;
22.02.09;Michael Preller;
22.02.09;Andre Esterhuyse;
22.02.09;Ludumo Sankobe;
22.02.09;Paul Helliwell;
22.02.09;Stuart John Todd;
22.02.09;Michael Wells;
22.02.09;Pierre Jansen;
22.02.09;Brendan van Zyl;
22.02.09;Jason Smith;
22.02.09;Justin Jansen Van Vuuren;
23.02.09;Nico Claassen;077353-1082-110;077353-1082-110;077353-1082-110;077353-1082-110;077353-1082-110;00000-000-100;077353-1082-110;077353-1082-110;077353-1913-110;
23.02.09;Malcolm Vorster;077353-1083-110;077353-1083-110;077353-1083-110;077353-1083-110;077353-1083-110;00000-000-100;077353-1083-110;077353-1083-110;077353-1083-110;
23.02.09;Graham Meyer;
23.02.09;Michael Preller;
23.02.09;Andre Esterhuyse;077353-2061-120;077353-2061-120;077353-2061-120;077353-2061-120;077353-2061-120;00000-000-100;077353-2061-120;077353-2061-120;077353-2061-120;
23.02.09;Ludumo Sankobe;077353-1916-110;077353-1916-110;077353-1916-110;077353-1916-110;077353-1916-110;00000-000-100;077353-1916-110;077353-1916-110;077353-1087-110;
23.02.09;Paul Helliwell;
23.02.09;Stuart John Todd;
23.02.09;Michael Wells;077353-1090-110;077353-1090-110;077353-1090-110;077353-1090-110;077353-1090-110;00000-000-100;077353-1090-110;077353-1090-110;077353-1090-110;
23.02.09;Pierre Jansen;
23.02.09;Brendan van Zyl;077472-1321-120;077472-1321-120;077472-1321-120;077472-1321-120;077472-1321-120;00000-000-100;077472-1321-120;077472-1321-120;077472-1321-120;
23.02.09;Jason Smith;077472-860-110;077472-860-110;077472-860-110;077472-860-110;077472-860-110;00000-000-100;077472-860-110;077472-860-110;077472-860-110;
23.02.09;Justin Jansen Van Vuuren;077472-1369-185;077472-1369-185;077472-1369-185;077472-1369-185;077472-1369-185;00000-000-100;077472-1369-185;077472-1369-185;077472-1369-185;
24.02.09;Nico Claassen;077353-1082-110;077353-1082-110;077353-1082-110;077353-1082-110;077353-1082-110;00000-000-100;077353-1082-110;077353-1913-110;077353-1077-110;
24.02.09;Malcolm Vorster;077353-1083-110;077353-1083-110;077353-1083-110;077353-1083-110;077353-1083-110;00000-000-100;077353-1083-110;077353-1083-110;077353-1083-110;
24.02.09;Graham Meyer;
24.02.09;Michael Preller;
24.02.09;Andre Esterhuyse;077353-2061-120;077353-2061-120;077353-2061-120;077353-2061-120;077353-2061-120;00000-000-100;077353-2061-120;077353-2061-120;077353-2061-120;
24.02.09;Ludumo Sankobe;077353-1916-110;077353-1916-110;077353-1087-110;077353-1087-110;077353-1087-110;00000-000-100;077353-1087-110;077353-1087-110;077353-1087-110;
24.02.09;Paul Helliwell;
24.02.09;Stuart John Todd;
24.02.09;Michael Wells;077353-1090-110;077353-1090-110;077353-1090-110;077353-1090-110;077353-1090-110;00000-000-100;077353-1090-110;077353-1090-110;077353-1090-110;
24.02.09;Pierre Jansen;
24.02.09;Brendan van Zyl;077472-1321-120;077472-1321-120;077472-1321-120;077472-1321-120;077472-1321-120;00000-000-100;077472-1321-120;077472-1321-120;077472-1321-120;
24.02.09;Jason Smith;077472-860-110;077472-860-110;077472-860-110;077472-860-110;077472-860-110;00000-000-100;077472-860-110;077472-860-110;077472-860-110;
24.02.09;Justin Jansen Van Vuuren;077472-1369-185;077472-1369-185;077472-1369-185;077472-1369-185;077472-1369-185;00000-000-100;077472-1369-185;077472-1369-185;077472-1369-185;
25.02.09;Nico Claassen;077353-1082-110;077353-1082-110;077353-1082-110;077353-1082-110;077353-1082-110;00000-000-100;077353-1082-110;077353-1077-110;077353-1913-110;
25.02.09;Malcolm Vorster;077353-1083-110;077353-1083-110;077353-1083-110;077353-1083-110;077353-1083-110;00000-000-100;077353-1083-110;077353-1083-110;077353-1083-110;
25.02.09;Graham Meyer;
25.02.09;Michael Preller;
25.02.09;Andre Esterhuyse;077353-2061-120;077353-2061-120;077353-2061-120;077353-2061-120;077353-2061-120;00000-000-100;077353-2061-120;077353-2061-120;077353-2061-120;
25.02.09;Ludumo Sankobe;077353-1916-110;077353-1916-110;077353-1916-110;077353-1916-110;077353-1916-110;00000-000-100;077353-1916-110;077353-1916-110;077353-1087-110;
25.02.09;Paul Helliwell;
25.02.09;Stuart John Todd;
25.02.09;Michael Wells;077353-1090-110;077353-1090-110;077353-1090-110;077353-1090-110;077353-1090-110;00000-000-100;00000-000-105;00000-000-105;00000-000-105;
25.02.09;Pierre Jansen;
25.02.09;Brendan van Zyl;077472-1321-120;077472-1321-120;077472-1321-120;077472-1321-120;077472-1321-120;00000-000-100;077472-1321-120;077472-1321-120;077472-1321-120;
25.02.09;Jason Smith;077472-860-110;077472-860-110;077472-860-110;077472-860-110;077472-860-110;00000-000-100;077472-860-110;077472-860-110;077472-860-110;
25.02.09;Justin Jansen Van Vuuren;077472-1369-185;077472-1369-185;077472-1369-185;077472-1369-185;077472-1369-185;00000-000-100;077472-1369-185;077472-1369-185;077472-1369-185;
26.02.09;Nico Claassen;077353-1082-110;077353-1082-110;077353-1082-110;077353-1082-110;077353-1082-110;00000-000-100;077353-1082-110;077353-1913-110;077353-1913-110;
26.02.09;Malcolm Vorster;077353-1083-110;077353-1083-110;077353-1083-110;077353-1083-110;077353-1083-110;00000-000-100;077353-1083-110;077353-1083-110;077353-1083-110;
26.02.09;Graham Meyer;
26.02.09;Michael Preller;
26.02.09;Andre Esterhuyse;077353-2061-120;077353-2061-120;077353-2061-120;077353-2061-120;077353-2061-120;00000-000-100;077353-2061-120;077353-2061-120;077353-2061-120;
26.02.09;Ludumo Sankobe;077353-1916-110;077353-1087-110;077353-1087-110;077353-1087-110;077353-1087-110;00000-000-100;077353-1087-110;077353-1087-110;077353-1087-110;
26.02.09;Paul Helliwell;
26.02.09;Stuart John Todd;
26.02.09;Michael Wells;077353-1090-110;077353-1090-110;077353-1090-110;077353-1090-110;00000-000-105;00000-000-100;00000-000-105;00000-000-105;00000-000-105;
26.02.09;Pierre Jansen;
26.02.09;Brendan van Zyl;077472-1321-120;077472-1321-120;077472-1321-120;077472-1321-120;077472-1321-120;00000-000-100;077472-1321-120;077472-1321-120;077472-1321-120;
26.02.09;Jason Smith;077472-860-110;077472-860-110;077472-860-110;077472-860-110;077472-860-110;00000-000-100;077472-860-110;077472-860-110;077472-860-110;
26.02.09;Justin Jansen Van Vuuren;077472-1369-185;077472-1369-185;077472-1369-185;077472-1369-185;077472-1369-185;00000-000-100;077472-1369-185;077472-1369-185;077472-1369-185;
27.02.09;Nico Claassen;077353-1082-110;077353-1082-110;077353-1082-110;077353-1082-110;077353-1913-110;00000-000-100;077353-1077-110;077353-1077-110;077353-1077-110;
27.02.09;Malcolm Vorster;077353-1083-110;077353-1083-110;077353-1083-110;077353-1083-110;077353-1083-110;00000-000-100;077353-1083-110;077353-1083-110;077353-1083-110;
27.02.09;Graham Meyer;
27.02.09;Michael Preller;
27.02.09;Andre Esterhuyse;077353-2061-120;077353-2061-120;077353-2061-120;077353-2061-120;077353-2061-120;00000-000-100;077353-2061-120;077353-2061-120;077353-2061-120;
27.02.09;Ludumo Sankobe;077353-1916-110;077353-1087-110;077353-1087-110;077353-1087-110;077353-1087-110;00000-000-100;077353-1087-110;077353-1087-110;077353-1087-110;
27.02.09;Paul Helliwell;
27.02.09;Stuart John Todd;
27.02.09;Michael Wells;077353-1090-110;077353-1090-110;077353-1090-110;077353-1090-110;077353-1090-110;00000-000-100;077353-1090-110;077353-1090-110;077353-1090-110;
27.02.09;Pierre Jansen;
27.02.09;Brendan van Zyl;077472-1321-120;077472-1321-120;077472-1321-120;077472-1321-120;077472-1321-120;00000-000-100;077472-1321-120;077472-1321-120;077472-1321-120;
27.02.09;Jason Smith;077472-860-110;077472-860-110;077472-860-110;077472-860-110;077472-860-110;00000-000-100;077472-860-110;077472-860-110;077472-860-110;
27.02.09;Justin Jansen Van Vuuren;077472-1368-140;077472-1368-140;077472-1368-140;077472-1368-140;077472-1368-140;00000-000-100;077472-1368-140;077472-1368-140;077472-1368-140;
28.02.09;Nico Claassen;
28.02.09;Malcolm Vorster;
28.02.09;Graham Meyer;
28.02.09;Michael Preller;
28.02.09;Andre Esterhuyse;
28.02.09;Ludumo Sankobe;
28.02.09;Paul Helliwell;
28.02.09;Stuart John Todd;
28.02.09;Michael Wells;
28.02.09;Pierre Jansen;
28.02.09;Brendan van Zyl;
28.02.09;Jason Smith;
28.02.09;Justin Jansen Van Vuuren;