"02.02.09","1","077353","1918","110","Engineering ","","0","Waiting for authoring","7:00","8:00","1","0",
"02.02.09","1","077353","1090","110","Engineering ","","0","Translation Bug Fixing","8:00","18:00","9","60",
"03.02.09","2","077353","1918","110","Engineering ","","0","Waiting for authoring","7:00","8:00","1","0",
"03.02.09","2","077353","1090","110","Engineering ","","0","E1 Translations","8:00","18:00","9","60",
"04.02.09","3","077353","1918","110","Engineering ","","0","Waiting for authoring","7:00","8:00","1","0",
"04.02.09","3","077353","1090","110","Engineering ","","0","E1 Translations","8:00","18:00","9","60",
"05.02.09","4","077472","789","110","Engineering ","","0","Importing into new database and starting for translations","7:00","10:00","3","0",
"05.02.09","4","077353","1918","110","Engineering ","","0","Waiting for authoring","10:00","17:00","6","60",
"06.02.09","5","077472","789","110","Engineering ","","0","Debugging NCM and Creating general message handler","7:00","13:00","6","0",
"06.02.09","5","077353","1918","110","Engineering ","","0","Waiting for authoring","13:00","16:00","2","60",
