"19.10.09","1","077251","3373","181","Fehlerbes. vor Ausl. (Bugzilla)","","100","Fix G1 Bug # 18899","07:00","16:00","3,5","60",
"19.10.09","1","077251","3209","181","Fehlerbes. vor Ausl. (Bugzilla)","","50","Fix G1 Bug # 18231","","","3,5","0",
"19.10.09","1","077251","3372","181","Fehlerbes. vor Ausl. (Bugzilla)","","50","Fix G1 Bug # 18898","","","1","0",
"20.10.09","2","077251","3373","181","Fehlerbes. vor Ausl. (Bugzilla)","","0","Fix G1 Bug # 18898","07:00","16:00","3","60",
"20.10.09","2","077353","1916","110","Engineering","","0","Waiting for Authoring","","","5","0",
"21.10.09","3","077251 ","3379","181","Fehlerbes. vor Ausl. (Bugzilla)","","100","Fix Bug # 18967","07:00","16:00","3","60",
"21.10.09","3","077353","1916","110","Engineering","","0","Waiting for Authoring","","","2","0",
"21.10.09","3","077251","1372","110","Engineering","","0","Meeting","","","1","0",
"21.10.09","3","077251","3373","181","Fehlerbes. vor Ausl. (Bugzilla)","","100","Fix G1 Bug # 18898","","","2","0",
"22.10.09","4","077251","3222","181","Fehlerbes. vor Ausl. (Bugzilla)","","0","Fixing Bug# 17330","07:00","16:00","2","60",
"22.10.09","4","077251","1372","110","Engineering","","0","Fixing my Laptop Network (Was not working)","","","5","0",
"22.10.09","4","077251","1372","110","Engineering","","0","Meeting","","","1","0",
"23.10.09","5","077251","3222","110","Engineering","","0","Fixing my Laptop Network (Was not working)","07:00","16:00","1","60",
"23.10.09","5","077251","3190","181","Fehlerbes. vor Ausl. (Bugzilla)","","100","Fixing Bug # 18109","","","4","0",
"23.10.09","5","077251","3222","110","Engineering","","0","Installing Authoring and PIDT","","","1","0",
"23.10.09","5","077251","3378","181","Fehlerbes. vor Ausl. (Bugzilla)","","80","Fixing Bug # 18960","","","2","0",
