"28.09.09","1","077353","10017","120","Codierung","","58","5346: E1 M5: Kombi: SG-Tausch: Implementierung","07:00","16:00","6,2","60",
"28.09.09","1","077353","6170","110","Engineering","","0","8185: Warten auf Authoring (Performance-Probleme bei Ausführung)","","","1,2","0",
"28.09.09","1","077353","2946","110","Engineering","","0","Common project tasks","","","0,6","0",
"29.09.09","2","077353","10698","110","Engineering","","100"," 5285: E1 M5: RDK: SG-Tausch: Testspec + erw. Sim.","07:00","16:00","7","60",
"29.09.09","2","077353","2946","110","Engineering","","0","Common project tasks","","","1","0",
"30.09.09","3","077353","9831","140","Test","","25","	 5285: E1 M5: RDK: SG-Tausch: Modultest","07:00","16:00","2","60",
"30.09.09","3","077353","6170","110","Engineering","","0","8185: Warten auf Authoring (Performance-Probleme bei Ausführung) and Application server","","","1,5","0",
"30.09.09","3","077353","2946","110","Engineering","","0","common project tasks","","","1","0",
"30.09.09","3","077353","9880","120","Codierung","","15"," 5382: E1 M5: Wischer: Komplex Codier: Implementierung","","","3,5","0",
"01.10.09","4","077353","6170","110","Engineering","","0","8185: Warten auf Authoring (Performance-Probleme bei Ausführung) and Application server","07:00","16:00","2,5","60",
"01.10.09","4","077353","2946","110","Engineering","","0","Common project tasks & setting up new Authoring","","","1,5","0",
"01.10.09","4","077353","9880","120","Codierung","","30","5382: E1 M5: Wischer: Komplex Codier: Implementierung","","","4","0",
"02.10.09","5","077353","9880","120","Codierung","","55","5382: E1 M5: Wischer: Komplex Codier: Implementierung","07:00","16:00","6,3","60",
"02.10.09","5","077353","2946","110","Engineering","","0","Common project tasks","","","0,7","0",
"02.10.09","5","077353","6170","110","Engineering","","0","	8185: Warten auf Authoring (Performance-Probleme bei Ausführung)","","","1","0",
