"21.09.09","1","077472","859","110","Engineering","","0","Allg. Projekttätigkeiten A1.6/ae15","07:00","16:00","2","60",
"21.09.09","1","077472","1893","110","Engineering","","0","Waiting for Authoring","","","2","0",
"21.09.09","1","077472","1744","181","Fehlerbes. vor Ausl. (Bugzilla)","","0","F141 AWS Gewicht Airbag: Bugfixing nach Tets /ZSG B22.10/ae15","","","4","0",
"22.09.09","2","077472","859","110","Engineering","","0","Allg. Projekttätigkeiten A1.6/ae15","07:00","16:00","2","60",
"22.09.09","2","077472","1893","110","Engineering","","0","Waiting for Authoring","","","2","0",
"22.09.09","2","077472","1744","181","Fehlerbes. vor Ausl. (Bugzilla)","","0","F141 AWS Gewicht Airbag: Bugfixing nach Tets /ZSG B22.10/ae15","","","4","0",
"23.09.09","3","077472","859","110","Engineering","","0","Allg. Projekttätigkeiten A1.6/ae15","07:00","16:00","2","60",
"23.09.09","3","077472","1893","110","Engineering","","0","Waiting for Authoring","","","2","0",
"23.09.09","3","077472","0","181","Fehlerbes. vor Ausl. (Bugzilla)","","0","F149 NPB bug-fixing","","","2","0",
"23.09.09","3","077472","1744","110","Engineering","","0","F141 AWS Gewicht Airbag: Bugfixing nach Tets /ZSG B22.10/ae15","","","2","0",
"24.09.09","4","077598","0","910","Urlaub","","0","Holiday","07:00","16:00","8","60",
"25.09.09","5","077472","1893","110","Engineering","","0","Waiting for Authoring","07:00","16:00","2","60",
"25.09.09","5","077472","859","110","Engineering","","0","Allg. Projekttätigkeiten A1.6/ae15","","","1","0",
"25.09.09","5","077472","0","181","Fehlerbes. vor Ausl. (Bugzilla)","","0","F149 bug-fixing Bugzilla","","","5","0",
