"14.09.09","1","077353","7756","120","Codierung","","65","Implimentation: PDCC_Systempruefung","07:00","16:00","8","60",
"15.09.09","2","077353","7756","120","Codierung","","73","Implimentation: PDCC_Systempruefung","07:00","16:00","8","60",
"16.09.09","3","077353","7756","120","Codierung","","79","Implimentation: PDCC_Systempruefung","07:00","16:00","7","60",
"16.09.09","3","077353","7683","110","Engineering","","0","8185: Warten auf Authoring (Performance-Probleme bei Ausführung)","","","1","0",
"17.09.09","4","077353","7756","120","Codierung","","84","Implimentation: PDCC_Systempruefung","07:00","16:00","8","60",
"18.09.09","5","077353","7756","120","Codierung","","90","Implimentation: PDCC_Systempruefung","07:00","16:00","4","60",
"18.09.09","5","077353","7683","110","Engineering","","0","8185: Warten auf Authoring (Performance-Probleme bei Ausführung)","","","4","0",
