"22.06.09","1","077353","6487","110","Engineering","","100","Closed: Re-assigned to S48 in prio-lists.","07:00","16:00","1","60",
"23.06.09","2","077353","2929","110","Engineering","","0","Checking all staff prio-lists, SVN and E1 Project plan for work.","07:00","16:00","3","60",
"23.06.09","2","077353","2929","110","Engineering","","0","Communication with DSA on prio-list items.","","","1","0",
"24.06.09","3","077251","3027","185","Service","","100","Bugfixing: Airbag: P1 #16978 - Bug fixed.","07:00","16:00","1","60",
"24.06.09","3","077251","3084","185","Service","","100","Bugfixing: SWSG: P2 #16392 - Bug fixed","","","1","0",
"24.06.09","3","077251","3085","185","Service","","100","Bugfixing: SWSG: P2 #16711 - Bug Fixed","","","1","0",
"24.06.09","3","077251","3086","185","Service","","100","Bugfixing: SWSG: P2 #17168 - Bug fixed","","","1","0",
"24.06.09","3","077353","2929","110","Engineering","","0","Communicating with DSA on prio-lists.","","","2","0",
"24.06.09","3","077353","0","110","Engineering","","0","ODA Basics module documentation updates.","","","2","0",
"25.06.09","4","09.00065","27","170","Schulung","","0","Training S48 and S49 for implementation without modules for E1 SG-Tausch.","07:00","16:00","2","60",
"25.06.09","4","077353","2938","110","Engineering","","0","Meeting.","","","2","0",
"25.06.09","4","077353","0","110","Engineering","","0","ODA Basics updating module documentation.","","","2","0",
"25.06.09","4","09.00065","26","170","Schulung","","0","Installation of latest PRODIS.OET, how to configure, etc.","","","1","0",
"25.06.09","4","077353","2938","110","Engineering","","0","Testing of E1 Binary Flash Job for E1 SWSG.","","","1","0",
"26.06.09","5","077353","1","110","Engineering","","0","Preparing and reviewing modules for export to dev210 for review.","07:00","16:00","3","60",
"26.06.09","5","077353","2","110","Engineering","","100","CTS review for PAG_E1_SWSG_Systemtausch_MODULE_TEST","","","0,5","0",
"26.06.09","5","077353","0","110","Engineering","","0","ODA Basics documentation updates for scripts.","","","2","0",
"26.06.09","5","077353","2929","110","Engineering","","0","E1 work discussion with sc and mi.","","","0,5","0",
"26.06.09","5","077353","2938","110","Engineering","","0","Meeting on E1 issues.","","","1,5","0",
"26.06.09","5","077251","2065","185","Service","","0","Assisting with bug 16768","","","0,5","0",
