DATE;NAME;1;2;3;4;5;6;7;8;9;10;11;12;13;14;15;16;17;18;19;20;21;22;23;24;
22.03.09;Nico Claassen;
22.03.09;Malcolm Vorster;
22.03.09;Graham Meyer;
22.03.09;Michael Preller;
22.03.09;Andre Esterhuyse;
22.03.09;Ludumo Sankobe;
22.03.09;Paul Helliwell;
22.03.09;Michael Wells;
22.03.09;Pierre Jansen;
22.03.09;Brendan van Zyl;
22.03.09;Jason Smith;
22.03.09;Justin Jansen Van Vuuren;
22.03.09;Thando Katywa;
22.03.09;Kyal Smith;
23.03.09;Nico Claassen;077353-3078;077353-3078;077472-781;077472-781;
23.03.09;Malcolm Vorster;077251-0;077251-0;077251-0;077251-0;
23.03.09;Graham Meyer;077251-1514;077251-1514;077251-1236;077251-1236;
23.03.09;Michael Preller;
23.03.09;Andre Esterhuyse;077251-0;077472-0;077472-0;077472-0;077472-0;
23.03.09;Ludumo Sankobe;077251- 0;077251- 0;077251- 0;077251- 0;
23.03.09;Paul Helliwell;077353-3087;077353-3087;077353-3087;077353-3087;077353-3083;
23.03.09;Michael Wells;077251-1507;077251-1507;077251-1507;077251-1507;077353-1918;
23.03.09;Pierre Jansen;
23.03.09;Brendan van Zyl;077472-1321;077472-1321;077472-1321;077472-1321;077472-0;
23.03.09;Jason Smith;077472-1322;077472-1322;077472-1322;077472-1322;077472-1322;
23.03.09;Justin Jansen Van Vuuren;077472-1518;077472-1518;077472-1518;077472-1518;077472-0;
23.03.09;Thando Katywa;077353-3482;077353-3482;077353-3482;077353-3482;077353-0;
23.03.09;Kyal Smith;
24.03.09;Nico Claassen;077251-0;077251-0;077251-0;077251-0;077353-2929;
24.03.09;Malcolm Vorster;077251-0;077251-0;077251-0;077251-0;
24.03.09;Graham Meyer;077251-1497 / 077251-1236;077251-1236;077251-1236;077251-1236;077251-1236;
24.03.09;Michael Preller;
24.03.09;Andre Esterhuyse;077472-0;077472-0;077472-0;077472-0;
24.03.09;Ludumo Sankobe;077251- 0;077251- 0;077251- 0;077251- 0;
24.03.09;Paul Helliwell;077353-3087;077353-3087;077353-3087;077353-0;
24.03.09;Michael Wells;077251-1507;077251-1507;077251-1507;077251-1507;077353-1918;
24.03.09;Pierre Jansen;
24.03.09;Brendan van Zyl;077472-1321;077472-1321;077472-1321;077472-1321;077472-0;
24.03.09;Jason Smith;077472-1322;077472-1322;077472-1322;077472-1322;077472-1322;
24.03.09;Justin Jansen Van Vuuren;077472-1518;077472-1518;077472-1518;077472-1518;077472-0;
24.03.09;Thando Katywa;077353-3482;077353-3482;077353-3482;077353-0 / 077353-0;077353-0;077353-0;
24.03.09;Kyal Smith;
25.03.09;Nico Claassen;077251-0;077251-0;077251-0;077251-0;077251-0;077251-0;
25.03.09;Malcolm Vorster;077472-0;077472-0;077251-0;077251-0;077251-0;
25.03.09;Graham Meyer;077251-1236;077251-1236;077251-1236;077251-1497 / 077251-1514;
25.03.09;Michael Preller;
25.03.09;Andre Esterhuyse;077472-0;077472-0;077472-0;077472-0;
25.03.09;Ludumo Sankobe;077251- 137;077251- 137;077251- 137;077251- 137;
25.03.09;Paul Helliwell;077353-3079;077353-3079;077353-3079;077353-0;077353-0;
25.03.09;Michael Wells;077251-1507;077251-1507;077251-1507;077251-1507;077353-1918;
25.03.09;Pierre Jansen;
25.03.09;Brendan van Zyl;077472-1321;077472-1321;077472-1321;077472-1321;077472-0;
25.03.09;Jason Smith;077472-1322;077472-1322;077472-1322;077472-1322;077472-1322;
25.03.09;Justin Jansen Van Vuuren;077472-1518;077472-1518;077472-1518;077472-0;077472-0;
25.03.09;Thando Katywa;077353-3482;077353-0;077353-0;077353-0;077353-0;
25.03.09;Kyal Smith;
26.03.09;Nico Claassen;077251-0;077251-0;077353-1913;077353-2929;077472-781;
26.03.09;Malcolm Vorster;077251-1125;077251-1125;077251-1125;077251-1125;
26.03.09;Graham Meyer;077251-1514;077251-1514;077251-1514;077251-1514;077251-1497;
26.03.09;Michael Preller;
26.03.09;Andre Esterhuyse;077251-0;077251-0;077251-0;077251-0;077353-1897;
26.03.09;Ludumo Sankobe;077251- 0;077251- 0;077251- 0;077251- 0;
26.03.09;Paul Helliwell;077251-0;077251-0;077251-0;077251-0;077251-0;
26.03.09;Michael Wells;077251-1507;077251-1507;077251-1507;077251-1507;077353-1918;
26.03.09;Pierre Jansen;
26.03.09;Brendan van Zyl;077472-1318;077472-1318;077472-1324;077472-1324;077472-0;
26.03.09;Jason Smith;077472-1322;077472-1322;077472-1322;077472-1322;077472-1322;
26.03.09;Justin Jansen Van Vuuren;077472-1518;077472-1518;077472-1518;077472-1518;077472-0;
26.03.09;Thando Katywa;077353-3482;077353-3482;077353-0;077353-0;077353-0 / 077353-0;077353-0;
26.03.09;Kyal Smith;
27.03.09;Nico Claassen;077472-781;077251-0;077251-0;077353-3076;077353-3076;
27.03.09;Malcolm Vorster;
27.03.09;Graham Meyer;077251-1237;077251-1237;077251-1237;077251-1514;
27.03.09;Michael Preller;
27.03.09;Andre Esterhuyse;077251-0;077251-0;077251-0;077251-0;
27.03.09;Ludumo Sankobe;077251- 0;077251- 0;077251- 0;077251- 0;
27.03.09;Paul Helliwell;077251-0;077251-0;077251-0;077251-0;
27.03.09;Michael Wells;
27.03.09;Pierre Jansen;
27.03.09;Brendan van Zyl;077472-0 / 077472-1324;077472-1324;077472-1318;077472-1318;077472-1318;077472-1318;
27.03.09;Jason Smith;077472-1322;077472-1322;077472-1322;077472-1322;
27.03.09;Justin Jansen Van Vuuren;077472-1518;077472-1518;077472-1518;077472-1518;
27.03.09;Thando Katywa;077353-0;077353-0;077353-0;077353-0;077353-0;
27.03.09;Kyal Smith;