"16.02.09","1","077353","2061","120","Codierung","","0","E1: Bascially complete, need to do logging and error handling.","7:00","16:00","8","60",
"17.02.09","2","077353","1897","110","Engineering ","","0","E1: waiting for authoring to save","7:00","8:00","1","0",
"17.02.09","2","077353","2061","120","Codierung","","0","E1: Komplexe Kodierung nearing completion.","8:00","16:00","7","60",
"18.02.09","3","077353","1897","110","Engineering ","","0","E1: Waiting for authoring to save","7:00","8:00","1","0",
"18.02.09","3","077353","2061","120","Codierung","","0","E1: implementing error handling and logging for Komplexe Kodierung.","8:00","16:00","7","60",
"19.02.09","4","077353","1897","110","Engineering ","","0","Waiting for authoring to save, etc","7:00","8:00","1","0",
"19.02.09","4","077353","2061","120","Codierung","","0","E1: Komplexe Kodierung basically complete, need to check in string resources.","8:00","16:00","7","60",
"20.02.09","5","077353","1897","110","Engineering ","","0","Waiting for authoring to save, etc","7:00","8:00","1","0",
"20.02.09","5","077353","2061","120","Codierung","","0","E1: Komplexe Kodierung completed, waiting for simulations to test properly.","8:00","16:00","7","60",
