"16.02.09","1","077472","1313","140","Test","","0","Completed testing and packaging of F141 NCL.","7:00","16:00","8","60",
"17.02.09","2","077472","1369","185","Service","","0","Continued bug fixing F141 NTP.","7:00","16:00","8","60",
"18.02.09","3","077472","1369","185","Service","","0","Bug fixing F141 NTP.","7:00","16:00","8","60",
"19.02.09","4","077472","1369","185","Service","","0","Bug Fixing F141 NTP. ","7:00","16:00","8","60",
"20.02.09","5","077472","1369","185","Service","","0","Bug fixing F141 NTP.","7:00","16:00","8","60",
