"26.10.09","1","077353","11244","140","Test","","97","PCM2-MMI:Gen ODX-Bedat:Stellglied: Modultest","07:00","16:00","7","60",
"26.10.09","1","077353","0","110","Engineering","","0","Fixing old time sheets (No general task)","","","1","0",
"27.10.09","2","077353","11244","140","Test","","100","PCM2-MMI:Gen ODX-Bedat:Stellglied: Modultest","07:00","16:00","4","60",
"27.10.09","2","077353","11556","120","Codierung","","15","5907: E1 M5: PCM2-TV-Tuner: SG-Tausch: ODX-Bedatung","","","4","0",
"28.10.09","3","077353","11556","120","Codierung","","50","PCM2-TV-Tuner: SG-Tausch: ODX-Bedatung","07:00","16:00","6,5","60",
"28.10.09","3","077353","0","140","Test","","0","Meetings (no general task code)","","","1,5","0",
"29.10.09","4","077353","11556","120","Codierung","","100","PCM2-TV-Tuner: SG-Tausch: ODX-Bedatung","07:00","16:00","3","60",
"29.10.09","4","077353","11247","140","Test","","10","PCM2-MMI: Gen ODX-Bedat: Kodier: Modultest","","","3","0",
"29.10.09","4","077353","0","140","Test","","0","Kodier Modultest Training (no general task)","","","2","0",
"30.10.09","5","077353","11248","181","Fehlerbes. vor Ausl. (Bugzilla)","","50","PCM2-MMI: Gen ODX-Bedat: Kodier: Bugfixing","07:00","16:00","6","60",
"30.10.09","5","077353","0","140","Test","","0","Training from collegues (no general task)","","","2","0",
