"16.03.09","1","077472","859","110","Engineering ","","0","F149:NCM Fuel pressure release on high pressure system: TestSpec, Sim, Test/Sim","7:00","16:00","8","60",
"17.03.09","2","077472","859","110","Engineering ","","0","F149:NCM Fuel pressure release on high pressure system: TestSpec, Sim, Test/Sim","7:00","16:00","8","60",
"18.03.09","3","077472","1321","120","Codierung","","0","F141 NCM implementation","7:00","16:00","8","60",
"19.03.09","4","077472","1321","120","Codierung","","0","F141 NCM implementation","7:00","16:00","8","60",
"20.03.09","5","077472","859","110","Engineering ","","0","F149:NCM Fuel pressure release on high pressure system: TestSpec, Sim, Test/Sim","7:00","8:00","1","0",
"20.03.09","5","077472","1321","120","Codierung","","0","F141 NCM implementation","8:00","16:00","7","60",
