"08.06.09","1","077353","4048","110","Engineering","","0","Creating simulations for 4369: E1 M5: SWSG: Flashen And Testing services for bugs","07:00","16:00","8","60",
"09.06.09","2","077353","4048","120","Codierung","","0","4369: E1 M5: SWSG: Flashen: Implementierung CTS","07:00","16:00","7","60",
"09.06.09","2","077353","6170","110","Engineering","","0","8185: Warten auf Authoring","","","1","0",
"10.06.09","3","077353","4048","120","Codierung","","0","4369: E1 M5: SWSG: Flashen: Implementierung CTS: And Testing services for bugs","07:00","16:00","7","60",
"10.06.09","3","077353","6170","110","Engineering","","0","8185: Warten auf Authoring","","","1","0",
"11.06.09","4","077353","2946","110","Engineering","","0","common project tasks","07:00","16:00","0,5","60",
"11.06.09","4","077353","4048","110","Engineering","","0","Creating simulations for 4369: E1 M5: SWSG: Flashen: And Testing services for bugs","","","7,5","0",
"12.06.09","5","077353","2946","110","Engineering","","0","common project tasks","07:00","16:00","0,6","60",
"12.06.09","5","077353","4044","110","Engineering","","0","Creating simulations for 4369: E1 M5: SWSG: Flashen:","","","5,4","0",
"12.06.09","5","077353","2946","397","Allgemein","","0","Simulation training","","","1","0",
"12.06.09","5","077353","2946","110","Engineering","","0","Test spec creation training","","","1","0",
