"24.08.09","1","077353","9720","140","Test","","20","5063: E1 M5: SDI4.1. SG-Program: WFS: Modultest (Bug found in ODX - reopened 15731)","07:00","16:00","4,5","60",
"24.08.09","1","077353","9009","190","Optimierung bei bestehenden Sys.","","0","5044: E1 M5: MED9.1/ME7.11: SG-Program: WFS: Bugfixing (Documentation update MOTS,MOTR, log files)","","","1","0",
"24.08.09","1","077353","9721","181","Fehlerbes. vor Ausl. (Bugzilla)","","15","5063: E1 M5: SDI4.1. SG-Program: WFS: Bugfixing zum Modultest (ODX bug reopened - 15731)","","","2,5","0",
"25.08.09","2","077353","9115","110","Engineering","","39","GW-CAN_Wake-Up Gaurdian (Updated spec, rework has to be done on existing work)","07:00","16:00","5","60",
"25.08.09","2","077353","7686","110","Engineering","","0","8501: E1 M5: allg. Projekttätigkeiten (Waiting for Authoring Server)","","","3","0",
"26.08.09","3","077353","9009","190","Optimierung bei bestehenden Sys.","","0","5027: E1 M5: FZGweite Fkt: Bugfixing Abläufe 5.3: BF+Test (MED9.1/ME7.11 WFS Anlernen)","07:00","16:00","3","60",
"26.08.09","3","077353","9115","110","Engineering","","41","Implimentation: GW-CAN_Wake-Up Gaurdian","","","5","0",
"27.08.09","4","077353","9115","110","Engineering","","53","Implimentation: GW-CAN_Wake-Up Gaurdian","07:00","16:00","8","60",
"28.08.09","5","09.00052","260","170","Schulung","","0","Schulungen 2009","07:00","16:00","1","60",
"28.08.09","5","077353","9115","110","Engineering","","54","Implimentation: GW-CAN_Wake-Up Gaurdian","","","7","0",
