"15.06.09","1","077251","1373","110","Engineering","","0","Assiting colleagues with coding.","07:00","16:00","1","60",
"15.06.09","1","077251","0","110","Engineering","","0","E1: Kessy: Worked on send-flash-data module","","","7","0",
"16.06.09","2","077598","0","910","Urlaub","","0","Public holiday","07:00","16:00","8","60",
"17.06.09","3","077251","1373","110","Engineering","","0","Meeting regarding project","07:00","16:00","1","60",
"17.06.09","3","077251","1373","110","Engineering","","0","Assiting colleagues with coding.","","","1","0",
"17.06.09","3","077251","0","110","Engineering","","0","E1: Kessy: Worked on send-flash-data module","","","6","0",
"18.06.09","4","077251","1373","110","Engineering","","0","Meeting regarding project","07:00","16:00","1","60",
"18.06.09","4","077251","2094","185","Service","","0","Working on module for send-flash-data","","","6","0",
"18.06.09","4","077251","1373","110","Engineering","","0","Assiting colleagues with coding.","","","1","0",
"19.06.09","5","077251","0","185","Service","","0","E1: Kessy: Finalising module for send-flash-data","07:00","16:00","7","60",
"19.06.09","5","077251","1373","110","Engineering","","0","Assiting colleagues with coding.","","","1","0",
