"07.09.09","1","077472","1669","140","Test","","100","F141 Kisspoint: Tests /Sim B25.7/ae15","07:00","16:00","0","60",
"07.09.09","1","077472","1893","110","Engineering","","0","Waiting for Authoring","","","1","0",
"07.09.09","1","077472","859","110","Engineering","","0","Allg. Projekttätigkeiten A1.6/ae15","","","1","0",
"07.09.09","1","077472","0","181","Fehlerbes. vor Ausl. (Bugzilla)","","0","F141 NCM bug-fixing","","","6","0",
"08.09.09","2","077472","1893","110","Engineering","","0","Waiting for Authoring","07:00","16:00","1","60",
"08.09.09","2","077472","859","110","Engineering","","0","Allg. Projekttätigkeiten A1.6/ae15","","","0,5","0",
"08.09.09","2","077472","2194","110","Engineering","","100","F141 NQS Instrument Ablauf: TestSpecs erstellen B47.1/ae16","","","2","0",
"08.09.09","2","077472","0","181","Fehlerbes. vor Ausl. (Bugzilla)","","0","F141 NCM bug-fixing","","","2,5","0",
"08.09.09","2","077472","0","110","Engineering","","100","F141 NQS Bremsscheibentausch - PH update","","","2","0",
"09.09.09","3","077472","1893","110","Engineering","","0","Waiting for Authoring","07:00","16:00","0,5","60",
"09.09.09","3","077472","859","110","Engineering","","0","Allg. Projekttätigkeiten A1.6/ae15","","","0,5","0",
"09.09.09","3","077472","2200","110","Engineering","","100","F141 NQS Bremsscheibentausch: Testspec","","","5","0",
"09.09.09","3","077472","0","110","Engineering","","0","F141 NQS Bremsscheibentausch - CTS impl","","","2","0",
"10.09.09","4","077472","859","110","Engineering","","0","Allg. Projekttätigkeiten A1.6/ae15","07:00","16:00","1,5","60",
"10.09.09","4","077472","1893","110","Engineering","","0","Waiting for Authoring","","","0,5","0",
"10.09.09","4","077472","0","120","Codierung","","0","F141 NQS Bremsscheibentausch - CTS impl","","","6","0",
"11.09.09","5","077472","859","110","Engineering","","0","Allg. Projekttätigkeiten A1.6/ae15","07:00","16:00","0,5","60",
"11.09.09","5","077472","1893","110","Engineering","","0","Waiting for Authoring","","","0,5","0",
"11.09.09","5","077472","0","120","Codierung","","100","F141 NQS Bremsscheibentausch - CTS impl","","","2","0",
"11.09.09","5","077472","2202","181","Fehlerbes. vor Ausl. (Bugzilla)","","0","F141 NQS Bremsscheibentausch: Bugfixen nach Test gegen Sim.","","","2","0",
"11.09.09","5","077472","0","181","Fehlerbes. vor Ausl. (Bugzilla)","","0","F141 NCM bug-fixing","","","3","0",
