"26.01.09","1","077353","1916","110","Engineering ","","0","Waiting For Authoring","7:00","9:00","2","0",
"26.01.09","1","077353","1087","110","Engineering ","","0","E1 Kombi: Bug Fixing the Internationalized Kombi CTS","9:00","16:00","6","60",
"27.01.09","2","077353","1916","110","Engineering ","","0","Waiting For Authoring","7:00","9:00","2","0",
"27.01.09","2","077353","1087","110","Engineering ","","0","E1 Kombi: Bug Fixing the Internationalized Kombi CTS","9:00","16:00","6","60",
"28.01.09","3","077353","1916","110","Engineering ","","0","Waiting For Authoring","7:00","10:00","3","0",
"28.01.09","3","077353","1087","110","Engineering ","","0","E1 Kombi: Bug Fixing the Internationalized Kombi CTS","10:00","12:00","2","0",
"28.01.09","3","077353","1087","110","Engineering ","","0","E1 Kombi: Bug Fixing the Internationalized Kombi CTS","12:00","16:00","3","60",
"29.01.09","4","077353","1087","110","Engineering ","","0","E1: Testing PDC and Gateway CTS's  for Internationalization","7:00","11:00","4","0",
"29.01.09","4","077353","1087","110","Engineering ","","0","E1: Testing PDC and Gateway CTS's  for Internationalization","11:00","16:00","4","60",
"30.01.09","5","077353","1087","110","Engineering ","","0","E1: Testing  CTS's  for Internationalization","7:00","13:00","6","0",
"30.01.09","5","077353","1916","110","Engineering ","","0","Waiting For Authoring","13:00","16:00","2","60",
