"26.10.09","1","077353","11474","120","Codierung","","70","6007: E1 M5: Kombi (24.100): Wartungsintervall","07:00","16:00","6,5","60",
"26.10.09","1","077353","1088","110","Engineering","","0","8501: E1 M5: allg. Projekttätigkeiten A1.15/ae15 (Updating Timesheets)","","","1","0",
"26.10.09","1","077353","1088","110","Engineering","","0","8501: E1 M5: allg. Projekttätigkeiten A1.15/ae15 (Assisting with actuator tests)","","","0,5","0",
"27.10.09","2","077353","11474","120","Codierung","","70","6007: E1 M5: Kombi (24.100): Wartungsintervall","07:00","16:00","8","60",
"28.10.09","3","077598","0","920","Krankheit","","0","Sick Leave","07:00","15:00","8","0",
"29.10.09","4","077598","0","920","Krankheit","","0","Sick Leave","07:00","15:00","8","0",
"30.10.09","5","077353","11193","140","Test","","95","5940: E1 M5: FÜP: Modultest","07:00","16:00","3","60",
"30.10.09","5","077353","11192","120","Codierung","","95","	 5940: E1 M5: FÜP: Impl Kombi WartungsIntervall schreiben","","","5","0",
