"15.11.10","1","09.00582","2152","181","Fehlerbes. vor Ausl. (Bugzilla)","","100","1020: 9x6: Kombi: Bugfixing zu Integrationstest. Closing Task","07:00","16:00","0","60",
"15.11.10","1","100334","680","110","Engineering","","80","6020: Alt-BR: Heizung: Stellglied+Codier Analyse. Analysis - Stellgelieder","","","4","0",
"15.11.10","1","09.00582","2758","181","Fehlerbes. vor Ausl. (Bugzilla)","","0","5029: Bugfixing: CTSs. Testing bugfixes","","","4","0",
"16.11.10","2","100334","680","110","Engineering","","80","6020: Alt-BR: Heizung: Stellglied+Codier Analyse. Analysis - Stellgelieder","07:00","16:00","8","60",
"17.11.10","3","100334","680","110","Engineering","","90","6020: Alt-BR: Heizung: Stellglied+Codier Analyse. Analysis - Stellgelieder","07:00","16:00","8","60",
"18.11.10","4","09.00582","2758","181","Fehlerbes. vor Ausl. (Bugzilla)","","0","5029: Bugfixing: CTSs. Bug 25426","07:00","16:00","1","60",
"18.11.10","4","100334","680","110","Engineering","","95","6020: Alt-BR: Heizung: Stellglied+Codier Analyse. Analysis - Stellgelieder","","","7","0",
"19.11.10","5","100334","680","110","Engineering","","100","6020: Alt-BR: Heizung: Stellglied+Codier Analyse. Analysis - Stellgelieder","07:00","16:00","6,5","60",
"19.11.10","5","100018","44","110","Engineering","","0","Wochenaufgaben AES. Meeting","","","1,5","0",
