"04.10.10","1","09.00582","1956","120","Codierung","","0","3001: 9x6: ME7.2: ODX Bedat + FAP. ODX testing of ME7.2.Task of S43","07:00","16:00","8","60",
"05.10.10","2","09.00582","1956","120","Codierung","","0","3001: 9x6: ME7.2: ODX Bedat + FAP.Task of f5. ODX testing of ME7.2.ODX testing of ME7.2.Task of S43","07:00","16:00","7","60",
"05.10.10","2","09.00582","1956","120","Codierung","","0","3001: 9x6: ME7.2: ODX Bedat + FAP. Arange DTC to match DTC name.ODX testing of ME7.2.Task of S43","","","1","0",
"06.10.10","3","09.00582","1956","120","Codierung","","0","3001: 9x6: ME7.2: ODX Bedat + FAP.. ODX Testing ME7.2.ODX testing of ME7.2.Task of S43","07:00","16:00","8","60",
"07.10.10","4","09.00582","1956","120","Codierung","","0","3001: 9x6: ME7.2: ODX Bedat + FAP.. ODX testing of ME7.2.ODX testing of ME7.2.Task of S43","07:00","16:00","7","60",
"07.10.10","4","09.00582","1956","120","Codierung","","0","3001: 9x6: ME7.2: ODX Bedat + FAP.. Restructuring Results of Piwis and Pidt in xlt sheet.ODX testing of ME7.2.Task of S43","","","1","0",
"08.10.10","5","09.00582","1956","120","Codierung","","0","3001: 9x6: ME7.2: ODX Bedat + FAP. ODX Testing ME7.2.Task of S43","07:00","16:00","6","60",
"08.10.10","5","09.00582","1956","120","Codierung","","0","3001: 9x6: ME7.2: ODX Bedat + FAP. Restructuring Results of Piwis and Pidt in xlt sheet.Task of S43","","","2","0",
