"25.10.10","1","077598","0","910","Urlaub","","0","Time off. Time off","07:00","16:00","8","60",
"26.10.10","2","09.00582","626","120","Codierung","","0","3061: 9x6: ME5.2: ODX Bedat. Bedat From f5: Fixing ODX - Coding and DTCs. Task already closed","07:00","16:00","8","60",
"27.10.10","3","09.00582","626","120","Codierung","","0","3061: 9x6: ME5.2: ODX Bedat. From f5: Fixing ME5.2  Actuators - Task already closed","07:00","16:00","8","60",
"28.10.10","4","09.00582","626","120","Codierung","","0","3061: 9x6: ME5.2: ODX Bedat. From f5: Fixing ME5.2 Actuators - Task already closed","07:00","16:00","8","60",
"29.10.10","5","100018","45","110","Engineering","","0","DSA AAC Wochenaufgaben AES. Project Meeting, creating and checking timesheets","07:00","16:00","1,5","60",
"29.10.10","5","09.00582","626","120","Codierung","","100","3061: 9x6: ME5.2: ODX Bedat. From f5: Fixing ME5.2 final bug-fixing and creating test results - Task already closed","","","6,5","0",
