"19.04.10","1","100023","0","920","Krankheit","","0","Sick Leave. Sick Leave","08:00","16:00","8","0",
"20.04.10","2","09.00582","491","110","Engineering","","0","3000: 9x6: ME7.2: ECU Analyse. Analysis","07:00","16:00","8","60",
"21.04.10","3","09.00582","491","110","Engineering","","0","3000: 9x6: ME7.2: ECU Analyse. Analysis","07:00","16:00","8","60",
"22.04.10","4","09.00582","491","110","Engineering","","0","3000: 9x6: ME7.2: ECU Analyse. Analysis - Kurtztest","07:00","16:00","8","60",
"23.04.10","5","09.00582","491","110","Engineering","","0","3000: 9x6: ME7.2: ECU Analyse. Analysis - Kurtztest","07:00","16:00","8","60",
