"21.06.10","1","100152","20","110","Engineering","","97","1004: E1 PIROL: EDC17: SystAnp Fkt1 (Lernwerte Partikelfilter): Testspec + enw. Sim. Fixing simulation responses in KOMBI part.","07:00","16:00","0,5","60",
"21.06.10","1","100152","22","120","Codierung","","95","1004: E1 PIROL: EDC17: SystAnp Fkt1 (Lernwerte Partikelfilter): Implementierung. Implementing the number manipulation for reading and writing the total distance to DME.","","","6,5","0",
"21.06.10","1","100018","52","110","Engineering","","0","Wochenaufgaben AES. Creating Ignition bridges for DT2 and MFT's.","","","1","0",
"22.06.10","2","100152","22","120","Codierung","","98","1004: E1 PIROL: EDC17: SystAnp Fkt1 (Lernwerte Partikelfilter): Implementierung. Creating a custom module to handle simultaneous constrained text and drop down selection","07:00","16:00","7","60",
"22.06.10","2","100018","52","110","Engineering","","0","Wochenaufgaben AES. Meeting discussing the finishing of ODX and testing of CTS's","","","1","0",
"22.06.10","2","100152","20","110","Engineering","","100","1004: E1 PIROL: EDC17: SystAnp Fkt1 (Lernwerte Partikelfilter): Testspec + enw. Sim. Task done","","","0","0",
"23.06.10","3","100152","22","120","Codierung","","99","1004: E1 PIROL: EDC17: SystAnp Fkt1 (Lernwerte Partikelfilter): Implementierung. Correcting parameters for Job_LangeAnpassung_Write, correcting error flow.","07:00","16:00","8","60",
"24.06.10","4","100152","22","120","Codierung","","100","1004: E1 PIROL: EDC17: SystAnp Fkt1 (Lernwerte Partikelfilter): Implementierung. Task Finished. Implemented the interpretation of distance unit from Kombi.","07:00","16:00","5","60",
"24.06.10","4","09.00582","1464","120","Codierung","","1","3021: 9x6: ME7.8/ME7.8min: ODX Bedat + FAP. Installed ODX authoring 1.1.19","","","1","0",
"24.06.10","4","100152","267","110","Engineering","","100","1008: E1 PIROL: EDC17: Kurztest Partikelfilter-Servicegeneration: Testspec + erw. Sim. Task Reassigned","","","0","0",
"24.06.10","4","100018","52","110","Engineering","","0","Wochenaufgaben AES. Meeting discussing usage of ODA modules, Project time and communication.","","","2","0",
"25.06.10","5","09.00582","1464","120","Codierung","","2","3021: 9x6: ME7.8/ME7.8min: ODX Bedat + FAP. Creating a Base Variant and variant identification for a dummy","07:00","16:00","4","60",
"25.06.10","5","100025","322","170","Schulung","","0","Schulungen 2010. Learning how to create ECU's and Variants and conventions for them","","","4","0",
