"28.06.10","1","100152","63","140","Test","","100","1013: E1 PIROL: EDC17: SG-Program FZG lesen: Modultest+Bugfixing. Testing against the latest Baureihen and fixed bugs for cts","07:00","16:00","3,5","60",
"28.06.10","1","100152","9","120","Codierung","","0","1001: E1 PIROL: EDC17: ODX Bedat. Updating ODX measurement values with correct formula","","","2,5","0",
"28.06.10","1","100025","321","170","Schulung","","0","Schulungen 2010. Getting trainging for module creation in CTS Authoring","","","2","0",
"29.06.10","2","100152","68","140","Test","","0","1014: E1 PIROL: EDC17: SG-Program FZG schreiben: Modultest+Bugfixing. Testing and Bugfixing the CTS for SG-Program Schreiben","07:00","16:00","4,5","60",
"29.06.10","2","100025","321","170","Schulung","","0","Schulungen 2010. Receiving training from colleague on CTS creation with sequence builder","","","2,5","0",
"29.06.10","2","100018","51","110","Engineering","","0","Wochenaufgaben AES. Updating SVN and installing latest versions of PITD and OET","","","1","0",
"01.07.10","4","100152","9","120","Codierung","","100","1001: E1 PIROL: EDC17: ODX Bedat. completed","07:00","16:00","0","60",
"01.07.10","4","100152","68","140","Test","","100","1014: E1 PIROL: EDC17: SG-Program FZG schreiben: Modultest+Bugfixing. Testing and Bugfixing the CTS for SG-Program Schreiben","","","4,5","0",
"01.07.10","4","100018","51","110","Engineering","","0","Wochenaufgaben AES. General bugfixing and helping colleagues on work related problems.","","","1","0",
"01.07.10","4","09.00582","1362","110","Engineering","","100","1024: 9x6: Kombi: SG-Tausch_0x: PH. Implementing PH for 9x6_kombi Sg-Tausch from s44","","","1","0",
"01.07.10","4","100025","315","170","Schulung","","0","Schulungen 2010. Training colleague on ODX creations for 9x6","","","1,5","0",
"02.07.10","5","09.00582","1363","110","Engineering","","0","1024: 9x6: Kombi: SG-Tausch_0x: Testspec + erw. Sim. Creating Testspec and simulations for 9x6_Kombi SG-Tausch from s44","07:00","16:00","3","60",
"02.07.10","5","09.00582","1367","110","Engineering","","0","1024: 9x6: Kombi: SG-Tausch_PRE-READ_2000: PH. Creating PH for SG-Tausch 2000 from s44","","","2","0",
"02.07.10","5","100023","0","910","Urlaub","","0","Holiday. Time-Off","","","3","0",
