"12.07.10","1","09.00582","0","110","Engineering","","100","PSM/ABS II: Stellglieder: Fixing 	1007: 9x6: PSM/ABS: Stellglieder_psm_x: Testspec after review. Fixing Test spec according to review: original Test spec creation task: 09.00582-1342","07:00","16:00","4","60",
"12.07.10","1","09.00582","1354","120","Codierung","","100","	From s57: 1007: 9x6: PSM/ABS: Stellglieder_abs_0123: Implementierung. Assisting collegue with implementation","","","0,5","0",
"12.07.10","1","09.00582","1349","120","Codierung","","100","From s57: 1007: 9x6: PSM/ABS: Stellglieder_abs_0678: Implementierung. Assisting collegue with implementation","","","1,5","0",
"12.07.10","1","09.00582","1347","110","Engineering","","90","1007: 9x6: PSM/ABS: Stellglieder_abs_0678: Testspec + erw. Sim. Test spec and simulation creation","","","2","0",
"13.07.10","2","09.00582","1347","110","Engineering","","100","	1007: 9x6: PSM/ABS: Stellglieder_abs_0678: Testspec + erw. Sim. Test spec and simulation creation","07:00","16:00","5","60",
"13.07.10","2","09.00582","119","110","Engineering","","0","8501: 9x6: allg. Projekttätigkeit C1.3/ae20. Common project tasks and download pidt install files","","","1,5","0",
"13.07.10","2","09.00582","1349","120","Codierung","","100","From s57: 1007: 9x6: PSM/ABS: Stellglieder_abs_0678: Implementierung. Assisting collegue with implementation","","","1,5","0",
"14.07.10","3","09.00582","119","110","Engineering","","0","8501: 9x6: allg. Projekttätigkeit C1.3/ae20. Common project tasks and meeting","07:00","16:00","2,5","60",
"14.07.10","3","100152","0","110","Engineering","","0","allg. Projekttätigkeit. Installing pidt, Baureihen setup and PTTD","","","1","0",
"14.07.10","3","100152","1","110","Engineering","","100","Bugfixing for Bug 24342. Bug-fixing and re-testing E1_EDC17_U100: Readinesscode erzeugen sequence","","","4","0",
"14.07.10","3","09.00582","1349","120","Codierung","","0","From s57: 1007: 9x6: PSM/ABS: Stellglieder_abs_0678: Implementierung. Assisting collegue with implementation","","","0,5","0",
"15.07.10","4","100152","2","181","Fehlerbes. vor Ausl. (Bugzilla)","","0","Module test and Bugfixing E1 Pirol - E1_EDC17_Systemanpassung_Laufruheregelung_Pruefen. Reviewing and fixing test spec. Re-testing sequence.","07:00","16:00","7","60",
"15.07.10","4","100152","3","181","Fehlerbes. vor Ausl. (Bugzilla)","","0","Module test and Bugfixing E1 Pirol - E1_EDC17_ReadinessCode. Fixing test spec according to re-review.","","","1","0",
"16.07.10","5","100152","3","110","Engineering","","0","Bugfixing for Bugs 24398, 24401 & 24404. Bug fixing and re-testing","07:00","16:00","8","60",
