"08.11.10","1","09.00582","2744","181","Fehlerbes. vor Ausl. (Bugzilla)","","100","5029: Bugfixing: ODX. from s53: DME 5.2: Fixing test specs, test results amd ODX bugs found in test results","07:00","16:00","8","60",
"09.11.10","2","09.00582","2744","181","Fehlerbes. vor Ausl. (Bugzilla)","","100","5029: Bugfixing: ODX. from s53: DME 5.2: Fixing test specs, test results amd ODX bugs found in test results","07:00","16:00","8","60",
"10.11.10","3","09.00582","2744","181","Fehlerbes. vor Ausl. (Bugzilla)","","100","5029: Bugfixing: ODX. from s53: DME 5.2: Fixing test specs, test results amd ODX bugs found in test results","07:00","16:00","8","60",
"11.11.10","4","09.00582","2744","181","Fehlerbes. vor Ausl. (Bugzilla)","","100","5029: Bugfixing: ODX. from s53: DME 5.2: Fixing test specs, test results amd ODX bugs found in test results","07:00","16:00","8","60",
"12.11.10","5","100018","45","110","Engineering","","0","	DSA AAC Wochenaufgaben AES. Project Meeting, creating and checking timesheets","07:00","16:00","1,5","60",
"12.11.10","5","09.00582","2744","181","Fehlerbes. vor Ausl. (Bugzilla)","","100","5029: Bugfixing: ODX. From s53: Working on Bugs 26691 and DME 5.2 ODX bugs","","","3","0",
"12.11.10","5","09.00582","2741","181","Fehlerbes. vor Ausl. (Bugzilla)","","100","5029: Bugfixing: CTSs. From s47: Working on CTS bugs in bugzilla: Bug 25338 and 26696","","","3,5","0",
