"30.08.10","1","100025","440","170","Schulung","","0","Training new staff. 4. practical work. Assisting new staff with practical work","07:00","16:00","8","60",
"31.08.10","2","100025","440","170","Schulung","","40","Training new staff. 4. practical work. Assisting new staff with practical work","07:00","16:00","8","60",
"01.09.10","3","100025","440","170","Schulung","","50","Training new staff. 4. practical work. Assisting new staff with practical work","07:00","16:00","8","60",
"02.09.10","4","100025","440","170","Schulung","","60","Training new staff. 4. practical work. Assisting new staff with practical work","07:00","16:00","6,5","60",
"02.09.10","4","100018","40","110","Engineering","","0","Wochenaufgaben AES. Introduction by DSA to the alt baureihen project","","","1,5","0",
"03.09.10","5","100025","440","170","Schulung","","80","Training new staff. 4. practical work. Assisting new staff with practical work","07:00","16:00","8","60",
