"22.02.10","1","09.00582","355","110","Engineering","","0","9x6: allg. Projekttatigkeit C1.3/ae20. Meeting and general work","07:00","16:00","3","60",
"22.02.10","1","09.00311","0","110","Engineering","","0","Erarbeitung Verbesserungskonzept ODA Modules. Module rework review and work on  new module WriteEcuConfig","","","5","0",
"23.02.10","2","09.00582","355","110","Engineering","","0","9x6: allg. Projekttatigkeit C1.3/ae20. Meeting and general work","07:00","16:00","4","60",
"23.02.10","2","09.00311","0","110","Engineering","","0","Erarbeitung Verbesserungskonzept ODA Modules. Module rework review and work on  new module WriteEcuConfig","","","4","0",
"24.02.10","3","09.00311","0","110","Engineering","","0","Erarbeitung Verbesserungew and work on  new module WriteEcuConfigskonzept ODA Modules. Module rework and review","07:00","16:00","3","60",
"24.02.10","3","09.00582","355","110","Engineering","","0","9x6: allg. Projekttatigkeit C1.3/ae20. Installation of ODX Authoring and PIDT; meetings","","","3","0",
"24.02.10","3","09.00582","98","170","Schulung","","0","9x6: get into subject E1.3/ae20. ODX Authoring for 9x6","","","2","0",
"25.02.10","4","09.00582","355","110","Engineering","","0","9x6: allg. Projekttatigkeit C1.3/ae20. Meeting and general work","07:00","16:00","1","60",
"25.02.10","4","09.00582","98","170","Schulung","","0","9x6: get into subject E1.3/ae20. ODX Authoring for 9x6","","","1","0",
"25.02.10","4","09.00582","0","120","Codierung","","0","G1-2 ODX Bedatung Kombi. Service creation, ODX tables, structures and conversions","","","6","0",
"26.02.10","5","09.00582","98","170","Schulung","","0","9x6: get into subject E1.3/ae20. ODX Authoring for 9x6","07:00","16:00","1","60",
"26.02.10","5","09.00582","355","110","Engineering","","0","9x6: allg. Projekttatigkeit C1.3/ae20. Meeting and general work","","","1","0",
"26.02.10","5","09.00582","0","120","Codierung","","0","G1-2 ODX Bedatung Kombi. Service creation, ODX tables, structures and conversions","","","6","0",
