"29.11.10","1","09.00582","2792","181","Fehlerbes. vor Ausl. (Bugzilla)","","0","1104: RegrTests Bugfixing. From F2 | Working on bugs: 26269, 27168,27230, 27274","07:00","16:00","6","60",
"29.11.10","1","100018","54","110","Engineering","","0","S4 Technical Support / Troubleshooting. Assisting colleagues","","","2","0",
"30.11.10","2","100018","55","110","Engineering","","0","S4 Administrative Tasks. S4 company meeting presentations","07:00","16:00","1","60",
"30.11.10","2","100018","54","110","Engineering","","0","S4 Technical Support / Troubleshooting. Assisting colleagues","","","6","0",
"30.11.10","2","09.00582","1317","110","Engineering","","0","8501: 9x6: ProjStatus + Bespr C1.1/ae31. Weekly Telco with sc, fp, rj","","","0,5","0",
"30.11.10","2","100334","52","101","PM/Mod/Meetings","","0","8501: Alt-BR: ProjStatus + Bespr C1.1/ae14. Weekly Telco with md, sc, fp","","","0,5","0",
"01.12.10","3","100018","54","110","Engineering","","0","S4 Technical Support / Troubleshooting. Internet connection downtime, Assisting colleagues","07:00","16:00","8","60",
"02.12.10","4","09.00582","2795","181","Fehlerbes. vor Ausl. (Bugzilla)","","0","1104: Bugfixing #27141 (Klima H02). Heizung re-analysis: Bug 27141","07:00","16:00","4","60",
"02.12.10","4","100018","54","110","Engineering","","0","S4 Technical Support / Troubleshooting. Assisting colleagues","","","2","0",
"02.12.10","4","100018","42","110","Engineering","","0","Wochenaufgaben AES. Weekly meetings + Tiemsheets","","","1","0",
"02.12.10","4","100018","55","110","Engineering","","0","S4 Administrative Tasks. Monthly reports for S4 management","","","1","0",
"03.12.10","5","09.00582","2792","181","Fehlerbes. vor Ausl. (Bugzilla)","","0","1104: RegrTests Bugfixing. From F2 | re-analysis for bug 27229","07:00","16:00","3","60",
"03.12.10","5","09.00582","2795","181","Fehlerbes. vor Ausl. (Bugzilla)","","0","1104: Bugfixing #27141 (Klima H02). Re-analysis of Heizung","","","5","0",
