"15.03.10","1","09.00582","405","120","Codierung","","0","1001: 9x6: PSM/ABS I: ODX Bedat. Making services","07:00","16:00","8","60",
"16.03.10","2","09.00582","405","120","Codierung","","50","1001: 9x6: PSM/ABS I: ODX Bedat. Creating three services","07:00","16:00","5,5","60",
"16.03.10","2","09.00582","405","120","Codierung","","0","1001: 9x6: PSM/ABS I: ODX Bedat. Importing into new ODX Database","","","2,5","0",
"17.03.10","3","09.00582","0","110","Engineering","","0","General Task. 9x6 Project meeting","07:00","16:00","1","60",
"17.03.10","3","09.00582","405","120","Codierung","","0","1001: 9x6: PSM/ABS I: ODX Bedat. Implementing service","","","4","0",
"17.03.10","3","09.00582","405","120","Codierung","","0","1001: 9x6: PSM/ABS I: ODX Bedat. Helping colleagues with Job implementation","","","3","0",
"18.03.10","4","09.00582","405","120","Codierung","","55","1001: 9x6: PSM/ABS I: ODX Bedat. Working on PSM Def Tables","07:00","16:00","6","60",
"18.03.10","4","09.00582","0","110","Engineering","","0","General Task. Meeting/Discussion about Kombi variants","","","1,5","0",
"18.03.10","4","09.00582","405","120","Codierung","","0","1001: 9x6: PSM/ABS I: ODX Bedat. Waiting for Authoring - Exporting performance","","","0,5","0",
"19.03.10","5","09.00582","405","120","Codierung","","57","1001: 9x6: PSM/ABS I: ODX Bedat. Working on ABS Def Tables","07:00","16:00","7,5","60",
"19.03.10","5","09.00582","405","120","Codierung","","0","1001: 9x6: PSM/ABS I: ODX Bedat. Waiting while exporting","","","0,5","0",
