"24.05.10","1","100152","55","110","Engineering","","100","E1 PIROL: EDC17: Readinesscode erzeugen: Testspec + erw. Sim. Test spec and simulation creation","07:00","16:00","2","60",
"24.05.10","1","100152","9","120","Codierung","","100","From s54: 1001: E1 PIROL: EDC17: ODX Bedat. Assisting collegue with fixing incorrect services","","","2,5","0",
"24.05.10","1","100152","58","140","Test","","20","1012: E1 PIROL: EDC17: Readinesscode erzeugen: Modultest+Bugfixing. Testing in Pidt","","","1","0",
"24.05.10","1","100025","315","170","Schulung","","0","Schulungen 2010. Gesic training","","","1,75","0",
"24.05.10","1","100018","45","110","Engineering","","0","Wochenaufgaben AES. Common project tasks","","","0,75","0",
"25.05.10","2","09.00582","853","110","Engineering","","6","1007: 9x6: PSM/ABS II: Stellglieder: PH. PH creation","07:00","16:00","2","60",
"25.05.10","2","100152","58","140","Test","","75","1012: E1 PIROL: EDC17: Readinesscode erzeugen: Modultest+Bugfixing. Testing in Pidt","","","2","0",
"25.05.10","2","100152","9","120","Codierung","","100","From s54: 1001: E1 PIROL: EDC17: ODX Bedat. Assisting collegue with fixing incorrect services","","","1","0",
"25.05.10","2","09.00582","93","170","Schulung","","0","8503: 9x6: get into Subject E1.3/ae20. Sequence builder and document creatin","","","3","0",
"26.05.10","3","100152","58","140","Test","","100","1012: E1 PIROL: EDC17: Readinesscode erzeugen: Modultest+Bugfixing. Bugfixing in Authoring and Testing in Pidt","07:00","16:00","7,5","60",
"26.05.10","3","100152","58","140","Test","","0","1012: E1 PIROL: EDC17: Readinesscode erzeugen: Modultest+Bugfixing. Waiting for Authoring","","","0,5","0",
"27.05.10","4","09.00582","853","110","Engineering","","25","1007: 9x6: PSM/ABS II: Stellglieder: PH. PH creation","07:00","16:00","7,5","60",
"27.05.10","4","09.00582","93","170","Schulung","","0","8503: 9x6: get into Subject E1.3/ae20	. Common project tasks","","","0,5","0",
"28.05.10","5","09.00582","853","110","Engineering","","35","	1007: 9x6: PSM/ABS II: Stellglieder: PH. PH creation","07:00","16:00","8","60",
"28.05.10","5","077353","2946","110","Engineering","","100","8501: E1 M5: allg. Projekttätigkeiten A1.15/ae19. Closing all prio-points for 077353","","","0","0",
"28.05.10","5","077353","11587","170","Schulung","","0","8501: E1 M5: Assisting colleagues. Closing all prio-points for 077353","","","0","0",
