"16.08.10","1","09.00582","2244","110","Engineering","","80","4042: 9x6: Alarmanlage/WFS: Wegfahrsperre: PH. Creating Wegfahrsperre PH","07:00","16:00","8","60",
"17.08.10","2","09.00582","2247","120","Codierung","","80","4042: 9x6: Alarmanlage/WFS: Wegfahrsperre: Implementierung. Implementing Alarm Wegfahrsperre  CTS","07:00","16:00","6","60",
"17.08.10","2","09.00582","2247","120","Codierung","","80","4042: 9x6: Alarmanlage/WFS: Wegfahrsperre: Implementierung. Waiting for Authoring","","","2","0",
"18.08.10","3","100018","46","110","Engineering","","0","Wochenaufgaben AES. Helping Colleague in CTS Creation","07:00","16:00","2","60",
"18.08.10","3","09.00582","2252","120","Codierung","","85","4043: 9x6: Alarmanlage/WFS: Transponderschlüssel: Implementierung. Waiting for Authoring","","","1","0",
"18.08.10","3","09.00582","2248","140","Test","","10","4042: 9x6: Alarmanlage/WFS: Wegfahrsperre: Modultest+Bugfixing. Testing alarm Wegfahrsperre CTS","","","3","0",
"18.08.10","3","09.00582","2244","110","Engineering","","80","4042: 9x6: Alarmanlage/WFS: Wegfahrsperre: PH. Creating Wegfahrsperre PH","","","2","0",
"19.08.10","4","100018","46","110","Engineering","","0","Wochenaufgaben PAE. Meeting about ABS Documentation","07:00","16:00","1","60",
"19.08.10","4","09.00582","2252","120","Codierung","","80","4043: 9x6: Alarmanlage/WFS: Transponderschlüssel: Implementierung. Implementing Alarm Transponderschlüssel CTS","","","3","0",
"19.08.10","4","100018","46","110","Engineering","","0","Wochenaufgaben AES. Helping Colleague in CTS Creation","","","4","0",
"20.08.10","5","09.00582","2244","110","Engineering","","100","4042: 9x6: Alarmanlage/WFS: Wegfahrsperre: PH. Creating Wegfahrsperre PH","07:00","16:00","2","60",
"20.08.10","5","09.00582","2247","120","Codierung","","85","4042: 9x6: Alarmanlage/WFS: Wegfahrsperre: Implementierung. Implementing Alarm Wegfahrsperre CTS","","","4","0",
"20.08.10","5","09.00582","2247","120","Codierung","","85","4042: 9x6: Alarmanlage/WFS: Wegfahrsperre: Implementierung. Waiting for Authoring","","","1","0",
"20.08.10","5","100018","46","110","Engineering","","0","Wochenaufgaben AES. Helping Colleague in CTS Creation","","","1","0",
