"12.07.10","1","100018","55","110","Engineering","","0","S4 Administrative Tasks. Orientation for new employees.","07:00","16:00","2","60",
"12.07.10","1","09.00582","1403","110","Engineering","","0","1031: 9x6: Kombi: Komplexe Codierung: Implementierung. Implementation of configuration file interpreter.","","","2","0",
"12.07.10","1","100018","55","110","Engineering","","0","S4 Administrative Tasks. S4 Management meeting","","","1","0",
"12.07.10","1","09.00582","1317","110","Engineering","","0","8501: 9x6: ProjStatus + Bespr C1.1/ae31. ABS/PSM Stellglieder discussions with S47, S57 and S44","","","1","0",
"12.07.10","1","100018","54","110","Engineering","","0","S4 Technical Support/Troubleshooting. Assisting colleagues with issues and questions.","","","2","0",
"13.07.10","2","100018","55","110","Engineering","","0","S4 Administrative Tasks. E1 project status tracking with s42. Telco with mi and md","07:00","16:00","2","60",
"13.07.10","2","100018","54","110","Engineering","","0","S4 Technical Support/Troubleshooting. Assisting colleagues with issues and questions.","","","3","0",
"13.07.10","2","09.00582","1403","110","Engineering","","0","1031: 9x6: Kombi: Komplexe Codierung: Implementierung. Ficnishing off configuration file interpreter.","","","3","0",
"14.07.10","3","09.00582","1403","120","Codierung","","0","9x6: Kombi: Komplexe Codierung: Implementierung. Implementation of CTS.","07:00","16:00","3","60",
"14.07.10","3","09.00582","1317","110","Engineering","","0","8501: 9x6: ProjStatus + Bespr C1.1/ae31. Weekly Telco with sc, fp, we.","","","1","0",
"14.07.10","3","09.00582","1403","120","Codierung","","0","8501: 9x6: ProjStatus + Bespr C1.1/ae31. Tracking status of project items + discussion with team members.","","","2","0",
"14.07.10","3","100018","54","110","Engineering","","0","S4 Technical Support/Troubleshooting. Assisting colleagues with issues.","","","2","0",
"15.07.10","4","100018","54","110","Engineering","","0","S4 Technical Support/Troubleshooting. Assisintg with E1 Pirol testing.","07:00","16:00","8","60",
"16.07.10","5","100018","54","110","Engineering","","0","S4 Technical Support/Troubleshooting. E1 Pirol Testing, bugfixing and checking of documentation.","07:00","16:00","5","60",
"16.07.10","5","100018","42","110","Engineering","","0","Wochenaufgaben AES. Timesheets","","","0,5","0",
"16.07.10","5","100018","55","110","Engineering","","0","S4 Administrative Tasks. S4 Management meeting","","","0,5","0",
"16.07.10","5","09.00582","1446","110","Engineering","","0","9x6: ME7.2: Kurztest: PH+Testspec Review. Starting review of Kurztest test spec.","","","2","0",
