"11.10.10","1","09.00582","2508","181","Fehlerbes. vor Ausl. (Bugzilla)","","0","1000: 9x6: PSM/ABS: Bugfixing zu Integrationstest. From s56: Booking on closed task. Working on bugs 25338, 25982 and 25950","07:00","16:00","8","60",
"12.10.10","2","09.00582","2508","181","Fehlerbes. vor Ausl. (Bugzilla)","","0","1000: 9x6: PSM/ABS: Bugfixing zu Integrationstest. From s56: Booking on closed task. Working on bugs 25562 and 25948","07:00","16:00","5","60",
"12.10.10","2","09.00582","2227","181","Fehlerbes. vor Ausl. (Bugzilla)","","0","3000: 9x6: ME7.2: Bugfixing zu Integrationstest. From f4: Fixing extended DTCs","","","3","0",
"13.10.10","3","09.00582","2240","181","Fehlerbes. vor Ausl. (Bugzilla)","","0","3060: 9x6: ME5.2: Bugfixing zu Integrationstest. Fixing ODX - Extended Identification and Measurement values","07:00","16:00","6","60",
"13.10.10","3","09.00582","2240","181","Fehlerbes. vor Ausl. (Bugzilla)","","0","3060: 9x6: ME5.2: Bugfixing zu Integrationstest. Waiting for export problems to be fixed in ODXauthoring and an ODX build","","","2","0",
"14.10.10","4","09.00582","2240","181","Fehlerbes. vor Ausl. (Bugzilla)","","0","3060: 9x6: ME5.2: Bugfixing zu Integrationstest. Fixing ODX - Extended Identification and Measurement values","07:00","16:00","5","60",
"14.10.10","4","09.00582","2224","140","Test","","85","3070: 9x6: SG_Auslesen MEx (generisch): Modultest+Bugfixing. Testing and bug-fixing sequence","","","2","0",
"14.10.10","4","09.00582","2240","181","Fehlerbes. vor Ausl. (Bugzilla)","","0","3060: 9x6: ME5.2: Bugfixing zu Integrationstest. Waiting for authoring","","","1","0",
"15.10.10","5","09.00582","2240","181","Fehlerbes. vor Ausl. (Bugzilla)","","75"," 3060: 9x6: ME5.2: Bugfixing zu Integrationstest. Fixing ODX - DTCs, coding and measurement values","07:00","16:00","7,5","60",
"15.10.10","5","09.00582","119","110","Engineering","","0","8501: 9x6: allg. Projekttätigkeit C1.3/ae31. Project meeting and completing timesheets","","","0,5","0",
