"25.10.10","1","100023","0","910","Urlaub","","0","Holiday. Time-Off","07:00","16:00","8","60",
"26.10.10","2","100023","0","910","Urlaub","","0","	Holiday. Time-Off","07:00","16:00","8","60",
"27.10.10","3","09.00582","392","110","Engineering","","0","8501: 9x6: allg. Projekttätigkeit C1 .3/ae31. installing and configuring PIDT 9","07:00","16:00","3","60",
"27.10.10","3","09.00582","2195","140","Test","","0","3035: 9x6: ME7.8/ME7.8min: PTTD: Modultest+Bugfixing. reworked FSP and cts mapping","","","5","0",
"28.10.10","4","09.00582","2204","120","Codierung","","35","3055: 9x6: ME7.11: PTTD: Textmapping+Attributierung. attributed and mapped iswerte for 7.11 Master","07:00","16:00","8","60",
"29.10.10","5","100018","50","110","Engineering","","0","Wochenaufgaben AES. updating timesheets","07:00","16:00","2","60",
"29.10.10","5","09.00582","2204","120","Codierung","","50","3055: 9x6: ME7.11: PTTD: Textmapping+Attributierung. attributed iswerte for 7.11 Slave","","","6","0",
