"18.01.10","1","09.00455","0","110","Engineering","","0","Allg. Projekttätigkeiten: Deliverables erzeugen/ Base Line Konfig. Waiting for authoring and general work","07:00","16:00","1","60",
"18.01.10","1","09.00455","0","140","Test","","100","F142 NFA Extended Complete test. Task given by rj and f3.","","","5","0",
"18.01.10","1","077472","2362","181","Fehlerbes. vor Ausl. (Bugzilla)","","0","Bugfixen Regressionstests. bugzilla","","","2","0",
"19.01.10","2","09.00455","0","110","Engineering","","0","Allg. Projekttätigkeiten A1.6/ae15. Waiting for authoring and general work","07:00","16:00","2","60",
"19.01.10","2","077472","2362","181","Fehlerbes. vor Ausl. (Bugzilla)","","0","Bugfixen Regressionstests","","","6","0",
"20.01.10","3","09.00455","0","110","Engineering","","0","Allg. Projekttätigkeiten A1.6/ae15. Waiting for authoring and general work","07:00","16:00","2","60",
"20.01.10","3","077472","2362","181","Fehlerbes. vor Ausl. (Bugzilla)","","0","Bugfixen Regressionstests","","","6","0",
"21.01.10","4","09.00455","0","110","Engineering","","0","Allg. Projekttätigkeiten A1.6/ae15. Waiting for authoring and general work","07:00","16:00","2","60",
"21.01.10","4","077472","2362","181","Fehlerbes. vor Ausl. (Bugzilla)","","0","Bugfixen Regressionstests","","","6","0",
"22.01.10","5","09.00455","0","110","Engineering","","0","Allg. Projekttätigkeiten A1.6/ae15. Waiting for authoring and general work","07:00","16:00","2","60",
"22.01.10","5","077472","2362","181","Fehlerbes. vor Ausl. (Bugzilla)","","0","Bugfixen Regressionstests","","","6","0",
