"04.10.10","1","09.00582","2168","120","Codierung","","0","3021: 9x6: ME7.8/ME7.8min: ODX Bedat + FAP. worked on ext. FSP service, task closed.","07:00","16:00","3","60",
"04.10.10","1","09.00582","2168","120","Codierung","","0","3021: 9x6: ME7.8/ME7.8min: ODX Bedat + FAP. retested m6001, m6101, m6201, m3101, m3201, task closed.","","","5","0",
"05.10.10","2","09.00582","2168","120","Codierung","","0","3021: 9x6: ME7.8/ME7.8min: ODX Bedat + FAP. reworked odx test specs and re-tested odx data, task closed.","07:00","16:00","7,5","60",
"05.10.10","2","100018","50","110","Engineering","","0","Wochenaufgaben AES. Meeting","","","0,5","0",
"06.10.10","3","09.00582","2168","120","Codierung","","0","3021: 9x6: ME7.8/ME7.8min: ODX Bedat + FAP. worked on ext. FSP service, structures for the mux, task closed.","07:00","16:00","6","60",
"06.10.10","3","09.00582","2168","120","Codierung","","0","3021: 9x6: ME7.8/ME7.8min: ODX Bedat + FAP. corrected conversions and structures for messwerte and identifications, task closed.","","","1","0",
"06.10.10","3","09.00582","2168","120","Codierung","","0","3021: 9x6: ME7.8/ME7.8min: ODX Bedat + FAP. Waiting for authoring","","","1","0",
"07.10.10","4","09.00582","2168","120","Codierung","","0","3021: 9x6: ME7.8/ME7.8min: ODX Bedat + FAP. Waiting for authoring","07:00","16:00","1","60",
"07.10.10","4","09.00582","2168","120","Codierung","","0","3021: 9x6: ME7.8/ME7.8min: ODX Bedat + FAP. worked on ext. FSP service, structures for the mux, task closed.","","","7","0",
"08.10.10","5","09.00582","2204","120","Codierung","","0","3055: 9x6: ME7.11: PTTD: Textmapping+Attributierung. textmapping and attributierung of messwerte, identifications, from f4","07:00","16:00","4","60",
"08.10.10","5","09.00582","617","120","Codierung","","0","3061: 9x6: ME5.2: ODX Bedat. reworked measurement values, identifications","","","3,5","0",
"08.10.10","5","100018","50","110","Engineering","","0","Wochenaufgaben AES. updating timesheets","","","0,5","0",
