"09.08.10","1","100023","0","910","Urlaub","","0","Holiday. Public holiday","07:00","16:00","8","60",
"10.08.10","2","09.00582","2468","181","Fehlerbes. vor Ausl. (Bugzilla)","","0","5026: 9x6: Bugfixing: Bedat: BF+Test. ODX testing PSM0504,PSM04, from s46","07:00","16:00","7","60",
"10.08.10","2","100152","177","181","Fehlerbes. vor Ausl. (Bugzilla)","","0","1104: E1 PIROL: Regtests Bugfixing. Remapping edc17 shorttest cts texts","","","1","0",
"11.08.10","3","09.00582","2468","181","Fehlerbes. vor Ausl. (Bugzilla)","","0","5026: 9x6: Bugfixing: Bedat: BF+Test. ODX testing PSM and bugfixing ABS/PSM, from s42","07:00","20:30","10,5","60",
"11.08.10","3","100152","2471","181","Fehlerbes. vor Ausl. (Bugzilla)","","0","1104: E1 PIROL: Regtests Bugfixing. Waiting for authoring, connection problems on pcpag12","","","0,5","0",
"11.08.10","3","100152","2471","181","Fehlerbes. vor Ausl. (Bugzilla)","","0","1104: E1 PIROL: Regtests Bugfixing. Remapping edc17 BDE_TestOverview","","","0,5","0",
"11.08.10","3","100018","50","110","Engineering","","0","Wochenaufgaben AES. Meeting","","","1","0",
"12.08.10","4","09.00582","2472","181","Fehlerbes. vor Ausl. (Bugzilla)","","0","5026: 9x6: Bugfixing: Bedat: BF+Test. ODX testing PSM and bugfixing ABS/PSM, from s43","07:00","20:00","12","60",
"13.08.10","5","09.00582","2472","181","Fehlerbes. vor Ausl. (Bugzilla)","","0","5026: 9x6: Bugfixing: Bedat: BF+Test. bug fixing psm odx, from s43","07:00","16:00","7","60",
"13.08.10","5","09.00582","2136","140","Test","","5","1015: 9x6: PSM/ABS:PTTD: Modultest+Bugfixing. reworked attribuitierung and textmapping, from s57","","","1","0",
