"13.09.10","1","100018","40","110","Engineering","","0","Wochenaufgaben AES. Held meeting to discuss 9x6 project status","07:00","16:00","1","60",
"13.09.10","1","100025","311","170","Schulung","","0","Schulungen 2010. Training on PTTD text mapping and attributing","","","1","0",
"13.09.10","1","100025","438","170","Schulung","","100","Training new staff: 2 CTS. Completed CTS training","","","0","0",
"13.09.10","1","09.00582","2166","120","Codierung","","10","3015: 9x6: ME7.2: PTTD: Textmapping + Attributierung. Started on PTTD text mapping and attributing on ME7.2 (prio taken from f2)","","","6","0",
"14.09.10","2","09.00582","2166","120","Codierung","","30","3105: 9x6: ME7.2: PTTD: Textmapping + Attributierung. Continued with PTTD text mapping and attributing on ME7.2 (prio taken from f2)","07:00","16:00","7,5","60",
"14.09.10","2","100018","40","110","Engineering","","0","Wochenaufgaben AES. Held meeting to discuss status of bugs","","","0,5","0",
"15.09.10","3","09.00582","2166","120","Codierung","","50","3015: 9x6: ME7.2: PTTD: Textmapping + Attributierung. Continued with PTTD text mapping and attributing on ME7.2 (prio taken from f2)","07:00","16:00","8","60",
"16.09.10","4","100018","40","110","Engineering","","0","Wochenaufgaben AES. Held meeting to discuss ODA sequence problems and solutions","07:00","16:00","2","60",
"16.09.10","4","09.00582","2166","120","Codierung","","95","3015: 9x6: ME7.2: PTTD: Textmapping + Attributierung. Continued with PTTD text mapping and attributing on ME7.2 (prio taken from f2)","","","6","0",
"17.09.10","5","09.00582","1956","120","Codierung","","10","3001: 9x6: ME7.2: ODX Bedat + FAP. Started on DME 7.2 ODX test spec.","07:00","16:00","6","60",
"17.09.10","5","09.00582","2166","120","Codierung","","100","3015: 9x6: ME7.2: PTTD: Textmapping + Attributierung. Continued with PTTD text mapping and attributing on ME7.2 (prio taken from f2)","","","2","0",
