"09.08.10","1","100023","0","910","Urlaub","","0","Urlaub. Public holiday","07:00","16:00","8","60",
"10.08.10","2","09.00582","2349","181","Fehlerbes. vor Ausl. (Bugzilla)","","0","1000: 9x6: PSM/ABS: Bug-fixing zu Integrationstest. Task booked on s57; bug-fixing and testing on car.","07:00","16:00","3","60",
"10.08.10","2","09.00582","2197","120","Codierung","","5","3041: 9x6: ME7.11: ODX Bedat. ODX creation","","","5","0",
"11.08.10","3","09.00582","2349","181","Fehlerbes. vor Ausl. (Bugzilla)","","0","1000: 9x6: PSM/ABS: Bug-fixing zu Integrationstest. Booked on task of s57.","07:00","16:00","6","60",
"11.08.10","3","09.00311","173","120","Codierung","","0","ODA-Modules Maintenance and Support. ODA modules support","","","2","0",
"12.08.10","4","09.00582","2349","181","Fehlerbes. vor Ausl. (Bugzilla)","","0","1000: 9x6: PSM/ABS: Bug-fixing zu Integrationstest. Booked on task of s57.","07:00","16:00","11,5","60",
"13.08.10","5","09.00311","173","120","Codierung","","0","ODA-Modules Maintenance and Support. ODA modules support","07:00","16:00","1","60",
"13.08.10","5","09.00582","2349","181","Fehlerbes. vor Ausl. (Bugzilla)","","0","1000: 9x6: PSM/ABS: Bug-fixing zu Integrationstest. Testing on car and bug-fixing ABS/PSM CTS.","","","3,5","0",
"13.08.10","5","09.00582","2197","120","Codierung","","5","3041: 9x6: ME7.11: ODX Bedat. ODX creation","","","3,5","0",
