"29.03.10","1","100023","0","910","Urlaub","","0","Holiday. Time-Off","07:00","16:00","8","60",
"30.03.10","2","100023","0","910","Urlaub","","0","Holiday. Time-Off","07:00","16:00","8","60",
"31.03.10","3","100023","0","910","Urlaub","","0","Holiday. Time-Off","07:00","16:00","8","60",
"01.04.10","4","100023","0","910","Urlaub","","0","Holiday. Time-Off","07:00","16:00","8","60",
"02.04.10","5","100023","0","910","Urlaub","","0","Holiday. Public Holiday","07:00","16:00","8","60",
