"29.03.10","1","09.00582","0","110","Engineering","","0","creating screenshots and video for odx auth bug reporting. Importing/exporting psm in odx authoring. none","07:00","16:00","1","60",
"29.03.10","1","09.00582","598","120","Codierung","","0","Kombi : ODX-bedatung (wpos from S48). Add more services and changes to kombi ecu. Made more runtimes and re-tested build on vehicle.","","","7","0",
"30.03.10","2","09.00582","598","120","Codierung","","0","ODX-bedatung (wpos from S48). Implementing more services to the Kombi base and ecu variants","07:00","16:00","6","60",
"30.03.10","2","09.00582","598","110","Engineering","","0","ODX-bedatung (wpos from S48). Waiting for authoring","","","2","0",
"31.03.10","3","09.00582","598","110","Engineering","","0","ODX-bedatung (wpos from S48). Waiting for authoring","07:00","16:00","3","60",
"31.03.10","3","09.00582","598","120","Codierung","","0","ODX-bedatung (wpos from S48). Implementing services for the kombi variants from the CTS analysis specifications","","","5","0",
"01.04.10","4","09.00582","598","120","Codierung","","0","ODX-bedatung (wpos from S48). Continued implementing services for kombi variants from cts analysis specifications","07:00","16:00","7,5","60",
"01.04.10","4","09.00582","0","110","Engineering","","0","Boardroom meeting concerning the 9x6 project progress. none","","","0,5","0",
"02.04.10","5","100023","0","910","Urlaub","","0","Holiday. Public holiday","07:00","16:00","8","60",
