"18.10.10","1","09.00582","600","120","Codierung","","0","1021: 9x6: Kombi: ODX Bedat. Testing and bugfixing ODX for Kombi, task is closed","07:00","16:00","8","60",
"19.10.10","2","09.00582","600","120","Codierung","","0","1021: 9x6: Kombi: ODX Bedat. Bugfixing and Testing ODX for kombi, task is closed","07:00","16:00","6","60",
"19.10.10","2","100018","51","110","Engineering","","0","Wochenaufgaben AES. Meeting","","","1","0",
"19.10.10","2","100025","321","170","Schulung","","0","Schulungen 2010. Training on the KW71 protocol","","","1","0",
"20.10.10","3","09.00582","600","120","Codierung","","0","1021: 9x6: Kombi: ODX Bedat. Bugfixing and Testing ODX for kombi, task is closed","07:00","16:00","8","60",
"21.10.10","4","09.00582","600","120","Codierung","","0","1021: 9x6: Kombi: ODX Bedat. Bugfixing and Testing ODX for kombi, task is closed","07:00","16:00","7","60",
"21.10.10","4","100025","321","170","Schulung","","0","Schulungen 2010. Training on documentation and simulations for future projects","","","1","0",
"22.10.10","5","09.00582","600","120","Codierung","","100","1021: 9x6: Kombi: ODX Bedat. Testing and completing ODX Test Specs for Kombi, task is closed","07:00","16:00","6","60",
"22.10.10","5","100025","321","170","Schulung","","0","Schulungen 2010. Training on general pidt configuration","","","2","0",
