"27.09.10","1","100023","0","910","Urlaub","","0","Holiday. Time Offf","07:00","16:00","8","60",
"28.09.10","2","100023","0","910","Urlaub","","0","Holiday. Time Offf","07:00","16:00","8","60",
"29.09.10","3","09.00582","2634","181","Fehlerbes. vor Ausl. (Bugzilla)","","0","3080: 9x6: Tiptronic: Bugfixing zu Integrationstest. Creating coding gesic sequence for tiptronic gtop","07:00","16:00","8","60",
"30.09.10","4","09.00582","2634","181","Fehlerbes. vor Ausl. (Bugzilla)","","0","3080: 9x6: Tiptronic: Bugfixing zu Integrationstest. Creating coding gesic sequence for tiptronic gtop","07:00","16:00","8","60",
