"20.12.10","1","100023","1685","910","Urlaub","","0","Urlaub 17.12.2010-02.01.2011. Holiday","07:00","15:00","8","0",
"21.12.10","2","100023","1685","910","Urlaub","","0","Urlaub 17.12.2010-02.01.2011. Holiday","07:00","15:00","8","0",
"22.12.10","3","100023","1685","910","Urlaub","","0","Urlaub 17.12.2010-02.01.2011. Holiday","07:00","15:00","8","0",
"23.12.10","4","100023","1685","910","Urlaub","","0","Urlaub 17.12.2010-02.01.2011. Holiday","07:00","15:00","8","0",
"24.12.10","5","100023","1685","910","Urlaub","","0","Urlaub 17.12.2010-02.01.2011. Holiday","07:00","15:00","8","0",
