"22.02.10","1","09.00311","0","110","Engineering","","0","Erarbeitung Verbesserungskonzept ODA Modules. Rework of Modules in Authoring","07:00","16:00","8","60",
"23.02.10","2","09.00311","0","110","Engineering","","0","Erarbeitung Verbesserungskonzept ODA Modules. Rework of Modules in Authoring","07:00","16:00","8","60",
"24.02.10","3","09.00065","367","170","Schulung","","0","ODX Authoring/emp949fp1. Implementing services","07:00","16:00","5","60",
"24.02.10","3","077353","12138","110","Engineering","","0","8501: E1 M5: allg. Projekttätigkeiten A1.15/ae19. Installing and waiting for authoring","","","3","0",
"25.02.10","4","09.00582","0","120","Codierung","","0","H4-2 ODX Bedatung ME 5.2 inkl. FAP. Creating convertions and structures","07:00","16:00","8","60",
"26.02.10","5","09.00582","0","120","Codierung","","0","H4-2 ODX Bedatung ME 5.2 inkl. FAP. Creating tables, table rows and services","07:00","16:00","8","60",
