"07.06.10","1","09.00582","852","140","Test","","100","1006: PSM/ABS II: Lenkwinkelsensor kalibrieren: Module Test + bug-fixing. Testing and bug-fixing","07:00","16:00","8","60",
"08.06.10","2","09.00311","0","110","Engineering","","0","ODA Admin: Waiting for Authoring. Waiting for Authoring","07:00","16:00","0,5","60",
"08.06.10","2","09.00311","0","110","Engineering","","0","ODA Admin: Testing updated ODA ReleaseUI script in PIDT. Testing improved script from DSA","","","0,5","0",
"08.06.10","2","09.00311","0","110","Engineering","","0","ODA Admin: Implementation of new EcuConfig modules. Implementation of new EcuConfig modules","","","7","0",
"09.06.10","3","09.00311","0","110","Engineering","","0","ODA Administration: Waiting for Authoring. Waiting for Authoring","07:00","16:00","0,5","60",
"09.06.10","3","09.00311","0","110","Engineering","","0","ODA Administration: ReadEcuConfig: module implementation.. Module development","","","5,5","0",
"09.06.10","3","09.00311","0","110","Engineering","","0","ODA Administration: WriteEcuConfig: Module implementation. Module development","","","2","0",
"10.06.10","4","09.00311","0","110","Engineering","","0","ODA Administration: WriteEcuConfig: Module implementation. Completion of module","07:00","16:00","7,5","60",
"10.06.10","4","09.00311","0","110","Engineering","","0","ODA Administration: Waiting for Authoring. Waiting for Authoring","","","0,5","0",
"11.06.10","5","09.00582","897","110","Engineering","","0","3023: 9x6: ME7.8/ME7.8min: Kurztest: PH. Time booked on task of S47","07:00","16:00","8","60",
