"15.03.10","1","09.00582","381","110","Engineering","","65","3060: 9x6: MED5.2: ECU Analyse. Kurztest Analysis","07:00","16:00","8","60",
"16.03.10","2","09.00582","381","110","Engineering","","65","3060: 9x6: MED5.2: ECU Analyse. Kurztest Analysis","07:00","16:00","7","60",
"16.03.10","2","100018","38","110","Engineering","","0","S4/DSA overall task. Assisting collegues with setup of eclipse for single ecu job creation","","","1","0",
"17.03.10","3","09.00582","381","110","Engineering","","70","3060: 9x6: MED5.2: ECU Analyse. Kurztest Analysis / DTC Analysis","07:00","16:00","7","60",
"17.03.10","3","100018","38","110","Engineering","","0","S4/DSA overall task. Assisting collegues setup of eclipse for single ecu job creation / and ODX Single ecu job creation","","","1","0",
"18.03.10","4","09.00582","381","110","Engineering","","0","3060: 9x6: MED5.2: ECU Analyse. Vehicle Data CTS Analysis","07:00","16:00","8","60",
"19.03.10","5","100023","0","910","Urlaub","","0","Holiday. Holiday","07:00","16:00","8","60",
