"27.09.10","1","09.00582","2542","120","Codierung","","90","1031: 9x6: Kombi: Komplexe Codierung: Implementierung. Implementing CTS and Config file","07:00","16:00","8","60",
"28.09.10","2","09.00582","2542","120","Codierung","","95","1031: 9x6: Kombi: Komplexe Codierung: Implementierung. Waiting for Authoring","07:00","16:00","2","60",
"28.09.10","2","09.00582","2542","120","Codierung","","95","1031: 9x6: Kombi: Komplexe Codierung: Implementierung. Implementing CTS and Config file","","","6","0",
"29.09.10","3","100018","44","110","Engineering","","0","Wochenaufgaben AES. Meeting","07:00","16:00","1","60",
"29.09.10","3","09.00582","2542","120","Codierung","","95","1031: 9x6: Kombi: Komplexe Codierung: Implementierung. Implementing CTS and Config file","","","6","0",
"29.09.10","3","09.00582","2542","120","Codierung","","95","1031: 9x6: Kombi: Komplexe Codierung: Implementierung. Waiting for Authoring","","","1","0",
"30.09.10","4","09.00582","2542","120","Codierung","","95","1031: 9x6: Kombi: Komplexe Codierung: Implementierung. Implementing CTS and Config file","07:00","16:00","8","60",
"01.10.10","5","09.00582","2542","120","Codierung","","98","1031: 9x6: Kombi: Komplexe Codierung: Implementierung. Implementing CTS and Config file","07:00","16:00","8","60",
