"24.05.10","1","09.00582","494","120","Codierung","","51","3001: 9x6: ME7.2: ODX Bedat. Implemented actuator services for DME. From s53","07:00","16:00","4","60",
"24.05.10","1","09.00582","748","120","Codierung","","55","1021: 9x6: Kombi : ODX Bedat. Corrected services as a result of re-analysis","","","3","0",
"24.05.10","1","09.00582","748","120","Codierung","","0","1021: 9x6: Kombi : ODX Bedat. Waiting for authoring. Performance issues","","","1","0",
"25.05.10","2","09.00582","755","110","Engineering","","90","1023: 9x6 Kombi: Tankabgleich: Testpec. Creating test spec and sim for Kombi Tankabgleich","07:00","16:00","5","60",
"25.05.10","2","09.00582","748","120","Codierung","","56","1021: 9x6: Kombi : ODX Bedat. Made changes to Kombi as a result of re-analysis","","","2","0",
"25.05.10","2","09.00582","748","120","Codierung","","0","1021: 9x6: Kombi : ODX Bedat. Waiting for authoring. Performance issues","","","0,5","0",
"25.05.10","2","100152","9","120","Codierung","","100","1001: E1 PIROL: EDC17: ODX Bedat. Assisted colleage with DTC implementation. From s54","","","0,5","0",
"26.05.10","3","09.00582","755","110","Engineering","","91","1023: 9x6 Kombi: Tankabgleich: Testpec. Finished creating test spec and simulations. Waiting for review.","07:00","16:00","6","60",
"26.05.10","3","100152","49","110","Engineering","","50","1011: E1 PIROL: EDC17: IMA-ISA-Codierung: PH. Creating PH for IMA ISA Code Codierung","","","2","0",
"27.05.10","4","09.00582","1263","120","Codierung","","79","5101: 9x6: Ueberrollschutz 911: ODX Bedat. Corrected a mistake I made and inserted the correct version of the jobs. From s46.","07:00","16:00","2","60",
"27.05.10","4","100152","49","110","Engineering","","95","1011: E1 PIROL: EDC17: IMA-ISA-Codierung: PH. Finished creating the PH. waiting for review.","","","3","0",
"27.05.10","4","09.00582","1263","120","Codierung","","0","5101: 9x6: Ueberrollschutz 911: ODX Bedat. Waiting for authoring. Performance issues. From s46","","","1","0",
"27.05.10","4","09.00582","1267","120","Codierung","","100","1023: 9x6 Kombi: Tankabgleich: Imp. Assisted a colleague with a PIDT method issue. From s46.","","","2","0",
"28.05.10","5","100152","50","110","Engineering","","0","1011: E1 PIROL: EDC17: IMA-ISA-Codierung: Testsepc + erw. Creating simulation","07:00","16:00","2,5","60",
"28.05.10","5","09.00582","1263","120","Codierung","","77","5101: 9x6: Ueberrollschutz 911: ODX Bedat. Checked the corrections made, created a run time and tested in OET. From s46.","","","2","0",
