"16.08.10","1","09.00582","124","110","Engineering","","0","9x6: allg. Projekttatigkeit. Working on ODX job to respond with concatenated DTCs for kombi2000","07:00","16:00","8","60",
"17.08.10","2","09.00582","124","110","Engineering","","0","9x6: allg. Projekttatigkeit. Completed ODX job to respond with concatenated DTCs for kombi2000","07:00","16:00","7","60",
"17.08.10","2","100025","440","170","Schulung","","0","Training new staff: Practical work. Assisting new staff with cts implementation","","","1","0",
"18.08.10","3","09.00582","124","110","Engineering","","0","9x6: allg. Projekttatigkeit. Checking in service and job for kombi2000 into odx database, uploading job to SVN","07:00","16:00","1","60",
"18.08.10","3","09.00582","2477","181","Fehlerbes. vor Ausl. (Bugzilla)","","0","5026: 9x6: Bugfixing: Bedat: BF + Test. Working on bugs 23576 and 24063","","","7","0",
"19.08.10","4","09.00582","2373","110","Engineering","","20","2182: 9x6: Flashen Pre/Post CTS gen: ProgCode:Spec. Creating requirements spec. for program code (task taken from S46)","07:00","16:00","8","60",
"20.08.10","5","09.00582","2368","110","Engineering","","50","2181: 9x6: Flashen Pre/Post CTS gen: WFS programmieren: PH. Creating requirements spec. for wfs programmieren (task taken from S46)","07:00","16:00","4","60",
"20.08.10","5","09.00582","2378","110","Engineering","","50","2182: 9x6: Flashen Pre/Post CTS gen: VIN Nr: Spec. Creating requirements spec. for VIN Nr (task taken from S46)","","","4","0",
