"29.11.10","1","09.00582","1903","181","Fehlerbes. vor Ausl. (Bugzilla)","","0","1104: 9x6: RegrTests Bugfixing. Fixing Bugzilla Bug(27176)","07:00","16:00","8","60",
"30.11.10","2","09.00582","1903","181","Fehlerbes. vor Ausl. (Bugzilla)","","0","1104: 9x6: RegrTests Bugfixing. Fixing Bugzilla Bug(26269)","07:00","16:00","8","60",
"01.12.10","3","09.00582","1903","181","Fehlerbes. vor Ausl. (Bugzilla)","","0","1104: 9x6: RegrTests Bugfixing. Fixing Bugzilla Bug(27214)","07:00","16:00","8","60",
"02.12.10","4","09.00582","1903","181","Fehlerbes. vor Ausl. (Bugzilla)","","0","1104: 9x6: RegrTests Bugfixing. Fixing Bugzilla Bug(27229)","07:00","16:00","8","60",
"03.12.10","5","09.00582","1903","181","Fehlerbes. vor Ausl. (Bugzilla)","","0","1104: 9x6: RegrTests Bugfixing. Fixing Bugzilla Bug(27211)","07:00","16:00","6","60",
"03.12.10","5","100018","46","110","Engineering","","0","Wochenaufgaben AES. Department Meeting","","","2","0",
