"20.09.10","1","09.00582","2583","181","Fehlerbes. vor Ausl. (Bugzilla)","","0","5026: 9x6: Bugfixing: Bedat: BF + Test. Doing ABS/PSM bugfixing","07:00","16:00","4","60",
"20.09.10","1","09.00582","2543","120","Codierung","","0","3001: 9x6: ME7.2: ODX Bedat + FAP. creating the Environment data","","","4","0",
"21.09.10","2","09.00582","2179","140","Test","","95","3026: 9x6: ME7.8/ME7.8min: SG-Typ: Bugfixing + Moduletest. Did bugfixing on the sequence","07:00","16:00","7","60",
"21.09.10","2","09.00582","2179","140","Test","","0","3026: 9x6: ME7.8/ME7.8min: SG-Typ: Bugfixing + Moduletest. Waiting for authoring","","","1","0",
"22.09.10","3","09.00582","2542","120","Codierung","","0","1031: 9x6: Komplexe Codierung: Implementierung. Implemented and corrected option items. From s43","07:00","16:00","3","60",
"22.09.10","3","09.00582","2179","140","Test","","100","3026: 9x6: ME7.8/ME7.8min: SG-Typ: Bugfixing + Moduletest. Finalised bugfixing","","","1","0",
"22.09.10","3","09.00582","2351","181","Fehlerbes. vor Ausl. (Bugzilla)","","20","3080: 9x6: Tiptronic: Bugfixing zu Integrationstest. Working on Bug #25338","","","3","0",
"22.09.10","3","09.00582","2542","120","Codierung","","0","1031: 9x6: Komplexe Codierung: Implementierung. Waiting for Authoring","","","1","0",
"23.09.10","4","09.00582","2351","181","Fehlerbes. vor Ausl. (Bugzilla)","","50","3080: 9x6: Tiptronic: Bugfixing zu Integrationstest. Working on tiptronic coding. From ru","07:00","16:00","7","60",
"23.09.10","4","  09.005","2351","181","Fehlerbes. vor Ausl. (Bugzilla)","","0","3080: 9x6: Tiptronic: Bugfixing zu Integrationstest. Waiting for Authoring","","","1","0",
"24.09.10","5","100023","0","910","Urlaub","","0","Holiday. Public Holiday (Heritage Day)","07:00","16:00","8","60",
