"01.02.10","1","077353","0","140","Test","","0","8501: E1 M5: allg. Projekttätigkeiten A1.15/ae19. GESIC Testing PCM2_TVTuner-Sonderfunktionen:Feldstarke ohne Verstellung","07:00","16:00","1","60",
"01.02.10","1","077353","0","140","Test","","0","8501: E1 M5: allg. Projekttätigkeiten A1.15/ae19. GESIC Testing PCM2_CDNAVI-Sonderfunktionen: GPS Position,PDCC-Reset","","","2","0",
"01.02.10","1","077353","0","140","Test","","0","8501: E1 M5: allg. Projekttätigkeiten A1.15/ae19. GESIC Testing SWSG_L(BetriebswerteAbblendl,BetriebsweteFernlicht, BetriebswerteKurvenlich,Reset)","","","4","0",
"01.02.10","1","077353","0","140","Test","","0","8501: E1 M5: allg. Projekttätigkeiten A1.15/ae19. GESIC Testing SWSG_R BetriebswerteAbblendl","","","1","0",
"02.02.10","2","077353","0","140","Test","","0","8501: E1 M5: allg. Projekttätigkeiten A1.15/ae19. GESIC Testing SWSG_R (BetriebswerteFernLicht, BetriebswerteKurvenlicht, Reset)","07:00","16:00","3","60",
"02.02.10","2","077353","0","140","Test","","0","8501: E1 M5: allg. Projekttätigkeiten A1.15/ae19. GESIC Testing WZH_Kodierung:Kraftstoffleitung Erstbefullung","","","1","0",
"02.02.10","2","077353","0","181","Fehlerbes. vor Ausl. (Bugzilla)","","0","8501: E1 M5: allg. Projekttätigkeiten A1.1. GESIC rework PASM-Befüllung","","","2","0",
"02.02.10","2","077353","0","181","Fehlerbes. vor Ausl. (Bugzilla)","","0","8501: E1 M5: allg. Projekttätigkeiten A1.1. GESIC rework PASM-Entlüften","","","2","0",
"03.02.10","3","077353","0","181","Fehlerbes. vor Ausl. (Bugzilla)","","0","8501: E1 M5: allg. Projekttätigkeiten A1.1. GESIC rework SWSG_R and SWSG_L Reset","07:00","16:00","3","60",
"03.02.10","3","077353","0","140","Test","","0","8501: E1 M5: allg. Projekttätigkeiten A1.15/ae19. GESIC Testing WZH_Kodierung: Steuergerat entreigeln","","","2","0",
"03.02.10","3","077353","0","110","Engineering","","0","8501: E1 M5: allg. Projekttätigkeiten A1.15. Meeting","","","3","0",
"04.02.10","4","077353","0","181","Fehlerbes. vor Ausl. (Bugzilla)","","0","8501: E1 M5: allg. Projekttätigkeiten A1.1. GESIC rework CTS-ECU and diff-results files","07:00","16:00","3","60",
"04.02.10","4","077353","0","181","Fehlerbes. vor Ausl. (Bugzilla)","","0","8501: E1 M5: allg. Projekttätigkeiten A1.1. GESIC rework RDK_Systemprufung","","","5","0",
"05.02.10","5","077353","0","181","Fehlerbes. vor Ausl. (Bugzilla)","","0","8501: E1 M5: allg. Projekttätigkeiten A1.15/ae19. GESIC rework RDK_Systemprufung","07:00","16:00","4","60",
"05.02.10","5","09.00065","358","170","Schulung","","0","Training: PIWIS Source/em949fp1. KOMBIINSTRUMENT_def","","","4","0",
