"15.03.10","1","100036","81","170","Schulung","","50","Training:ODX Authring. Created ODX Files","07:00","16:00","4","60",
"15.03.10","1","100036","73","170","Schulung","","50","Training:TestingVs. Simulation. Created Simulation and Testing files","","","4","0",
"16.03.10","2","100036","80","170","Schulung","","50","Training: Creating ODX incl. ODX-E /em009fp1. Creating ODX  and testing xml spy.READ XML spy documentaition.","07:00","16:00","3","60",
"16.03.10","2","100036","69","170","Schulung","","25","Training: Basics / ECU / Simulations / ODX / OET /em009fp1. Testing ECU Simulation with PIDT.Read through ASAM_MCD2D _ODX","","","2","0",
"16.03.10","2","100036","0","110","Engineering","","25","General Task. Installing and config.PIDT,OET,MCD Kernal XML spy/Comodo","","","3","0",
"17.03.10","3","100036","73","170","Schulung","","25","Training: Testing Vs. Simulation /em009fp1. Created new simulations and tested it","07:00","16:00","3","60",
"17.03.10","3","100036","0","110","Engineering","","25","General Task. Config. PSM simulations and read PSM document list","","","1,5","0",
"17.03.10","3","100036","69","170","Schulung","","0","Training: Basics / ECU / Simulations / ODX / OET /em009fp1. Testing ECU Simulation with PIDT.Read through ASAM_MCD2D _ODX","","","3,5","0",
"18.03.10","4","100036","73","170","Schulung","","25","Training: Testing Vs. Simulation /em009fp1. Tested Simulations with OET and Confg. simulations","07:00","16:00","4","60",
"18.03.10","4","100036","69","170","Schulung","","25","Training: Basics / ECU / Simulations / ODX / OET /em009fp1. Created tester files for simulations and tested it","","","2","0",
"18.03.10","4","100036","80","170","Schulung","","25","Training: Creating ODX incl.. Tested ODX  files and Confg.","","","2","0",
"19.03.10","5","100036","73","170","Schulung","","25","	Training: Testing Vs. Simulation /em009fp1. Run and tested new conversions with OET.","07:00","16:00","3","60",
"19.03.10","5","100036","69","170","Schulung","","30","Training: Basics / ECU / Simulations / ODX / OET /em009fp1. Created test files for simulations and do the testing","","","3","0",
"19.03.10","5","100036","80","170","Schulung","","40","Training: Creating ODX incl. ODX-E /em009fp1. Crating ODX files and Config PSM files","","","2","0",
