"12.04.10","1","077353","12381","182","Fehlerbes. nach Ausl. (Bugzilla)","","50","6320: E1 M5: Bugfixing: BF+Test: #22326. Diffing sequence and importing CTS and scripts from G1 database","07:00","16:00","4","60",
"12.04.10","1","077353","12288","182","Fehlerbes. nach Ausl. (Bugzilla)","","75","6320: E1 M5: Bugfixing: BF+Test: #16018. Checking Bose selftest and microhpne test sequence for bugs / changes","","","2","0",
"12.04.10","1","09.00582","420","110","Engineering","","40","1002: 9x6: PSM/ABS I: Statischer Test: PH+Testspec Review. Review of the PH document","","","2","0",
"13.04.10","2","077353","12288","182","Fehlerbes. nach Ausl. (Bugzilla)","","80","6320: E1 M5: Bugfixing: BF+Test: #16018. Testing","07:00","16:00","4","60",
"13.04.10","2","077353","12381","182","Fehlerbes. nach Ausl. (Bugzilla)","","60","6320: E1 M5: Bugfixing: BF+Test: #22326. Testing","","","2","0",
"13.04.10","2","100018","38","110","Engineering","","0","S4/DSA overall task. Creating of GESiC Test sequence for 9x6 Kombi ECUReset","","","1","0",
"13.04.10","2","100018","38","110","Engineering","","0","S4/DSA overall task. Teleco with dr/mi regarding Bugs","","","0,5","0",
"13.04.10","2","100018","38","110","Engineering","","0","Bug 21692. Retesting","","","0,5","0",
"14.04.10","3","077353","12381","182","Fehlerbes. nach Ausl. (Bugzilla)","","100","6320: E1 M5: Bugfixing: BF+Test: #22326. Testing","07:00","16:00","2","60",
"14.04.10","3","077353","12288","182","Fehlerbes. nach Ausl. (Bugzilla)","","100","6320: E1 M5: Bugfixing: BF+Test: #16018. Testing on vehicle and creation of GESiC Test  Sequence","","","6","0",
"15.04.10","4","09.00582","120","110","Engineering","","0","8501: 9x6: allg. Projekttätigkeit C1.3/ae20. S4 Meeting","07:00","16:00","1,5","60",
"15.04.10","4","077353","0","110","Engineering","","100","General Bugfixing. Fixing of SDI Kurztest GESiC Sequence","","","1","0",
"15.04.10","4","077353","0","110","Engineering","","100","General Bugfixing. Fixing of PCM2 Gatway Automatic Tests. Column headers and state if Bose ECU is found","","","1","0",
"15.04.10","4","077353","0","110","Engineering","","0","General Bugfixing. Investigation of Airbag Unlock bug where coding bytes are not set to 00 00 00 during unlocking","","","2","0",
"15.04.10","4","077353","0","110","Engineering","","100","General Bugfixing. Investigating of PCM2 Bose Audio test","","","2,5","0",
"16.04.10","5","09.00582","0","110","Engineering","","99","9x6 Kombi Reset. Creating of QF Test for the 9x6 Kombi Reset Sequence","07:00","16:00","8","60",
