"05.04.10","1","100023","0","910","Urlaub","","0","Holiday. Public Holiday","07:00","16:00","8","60",
"06.04.10","2","100023","0","910","Urlaub","","0","Holiday. TIme-Off","07:00","16:00","8","60",
"07.04.10","3","100018","48","110","Engineering","","0","Wochenaufgaben PAE. General Administration + Timesheets + Meetings","07:00","16:00","1","60",
"07.04.10","3","077353","23394","182","Fehlerbes. nach Ausl. (Bugzilla)","","0","6320: E1 M5: Bugfixing: BF+Test #21506. Working on and assissting colleague","","","4","0",
"07.04.10","3","077353","12368","181","Fehlerbes. vor Ausl. (Bugzilla)","","0","6320: E1 M5: Bugfixing: BF+Test #22530. Assisting colleagues with bugfix","","","3","0",
"08.04.10","4","100025","318","170","Schulung","","0","Schulungen 2010. Training with Sequence builder","07:00","16:00","5","60",
"08.04.10","4","100018","48","110","Engineering","","0","Wochenaufgaben PAE. General Administration + Timesheets + Meetings","","","1","0",
"08.04.10","4","09.00582","437","110","Engineering","","0","1022: 9x6: Kombi I: Gesamtwegstrecke: PH. Attempting to use sequence builder to create PH","","","2","0",
"09.04.10","5","100018","48","110","Engineering","","0","Wochenaufgaben PAE. General Administration + Timesheets + Meetings","07:00","16:00","1","60",
"09.04.10","5","100025","318","170","Schulung","","0","Schulungen 2010. Training with Sequence builder","","","2","0",
"09.04.10","5","09.00582","437","110","Engineering","","0","1022: 9x6: Kombi I: Gesamtwegstrecke: PH. Using sequence builder to create PH","","","5","0",
