"22.03.10","1","100023","0","910","Urlaub","","0","Urlaub. Public Holiday","07:00","16:00","9","0",
"23.03.10","2","077353","2929","110","Engineering","","0","8501: E1 M5: CoMod A1.4/ae19. Tele conference with dr, mi and hd.","07:00","16:00","0,5","60",
"23.03.10","2","09.00582","435","110","Engineering","","99","1020: 9x6: Kombi I: ECU Analyse. komb2000 actuator analysis + documentation","","","4","0",
"23.03.10","2","09.00582","90","110","Engineering","","0","8503: 9x6: get into Subject E1.3/ae20. assist  and learn how DME PIWIS code formats output.","","","1","0",
"23.03.10","2","100018","37","110","Engineering","","0","S4/DSA overall tasks. Assisting colleagues, general admin","","","2,5","0",
"24.03.10","3","100018","37","110","Engineering","","0","S4/DSA overall tasks. Management meeting, S4 admin","07:00","16:00","6","60",
"24.03.10","3","100018","37","110","Engineering","","0","S4/DSA overall tasks. Meeting with sc, pf, rj","","","0,5","0",
"24.03.10","3","100018","37","110","Engineering","","0","S4/DSA overall tasks. Assisting colleagues, work item tracking","","","1,5","0",
"25.03.10","4","100018","37","110","Engineering","","0","S4/DSA overall tasks. S4 admin tasks","07:00","16:00","6","60",
"25.03.10","4","100025","265","170","Schulung","","0","Schulungen 2010. Training F5 on the Boxster with PIWIS","","","2","0",
"26.03.10","5","100025","265","170","Schulung","","0","Schulungen 2010. Training F4, F5 on ODX Authoring + Java Jobs + Variant Identification","07:00","16:00","2","60",
"26.03.10","5","09.00582","116","110","Engineering","","0","8501: 9x6: allg. Projekttätigkeit C1.3/ae20. Trying to get communication between DSa tools, ODX and actual Boxster working","","","5","0",
"26.03.10","5","100018","37","110","Engineering","","0","S4/DSA overall tasks. Timesheets, tracking of tasks.","","","1","0",
