"12.04.10","1","100036","72","170","Schulung","","45","Training:CTS implimentation. Creating CTS's and import","07:00","16:00","3","60",
"12.04.10","1","100036","81","170","Schulung","","10","Training: ODX Authoring /em009fp1. Crating ODX  Structures,Tables and Conversions","","","2","0",
"12.04.10","1","09.00582","0","110","Engineering","","25","9x6 Kombi 1 ODX Bedat. Creating Text Specs for kombi","","","3","0",
"13.04.10","2","09.00582","0","110","Engineering","","50","9x6 Kombi 1 ODX Bedat. Creating Text Specs for kombi2000,kombi03,kombi03n","07:00","16:00","4","60",
"13.04.10","2","100036","80","170","Schulung","","50","Training: ODX Authoring /em009fp1. Crating ODX  Services for kombi03","","","4","0",
"14.04.10","3","100036","80","170","Schulung","","50","Training: Creating ODX incl.. Crating ODX  Structures,Tables and Conversions","07:00","16:00","3","60",
"14.04.10","3","100036","81","170","Schulung","","50","Training:ODX Authring. Crating ODX  Services for kombi03","","","5","0",
"15.04.10","4","100036","81","170","Schulung","","70","Training: ODX Authoring /em009fp1. Crating ODX  Services for kombi03 and checked in","07:00","16:00","6","60",
"15.04.10","4","100036","69","170","Schulung","","30","Training: Basics / ECU / Simulations / ODX / OET /em009fp1. Created tester files for simulations and tested it","","","2","0",
"16.04.10","5","100036","81","170","Schulung","","100","Training: ODX Authoring /em009fp1. Crating ODX  Services for kombi03n and checked in","07:00","16:00","8","60",
