"13.12.10","1","09.00582","2772","181","Fehlerbes. vor Ausl. (Bugzilla)","","0","1104: 9x6: RegrTests Bugfixing. Airlock bugifixing","07:00","16:00","8","60",
"14.12.10","2","09.00582","2772","181","Fehlerbes. vor Ausl. (Bugzilla)","","100","1104: 9x6: RegrTests Bugfixing. Airlock bugifixing","07:00","16:00","6","60",
"14.12.10","2","100334","996","110","Engineering","","5","4020: Alt-BR: PDAS: Stellglied Analyse. Verifiication of current analysis","","","2","0",
"15.12.10","3","100334","996","110","Engineering","","10","4020: Alt-BR: PDAS: Stellglied Analyse. Actuator Analysis","07:00","16:00","8","60",
"16.12.10","4","100334","996","110","Engineering","","25","4020: Alt-BR: PDAS: Stellglied Analyse. Actuator Analysis","07:00","16:00","8","60",
"17.12.10","5","100023","1685","910","Urlaub","","0","Urlaub 17.12.2010-02.01.2011. Holiday","07:00","15:00","8","0",
