"12.04.10","1","09.00582","613","120","Codierung","","75","Kombi I: ODX Bedat. Continued implementing actuator services for kombi, kombi03 and kombi03n ecu","07:00","16:00","8","60",
"13.04.10","2","09.00582","613","120","Codierung","","80","Kombi I: ODX Bedat. Continued implementing actuator services for kombi, kombi03 and kombi03n ecu","07:00","16:00","7","60",
"13.04.10","2","09.00582","613","120","Codierung","","0","Kombi I: ODX Bedat. Training s57 to implement services in ODX authoring","","","1","0",
"14.04.10","3","09.00582","613","120","Codierung","","90","Kombi I: ODX Bedat. Continued implementing actuator services for kombi03n ecu","07:00","16:00","8","60",
"15.04.10","4","09.00582","124","110","Engineering","","0","S4 Boardroom meeting. Discussion on 9x6 progress and prospect of working in teams on ECUs","07:00","16:00","1,5","60",
"15.04.10","4","09.00582","613","120","Codierung","","95","Kombi I: ODX Bedat. Continued implementing actuator services for kombi03n ecu","","","6,5","0",
"16.04.10","5","09.00582","613","120","Codierung","","98","Kombi I: ODX Bedat. Continued implementing actuator services for kombi03n ecu","07:00","16:00","8","60",
