"22.03.10","1","100023","0","910","Urlaub","","0","Holiday. Holiday","07:00","16:00","8","60",
"23.03.10","2","09.00582","601","120","Codierung","","0","1001: 9x6: PSM/ABS I: ODX Bedat. ODX creation for PSM ABS varints","07:00","16:00","4","60",
"23.03.10","2","09.00582","601","120","Codierung","","0","1001: 9x6: PSM/ABS I: ODX Bedat. Waiting for authoring response","","","1","0",
"23.03.10","2","09.00582","598","120","Codierung","","0","From s48: 1021: 9x6: Kombi I: ODX Bedat. Assisting s46 with ODX Job creation","","","1,2","0",
"23.03.10","2","077353","11587","170","Schulung","","0","8501: E1 M5: Assisting colleagues. Assisting collegue with E1 bug fixing: BUg 21804","","","1,8","0",
"24.03.10","3","09.00582","601","120","Codierung","","0","1001: 9x6: PSM/ABS I: ODX Bedat. ODX creation for PSM ABS variants","07:00","16:00","6","60",
"24.03.10","3","09.00582","601","120","Codierung","","0","1001: 9x6: PSM/ABS I: ODX Bedat. Waiting for authoring response","","","1,5","0",
"24.03.10","3","09.00582","119","110","Engineering","","0","8501: 9x6: allg. Projekttätigkeit C1.3/ae20. Project meeting","","","0,5","0",
"25.03.10","4","09.00582","601","120","Codierung","","0","1001: 9x6: PSM/ABS I: ODX Bedat. ODX creation for PSM ABS variants A01 A02 & A03: identification and measurement values","07:00","16:00","3","60",
"25.03.10","4","09.00582","601","120","Codierung","","0","1001: 9x6: PSM/ABS I: ODX Bedat. Waiting for authoring response","","","1","0",
"25.03.10","4","09.00582","417","120","Codierung","","0","1001: 9x6: PSM/ABS I: ODX Bedat JavaJobs. Modiying ODX job for PSM ABS identification","","","4","0",
"26.03.10","5","09.00582","417","120","Codierung","","0","1001: 9x6: PSM/ABS I: ODX Bedat JavaJobs. Modifying ODX job for PSM ABS identification","07:00","16:00","5","60",
"26.03.10","5","09.00582","601","120","Codierung","","0","1001: 9x6: PSM/ABS I: ODX Bedat. ODX creation for PSM ABS variants A01 A02 & A03: identification and measurement values","","","2","0",
"26.03.10","5","09.00582","601","120","Codierung","","0","1001: 9x6: PSM/ABS I: ODX Bedat. Waiting for authoring response","","","1","0",
