"15.03.10","1","09.00582","0","120","Codierung","","0","3001: ME7.2: ODX Bedat + FAP. ODX DME implementation","07:00","16:00","5","60",
"15.03.10","1","09.00582","0","110","Engineering","","0","3001: ME7.2: ODX Bedat + FAP. ODX DME implementation (installing and configuring authoring)","","","3","0",
"16.03.10","2","09.00582","205","120","Codierung","","0","1021: 9x6: Kombi I: ODX Bedat. Implementation of ODX Tables and services for KOmbi 01 and Kombi 2000","07:00","16:00","4","60",
"16.03.10","2","09.00582","0","120","Codierung","","0","3060: 9x6: MED5.2: ODX Bedatung. Correction of naming conventions in the ODX Structures and convertions along with bit lengths.","","","2","0",
"16.03.10","2","09.00582","205","110","Engineering","","0","1021: 9x6: Kombi I: ODX Bedat. Waiting for ODX Authoring to allow me to do implementation","","","2","0",
"17.03.10","3","09.00582","205","110","Engineering","","0","1021: 9x6: Kombi I: ODX Bedat. Authoring froze and made me wait .","07:00","16:00","2","60",
"17.03.10","3","09.00582","0","110","Engineering","","0","allg. Projekttätigkeiten A1.15/ae19. Meeting","","","1","0",
"17.03.10","3","09.00582","205","120","Codierung","","0","1021: 9x6: Kombi I: ODX Bedat. Implementation of ODX E from f2","","","5","0",
"18.03.10","4","09.00582","205","110","Engineering","","0","1021: 9x6: Kombi I: ODX Bedat. waiting for further instructions on and information to complete ODX E","07:00","16:00","2","60",
"18.03.10","4","09.00582","205","120","Codierung","","0","1021: 9x6: Kombi I: ODX Bedat. Implementation of ODX E from f2","","","6","0",
"19.03.10","5","09.00582","205","110","Engineering","","0","1021: 9x6: Kombi I: ODX Bedat. waiting for feedback from colleagues so work can proceed , as well as waiting for authoring.","07:00","16:00","3","60",
"19.03.10","5","09.00582","205","120","Codierung","","0","1021: 9x6: Kombi I: ODX Bedat. Implementation of ODX E from f2","","","5","0",
