"08.11.10","1","09.00582","2744","181","Fehlerbes. vor Ausl. (Bugzilla)","","0","5029: Bugfixing: ODX. From s53. ME7.2 Fixing measurement values and Test Specifications","07:00","16:00","8","60",
"09.11.10","2","09.00582","2744","120","Codierung","","0","5029: Bugfixing: ODX. From s53. ME7.2 Reviewing test results and making fixes to ODX","07:00","16:00","8","60",
"10.11.10","3","100334","509","110","Engineering","","0","3002: Alt-BR: Motronic: Kurztest Sekündarluft: PH. Meeting with s41 to discuss the new format of PH documents","07:00","16:00","0,75","60",
"10.11.10","3","100334","640","110","Engineering","","0","5020: Alt-BR: Alarm: ODX Analyse. From ru. Verifying measurement values and updating simulations","","","7,25","0",
"11.11.10","4","09.00582","2744","181","Fehlerbes. vor Ausl. (Bugzilla)","","0","5029: Bugfixing: ODX. From s53. ME7.2 Fixing Bug 26467","07:00","16:00","3","60",
"11.11.10","4","100334","640","110","Engineering","","10","5020: Alt-BR: Alarm: ODX Analyse. From ru. Analysing Actuators for 911 i00 i01 and i02","","","5","0",
"12.11.10","5","100018","52","110","Engineering","","0","Wochenaufgaben AES. Daily meetings to discuss 9x6 bugs, and Timesheet entries","07:00","16:00","1,5","60",
"12.11.10","5","100334","640","110","Engineering","","0","5020: Alt+BR: Alarm: ODX Analyse. From ru. Analysis of Actuators","","","3","0",
"12.11.10","5","09.00582","2744","181","Fehlerbes. vor Ausl. (Bugzilla)","","0","5029: Bugfixing: ODX. From s53. ME7.2 Updating test specifications and retesting bug 26467","","","3,5","0",
