"21.06.10","1","09.00582","1931","120","Codierung","","100","1007: 9x6: PSM/ABS: Stellglieder_psm_x: Implementierung. Assisting collegue s57 with implementation","07:00","16:00","2","60",
"21.06.10","1","09.00582","1342","110","Engineering","","50","1007: 9x6: PSM/ABS: Stellglieder_psm_x: Testspec + erw. Sim. Test spec and simulation creation","","","4","0",
"21.06.10","1","100152","262","120","Codierung","","100","1008: E1 PIROL: EDC17: Kurztest Partikelfilter-Servicegeneration: Implementierung. Closing complete task: assisting collegue","","","0","0",
"21.06.10","1","100152","0","110","Engineering","","100","Fixing E1 PIROL: EDC17: Readinesscode erzeugen: Testspec + MOTR. Fixing Test spec and MOTR according to review: original Test spec creation task: 100152-55","","","1","0",
"21.06.10","1","09.00582","119","110","Engineering","","0","8501: 9x6: allg. Projekttätigkeit C1.3/ae20. Common project tasks","","","1","0",
"22.06.10","2","09.00582","1931","120","Codierung","","100","1007: 9x6: PSM/ABS: Stellglieder_psm_x: Implementierung. Assisting collegue s57 with implementation","07:00","16:00","2","60",
"22.06.10","2","09.00582","1342","110","Engineering","","75","1007: 9x6: PSM/ABS: Stellglieder_psm_x: Testspec + erw. Sim. Test spec and simulation creation","","","5","0",
"22.06.10","2","09.00582","119","110","Engineering","","0","8501: 9x6: allg. Projekttätigkeit C1.3/ae20. Common project tasks","","","1","0",
"23.06.10","3","09.00582","1351","110","Engineering","","100","1007: 9x6: PSM/ABS: Stellglieder_abs_0123: PH. Fixing PH according to review","07:00","16:00","6","60",
"23.06.10","3","09.00582","1346","110","Engineering","","100","1007: 9x6: PSM/ABS: Stellglieder_abs_0678: PH. Closing task for complete PH","","","0","0",
"23.06.10","3","09.00582","119","110","Engineering","","0","8501: 9x6: allg. Projekttätigkeit C1.3/ae20. Waiting for test link server and common project tasks","","","2","0",
"24.06.10","4","09.00582","119","110","Engineering","","0","8501: 9x6: allg. Projekttätigkeit C1.3/ae20. Project meeting and common project tasks","07:00","16:00","2","60",
"24.06.10","4","100025","315","170","Schulung","","0","Schulungen 2010. Giving CTS creation training to collegue while waiting for testlink server","","","5","0",
"24.06.10","4","09.00582","1342","110","Engineering","","80","1007: 9x6: PSM/ABS: Stellglieder_psm_x: Testspec + erw. Sim. Test spec and simulation creation","","","1","0",
"25.06.10","5","09.00582","1342","110","Engineering","","100","1007: 9x6: PSM/ABS: Stellglieder_psm_x: Testspec + erw. Sim. Test spec and simulation creation","07:00","16:00","5","60",
"25.06.10","5","09.00582","742","140","Test","","40","1004: 9x6: PSM/ABS I: Vertauschungsprüfung: Modultest+Bugfixing. Bugfixing in Authoring and Testing in Pidt","","","3","0",
