"06.12.10","1","09.00582","2792","181","Fehlerbes. vor Ausl. (Bugzilla)","","0","1104: RegrTests Bugfixing. Bugs 27309, 27312, 27314, 27308","07:00","16:00","8","60",
"07.12.10","2","09.00582","2792","181","Fehlerbes. vor Ausl. (Bugzilla)","","0","1104: RegrTests Bugfixing. Bug 27309, impl of Klima ECU for Carrera GT","07:00","16:00","7","60",
"07.12.10","2","100023","0","910","Urlaub","","0","Urlaub. Time-off","","","1","0",
"08.12.10","3","100023","0","910","Urlaub","","0","Time-off. Staff function","07:00","16:00","3","60",
"08.12.10","3","09.00582","2792","181","Fehlerbes. vor Ausl. (Bugzilla)","","0","1104: RegrTests Bugfixing. Bugs 27398, 27381, 27389","","","5","0",
"09.12.10","4","09.00582","2792","181","Fehlerbes. vor Ausl. (Bugzilla)","","0","1104: RegrTests Bugfixing. Bugs 27437, 27436, 27435, 27389","07:00","16:00","8","60",
"10.12.10","5","09.00582","2792","181","Fehlerbes. vor Ausl. (Bugzilla)","","0","1104: RegrTests Bugfixing. Bugs 27381, 27389, 27398.","07:00","16:00","6,5","60",
"10.12.10","5","100018","39","110","Engineering","","0","Wochenaufgaben AES. Weekly timesheet report, department meeting.","","","1,5","0",
