"20.09.10","1","100018","54","110","Engineering","","0","S4 Technical Support / Troubleshooting. Assisting colleagues with questions and work items, bugs.","07:00","16:00","3","60",
"20.09.10","1","100018","55","110","Engineering","","0","S4 Administrative Tasks. Meeting with S4 Management","","","1","0",
"20.09.10","1","09.00582","2145","110","Engineering","","20","1031: 9x6: Kombi: Komplexe Codierung: Testspec + erw. Sim. Working on simulations","","","4","0",
"21.09.10","2","09.00582","1317","110","Engineering","","0","8501: 9x6: ProjStatus + Bespr C1.1/ae31. 9x6 bug tracking and updates","07:00","16:00","1","60",
"21.09.10","2","100018","54","110","Engineering","","0","S4 Technical Support / Troubleshooting. Assisting colleagues with questions and work items, bugs.","","","3,5","0",
"21.09.10","2","09.00582","2145","110","Engineering","","30","1031: 9x6: Kombi: Komplexe Codierung: Testspec + erw. Sim. Working on simulations","","","3,5","0",
"22.09.10","3","09.00582","1317","110","Engineering","","0","8501: 9x6: ProjStatus + Bespr C1.1/ae31. Weekly Telco with fp, rj, we.","07:00","16:00","1","60",
"22.09.10","3","09.00582","2145","110","Engineering","","40","1031: 9x6: Kombi: Komplexe Codierung: Testspec + erw. Sim. Finishing simulations and starting with Test Spec","","","2","0",
"22.09.10","3","100018","54","110","Engineering","","0","S4 Technical Support / Troubleshooting. Assisting colleagues with questions and work items, bugs., troubleshoot vci problem.","","","4","0",
"22.09.10","3","100018","55","110","Engineering","","0","S4 Administrative Tasks. Meeting with S4 Management over ODA workshop.","","","1","0",
"23.09.10","4","100023","0","910","Urlaub","","100","Urlaub. Day off.","07:00","16:00","8","60",
"24.09.10","5","100023","0","910","Urlaub","","100","Urlaub. Public holiday.","07:00","16:00","8","60",
