"12.07.10","1","09.00582","1536","120","Codierung","","14","3062: 9x6: ME5.2: Kurztest: Implementierung. Implementing single ecu jobs for Kurztest (from s44)","07:00","16:00","8","60",
"13.07.10","2","09.00582","1536","120","Codierung","","50","3062: 9x6: ME5.2: Kurztest: Implementierung. Implementing single ecu jobs for Kurztest (from s44)","07:00","16:00","8","60",
"14.07.10","3","09.00582","1383","110","Engineering","","50","1028: 9x6: Kombi: K-Zahl synchronisieren: PH, Testspec Review. Review of CORS document","07:00","16:00","4","60",
"14.07.10","3","09.00582","1364","110","Engineering","","60","1024: 9x6: Kombi: SG-Tausch_0x: PH+Testspec Review. Review of Test specification","","","1","0",
"14.07.10","3","09.00582","1369","110","Engineering","","60","1024: 9x6: Kombi: SG-Tausch_PRE-READ_2000: PH+Testspec Review. Review of Test specification","","","1","0",
"14.07.10","3","09.00582","1374","110","Engineering","","60","1024: 9x6: Kombi: SG-Tausch_POST-WRITE_2000: PH+Testspec Review. Review of Test specification","","","1","0",
"14.07.10","3","100018","38","110","Engineering","","0","DSA AAC	S4/DSA overall tasks. 9x6 project teleco with dsa","","","0,5","0",
"14.07.10","3","100018","38","110","Engineering","","0","DSA AAC	S4/DSA overall tasks. Assisting with E1 Pirol (reviewing Test results document)","","","0,5","0",
"15.07.10","4","100018","38","110","Engineering","","0","DSA AAC	S4/DSA overall tasks. Assisting with E1 Pirol (Correcting of security acces job for SG_program and testing)","07:00","16:00","3","60",
"15.07.10","4","100018","38","110","Engineering","","0","DSA AAC	S4/DSA overall tasks. Teleco regarding E1 ODX bugs","","","1","0",
"15.07.10","4","100018","38","110","Engineering","","0","DSA AAC	S4/DSA overall tasks. Assisting with E1 Pirol  (DTC Import bug)","","","1","0",
"15.07.10","4","100018","38","110","Engineering","","0","DSA AAC	S4/DSA overall tasks. Assisting with E1 Pirol (Correctin Mometbegrenzung Single ECU job and Option Items)","","","3","0",
"16.07.10","5","100018","38","110","Engineering","","0","S4/DSA overall tasks. Assisting with E1 Pirol","07:00","16:00","8","60",
