"20.12.10","1","100023","910","910","Urlaub","","0","Urlaub 17.12.2010-02.01.2011. Time off","07:00","16:00","8","60",
"21.12.10","2","100023","910","910","Urlaub","","0","Urlaub 17.12.2010-02.01.2011. Time off","07:00","16:00","8","60",
"22.12.10","3","100023","910","910","Urlaub","","0","Urlaub 17.12.2010-02.01.2011. Time off","07:00","16:00","8","60",
"23.12.10","4","100023","910","910","Urlaub","","0","Urlaub 17.12.2010-02.01.2011. Time off","07:00","16:00","8","60",
"24.12.10","5","100023","910","910","Urlaub","","0","Urlaub 17.12.2010-02.01.2011. Time off","07:00","16:00","8","60",
