"07.06.10","1","100018","48","110","Engineering","","0","Wochenaufgaben AES. Timesheets + Meetings + Administration of E1 Pirol project","07:00","16:00","2","60",
"07.06.10","1","100152","61","110","Engineering","","100","1013: E1 PIROL: EDC17: SG-Program FZG lesen: PH+Testspec Review. Completed MOTS - Test Spec","","","6","0",
"08.06.10","2","100018","48","110","Engineering","","0","Wochenaufgaben AES. Timesheets + Meetings + Administration of E1 Pirol project","07:00","16:00","2","60",
"08.06.10","2","100152","7","110","Engineering","","100","1000: E1 PIROL: EDC17: ECU Analyse. Reworking, due to review","","","6","0",
"09.06.10","3","100018","48","110","Engineering","","0","Wochenaufgaben AES. Timesheets + Meetings + Administration of E1 Pirol project","07:00","16:00","2","60",
"09.06.10","3","100152","194","120","Codierung","","100","1001: E1 PIROL: EDC17: ODX Bedat. Sorting out various issues with testing and connection issues to Germany","","","3","0",
"09.06.10","3","100152","7","110","Engineering","","100","1000: E1 PIROL: EDC17: ECU Analyse. Reworking, due to review","","","3","0",
"10.06.10","4","100018","48","110","Engineering","","0","Wochenaufgaben AES. Timesheets + Meetings + Administration of E1 Pirol project","07:00","16:00","3","60",
"10.06.10","4","100152","194","120","Codierung","","100","1001: E1 PIROL: EDC17: ODX Bedat. Sorting out various issues with testing and connection issues to Germany","","","3","0",
"10.06.10","4","100152","7","110","Engineering","","0","1000: E1 PIROL: EDC17: ECU Analyse. Reworking, due to review","","","2","0",
"11.06.10","5","100018","48","110","Engineering","","0","Wochenaufgaben AES. Timesheets + Meetings + Administration of E1 Pirol project","07:00","16:00","3","60",
"11.06.10","5","100152","7","110","Engineering","","100","1000: E1 PIROL: EDC17: ECU Analyse. Reworking, due to review","","","5","0",
