"21.06.10","1","09.00582","437","110","Engineering","","0","1022: 9x6: Kombi I: Gesamtwegstrecke: PH. Bugfixing Gesamtwegstrecke 2000 PH after Review from s48","07:00","16:00","4","60",
"21.06.10","1","100152","11","120","Codierung","","0","1001: E1 PIROL: EDC17: ODX Bedat. Testing EDC17 ODX","","","4","0",
"22.06.10","2","09.00582","437","110","Engineering","","0","1022: 9x6: Kombi I: Gesamtwegstrecke: PH. Bugfixing Gesamtwegstrecke 2000 PH after Review from s48","07:00","16:00","4","60",
"22.06.10","2","100152","11","120","Codierung","","0","1001: E1 PIROL: EDC17: ODX Bedat. Testing EDC17 ODX","","","4","0",
"23.06.10","3","100152","11","120","Codierung","","0","1001: E1 PIROL: EDC17: ODX Bedat. Testing EDC17 ODX","07:00","16:00","7","60",
"23.06.10","3","100018","46","110","Engineering","","0","Wochenaufgaben PAE. E1 ODX Meeting","","","1","0",
"24.06.10","4","100018","46","100","SOFTWARE-ENTWICKLUNG (SWE)","","0","Wochenaufgaben PAE. Meeting - Feedback from DSA","07:00","16:00","2","60",
"24.06.10","4","100152","11","120","Codierung","","0","1001: E1 PIROL: EDC17: ODX Bedat. Testing EDC17 ODX","","","6","0",
"25.06.10","5","09.00582","1000","140","Test","","20","1029: 9x6: Kombi II: Tacho A: Modultest+Bugfixing. Testing and fixing Tacho A CTS's from s42","07:00","16:00","7","60",
"25.06.10","5","09.00582","1000","140","Test","","0","1029: 9x6: Kombi II: Tacho A: Modultest+Bugfixing. Waiting for Authoring from s42","","","1","0",
"25.06.10","5","09.00582","437","110","Engineering","","100","1022: 9x6: Kombi I: Gesamtwegstrecke: PH. Closing Task","","","0","0",
"25.06.10","5","100152","11","120","Codierung","","100","1001: E1 PIROL: EDC17: ODX Bedat. Testing EDC17 ODX","","","0","0",
