"02.08.10","1","09.00582","1356","120","Codierung","","10","3061: 9x6: ME5.2: ODX Bedat. implemented structures","07:00","16:00","2","60",
"02.08.10","1","09.00582","1405","120","Codierung","","15","1035: 9x6: Kombi: PTTD: Textmapping+Attributierung. textmapping for istwerte","","","1","0",
"03.08.10","2","09.00582","0","110","Engineering","","0","ODX MOTS creation. Creating MOTS'for PSM0503, PSM0502, PSM0501,  PSM0505","07:00","16:00","8","60",
"04.08.10","3","09.00582","0","110","Engineering","","18","ODX MOTS creation. Creating MOTS'for PSM00, PSM04,PSM000, PSM0504","07:00","16:00","8","60",
"05.08.10","4","09.00582","0","110","Engineering","","70","ODX MOTS simulation creation. created simulations for odx testing for PSM01 and PSM57, from s57","07:00","16:00","5","60",
"05.08.10","4","09.00582","1357","140","Test","","5","1015: 9x6: PSM/ABS:PTTD: Modultest+Bugfixing. tested and bugfixed Entlueften and Lenkwinkelsensor Kalibrieren, from s57","","","2","0",
"05.08.10","4","09.00582","392","110","Engineering","","0","8501: 9x6: allg. Projekttätigkeit C1 .3/ae31. installing PIDT and preparing for testing","","","1","0",
"06.08.10","5","09.00582","0","110","Engineering","","0","ODX testing. Tested PSM00 and PSM01","07:00","16:00","8","60",
