"15.02.10","1","09.00582","355","110","Engineering","","0","9x6: allg. Projekttatigkeit C1.3/ae20. Meeting and general work","07:00","16:00","1","60",
"15.02.10","1","09.00582","178","110","Engineering","","0","9x6 Kombi ECU Analyse. This is booked on task of S41","","","7","0",
"16.02.10","2","077251","3487","110","Engineering","","100","DME Erststart Testspec + Sim. Updates to testspec and sim based on review by md","07:00","16:00","2","60",
"16.02.10","2","09.00582","355","110","Engineering","","0","9x6: allg. Projekttatigkeit C1.3/ae20. Meeting and general work","","","1","0",
"16.02.10","2","09.00582","178","110","Engineering","","0","9x6 Kombi ECU Analyse. This is booked on task of S41","","","5","0",
"17.02.10","3","09.00582","355","110","Engineering","","0","9x6: allg. Projekttatigkeit C1.3/ae20. Meeting and general work","07:00","16:00","2","60",
"17.02.10","3","09.00582","366","110","Engineering","","0","9x6 Kombi ECU Analyse. PIWIS source code analysis","","","6","0",
"18.02.10","4","09.00582","366","110","Engineering","","0","9x6 Kombi ECU Analyse. PIWIS source code analysis","07:00","16:00","7","60",
"18.02.10","4","09.00582","355","110","Engineering","","0","9x6: allg. Projekttatigkeit C1.3/ae20. Meeting and general work","","","1","0",
"19.02.10","5","09.00582","355","110","Engineering","","0","9x6: allg. Projekttatigkeit C1.3/ae20. Meeting and general work","07:00","16:00","1,5","60",
"19.02.10","5","09.00582","98","170","Schulung","","0","9x6: get into subject E1.3/ae20. Getting into subject for 9x6 PSM/ABS","","","1,5","0",
"19.02.10","5","09.00582","365","110","Engineering","","0","9x6: PSM/ABS I: ECU Analyse. PSM/ABS for 9x6","","","5","0",
