"19.07.10","1","09.00582","1450","110","Engineering","","100","3006: 9x6: ME7.2: SG-Typ:PH. Creating generic PH for ME SG-Typ and fixing errors in document after review","07:00","16:00","8","60",
"20.07.10","2","09.00582","1457","110","Engineering","","30","3006: 9x6: ME7.2: SG-Typ: Testspec + erw. Sim. Creating test spec. and sim. for sg-typ","07:00","16:00","7","60",
"20.07.10","2","100018","40","110","Engineering","","0","Wochenaufgaben AES. Discussed 9x6 project progress and improving CTS testing","","","1","0",
"21.07.10","3","09.00582","1445","110","Engineering","","100","3002: 9x6: ME7.2: Kurztest: Testspec + erw. Sim. Fixing test spec. and simulation after review","07:00","16:00","4","60",
"21.07.10","3","09.00582","1457","110","Engineering","","50","3006: 9x6: ME7.2: SG-Typ: Testspec + erw. Sim. Creating test spec. and sim. for sg-typ","","","4","0",
"22.07.10","4","09.00582","1456","110","Engineering","","100","3006: 9x6: ME7.2: SG-Typ: Testspec + erw. Sim. Creating test spec. and sim. for sg-typ","07:00","16:00","8","60",
"23.07.10","5","09.00582","0","110","Engineering","","0","Kombi 2000 ODX. Creating a dtc read service and job for returning dtcs for kombi 2000","07:00","16:00","8","60",
