"20.09.10","1","09.00582","2160","140","Test","","80","3002: 9x6: ME7.2: Kurztest: Modultest+Bugfixing. Bugfixing and Testing kurztest sequence.","07:00","16:00","8","60",
"21.09.10","2","09.00582","2173","140","Test","","90","3022: 9x6: ME7.8/ME7.8min: Kurztest: Modultest+Bugfixing. Testing and Bugfixing the CTS and ODX for kurztest","07:00","16:00","4","60",
"21.09.10","2","09.00582","2160","140","Test","","90","3002: 9x6: ME7.2: Kurztest: Modultest+Bugfixing. Bugfixing and Testing kurztest sequence","","","4","0",
"22.09.10","3","09.00582","2160","140","Test","","100","3002: 9x6: ME7.2: Kurztest: Modultest+Bugfixing. Bugfixing and Testing kurztest sequence","07:00","16:00","4","60",
"22.09.10","3","09.00582","2173","140","Test","","100","3022: 9x6: ME7.8/ME7.8min: Kurztest: Modultest+Bugfixing. Bugfixing and Testing kurztest sequence","","","4","0",
