"26.07.10","1","09.00582","1967","110","Engineering","","30","2181: 9x6: Flashen Pre/Post CTS gen: WFS programmieren: PH+Testspec Review. PH initial review","07:00","16:00","2","60",
"26.07.10","1","09.00582","1317","110","Engineering","","0","8501: 9x6: ProjStatus + Bespr C1.1/ae31. Task status tracking + discussions","","","1","0",
"26.07.10","1","100018","54","110","Engineering","","0","S4 Technical Support / Troubleshooting. Assisting collaegues with issues and questions","","","3","0",
"26.07.10","1","09.00582","1403","120","Codierung","","0","1031: 9x6: Kombi: Komplexe Codierung: Implementierung. Waiting for Authoring","","","2","0",
"27.07.10","2","100018","42","110","Engineering","","0","Wochenaufgaben AES. Weekely Telco with md, we for E1 Pirol","07:00","16:00","0,5","60",
"27.07.10","2","100018","54","110","Engineering","","0","S4 Technical Support / Troubleshooting. Assisting colleagues with issues and quetions.","","","3","0",
"27.07.10","2","09.00582","1403","120","Codierung","","0","9x6: Kombi: Komplexe Codierung: Implementierung. Waiting for authroing","","","2,5","0",
"27.07.10","2","09.00582","1403","120","Codierung","","0","9x6: Kombi: Komplexe Codierung: Implementierung. Implementation","","","2","0",
"28.07.10","3","09.00582","1317","110","Engineering","","0","8501: 9x6: ProjStatus + Bespr C1.1/ae31. Project tracking and weekly meeting. Team discussions","07:00","16:00","3","60",
"28.07.10","3","09.00582","1403","120","Codierung","","50","1031: 9x6: Kombi: Komplexe Codierung: Implementierung. Waiting for Authoring","","","3","0",
"28.07.10","3","09.00582","1403","120","Codierung","","50","1031: 9x6: Kombi: Komplexe Codierung: Implementierung. Implementation","","","2","0",
"29.07.10","4","100018","54","110","Engineering","","0","S4 Technical Support / Troubleshooting. PRODIS.Authoring troubleshooting.","07:00","16:00","2","60",
"29.07.10","4","09.00582","1403","120","Codierung","","50","1031: 9x6: Kombi: Komplexe Codierung: Implementierung. Implementation","","","0,5","0",
"29.07.10","4","100018","55","110","Engineering","","0","S4 Administrative Tasks. Reporting for S4 managament","","","2,5","0",
"29.07.10","4","100018","54","110","Engineering","","0","S4 Technical Support / Troubleshooting. Assising colleagues with issues and questions.","","","2","0",
"29.07.10","4","100018","42","110","Engineering","","0","Wochenaufgaben AES. AES Meeting","","","1","0",
"30.07.10","5","100018","42","110","Engineering","","0","Wochenaufgaben AES. Timesheets","07:00","16:00","1","60",
"30.07.10","5","09.00582","1400","110","Engineering","","30","1031: 9x6: Kombi: Komplexe Codierung: PH. Creating the PH document","","","5","0",
"30.07.10","5","100018","54","110","Engineering","","0","S4 Technical Support / Troubleshooting. Assisitn gcolleagues with issues.","","","2","0",
