"04.01.10","1","077353","1898","110","Engineering","","0","8501: E1 M5: allg. Projekttätigkeiten A1.15/ae15. Formating and installation of laptops (s50 and s45) for new collegues and general maintenance","07:00","16:00","5","60",
"04.01.10","1","077353","11955","110","Engineering","","20","6024: E1 M5: PCM3.0 (24.100): HeadUnit: Soll-/Ist Konfig: Testspec. Creating Simulations","","","3","0",
"05.01.10","2","077353","1898","110","Engineering","","0","8501: E1 M5: allg. Projekttätigkeiten A1.15/ae15. Meeting","07:00","16:00","1","60",
"05.01.10","2","077353","1898","110","Engineering","","0","8501: E1 M5: allg. Projekttätigkeiten A1.15/ae15. Discussion of ODA Modules","","","1","0",
"05.01.10","2","077353","1898","110","Engineering","","0","8501: E1 M5: allg. Projekttätigkeiten A1.15/ae15. Assisting new collegues with installation of PIDT","","","1","0",
"05.01.10","2","077353","1898","110","Engineering","","0","8501: E1 M5: allg. Projekttätigkeiten A1.15/ae15. Assisting collegue with SG-Tausch Write Bugfix","","","1","0",
"05.01.10","2","077353","11955","110","Engineering","","50","6024: E1 M5: PCM3.0 (24.100): HeadUnit: Soll-/Ist Konfig: Testspec. Creating of Test Spec","","","4","0",
"06.01.10","3","077353","1898","110","Engineering","","0","8501: E1 M5: allg. Projekttätigkeiten A1.15/ae15. Assisting collegeue with PCM3 Selbstest MORS","07:00","16:00","1","60",
"06.01.10","3","077353","1898","110","Engineering","","0","8501: E1 M5: allg. Projekttätigkeiten A1.15/ae15. Assisting new collegue with running simulations and Testing vs Test Specification","","","1","0",
"06.01.10","3","077353","11955","110","Engineering","","80","6024: E1 M5: PCM3.0 (24.100): HeadUnit: Soll-/Ist Konfig: Testspec. Creation of test specification","","","6","0",
"07.01.10","4","077353","1898","110","Engineering","","0","8501: E1 M5: allg. Projekttätigkeiten A1.15/ae15. Backing up and cleaning out of s50 Authoring Workspace","07:00","16:00","1,5","60",
"07.01.10","4","077353","1898","110","Engineering","","0","8501: E1 M5: allg. Projekttätigkeiten A1.15/ae15. Teleco with dr","","","1","0",
"07.01.10","4","077353","11955","110","Engineering","","100","6024: E1 M5: PCM3.0 (24.100): HeadUnit: Soll-/Ist Konfig: Testspec. Completion of MORS and fixing of simulations.","","","3","0",
"07.01.10","4","077353","1898","110","Engineering","","0","8501: E1 M5: allg. Projekttätigkeiten A1.15/ae15. Assisting collegue with PCM3 Selbstest MORS and MOTS","","","0,5","0",
"07.01.10","4","077353","","181","Fehlerbes. vor Ausl. (Bugzilla)","","0","1604: E1 M5: Bugfixing /ae15. Bug 20422, 20739, 20758, 20765","","","2","0",
"08.01.10","5","077353","","181","Fehlerbes. vor Ausl. (Bugzilla)","","0","1604: E1 M5: Bugfixing /ae15. Bug 20422, 20739, 20758, 20765","07:00","16:00","8","60",
