"26.04.10","1","077353","12465","182","Fehlerbes. nach Ausl. (Bugzilla)","","0","6220: E1 M5: Bugfixing: BF+TEst: #22892. Work on bug","07:00","16:00","1","60",
"26.04.10","1","09.00311","145","140","Test","","0","ODA Basics Rel2: Erw. Tool Modultest+Bugfixing D3.10/pa20. Testing and Issue correction of output configuration files","","","3","0",
"26.04.10","1","100025","318","170","Schulung","","0","Schulungen 2010. Training colleagues on sequence builder","","","4","0",
"27.04.10","2","100023","849","910","Urlaub","","100","Urlaub 27.04.2010. Time-Off","07:00","16:00","8","60",
"28.04.10","3","100025","318","170","Schulung","","0","Schulungen 2010. Training members with ODA sequence builder + Issues","07:00","16:00","4","60",
"28.04.10","3","09.00582","624","110","Engineering","","0","1029: 9x6: Kombi II: Tacho A: PH. Reworking documents due to changes + server issues","","","1","0",
"28.04.10","3","09.00582","437","110","Engineering","","0","1022: 9x6: Kombi I: Gesamtwegstrecke: PH. Reworking documents due to changes + server issues","","","2","0",
"28.04.10","3","100018","48","110","Engineering","","0","Wochenaufgaben PAE. General Administration + Timesheets + Meetings","","","1","0",
"29.04.10","4","100025","318","170","Schulung","","0","Schulungen 2010. Training on Anlysis of E1 deisel","07:00","16:00","4","60",
"29.04.10","4","100018","48","110","Engineering","","0","Wochenaufgaben PAE. General Administration + Timesheets + Meetings","","","2","0",
"29.04.10","4","100152","0","110","Engineering","","0","E1 Diesel: CTS Analysis. Started initial analysis on E1 CTS Diesel","","","2","0",
"30.04.10","5","100025","318","170","Schulung","","0","Schulungen 2010. Reworking ODA documents PH for test purposes","07:00","16:00","3","60",
"30.04.10","5","100152","0","110","Engineering","","0","E1 Diesel: CTS Analysis. Analysis of E1 Diesel CTS: Readiness Code","","","5","0",
"30.04.10","5","09.00582","533","120","Codierung","","100","3061: 9x6: ME5.2: ODX Bedat. Closing Task","","","0","0",
