"23.08.10","1","09.00582","418","110","Engineering","","100","1002: 9x6: PSM/ABS: Statischer Test: PH. Re-closing complete task","07:00","16:00","0","60",
"23.08.10","1","100025","315","170","Schulung","","0","Schulungen 2010. Assisting new staff with CTS creation training","","","2","0",
"23.08.10","1","100018","45","110","Engineering","","0","Wochenaufgaben AES. Common project tasks & completing timesheets","","","0,5","0",
"23.08.10","1","09.00582","2207","120","Codierung","","100","3061: 9x6: ME5.2: ODX Bedat. From f5: Creating conversions for environment data and adding missing services","","","5,5","0",
"24.08.10","2","09.00582","2207","120","Codierung","","100","3061: 9x6: ME5.2: ODX Bedat. From f5: Creating  environment data","07:00","16:00","8","60",
"25.08.10","3","09.00582","2207","120","Codierung","","100","3061: 9x6: ME5.2: ODX Bedat. From f5: Creating conversions for environment data","07:00","16:00","2","60",
"25.08.10","3","09.00582","2473","181","Fehlerbes. vor Ausl. (Bugzilla)","","0","5026: 9x6: Bugfixing: Bedat: BF+Test. Working on Bugzilla Bug 25114","","","6","0",
"26.08.10","4","09.00582","2473","181","Fehlerbes. vor Ausl. (Bugzilla)","","0","5026: 9x6: Bugfixing: Bedat: BF+Test. Working on Bugzilla Bug 25114","07:00","16:00","8","60",
"27.08.10","5","09.00582","2473","181","Fehlerbes. vor Ausl. (Bugzilla)","","0","5026: 9x6: Bugfixing: Bedat: BF+Test. Working on Bugzilla Bug 25221","07:00","16:00","4","60",
"27.08.10","5","09.00582","2473","181","Fehlerbes. vor Ausl. (Bugzilla)","","0","5026: 9x6: Bugfixing: Bedat: BF+Test. Working on Bugzilla Bug 25223.","","","4","0",
