"18.01.10","1","077353","1916","110","Engineering","","0","8185: Warten auf Authoring (Performance-Probleme bei Ausführung). Waiting For Authoring","07:00","16:00","3","60",
"18.01.10","1","077251","3490","120","Codierung","","85","6005: DME Erststart: Impl. C6.6/aeB1. Implementation of CTS PAG_G1_BDE_Erststart","","","5","0",
"19.01.10","2","077251","3398","110","Engineering","","0","	 8185: Warten auf Authoring (Performance-Probleme bei Ausführung). Waiting For Authoring","07:00","16:00","2","60",
"19.01.10","2","077251","1372","110","Engineering","","0","8501: G1: allg. Projekttätigkeiten. Fixing G1 Bug","","","2","0",
"19.01.10","2","077251","1372","110","Engineering","","0","8501: G1: allg. Projekttätigkeiten. Translating document for G1 Implementation","","","3","0",
"19.01.10","2","077251","3490","120","Codierung","","90","6005: DME Erststart: Impl. C6.6/aeB1. Implementation of CTS PAG_G1_BDE_Erststart","","","1","0",
"20.01.10","3","077251","1372","110","Engineering","","0","8501: G1: allg. Projekttätigkeiten. Meeting","07:00","16:00","1,5","60",
"20.01.10","3","077251","3398","110","Engineering","","0","8185: Warten auf Authoring (Performance-Probleme bei Ausführung). Waiting For Authoring","","","3","0",
"20.01.10","3","077251","3455","120","Codierung","","20","5001: Zusatzheizung: Leitungsbefüllung: Ablauf Impl. C5.8/aeB1. Implemanting Zusatzheizung CTS","","","3,5","0",
"21.01.10","4","077251","3398","110","Engineering","","0"," 8185: Warten auf Authoring (Performance-Probleme bei Ausführung). Waiting For Authoring","07:00","16:00","3","60",
"21.01.10","4","077251","1372","110","Engineering","","0","8501: G1: allg. Projekttätigkeiten. Creating Simulation for Zusatzheizung","","","2","0",
"21.01.10","4","077251","3455","120","Codierung","","0","5001: Zusatzheizung: Leitungsbefüllung: Ablauf Impl. C5.8/aeB1. Implemanting Zusatzheizung CTS","","","3","0",
"22.01.10","5","077353","1916","110","Engineering","","0","8185: Warten auf Authoring (Performance-Probleme bei Ausführung). Waiting For Authoring","07:00","16:00","3","60",
"22.01.10","5","077251","3455","120","Codierung","","40","5001: Zusatzheizung: Leitungsbefüllung: Ablauf Impl. C5.8/aeB1. Implemanting Zusatzheizung CTS","","","5","0",
