"26.07.10","1","09.00582","1505","120","Codierung","","15","3035: 9x6: ME7.8/ME7.8min: PTTD:Textmapping+Attributierung. textmapping and attributierung for me7.8 istwerte and fehlerspeicher","07:00","16:00","6","60",
"26.07.10","1","09.00582","1505","120","Codierung","","0","3035: 9x6: ME7.8/ME7.8min: PTTD:Textmapping+Attributierung. Waiting for authoring, server slow when working locally","","","2","0",
"27.07.10","2","09.00582","1505","120","Codierung","","15","3035: 9x6: ME7.8/ME7.8min: PTTD:Textmapping+Attributierung. Waiting for authoring","07:00","16:00","1","60",
"27.07.10","2","09.00582","1505","120","Codierung","","30","3035: 9x6: ME7.8/ME7.8min: PTTD:Textmapping+Attributierung. textmapping and attributierung for me7.8min istwerte and fehlerspeicher","","","7","0",
"28.07.10","3","09.00582","1356","120","Codierung","","50","1015: 9x6: PSM/ABS:PTTD:Textmapping+Attributierung. started ABS/PSM texmapping and attributierung, from s57","07:00","16:00","5","60",
"28.07.10","3","09.00582","1356","120","Codierung","","50","1015: 9x6: PSM/ABS:PTTD:Textmapping+Attributierung. Waiting for authoring, from s57","","","1","0",
"28.07.10","3","09.00582","1533","120","Codierung","","0","3061: 9x6: ME5.2: ODX Bedat. fixed messwerte coversions and structures parameter values, from s44","","","2","0",
"29.07.10","4","09.00582","1667","120","Codierung","","95","5045: 9x6: LWR/LWR01: PTTD: Textmapping+Attriburierung. textmapping and attributierung, from mc","07:00","16:00","4","60",
"29.07.10","4","09.00582","1405","120","Codierung","","5","1035: 9x6: Kombi: PTTD: Textmapping+Attributierung. kombi2000 textmapping and attributierung, from s57","","","3,5","0",
"29.07.10","4","09.00582","1405","120","Codierung","","5","1035: 9x6: Kombi: PTTD: Textmapping+Attributierung. Waiting for authoring, from s57","","","0,5","0",
"30.07.10","5","09.00582","1463","120","Codierung","","20","3021: 9x6: ME7.8/ME7.8min: ODX Bedat + FAP. reworked measurement values return parameters","07:00","16:00","2","60",
"30.07.10","5","100025","320","170","Schulung","","0","Schulengen 2010. Training staff on PTTD","","","2","0",
"30.07.10","5","09.00582","1405","120","Codierung","","10","1035: 9x6: PTTD: Textmapping+Attributierung. kombi03n textmapping and attributierung, from s57","","","4","0",
