"22.02.10","1","09.00311","0","110","Engineering","","40","Erarbeitung Verbesserungskonzept ODA Modules. Module Rework, Ignition Status,CTS Executor,Read ECU Config","07:00","16:00","8","60",
"23.02.10","2","09.00311","0","110","Engineering","","0","Erarbeitung Verbesserungskonzept ODA Modules. Module Rework","07:00","16:00","8","60",
"24.02.10","3","09.00065","367","170","Schulung","","0","ODX Authoring/emp949fp1. ODX Training","07:00","16:00","3","60",
"24.02.10","3","077353","12138","110","Engineering","","0","E1 M5: allg. Projekttätigkeiten A1.15/ae19. Installation and waiting for authoring.","","","5","0",
