"16.08.10","1","09.00582","0","181","Fehlerbes. vor Ausl. (Bugzilla)","","0","1000: 9x6: PSM/ABS: Bugfixing zu Integrationstest. Correcting ODX issues for PSM/ABS","07:00","16:00","8","60",
"17.08.10","2","09.00582","2207","120","Codierung","","20","3061: 9x6: ME5.2: ODX Bedat. Added Farhzeugdaten coding. From s44.","07:00","16:00","8","60",
"18.08.10","3","09.00582","0","181","Fehlerbes. vor Ausl. (Bugzilla)","","50","1000: 9x6: PSM/ABS: Bugfixing. Requested task for bugfixing.","07:00","16:00","7","60",
"18.08.10","3","09.00582","594","110","Engineering","","0","8501: 9x6: allg. Projekttaetigkeit. Meeting with directors regarding project.","","","1","0",
"19.08.10","4","09.00582","594","110","Engineering","","0","8501: 9x6: allg. Projekttaetigkeit. Project meeting regarding 9x6 tasks","07:00","16:00","0,75","60",
"19.08.10","4","09.00582","0","181","Fehlerbes. vor Ausl. (Bugzilla)","","0","1000: 9x6: PSM/ABS: Bugfixing. Corrected ABS DTC and messwerte values. Waiting for task details.","","","7,25","0",
"20.08.10","5","09.00582","2164","120","Codierung","","0","3006: 9x6: ME7.2:SG-Typ: Implementierung. Implementing CTS for all DMEs","07:00","16:00","7","60",
"20.08.10","5","09.00582","594","110","Engineering","","0","8501: 9x6: allg. Projekttaetigkeit. Meeting regarding projects","","","1","0",
