"19.07.10","1","09.00582","1446","110","Engineering","","70","3002: 9x6: ME7.2: Kurztest: PH+Testspec Review. Test Spec initial review","07:00","16:00","4","60",
"19.07.10","1","09.00582","1458","110","Engineering","","40","9x6: ME7.2: SG-Typ: PH+Testspec Review. PH document review","","","3","0",
"19.07.10","1","100018","54","110","Engineering","","0","S4 Technical Support / Troubleshooting. Assisting colleagues","","","1","0",
"20.07.10","2","100018","42","110","Engineering","","0","Wochenaufgaben AES. Discussions with md, mi, s42, s47","07:00","16:00","1","60",
"20.07.10","2","100018","42","110","Engineering","","0","Wochenaufgaben AES. E1 Pirol discussion + assistance","","","1","0",
"20.07.10","2","09.00582","1403","120","Codierung","","20","9x6: Kombi: Komplexe Codierung: Implementierung. Waiting for Authoring","","","1","0",
"20.07.10","2","09.00582","1403","120","Codierung","","20","9x6: Kombi: Komplexe Codierung: Implementierung. Starting with complex coding structure interpretation in CTS","","","4","0",
"20.07.10","2","100018","54","110","Engineering","","0","S4 Technical Support / Troubleshooting. Assisting colleagues","","","1","0",
"21.07.10","3","09.00582","1317","110","Engineering","","0","8501: 9x6: ProjStatus + Bespr C1.1/ae31. Weekly meeting with sc, fp, we, mc","07:00","16:00","1","60",
"21.07.10","3","09.00582","1317","110","Engineering","","0","8501: 9x6: ProjStatus + Bespr C1.1/ae31. Team discussion + project status tracking","","","2","0",
"21.07.10","3","09.00582","1403","120","Codierung","","25","9x6: Kombi: Komplexe Codierung: Implementierung. Waiting for Authoring","","","1","0",
"21.07.10","3","09.00582","1403","120","Codierung","","25","9x6: Kombi: Komplexe Codierung: Implementierung. Implementation of datamodel, screen and updating mechanisms.","","","4","0",
"22.07.10","4","09.00582","1446","110","Engineering","","100","9x6: ME7.2: Kurztest: PH+Testspec Review. Re-review after fixes.","07:00","16:00","3","60",
"22.07.10","4","09.00582","1458","110","Engineering","","50","3006: 9x6: ME7.2: SG-Typ: PH+Testspec Review. PH re-review after fixes","","","1","0",
"22.07.10","4","100018","54","110","Engineering","","0","S4 Technical Support / Troubleshooting. Assisting colleagues with issues","","","2","0",
"22.07.10","4","100018","55","110","Engineering","","0","S4 Administrative Tasks. Staff interview.","","","0,5","0",
"22.07.10","4","09.00582","1403","120","Codierung","","30","9x6: Kombi: Komplexe Codierung: Implementierung. Implementation of option reading into dispay lists","","","1","0",
"22.07.10","4","09.00582","1403","120","Codierung","","30","9x6: Kombi: Komplexe Codierung: Implementierung. Waiting for Authroing","","","0,5","0",
"23.07.10","5","100018","42","110","Engineering","","0","Wochenaufgaben AES. Timesheets","07:00","16:00","0,5","60",
"23.07.10","5","100018","55","110","Engineering","","0","S4 Administrative Tasks. S4 admin tasks","","","2","0",
"23.07.10","5","09.00582","1317","110","Engineering","","0","8501: 9x6: ProjStatus + Bespr C1.1/ae31. Project tracking","","","0,5","0",
"23.07.10","5","09.00582","1403","120","Codierung","","40","1031: 9x6: Kombi: Komplexe Codierung: Implementierung. Waiting for Authoring","","","1","0",
"23.07.10","5","09.00582","1403","120","Codierung","","40","1031: 9x6: Kombi: Komplexe Codierung: Implementierung. Implementation of coding read","","","3","0",
"23.07.10","5","100018","54","110","Engineering","","0","S4 Technical Support / Troubleshooting. Assisting colleagues","","","1","0",
