DATE;NAME;START;END;LUNCH;1;2;3;4;5;6;7;8;9;10;11;12;13;14;15;16;17;18;19;20;21;22;23;24;
01.06.10;Brendan van Zyl;07:00:00;16:00:00;60;09.00582-848;09.00582-848 / 09.00582-849;09.00582-849;100152-47 / 09.00311-0;09.00311-0;09.00311-0;09.00311-0;09.00311-0 / 09.00311-0;
01.06.10;Jason Smith;07:00:00;16:00:00;60;100023-0;100023-0;100023-0;100023-0;100023-0;100023-0;100023-0;100023-0;
01.06.10;Justin Jansen Van Vuuren;07:00:00;16:00:00;60;09.00582-594 / 09.00582-1263;09.00582-1263;09.00582-1263;09.00582-1263;100152-9;100152-9;100152-9;09.00582-735;
01.06.10;Nico Claassen;07:00:00;16:00:00;60;09.00582-904;09.00582-904;09.00582-904;100018-42 / 100018-55;100018-55;100018-55;100018-54;100018-54;
01.06.10;Malcolm Vorster;07:00:00;16:00:00;60;100023-0;100023-0;100023-0;100023-0;100023-0;100023-0;100023-0;100023-0;
01.06.10;Graham Meyer;07:00:00;16:00:00;60;09.00582-118 / 09.00582-880;09.00582-880;09.00582-880;09.00582-880;09.00582-880;09.00582-880;09.00582-880;09.00582-880;
01.06.10;Thando Katywa;07:00:00;16:00:00;60;09.00582-119;09.00582-422;09.00582-422;09.00582-93;09.00582-93;09.00582-853	;09.00582-853	;09.00582-853	;
01.06.10;Ludumo Sankobe;07:00:00;16:00:00;60;100018-46 / 09.00582-758;09.00582-758;09.00582-758 / 09.00582-758;09.00582-758;09.00582-758;09.00582-758;09.00582-758;09.00582-758;
01.06.10;Paul Helliwell;07:00:00;16:00:00;60;09.00582-120 / 09.00582-120;09.00582-120;09.00582-0;09.00582-0;09.00582-0;09.00582-0;09.00582-0;09.00582-0;
01.06.10;Richard Raymond;07:00:00;16:00:00;60;100152-12;100152-12;100152-12;100152-12;100152-12;100152-12;100018-48;100018-48;
01.06.10;Ntombenkosi Maldaki;07:00:00;16:00:00;60;100152-8;100152-8;100152-8;100152-8;100152-8;100152-8;100152-8;100152-8;
01.06.10;Abdul-Aziz Hendricks;07:00:00;16:00:00;60;100152-62;100152-62;100152-62;100152-59;100152-59;100152-9;100152-9;100152-9;
01.06.10;Mark Britten;07:00:00;16:00:00;60;100018-52 / 09.00582-735;09.00582-735;09.00582-735;09.00582-735;09.00582-735 / 09.00582-735;09.00582-735;09.00582-735;09.00582-735;
01.06.10;Angelo Bentley;07:00:00;16:00:00;60;09.00582-422;09.00582-422;09.00582-422;09.00582-422;09.00582-422;09.00582-422;09.00582-422;09.00582-422;
02.06.10;Brendan van Zyl;07:00:00;16:00:00;60;09.00582-851;09.00582-851;09.00582-851;09.00582-851 / 09.00582-851;09.00311-0;09.00311-0;09.00311-0;09.00311-0 / 09.00311-0;
02.06.10;Jason Smith;07:00:00;16:00:00;60;100152-42;100152-42;100152-42;100152-42;100152-42;100152-42;100152-42;100152-42;
02.06.10;Justin Jansen Van Vuuren;07:00:00;16:00:00;60;09.00582-735;09.00582-1263;09.00582-1263 / 100152-9;100152-9;100152-9;100152-9;100152-9 / 09.00582-758;09.00582-758;
02.06.10;Nico Claassen;07:00:00;16:00:00;60;100018-55;100018-55 / 100018-42;09.00582-904;09.00582-904;09.00582-904;100018-55 / 100018-54;100018-54;100018-54;
02.06.10;Malcolm Vorster;07:00:00;16:00:00;60;100023-0;100023-0;100023-0;100023-0;100023-0;100023-0;100023-0;100023-0;
02.06.10;Graham Meyer;07:00:00;16:00:00;60;09.00582-118;09.00582-758 / 100152-9;09.00582-880;09.00582-880;09.00582-880;09.00582-880;09.00582-880;09.00582-880;
02.06.10;Thando Katywa;07:00:00;16:00:00;60;09.00582-620;09.00582-620;09.00582-119;09.00582-853;09.00582-853;09.00582-853;09.00582-853;09.00582-853;
02.06.10;Ludumo Sankobe;07:00:00;16:00:00;60;100018-46 / 09.00582-758;09.00582-758;09.00582-758 / 09.00582-758;09.00582-758;09.00582-758;09.00582-758;09.00582-758;09.00582-758;
02.06.10;Paul Helliwell;07:00:00;16:00:00;60;09.00582-0;09.00582-0;09.00582-0;09.00582-0;09.00582-0;09.00582-0;09.00582-120 / 09.00582-120;100018-38;
02.06.10;Richard Raymond;07:00:00;16:00:00;60;100018-48;100018-48;100018-48;100152-7;100152-7;100152-61;100152-61;100152-61;
02.06.10;Ntombenkosi Maldaki;07:00:00;16:00:00;60;100152-8;100152-8;100152-8;100152-8;100152-8;100152-8;100152-8;100152-8;
02.06.10;Abdul-Aziz Hendricks;07:00:00;16:00:00;60;100152-62;100152-62;100152-62;100152-9;100152-9;100152-9;100152-9;100152-9;
02.06.10;Mark Britten;07:00:00;16:00:00;60;09.00582-735;09.00582-735;09.00582-735;09.00582-735;09.00582-735;09.00582-735;09.00582-735 / 100018-52;09.00582-0;
02.06.10;Angelo Bentley;07:00:00;16:00:00;60;09.00582-422;09.00582-422;09.00582-422;09.00582-422;09.00582-422;09.00582-422;09.00582-422;09.00582-422;
03.06.10;Brendan van Zyl;07:00:00;16:00:00;60;09.00311-0;09.00311-0;09.00311-0 / 09.00311-0;09.00582-851;09.00582-851;09.00582-851;09.00582-851;09.00582-851 / 09.00582-851;
03.06.10;Jason Smith;07:00:00;16:00:00;60;100152-42;100152-42;100152-42;100152-42;100152-42;100152-42;100152-42;100152-42;
03.06.10;Justin Jansen Van Vuuren;07:00:00;16:00:00;60;09.00582-755;09.00582-755;09.00582-755;09.00582-755;100152-9;100152-9;100152-9;09.00582-758;
03.06.10;Nico Claassen;07:00:00;16:00:00;60;100018-54;100018-54;100018-54;100018-54;100018-54;100018-54;100018-54;100018-54;
03.06.10;Malcolm Vorster;07:00:00;16:00:00;60;100152-51;100152-51;100152-13;100152-13;100152-56;100152-56;100152-56;100018-43;
03.06.10;Graham Meyer;07:00:00;16:00:00;60;09.00582-880;09.00582-880;09.00582-880;09.00582-880;09.00582-880;09.00582-880;09.00582-880;09.00582-880;
03.06.10;Thando Katywa;07:00:00;16:00:00;60;09.00582-853;09.00582-853;09.00582-853;09.00582-853;09.00582-853;09.00582-853;09.00582-853 / 09.00582-119	;09.00582-620;
03.06.10;Ludumo Sankobe;07:00:00;16:00:00;60;09.00582-758;09.00582-758;09.00582-758;09.00582-758;09.00582-758;09.00582-758;09.00582-758;09.00582-758;
03.06.10;Paul Helliwell;07:00:00;16:00:00;60;100023-0;100023-0;100023-0;100023-0;09.00582-0;09.00582-0;09.00582-0;09.00582-0;
03.06.10;Richard Raymond;07:00:00;16:00:00;60;100018-48;100018-48;100018-48;100152-7;100152-7;100152-7;100152-7;100152-7;
03.06.10;Ntombenkosi Maldaki;07:00:00;16:00:00;60;100152-8;100152-8;100152-8;100152-8;100152-8;100152-64;100152-64;100152-64;
03.06.10;Abdul-Aziz Hendricks;07:00:00;16:00:00;60;100152-9;100152-9;100152-9;100152-60;100152-60;100152-60;100152-62;100152-62;
03.06.10;Mark Britten;07:00:00;16:00:00;60;09.00582-735;09.00582-735;09.00582-735;09.00582-735;09.00582-735;09.00582-735;09.00582-735;100152-32;
03.06.10;Angelo Bentley;07:00:00;16:00:00;60;09.00582-422;09.00582-422;09.00582-422;09.00582-422;09.00582-422;09.00582-422;09.00582-422;09.00582-422;
04.06.10;Brendan van Zyl;07:00:00;16:00:00;60;09.00582-851;09.00582-851;09.00582-851 / 09.00582-852;09.00582-852;09.00582-852;09.00582-852;09.00582-852;09.00582-852 / 09.00582-852;
04.06.10;Jason Smith;07:00:00;16:00:00;60;100152-42;100152-42;100152-42;100152-42;100152-42;100152-42;100152-42;100152-42;
04.06.10;Justin Jansen Van Vuuren;07:00:00;16:00:00;60;100152-9;09.00582-748;09.00582-748;09.00582-748;
04.06.10;Nico Claassen;07:00:00;16:00:00;60;100018-54;100018-54 / 09.00582-904;09.00582-904;09.00582-904;09.00582-904;09.00582-904 / 100018-55;100018-55;100018-55 / 100018-42;
04.06.10;Malcolm Vorster;07:00:00;16:00:00;60;100025-313;100018-43;100018-43;100018-43;100152-14;100152-14;
04.06.10;Graham Meyer;07:00:00;16:00:00;60;100152-17;100152-17;100152-17;100152-17;100152-17;100152-17;100152-17;100152-17;
04.06.10;Thando Katywa;07:00:00;16:00:00;60;09.00582-119	;09.00582-853;09.00582-853;09.00582-853;09.00582-853;09.00582-853;09.00582-853;09.00582-853 / 09.00582-620;
04.06.10;Ludumo Sankobe;07:00:00;16:00:00;60;100018-46;09.00582-758;09.00582-758;09.00582-758;09.00582-758;09.00582-758;09.00582-758;09.00582-758;
04.06.10;Paul Helliwell;07:00:00;16:00:00;60;09.00582-0;09.00582-0;09.00582-0;09.00582-0;09.00582-0;09.00582-0;09.00582-0;09.00582-0;
04.06.10;Richard Raymond;07:00:00;16:00:00;60;100018-48;100018-48;100152-13;100152-13;100152-13;100152-66;100152-66;100152-66;
04.06.10;Ntombenkosi Maldaki;07:00:00;16:00:00;60;100152-64;100152-64;100152-65;100152-65;100152-65;100152-65;100152-65;100152-65;
04.06.10;Abdul-Aziz Hendricks;07:00:00;16:00:00;60;100152-60;100152-60;100152-60;100152-62;100152-62;100152-62;100152-62;100152-62;
04.06.10;Mark Britten;07:00:00;16:00:00;60;09.00582-735;09.00582-735;09.00582-735;09.00582-735;09.00582-735;09.00582-735;09.00582-735;09.00582-735;
04.06.10;Angelo Bentley;07:00:00;16:00:00;60;100025-323;100025-323;100025-323;100025-323;100025-323;100025-323;100025-323;100025-323;
05.06.10;Brendan van Zyl;
05.06.10;Jason Smith;
05.06.10;Justin Jansen Van Vuuren;
05.06.10;Nico Claassen;
05.06.10;Malcolm Vorster;
05.06.10;Graham Meyer;
05.06.10;Thando Katywa;
05.06.10;Ludumo Sankobe;
05.06.10;Paul Helliwell;
05.06.10;Richard Raymond;
05.06.10;Ntombenkosi Maldaki;
05.06.10;Abdul-Aziz Hendricks;
05.06.10;Mark Britten;
05.06.10;Angelo Bentley;
06.06.10;Brendan van Zyl;
06.06.10;Jason Smith;
06.06.10;Justin Jansen Van Vuuren;
06.06.10;Nico Claassen;
06.06.10;Malcolm Vorster;
06.06.10;Graham Meyer;
06.06.10;Thando Katywa;
06.06.10;Ludumo Sankobe;
06.06.10;Paul Helliwell;
06.06.10;Richard Raymond;
06.06.10;Ntombenkosi Maldaki;
06.06.10;Abdul-Aziz Hendricks;
06.06.10;Mark Britten;
06.06.10;Angelo Bentley;
07.06.10;Brendan van Zyl;07:00:00;16:00:00;60;09.00582-852;09.00582-852;09.00582-852;09.00582-852;09.00582-852;09.00582-852;09.00582-852;09.00582-852;
07.06.10;Jason Smith;07:00:00;16:00:00;60;100152-42;100152-42;100152-42;100152-42;100152-42;100152-42;100152-42;100152-42;
07.06.10;Justin Jansen Van Vuuren;07:00:00;16:00:00;60;100152-50;100152-50;100152-50;100152-52;100152-52;100152-52 / 09.00582-594;09.00582-594 / 100152-8;100152-8;
07.06.10;Nico Claassen;07:00:00;16:00:00;60;09.00582-904;09.00582-904;09.00582-904;100018-54;100018-54;100018-55;100018-55 / 09.00582-1317;100018-54;
07.06.10;Malcolm Vorster;07:00:00;16:00:00;60;100152-193;100152-193;100152-193;100152-193;100152-193;100152-193;100152-193;100018-43;
07.06.10;Graham Meyer;07:00:00;16:00:00;60;100152-17;100152-17;100152-17;100152-17;100152-17;100152-18;100152-18;100152-18;
07.06.10;Thando Katywa;07:00:00;16:00:00;60;09.00582-853;09.00582-853;09.00582-853;09.00582-853;09.00582-853;09.00582-119;09.00582-119 / 09.00582-93;09.00582-93;
07.06.10;Ludumo Sankobe;07:00:00;16:00:00;60;09.00582-758;09.00582-758;100018-46;09.00582-758;09.00582-758;09.00582-758;09.00582-758;09.00582-758;
07.06.10;Paul Helliwell;07:00:00;16:00:00;60;09.00582-0;09.00582-0;09.00582-0;09.00582-0;09.00582-0;09.00582-0;09.00582-0 / 09.00582-120;100025-317;
07.06.10;Richard Raymond;07:00:00;16:00:00;60;100018-48;100018-48;100152-61;100152-61;100152-61;100152-61;100152-61;100152-61;
07.06.10;Ntombenkosi Maldaki;07:00:00;16:00:00;60;100018-50;100152-64;100152-65;100152-65;100152-65;100152-65;100152-65;100152-65;
07.06.10;Abdul-Aziz Hendricks;07:00:00;16:00:00;60;100152-9;100152-9;100152-60;100152-60;100152-62;100152-62;100152-62;100152-62;
07.06.10;Mark Britten;07:00:00;16:00:00;60;09.00582-735;09.00582-735;09.00582-735;09.00582-735;09.00582-735;09.00582-735;09.00582-735;09.00582-735 / 100018-52;
07.06.10;Angelo Bentley;07:00:00;16:00:00;60;09.00582-422;09.00582-422;09.00582-422;09.00582-422;09.00582-422;09.00582-422;09.00582-422;09.00582-422;
08.06.10;Brendan van Zyl;07:00:00;16:00:00;60;09.00311-0 / 09.00311-0;09.00311-0;09.00311-0;09.00311-0;09.00311-0;09.00311-0;09.00311-0;09.00311-0;
08.06.10;Jason Smith;07:00:00;16:00:00;60;100152-42;100152-42;100152-42;100152-42;100152-42;100152-42;100152-42;100152-42;
08.06.10;Justin Jansen Van Vuuren;07:00:00;16:00:00;60;100152-8;100152-8;100152-8;100152-8;100152-8;100152-8;100152-8;100152-8 / 09.00582-594;
08.06.10;Nico Claassen;07:00:00;16:00:00;60;09.00582-904 / 100018-55;100018-55 / 09.00582-1317;100018-37;100018-55 / 100018-54;100018-54;100018-54;100018-54;100018-54;
08.06.10;Malcolm Vorster;07:00:00;16:00:00;60;100023-0;100023-0;100023-0;100023-0;100023-0;100023-0;100023-0;100023-0;
08.06.10;Graham Meyer;07:00:00;16:00:00;60;100152-17 / 100152-18;100152-18;100152-18;100152-18;100152-18;100152-18;100152-18;100152-18;
08.06.10;Thando Katywa;07:00:00;16:00:00;60;09.00582-853;09.00582-853;09.00582-853;09.00582-853;09.00582-853;09.00582-853;09.00582-422;09.00582-119;
08.06.10;Ludumo Sankobe;07:00:00;16:00:00;60;100023-0;100023-0;100023-0;100023-0;100023-0;100023-0;100023-0;100023-0;
08.06.10;Paul Helliwell;07:00:00;16:00:00;60;100023-0;100023-0;100023-0;100023-0;100023-0;100023-0;100023-0;100023-0;
08.06.10;Richard Raymond;07:00:00;16:00:00;60;100018-48;100018-48;100152-7;100152-7;100152-7;100152-7;100152-7;100152-7;
08.06.10;Ntombenkosi Maldaki;07:00:00;16:00:00;60;100152-8;100152-65;100152-65;100152-65;100152-8;100152-8;100018-50 / 100152-67;100152-67;
08.06.10;Abdul-Aziz Hendricks;07:00:00;16:00:00;60;100152-9;100152-9;100152-9 / 100152-62;100152-62;100152-62;100152-62;100152-62;100152-62;
08.06.10;Mark Britten;07:00:00;16:00:00;60;100018-52 / 100152-0;100152-0;100152-0;100152-0;100152-0;100152-0;100152-0;100152-0;
08.06.10;Angelo Bentley;07:00:00;16:00:00;60;100025-323;100025-323;09.00582-422;09.00582-422;09.00582-422;09.00582-422;09.00582-422;09.00582-422;
09.06.10;Brendan van Zyl;07:00:00;16:00:00;60;09.00311-0 / 09.00311-0;09.00311-0;09.00311-0;09.00311-0;09.00311-0;09.00311-0;09.00311-0;09.00311-0;
09.06.10;Jason Smith;07:00:00;16:00:00;60;100152-42;100152-42;100152-42;100152-42;100152-42;100152-42;100152-42;100152-42;
09.06.10;Justin Jansen Van Vuuren;07:00:00;16:00:00;60;100152-8;100152-8;100152-8;100152-8;100152-8;100152-8;100152-8;09.00582-594;
09.06.10;Nico Claassen;07:00:00;16:00:00;60;09.00582-904;09.00582-904;09.00582-904;09.00582-1317;09.00582-1317;100018-54 / 09.00582-1317;100018-54;100018-54;
09.06.10;Malcolm Vorster;07:00:00;16:00:00;60;100152-8;100152-8;100152-51;100018-43;100018-43 / 100025-313;100025-313;100152-193;100152-193;
09.06.10;Graham Meyer;07:00:00;16:00:00;60;100152-18;100152-18;100152-18;100152-18;100152-18;100152-18;100152-18 / 100152-18;100152-18 / 09.00582-118;
09.06.10;Thando Katywa;07:00:00;16:00:00;60;100152-66;100152-66;09.00582-119;09.00582-119 / 100152-42;100025-300;100025-300;100025-300;09.00582-620;
09.06.10;Ludumo Sankobe;07:00:00;16:00:00;60;100018-46;100152-11;100152-11;100152-11;100152-11;100152-11;100152-11;100152-11;
09.06.10;Paul Helliwell;07:00:00;16:00:00;60;100023-0;100023-0;100023-0;100023-0;100023-0;100023-0;100023-0;100023-0;
09.06.10;Richard Raymond;07:00:00;16:00:00;60;100018-48;100018-48;100152-194;100152-194;100152-194;100152-7;100152-7;100152-7;
09.06.10;Ntombenkosi Maldaki;07:00:00;16:00:00;60;100152-8;100152-8;100152-8;100152-8;100152-8;100152-8;100152-8;100152-64;
09.06.10;Abdul-Aziz Hendricks;07:00:00;16:00:00;60;100152-9;100152-9;100152-9;100152-9;100152-9;100152-9;100152-9;100152-9;
09.06.10;Mark Britten;07:00:00;16:00:00;60;100018-52;09.00582-0;100152-10;100152-10;100152-10;100152-10;100152-10;100152-10;
09.06.10;Angelo Bentley;07:00:00;16:00:00;60;09.00582-422;09.00582-422;100025-323;100025-323;100025-323;100025-323;100025-323;100025-323;
10.06.10;Brendan van Zyl;07:00:00;16:00:00;60;09.00311-0;09.00311-0;09.00311-0;09.00311-0;09.00311-0;09.00311-0;09.00311-0;09.00311-0 / 09.00311-0;
10.06.10;Jason Smith;07:00:00;16:00:00;60;100152-43;100152-43;100152-43;100152-43;100152-43;100152-43;100152-43;100152-43;
10.06.10;Justin Jansen Van Vuuren;07:00:00;16:00:00;60;100152-8;100152-8;100152-8;100152-8;100152-8;100152-8;100152-8;100152-8 / 09.00582-594;
10.06.10;Nico Claassen;07:00:00;16:00:00;60;09.00582-904;09.00582-904;09.00582-904;09.00582-904;09.00582-904;100018-54;100018-54;100018-55;
10.06.10;Malcolm Vorster;07:00:00;16:00:00;60;100152-193;100152-193;100152-193;100152-193;100018-43;100018-43;100152-0;100152-0;
10.06.10;Graham Meyer;07:00:00;16:00:00;60;09.00582-118;100152-18;100152-18;100152-18;100152-18;100152-18;100152-18 / 100152-18;100152-18;
10.06.10;Thando Katywa;07:00:00;16:00:00;60;100152-42 / 09.00582-119;09.00582-119;09.00582-742;09.00582-742;09.00582-742;09.00582-742;100025-315;100025-315;
10.06.10;Ludumo Sankobe;07:00:00;16:00:00;60;100152-11;100152-11;100152-11;100152-11;100152-11;100152-11;100152-11;100152-11;
10.06.10;Paul Helliwell;07:00:00;16:00:00;60;09.00582-855;09.00582-855;09.00582-855;09.00582-855;09.00582-855;09.00582-855;09.00582-855;100018-38;
10.06.10;Richard Raymond;07:00:00;16:00:00;60;100018-48;100018-48;100018-48;100152-194;100152-194;100152-194;100152-7;100152-7;
10.06.10;Ntombenkosi Maldaki;07:00:00;16:00:00;60;100152-8;100152-8;100152-8;100152-8;100152-67;100152-67;100152-67;100152-67;
10.06.10;Abdul-Aziz Hendricks;07:00:00;16:00:00;60;100152-9;100152-60;100152-60;100152-60;100152-60;100152-60;100152-59;100152-62;
10.06.10;Mark Britten;07:00:00;16:00:00;60;100152-10;100152-10;100152-10;100152-10;100152-10;100152-10;100152-10;100152-10;
10.06.10;Angelo Bentley;07:00:00;16:00:00;60;09.00582-856;09.00582-856;09.00582-856;09.00582-856;09.00582-856;09.00582-856;09.00582-856;09.00582-856;
11.06.10;Brendan van Zyl;07:00:00;16:00:00;60;09.00582-897;09.00582-897;09.00582-897;09.00582-897;09.00582-897;09.00582-897;09.00582-897;09.00582-897;
11.06.10;Jason Smith;07:00:00;16:00:00;60;100152-43;100152-43;100152-43;100152-43;100152-43;100152-43;100152-43;100152-43;
11.06.10;Justin Jansen Van Vuuren;07:00:00;16:00:00;60;100023-0;100023-0;100023-0;100023-0;09.00582-1263;09.00582-1263 / 100152-50;100152-50;
11.06.10;Nico Claassen;07:00:00;14:00:00;0;100018-55;100018-55;100018-55 / 100018-55;100018-55 / 100018-54;100018-54;09.00582-904;09.00582-904;
11.06.10;Malcolm Vorster;07:00:00;16:00:00;60;100152-193;100152-193;100152-0;100152-0;100152-0;100152-0;100025-313;100018-43;
11.06.10;Graham Meyer;07:00:00;14:00:00;0;100152-18 / 100152-18;100152-18;100152-18;100152-18;100152-18;100152-18;100152-18;
11.06.10;Thando Katywa;07:00:00;16:00:00;60;09.00582-0;09.00582-0;09.00582-0;09.00582-0;09.00582-0;09.00582-854;09.00582-854;09.00582-119;
11.06.10;Ludumo Sankobe;07:00:00;16:00:00;60;100152-11;100152-11;100152-11;100152-11;100152-11;100152-11;100152-11;100152-11;
11.06.10;Paul Helliwell;07:00:00;15:00:00;60;09.00582-855;09.00582-855;09.00582-855;09.00582-855;09.00582-855;09.00582-855;09.00582-855;
11.06.10;Richard Raymond;07:00:00;16:00:00;60;100018-48;100018-48;100018-48;100152-7;100152-7;100152-7;100152-7;100152-7;
11.06.10;Ntombenkosi Maldaki;07:00:00;16:00:00;0;100152-8;100152-8;100152-67;100152-67;100152-67;100152-67;100152-64;
11.06.10;Abdul-Aziz Hendricks;07:00:00;16:00:00;60;100152-38;100152-38;100152-9;100152-9;100152-9;100152-9;100152-9;100152-9;
11.06.10;Mark Britten;07:00:00;16:00:00;60;100018-52;100152-0;100152-0;100152-0;100152-0;100018-0;100018-0;100018-0;
11.06.10;Angelo Bentley;07:00:00;16:00:00;60;09.00582-856;09.00582-856;09.00582-856;09.00582-856;09.00582-856;09.00582-856;09.00582-856;
12.06.10;Brendan van Zyl;
12.06.10;Jason Smith;
12.06.10;Justin Jansen Van Vuuren;
12.06.10;Nico Claassen;
12.06.10;Malcolm Vorster;
12.06.10;Graham Meyer;
12.06.10;Thando Katywa;
12.06.10;Ludumo Sankobe;
12.06.10;Paul Helliwell;
12.06.10;Richard Raymond;
12.06.10;Ntombenkosi Maldaki;
12.06.10;Abdul-Aziz Hendricks;
12.06.10;Mark Britten;
12.06.10;Angelo Bentley;
13.06.10;Brendan van Zyl;
13.06.10;Jason Smith;
13.06.10;Justin Jansen Van Vuuren;
13.06.10;Nico Claassen;
13.06.10;Malcolm Vorster;
13.06.10;Graham Meyer;
13.06.10;Thando Katywa;
13.06.10;Ludumo Sankobe;
13.06.10;Paul Helliwell;
13.06.10;Richard Raymond;
13.06.10;Ntombenkosi Maldaki;
13.06.10;Abdul-Aziz Hendricks;
13.06.10;Mark Britten;
13.06.10;Angelo Bentley;
14.06.10;Brendan van Zyl;07:00:00;16:00:00;60;100152-52 / 09.00311-0;09.00311-0;100152-24;100152-24;100152-24;100152-25;100152-25;100152-25;
14.06.10;Jason Smith;07:00:00;16:00:00;60;100152-43;100152-43;100152-43;100152-43;100152-43;100152-43;100152-43;100152-43;
14.06.10;Justin Jansen Van Vuuren;07:00:00;16:00:00;60;100152-52;100152-52;100152-52;100152-52;100152-52;100152-52 / 100152-8;100152-8;100152-8;
14.06.10;Nico Claassen;07:00:00;16:00:00;30;0-0;0-0;0-0;0-0;09.00582-904;09.00582-904;09.00582-904 / 09.00582-116;09.00582-116;09.00582-116;
14.06.10;Malcolm Vorster;07:00:00;16:00:00;60;100152-51;100152-51;100152-51;100152-51;100152-41;100152-41;100152-193;100152-193;
14.06.10;Graham Meyer;07:00:00;16:00:00;60;100152-18;100152-18;100152-18;100152-18;100152-18;100152-18;100152-18;100152-18;
14.06.10;Thando Katywa;07:00:00;16:00:00;60;09.00582-0;09.00582-0;09.00582-0;09.00582-0;09.00582-0;09.00582-854;09.00582-854;09.00582-854 / 09.00582-119;
14.06.10;Ludumo Sankobe;07:00:00;16:00:00;60;100152-11;100152-11;100152-11;100152-11;100152-11;100152-11;100152-11;100152-11;
14.06.10;Paul Helliwell;07:00:00;16:00:00;60;09.00582-38;09.00582-38;09.00582-38;09.00582-38;09.00582-855;09.00582-855;09.00582-855;09.00582-855;
14.06.10;Richard Raymond;07:00:00;16:00:00;60;100152-7;100152-7;100152-7;100152-7;100152-7;100018-48;100018-48;100018-48;
14.06.10;Ntombenkosi Maldaki;07:00:00;16:00:00;60;100152-8;100152-8;100152-8;100152-8;100152-8;100152-8;100152-8;100152-8;
14.06.10;Abdul-Aziz Hendricks;07:00:00;16:00:00;60;100152-9;100152-9;100152-9;100152-9;100152-63;100152-63;100152-63;100152-63;
14.06.10;Mark Britten;07:00:00;16:00:00;60;100152-20;100152-20;100152-20;100152-20;100152-20;100152-20;100036-78;100036-78;
14.06.10;Angelo Bentley;07:00:00;16:00:00;60;09.00582-856;09.00582-856;09.00582-856;09.00582-856;09.00582-856;09.00582-856;09.00582-856;09.00582-856;
15.06.10;Brendan van Zyl;07:00:00;16:00:00;60;100152-52;100152-24;100152-24;100152-24;100152-24 / 100152-25;100152-25;100152-25;100152-25 / 09.00311-173;
15.06.10;Jason Smith;07:00:00;16:00:00;60;100152-43;100152-43;100152-43;09.00582-1443;09.00582-1443;09.00582-1443;09.00582-1443;09.00582-1443;
15.06.10;Justin Jansen Van Vuuren;07:00:00;16:00:00;60;100152-52;100152-52;100152-52;100152-52;100152-50;100152-50;100152-50 / 100152-8;100152-8;
15.06.10;Nico Claassen;07:00:00;16:00:00;30;09.00582-904 / 09.00582-1317;09.00582-1317;09.00582-1317;09.00582-1317;09.00582-1317;09.00582-1317;09.00582-1317;09.00582-1317 / 100018-42;100018-42;
15.06.10;Malcolm Vorster;07:00:00;16:00:00;60;100152-41;100152-41;100152-41;100152-41 / 100152-193;100152-193;100152-193 / 100018-43;100018-43 / 100152-14;100152-14;
15.06.10;Graham Meyer;07:00:00;16:00:00;60;100152-18;100152-18;100152-18;100152-18;100152-18;100152-18;100152-18;100152-18 / 09.00582-118;
15.06.10;Thando Katywa;07:00:00;16:00:00;60;09.00582-854;09.00582-854;09.00582-854;09.00582-854;09.00582-854;09.00582-854;09.00582-854 / 09.00582-856;09.00582-856 / 09.00582-119;
15.06.10;Ludumo Sankobe;07:00:00;16:00:00;60;100023-0;100023-0;100023-0;100152-11;100152-11;100152-11;100152-11;100152-11;
15.06.10;Paul Helliwell;07:00:00;16:00:00;60;100018-38;100018-38;100018-38;100018-38;100018-38;09.00582-1359;09.00582-1359;09.00582-1359;
15.06.10;Richard Raymond;07:00:00;16:00:00;60;100152-7;100152-7;100152-7;100152-7;100152-7;100152-7;100018-48;100018-48;
15.06.10;Ntombenkosi Maldaki;07:00:00;16:00:00;60;100152-8;100152-8;100152-8;100152-8;100152-8;100152-8;100152-8;100152-8;
15.06.10;Abdul-Aziz Hendricks;07:00:00;16:00:00;60;100152-63;100152-63;100152-63;100152-63;100152-63;100152-9;100152-38;100152-38;
15.06.10;Mark Britten;07:00:00;16:00:00;60;100152-20;100152-20;100152-20;100152-20;100152-20;100152-20;100152-20;100152-20;
15.06.10;Angelo Bentley;07:00:00;16:00:00;60;09.00582-856;09.00582-856;09.00582-856;09.00582-856;09.00582-856;09.00582-856;09.00582-856;09.00582-856;
16.06.10;Brendan van Zyl;07:00:00;16:00:00;60;100023-0;100023-0;100023-0;100023-0;100023-0;100023-0;100023-0;100023-0;
16.06.10;Jason Smith;07:00:00;16:00:00;60;09.00582-0;09.00582-0;09.00582-0;09.00582-0;09.00582-0;09.00582-0;09.00582-0;09.00582-0;
16.06.10;Justin Jansen Van Vuuren;07:00:00;16:00:00;60;100023-0;100023-0;100023-0;100023-0;100023-0;100023-0;100023-0;100023-0;
16.06.10;Nico Claassen;07:00:00;16:00:00;30;09.00582-1317 / 100025-265;100025-265 / 09.00582-116;09.00582-116;100018-37;100018-37;100018-37;100018-37;100018-37;100018-37;
16.06.10;Malcolm Vorster;07:00:00;16:00:00;60;100023-0;100023-0;100023-0;100023-0;100023-0;100023-0;100023-0;100023-0;
16.06.10;Graham Meyer;07:00:00;16:00:00;60;100023-0;100023-0;100023-0;100023-0;100023-0;100023-0;100023-0;100023-0;
16.06.10;Thando Katywa;07:00:00;16:00:00;60;100023-0;100023-0;100023-0;100023-0;100023-0;100023-0;100023-0;100023-0;
16.06.10;Ludumo Sankobe;07:00:00;16:00:00;60;100023-0;100023-0;100023-0;100023-0;100023-0;100023-0;100023-0;100023-0;
16.06.10;Paul Helliwell;07:00:00;16:00:00;60;100023-0;100023-0;100023-0;100023-0;100023-0;100023-0;100023-0;100023-0;
16.06.10;Richard Raymond;07:00:00;16:00:00;60;100023-0;100023-0;100023-0;100023-0;100023-0;100023-0;100023-0;100023-0;
16.06.10;Ntombenkosi Maldaki;07:00:00;16:00:00;60;100023-0;100023-0;100023-0;100023-0;100023-0;100023-0;100023-0;100023-0;
16.06.10;Abdul-Aziz Hendricks;07:00:00;16:00:00;60;100023-0;100023-0;100023-0;100023-0;100023-0;100023-0;100023-0;100023-0;
16.06.10;Mark Britten;07:00:00;16:00:00;60;100023-0;100023-0;100023-0;100023-0;100023-0;100023-0;100023-0;100023-0;
16.06.10;Angelo Bentley;07:00:00;16:00:00;60;100023-0;100023-0;100023-0;100023-0;100023-0;100023-0;100023-0;100023-0;
17.06.10;Brendan van Zyl;07:00:00;16:00:00;60;100152-25;100152-25;100152-25;100152-25;100152-25;100152-25;100152-25;100152-25 / 100152-52;
17.06.10;Jason Smith;07:00:00;16:00:00;60;100152-33;100152-33;100152-33;100152-33;100152-33;09.00582-1443;09.00582-1443;09.00582-1443;
17.06.10;Justin Jansen Van Vuuren;07:00:00;16:00:00;60;100152-52;100152-52;100152-52;100152-52;100152-52;100152-52 / 100152-11;100152-11 / 09.00582-594;100152-11;
17.06.10;Nico Claassen;07:00:00;16:00:00;30;100018-42 / 09.00582-1317;09.00582-1317;09.00582-116 / 100025-265;09.00582-116;09.00582-116;09.00582-116;09.00582-116;09.00582-116;09.00582-116;
17.06.10;Malcolm Vorster;07:00:00;16:00:00;60;100152-9;100152-9;100152-9;100152-9;100152-9;100152-9;100152-193;100018-43;
17.06.10;Graham Meyer;07:00:00;15:30:00;60;09.00582-118 / 100152-18;100152-18;100152-18;100152-18;100152-18;100152-18 / 100152-18;100152-18;100152-18;
17.06.10;Thando Katywa;07:00:00;16:00:00;60;100023-0;100023-0;100023-0;100023-0;100023-0;100023-0;100023-0;100023-0;
17.06.10;Ludumo Sankobe;07:00:00;16:00:00;60;100025-316;100025-316;100025-316;100025-316;100025-316;100152-11;100152-11;100152-11;
17.06.10;Paul Helliwell;07:00:00;16:00:00;60;100025-410;100025-410;100025-410;100025-410;100018-38;09.00582-1379;09.00582-1379;09.00582-1387;
17.06.10;Richard Raymond;07:00:00;16:00:00;60;100152-7;100152-7;100152-7;100152-7;100152-7;100152-7;100018-48;100018-48;
17.06.10;Ntombenkosi Maldaki;07:00:00;16:00:00;60;100025-409;100025-409;100025-409;100025-409;100152-8;100152-8;100152-8;100152-8;
17.06.10;Abdul-Aziz Hendricks;07:00:00;16:00:00;60;100152-38;100152-38;100152-38;100152-38;100152-9;100152-9;100152-9;100152-9;
17.06.10;Mark Britten;07:00:00;16:00:00;60;100025-408;100025-408;100025-408;100025-408;100152-22;100152-22;100152-22;100152-22;
17.06.10;Angelo Bentley;07:00:00;16:00:00;60;09.00582-856;09.00582-856;09.00582-856;09.00582-856;09.00582-856;09.00582-856;09.00582-856;09.00582-856;
18.06.10;Brendan van Zyl;07:00:00;16:00:00;60;100152-25;100152-25;100152-25;100152-25;100152-28;100152-28;100152-28;100152-28;
18.06.10;Jason Smith;07:00:00;16:00:00;60;100152-33;100152-33;100152-33;100152-33;100152-33;100152-33;100152-33;100152-33;
18.06.10;Justin Jansen Van Vuuren;07:00:00;16:00:00;60;100152-11;100152-52;100152-52;100152-52;100152-52;
18.06.10;Nico Claassen;07:00:00;16:00:00;30;09.00582-116;09.00582-116;09.00582-116;09.00582-116;09.00582-116;09.00582-1314;09.00582-1314;09.00582-1314;09.00582-1314;
18.06.10;Malcolm Vorster;07:00:00;16:00:00;60;100018-43;100018-43;100025-313;100025-313;100025-313;100152-9;100152-9;100152-9;
18.06.10;Graham Meyer;07:00:00;16:00:00;60;100152-18;100152-18;100152-18;100152-18;100152-18;100152-18;100152-18;
18.06.10;Thando Katywa;07:00:00;16:00:00;60;100023-0;100023-0;100023-0;100023-0;100023-0;100023-0;100023-0;100023-0;
18.06.10;Ludumo Sankobe;07:00:00;16:00:00;60;100025-316;100025-316;100025-316;100152-11;100152-11;100023-0;100023-0;100023-0;
18.06.10;Paul Helliwell;07:00:00;16:00:00;60;100025-410;100025-410;100025-410;100025-410;09.00582-1359;09.00582-1359;09.00582-1359;09.00582-1359;
18.06.10;Richard Raymond;07:00:00;16:00:00;60;100023-0;100023-0;100023-0;100023-0;100023-0;100023-0;100023-0;100023-0;
18.06.10;Ntombenkosi Maldaki;07:00:00;16:00:00;60;100025-409;100025-409;100025-409;100025-409;100152-8;100152-8;100152-8;100152-67;
18.06.10;Abdul-Aziz Hendricks;07:00:00;16:00:00;60;100152-9;100152-9;100152-9;100152-9;100152-9;100152-9;100152-9;100152-9;
18.06.10;Mark Britten;07:00:00;16:00:00;60;100025-408;100025-408;100025-408;100025-408;100152-22;100152-22;100152-22;100152-22;
18.06.10;Angelo Bentley;07:00:00;16:00:00;60;09.00582-856;09.00582-856;09.00582-856;09.00582-856;09.00582-856;09.00582-856;09.00582-856;09.00582-856;
19.06.10;Brendan van Zyl;
19.06.10;Jason Smith;
19.06.10;Justin Jansen Van Vuuren;
19.06.10;Nico Claassen;
19.06.10;Malcolm Vorster;
19.06.10;Graham Meyer;
19.06.10;Thando Katywa;
19.06.10;Ludumo Sankobe;
19.06.10;Paul Helliwell;
19.06.10;Richard Raymond;
19.06.10;Ntombenkosi Maldaki;
19.06.10;Abdul-Aziz Hendricks;
19.06.10;Mark Britten;
19.06.10;Angelo Bentley;
20.06.10;Brendan van Zyl;
20.06.10;Jason Smith;
20.06.10;Justin Jansen Van Vuuren;
20.06.10;Nico Claassen;
20.06.10;Malcolm Vorster;
20.06.10;Graham Meyer;
20.06.10;Thando Katywa;
20.06.10;Ludumo Sankobe;
20.06.10;Paul Helliwell;
20.06.10;Richard Raymond;
20.06.10;Ntombenkosi Maldaki;
20.06.10;Abdul-Aziz Hendricks;
20.06.10;Mark Britten;
20.06.10;Angelo Bentley;
21.06.10;Brendan van Zyl;07:00:00;16:00:00;60;100152-285;100152-22 / 100152-24;100152-24;100152-24;100152-24;100152-24;100152-24;100152-24 / 09.00311-173;
21.06.10;Jason Smith;07:00:00;16:00:00;60;100152-40;09.00582-1361;09.00582-1361;09.00582-1361;09.00582-1361;09.00582-1361;09.00582-1361;09.00582-1361;
21.06.10;Justin Jansen Van Vuuren;07:00:00;16:00:00;60;100152-8 / 100152-8;100152-8 / 100152-49;100152-50;100152-285;100152-285 / 09.00582-1263;09.00582-1263;09.00582-1263;09.00582-1263;
21.06.10;Nico Claassen;07:00:00;16:00:00;60;10023-0-0;10023-0-0;10023-0-0;10023-0-0;100018-55;100018-55;100018-55;100018-55;
21.06.10;Malcolm Vorster;07:00:00;16:00:00;60;100152-9;100152-9;100152-9;100152-9;100152-9;100152-9;100152-9;100018-43;
21.06.10;Graham Meyer;07:00:00;16:00:00;60;100152-18;100152-18;100152-18;100152-18;100152-18;100152-18;100152-18;100152-18;
21.06.10;Thando Katywa;07:00:00;16:00:00;60;09.00582-1931;09.00582-1931;09.00582-1342;09.00582-1342;09.00582-1342;09.00582-1342;100152-0;09.00582-119;
21.06.10;Ludumo Sankobe;07:00:00;16:00:00;60;09.00582-437;09.00582-437;09.00582-437;09.00582-437;100152-11;100152-11;100152-11;100152-11;
21.06.10;Paul Helliwell;07:00:00;16:00:00;60;09.00582-1379;09.00582-1379;09.00582-1387;09.00582-1387;09.00582-1387;09.00582-1390;09.00582-1390;09.00582-1390;
21.06.10;Richard Raymond;07:00:00;16:00:00;60;100023-0;100023-0;100023-0;100023-0;100023-0;100023-0;100023-0;100023-0;
21.06.10;Ntombenkosi Maldaki;07:00:00;16:00:00;60;100152-67;100152-67;100152-67;100152-67;100152-67;100152-67;100152-67;100152-67;
21.06.10;Abdul-Aziz Hendricks;07:00:00;16:00:00;60;100152-9;100152-9;100152-9;100152-9;100152-9;100152-9;100152-63;100152-63;
21.06.10;Mark Britten;07:00:00;16:00:00;60;100152-20 / 100152-22;100152-22;100152-22;100152-22;100152-22;100152-22;100152-22;100018-52;
21.06.10;Angelo Bentley;07:00:00;16:00:00;60;09.00582-1344;09.00582-1344;09.00582-1344;09.00582-1344;09.00582-1344;09.00582-1344;09.00582-1344;09.00582-1344;
22.06.10;Brendan van Zyl;07:00:00;16:00:00;60;09.00582-1455;09.00311-173;09.00311-173;09.00311-173;09.00311-173;09.00311-173;09.00311-173;09.00311-173;
22.06.10;Jason Smith;07:00:00;16:00:00;60;09.00582-1361;09.00582-1361;09.00582-1361;09.00582-1361;09.00582-1361;09.00582-1361;09.00582-1361;09.00582-1361;
22.06.10;Justin Jansen Van Vuuren;07:00:00;16:00:00;60;100152-53;100152-53 / 09.00582-1263;09.00582-1263;09.00582-1263;09.00582-1263;09.00582-1263;100025-312;100025-312;
22.06.10;Nico Claassen;07:00:00;16:00:00;60;09.00582-1398;100018-42;100018-42;100018-42;100018-54;100018-54;100018-54;100018-54;
22.06.10;Malcolm Vorster;07:00:00;16:00:00;60;100152-9;100152-9;100018-43;100152-193;100152-193;100152-21;100152-21;100152-21;
22.06.10;Graham Meyer;07:00:00;16:00:00;60;09.00582-1380;09.00582-1380;09.00582-118 / 100152-18;100152-18 / 100152-18;100152-18;100152-18;100152-18;100152-18;
22.06.10;Thando Katywa;07:00:00;16:00:00;60;09.00582-1931;09.00582-1931;09.00582-1342;09.00582-1342;09.00582-1342;09.00582-1342;09.00582-1342;09.00582-119;
22.06.10;Ludumo Sankobe;07:00:00;16:00:00;60;09.00582-437;09.00582-437;09.00582-437;09.00582-437;100152-11;100152-11;100152-11;100152-11;
22.06.10;Paul Helliwell;07:00:00;16:00:00;60;09.00582-1359;09.00582-1359;09.00582-1359;09.00582-1359;09.00582-1359;09.00582-1359;09.00582-1359;09.00582-120;
22.06.10;Richard Raymond;07:00:00;16:00:00;60;100023-0;100023-0;100023-0;100023-0;100023-0;100023-0;100023-0;100023-0;
22.06.10;Ntombenkosi Maldaki;07:00:00;16:00:00;60;100018-50 / 100152-64;100152-64;100152-64 / 100152-8;100152-8;100152-8;100152-8;100152-8;100152-8;
22.06.10;Abdul-Aziz Hendricks;07:00:00;16:00:00;60;100152-9;100152-9;100152-9;100152-9;100152-9;100152-9;100152-9;100018-51;
22.06.10;Mark Britten;07:00:00;16:00:00;60;100152-22;100152-22;100152-22;100152-22;100152-22;100152-22;100152-22;100018-52;
22.06.10;Angelo Bentley;07:00:00;16:00:00;60;09.00582-1344;09.00582-1344;09.00582-1344;09.00582-1344;09.00582-1344;09.00582-1344;09.00582-1344;09.00582-1344;
23.06.10;Brendan van Zyl;07:00:00;16:00:00;60;100152-22 / 09.00311-173;100025-310;100025-310;100025-310;100025-310;100025-310;100025-310;100025-310;
23.06.10;Jason Smith;07:00:00;16:00:00;60;09.00582-1361;09.00582-1361;09.00582-1361;09.00582-1361;09.00582-1361;09.00582-1361;09.00582-1360;09.00582-1360;
23.06.10;Justin Jansen Van Vuuren;07:00:00;16:00:00;60;100152-67;100152-67;100152-67 / 100018-41;100018-41 / 100025-312;100025-312;100152-8;09.00582-614;09.00582-614;
23.06.10;Nico Claassen;07:00:00;16:00:00;60;09.00582-1398;09.00582-1398;09.00582-1398;100018-54;100018-54;100018-54;09.00582-1317;09.00582-1317;
23.06.10;Malcolm Vorster;07:00:00;16:00:00;60;100152-26;100152-26;100152-21;100152-193;100152-193 / 100025-313;100025-313 / 100152-9;100152-9;100152-9 / 100018-43;
23.06.10;Graham Meyer;07:00:00;16:00:00;60;09.00582-118 / 100152-18;100152-18;100152-18;100152-18;100152-18;100152-18 / 100152-17;100152-17;100152-17;
23.06.10;Thando Katywa;07:00:00;16:00:00;60;09.00582-1351;09.00582-1351;09.00582-1351;09.00582-1351;09.00582-1351;09.00582-1351;09.00582-119;09.00582-119;
23.06.10;Ludumo Sankobe;07:00:00;16:00:00;60;100152-11;100152-11;100152-11;100152-11;100152-11;100152-11;100152-11;100018-46;
23.06.10;Paul Helliwell;07:00:00;16:00:00;60;09.00582-1395;09.00582-1395;09.00582-1395;09.00582-1395;09.00582-1395;09.00582-1395;09.00582-1395;09.00582-120;
23.06.10;Richard Raymond;07:00:00;16:00:00;60;100023-0;100023-0;100023-0;100023-0;100023-0;100023-0;100023-0;100023-0;
23.06.10;Ntombenkosi Maldaki;07:00:00;16:00:00;60;100152-8;100152-8;100152-8;100152-8;100018-50 / 100152-8;100152-8;100152-8 / 100152-8;100152-8;
23.06.10;Abdul-Aziz Hendricks;07:00:00;16:00:00;60;100152-9;100152-9;100152-9;100152-9;100152-9;100152-9;100152-9;100152-9;
23.06.10;Mark Britten;07:00:00;16:00:00;60;100152-22;100152-22;100152-22;100152-22;100152-22;100152-22;100152-22;100152-22;
23.06.10;Angelo Bentley;07:00:00;16:00:00;60;09.00582-1344;09.00582-1344;09.00582-1344;09.00582-1344;09.00582-1344;09.00582-1344;09.00582-1344;09.00582-1344;
24.06.10;Brendan van Zyl;07:00:00;16:00:00;60;09.00311-173 / 09.00582-1509;09.00582-1509;09.00582-1509;09.00582-1509;09.00582-1509;09.00582-1509;09.00582-1509;09.00582-1509 / 09.00582-1509;
24.06.10;Jason Smith;07:00:00;16:00:00;60;09.00582-124;09.00582-124;09.00582-1360;09.00582-1360;09.00582-1360;09.00582-1360;09.00582-1360;09.00582-1360;
24.06.10;Justin Jansen Van Vuuren;07:00:00;16:00:00;60;09.00582-614;09.00582-614;100018-41;100018-41;100152-8;100152-8;100152-67;100152-67;
24.06.10;Nico Claassen;07:00:00;16:00:00;60;09.00582-904;09.00582-904;09.00582-904;100018-55;100018-55;100018-55;100018-42;100018-42;
24.06.10;Malcolm Vorster;07:00:00;16:00:00;60;100152-193;100152-193 / 100152-43;100152-43;100152-43 / 100152-9;100152-9;100152-9 / 100152-26;100152-26;100152-26 / 100025-313;
24.06.10;Graham Meyer;07:00:00;16:00:00;60;09.00582-118;09.00582-118;100152-17;100152-17;100152-17;100152-17;100152-17;100152-18;
24.06.10;Thando Katywa;07:00:00;16:00:00;60;09.00582-119;09.00582-119;100025-315;100025-315;100025-315;100025-315;100025-315;09.00582-1342;
24.06.10;Ludumo Sankobe;07:00:00;16:00:00;60;100018-46;100018-46;100152-11;100152-11;100152-11;100152-11;100152-11;100152-11;
24.06.10;Paul Helliwell;07:00:00;16:00:00;60;09.00582-1359;09.00582-1359;09.00582-1359;09.00582-1359;09.00582-1359;09.00582-1359 / 09.00582-120;09.00582-120;09.00582-120 / 100018-38;
24.06.10;Richard Raymond;07:00:00;16:00:00;60;100023-0;100023-0;100023-0;100023-0;100023-0;100023-0;100023-0;100023-0;
24.06.10;Ntombenkosi Maldaki;07:00:00;16:00:00;60;100152-8;100152-8;100152-8;100152-67;100152-67;100152-67 / 100152-8;100152-8 / 100152-50;100152-50;
24.06.10;Abdul-Aziz Hendricks;07:00:00;16:00:00;60;100018-51;100018-51;100152-9;100152-9;100152-9;100152-9;100152-9;100152-9;
24.06.10;Mark Britten;07:00:00;16:00:00;60;100152-22;100152-22;100152-22;100152-22;100152-22;09.00582-1464;100018-52;100018-52;
24.06.10;Angelo Bentley;07:00:00;16:00:00;60;100025-323;100025-323;100025-323;100025-323;100025-323;09.00582-1344;09.00582-1344;09.00582-1344;
25.06.10;Brendan van Zyl;07:00:00;16:00:00;60;09.00582-1509;09.00582-1509;09.00582-1509;09.00582-1509;09.00582-1509;09.00582-1509;09.00582-1509;09.00582-1509;
25.06.10;Jason Smith;07:00:00;16:00:00;60;09.00582-1360;09.00582-1360;09.00582-1360;09.00582-1360;09.00582-1360;09.00582-1360;09.00582-1360;09.00582-1360;
25.06.10;Justin Jansen Van Vuuren;07:00:00;16:00:00;60;09.00582-1386;09.00582-1386;09.00582-614;09.00582-614;09.00582-8;
25.06.10;Nico Claassen;07:00:00;16:00:00;60;100018-55;100018-55;100018-55;100018-55;100018-55;100018-55;09.00582-904;09.00582-904;
25.06.10;Malcolm Vorster;07:00:00;16:00:00;60;100023-0;100152-26;100152-26;100152-26;100152-26;100025-313;100025-313 / 100152-193;100018-43;
25.06.10;Graham Meyer;07:00:00;16:00:00;60;09.00582-1386;09.00582-1386;09.00582-1386;09.00582-1386;09.00582-1386;100152-18;100152-18;100152-18;
25.06.10;Thando Katywa;07:00:00;16:00:00;60;09.00582-1342;09.00582-1342;09.00582-1342;09.00582-1342;09.00582-1342;09.00582-742;09.00582-742;09.00582-742;
25.06.10;Ludumo Sankobe;07:00:00;16:00:00;60;09.00582-1000;09.00582-1000;09.00582-1000;09.00582-1000;09.00582-1000;09.00582-1000;09.00582-1000;09.00582-1000;
25.06.10;Paul Helliwell;07:00:00;16:00:00;60;09.00582-1359;09.00582-1359;09.00582-1359;09.00582-1359;09.00582-1359;09.00582-1359;09.00582-1359;09.00582-1359 / 09.00582-38;
25.06.10;Richard Raymond;07:00:00;16:00:00;60;100023-0;100023-0;100023-0;100023-0;100023-0;100023-0;100023-0;100023-0;
25.06.10;Ntombenkosi Maldaki;07:00:00;16:00:00;60;100152-67;100152-67;100152-67;100152-67;100152-67 / 100152-67;100152-8;100152-8;100152-67;
25.06.10;Abdul-Aziz Hendricks;07:00:00;16:00:00;60;100152-9;100152-9;100152-9;100152-9;100152-9;100152-9 / 100025-321;100025-321 / 09.00582-368;09.00582-368;
25.06.10;Mark Britten;07:00:00;16:00:00;60;09.00582-1464;09.00582-1464;09.00582-1464;09.00582-1464;100025-322;100025-322;100025-322;100025-322;
25.06.10;Angelo Bentley;07:00:00;16:00:00;60;09.00582-1344;09.00582-1344;09.00582-1344;09.00582-1344;09.00582-1344;09.00582-1344;09.00582-1344;100018-53;
26.06.10;Brendan van Zyl;
26.06.10;Jason Smith;
26.06.10;Justin Jansen Van Vuuren;
26.06.10;Nico Claassen;
26.06.10;Malcolm Vorster;
26.06.10;Graham Meyer;
26.06.10;Thando Katywa;
26.06.10;Ludumo Sankobe;
26.06.10;Paul Helliwell;
26.06.10;Richard Raymond;
26.06.10;Ntombenkosi Maldaki;
26.06.10;Abdul-Aziz Hendricks;
26.06.10;Mark Britten;
26.06.10;Angelo Bentley;
27.06.10;Brendan van Zyl;
27.06.10;Jason Smith;
27.06.10;Justin Jansen Van Vuuren;
27.06.10;Nico Claassen;
27.06.10;Malcolm Vorster;
27.06.10;Graham Meyer;
27.06.10;Thando Katywa;
27.06.10;Ludumo Sankobe;
27.06.10;Paul Helliwell;
27.06.10;Richard Raymond;
27.06.10;Ntombenkosi Maldaki;
27.06.10;Abdul-Aziz Hendricks;
27.06.10;Mark Britten;
27.06.10;Angelo Bentley;
28.06.10;Brendan van Zyl;07:00:00;16:00:00;60;09.00311-173;100152-25;100152-25 / 100152-45;09.00582-1509;09.00582-1509;09.00582-1509;09.00582-1509;09.00582-1509 / 09.00582-1509;
28.06.10;Jason Smith;07:00:00;16:00:00;60;09.00582-1425;09.00582-1425;09.00582-1425;09.00582-1425;09.00582-1425;09.00582-1425;09.00582-1425;09.00582-1425;
28.06.10;Justin Jansen Van Vuuren;07:00:00;16:00:00;60;100152-53;100152-53;100152-53;100152-53;100152-53;100152-53;100025-312;100025-312;
28.06.10;Nico Claassen;07:00:00;16:00:00;60;100018-55;100018-55;100018-55;100018-55;100018-55;100018-55;100018-55;100018-55;
28.06.10;Malcolm Vorster;07:00:00;16:00:00;60;100152-26;100152-26;100152-26;100152-26;100152-193;100152-193;100152-193;100152-193;
28.06.10;Graham Meyer;07:00:00;16:00:00;60;09.00582-1386;09.00582-1386;09.00582-1386;09.00582-1386;09.00582-1386;09.00582-1386;100152-18;100152-18;
28.06.10;Thando Katywa;07:00:00;16:00:00;60;09.00582-742;09.00582-742;09.00582-742;09.00582-742;09.00582-742;100025-315;100025-315;09.00582-1931 / 09.00582-119;
28.06.10;Ludumo Sankobe;07:00:00;16:00:00;60;100152-11;100152-11;100152-11;09.00582-1000;09.00582-1000;09.00582-1000;09.00582-1000;09.00582-1000;
28.06.10;Paul Helliwell;07:00:00;16:00:00;60;09.00582-1343;09.00582-1343;09.00582-1343;09.00582-1343;09.00582-1343;100018-38;100018-38;100018-38;
28.06.10;Richard Raymond;07:00:00;16:00:00;60;100025-318;100025-318;100025-318;100025-318;100025-318;100025-318;100025-318;100025-318;
28.06.10;Ntombenkosi Maldaki;07:00:00;16:00:00;60;100152-67;100152-67;100152-67;100152-67;100152-67;100152-67;100152-67;100152-67;
28.06.10;Abdul-Aziz Hendricks;07:00:00;16:00:00;60;100152-63;100152-63;100152-63;100152-63 / 100152-9;100152-9;100152-9;100025-321;100025-321;
28.06.10;Mark Britten;07:00:00;16:00:00;60;100018-52 / 09.00582-1464;100152-23;100152-23;100152-23;100152-23;100152-23;100152-23;100152-23;
28.06.10;Angelo Bentley;07:00:00;16:00:00;60;09.00582-1344;09.00582-1344;09.00582-1344;09.00582-1344;09.00582-1344;09.00582-1344;09.00582-1344;09.00582-1344;
29.06.10;Brendan van Zyl;07:00:00;16:00:00;60;100152-45 / 09.00582-1509;09.00582-1509;09.00582-1509;09.00582-1509;09.00582-1509;09.00582-1509;09.00582-1509;09.00582-1509;
29.06.10;Jason Smith;07:00:00;16:00:00;60;09.00582-1425;09.00582-1425;09.00582-1425;09.00582-1425;09.00582-1425;09.00582-1425;09.00582-1425;09.00582-1425;
29.06.10;Justin Jansen Van Vuuren;07:00:00;16:00:00;60;100152-8;100152-8;100152-8;09.00582-1389;09.00582-1389;09.00582-1389;09.00582-1389;09.00582-1389;
29.06.10;Nico Claassen;07:00:00;16:00:00;60;100018-55;100018-55;100018-55 / 100018-42;100018-54;100018-54;100018-54;100018-54;09.00582-116;
29.06.10;Malcolm Vorster;07:00:00;16:00:00;60;100152-26;100152-26;100152-193;100152-193;100152-75;100018-43;100025-313;100025-313;
29.06.10;Graham Meyer;07:00:00;16:00:00;60;100018-44;100018-44;100152-18;09.00582-1386;09.00582-1386;09.00582-1386;09.00582-1388;09.00582-1388;
29.06.10;Thando Katywa;07:00:00;16:00:00;60;100025-315;100025-315;100025-315 / 09.00582-119;09.00582-119;09.00582-742;09.00582-742;09.00582-742;09.00582-1931	;
29.06.10;Ludumo Sankobe;07:00:00;16:00:00;60;09.00582-1000;09.00582-1000;100025-316;100025-316;100025-316;100025-316;100025-316;100152-166;
29.06.10;Paul Helliwell;07:00:00;16:00:00;60;100023-0;100023-0;100023-0;100023-0;100023-0;100023-0;100023-0;100023-0;
29.06.10;Richard Raymond;07:00:00;16:00:00;60;100025-318;100025-318;100025-318;100025-318;100025-318;100025-318;100025-318;100025-318;
29.06.10;Ntombenkosi Maldaki;07:00:00;16:00:00;60;100152-67;100152-75;100152-75;100152-75;100152-75;100152-75;100152-75;100152-75;
29.06.10;Abdul-Aziz Hendricks;07:00:00;16:00:00;60;100152-68;100152-68;100152-68;100152-68;100152-68 / 100025-321;100025-321;100025-321;100018-51;
29.06.10;Mark Britten;07:00:00;16:00:00;60;100152-23;100152-23;100152-23;100152-23;100152-23;100152-23;100152-23;100152-23;
29.06.10;Angelo Bentley;07:00:00;16:00:00;60;09.00582-1349;09.00582-1349;09.00582-1349;09.00582-1349;09.00582-1349;09.00582-1349;09.00582-1349;09.00582-1349;
30.06.10;Brendan van Zyl;07:00:00;16:00:00;60;09.00582-1428 / 09.00582-1509;09.00582-1509;09.00582-1509;09.00582-1509;09.00582-1509;09.00582-1509;09.00582-1509;09.00582-1509;
30.06.10;Jason Smith;07:00:00;16:00:00;60;09.00582-1426;09.00582-1426;09.00582-1426;09.00582-1426;09.00582-1426;09.00582-1426;09.00582-1426;09.00582-1426;
30.06.10;Justin Jansen Van Vuuren;07:00:00;16:00:00;60;100152-53;100152-53 / 09.00582-1428;09.00582-1428;09.00582-1428;09.00582-1428;09.00582-1428;09.00582-1428;09.00582-1428;
30.06.10;Nico Claassen;07:00:00;16:00:00;60;09.00582-1317;09.00582-1317 / 09.00582-1317;100018-54;100018-54;100018-55;100018-55;100018-54;100018-54;
30.06.10;Malcolm Vorster;07:00:00;16:00:00;60;100018-43;100018-43;100025-313;100152-9;100152-62;100152-62;100152-63;100152-68;
30.06.10;Graham Meyer;07:00:00;16:00:00;60;09.00582-1388;09.00582-1388;09.00582-1388;09.00582-1388;09.00582-1388;09.00582-1388;09.00582-1388;09.00582-1388 / 100018-44;
30.06.10;Thando Katywa;07:00:00;16:00:00;60;100025-315;100025-315;100025-315 / 09.00582-742;09.00582-742;09.00582-742;09.00582-742 / 09.00582-119;09.00582-119 / 09.00582-742;09.00582-742;
30.06.10;Ludumo Sankobe;07:00:00;16:00:00;60;100152-68;100152-68;100152-68;100152-68;100152-68;100152-68;100152-68;100152-15;
30.06.10;Paul Helliwell;07:00:00;16:00:00;60;100023-0;100023-0;100023-0;100023-0;100023-0;100023-0;100023-0;100023-0;
30.06.10;Richard Raymond;07:00:00;16:00:00;60;100025-318;100025-318;100025-318;100025-318;100025-318;100025-318;100025-318;100025-318;
30.06.10;Ntombenkosi Maldaki;07:00:00;16:00:00;60;100152-75;100152-75;100152-75;100152-75;100152-75;100152-75;100152-75;100152-75 / 100018-50;
30.06.10;Abdul-Aziz Hendricks;07:00:00;16:00:00;60;
30.06.10;Mark Britten;07:00:00;16:00:00;60;100152-23;100152-23;100152-23;100152-23;100152-23;100152-23;100152-23;100152-23;
30.06.10;Angelo Bentley;07:00:00;16:00:00;60;100018-53;09.00582-1344;09.00582-1344;09.00582-1344;09.00582-1344;09.00582-1344;09.00582-1344;09.00582-1344;