"11.01.10","1","077353","12094","181","Fehlerbes. vor Ausl. (Bugzilla)","","0","6127: E1 M5: FZGweite Fkt: Bugfixing Ablaufe 5.4: BF+Test. Worked on bugs #20968 and 20831","07:00","16:00","6","60",
"11.01.10","1","077353","11583","170","Schulung","","0","8501: E1 M5: Assisting colleagues. Help colleagues with simulations and CTS implementation","","","2","0",
"12.01.10","2","077251","3417","182","Fehlerbes. nach Ausl. (Bugzilla)","","0","6010: P4 #17510 (minor) MOST Systempruefung: Falsche Icons bei NOK / Warning, ICS. Checked the changes in, waiting for verification","07:00","16:00","2","60",
"12.01.10","2","077251","3462","120","Codierung","","0","6001: Kombi Wartungsintervall setzen: Stringresourcen C1.5/aeB1","","","3","0",
"12.01.10","2","077251","3463","120","Codierung","","0","6001: Kombi Wartungsintervall setzen: Impl. C1.6/aeB1","","","3","0",
"13.01.10","3","077598","0","920","Krankheit","","0","Took sick leave...","07:00","16:00","8","60",
"14.01.10","4","077598","0","920","Krankheit","","0","Took sick leave...","07:00","16:00","8","60",
"15.01.10","5","077251","3463","120","Codierung","","0","6001: Kombi Wartungsintervall setzen: Impl. C1.6/aeB1","07:00","16:00","8","60",
