"22.11.10","1","100025","0","170","Schulung","","0","Schulungen 2010. ODX Testing for DME_ME52.  Pidt, Piwis, and ATS (No Task Yet)","07:00","16:00","8","60",
"23.11.10","2","100025","0","170","Schulung","","0","Schulungen 2010. ODX Testing for DME_ME78.  Pidt, Piwis, and ATS (No Task Yet)","07:00","16:00","8","60",
"24.11.10","3","100025","0","170","Schulung","","0","Schulungen 2010. ODX Testing for DME_ME72.  Pidt, Piwis, and ATS (No Task Yet)","07:00","16:00","8","60",
"25.11.10","4","100025","0","170","Schulung","","0","Schulungen 2010. ODX Testing for DME_ME72.  Piwis test (No task yet)","07:00","16:00","4","60",
"25.11.10","4","100025","0","170","Schulung","","0","Schulungen 2010. Introduction to ODX  ''service'' creation training (No task yet)","","","4","0",
"26.11.10","5","100025","0","170","Schulung","","0","Schulungen 2010. ODX creation training (No task yet)","07:00","16:00","4","60",
"26.11.10","5","100025","0","170","Schulung","","0","Schulungen 2010. Capturing Piwis working protocols for ODX testing and test spec creation (No task yet)","","","4","0",
