"14.06.10","1","09.00582","0","110","Engineering","","0","PSM/ABS II: Stellglieder: Fixing 1007: 9x6: PSM/ABS II: Stellglieder: PH after review. Fixing PH according to review: original PH creation task: 09.00582-853","07:00","16:00","5","60",
"14.06.10","1","09.00582","854","110","Engineering","","7","1007: 9x6: PSM/ABS II: Stellglieder: Testspec + erw. Sim. Test spec and simulation creation","","","2,5","0",
"14.06.10","1","09.00582","119","110","Engineering","","0","	 8501: 9x6: allg. Projekttätigkeit C1.3/ae20. Project meeting and common project tasks","","","0,5","0",
"15.06.10","2","09.00582","854","110","Engineering","","12","1007: 9x6: PSM/ABS II: Stellglieder: Testspec + erw. Sim. Test spec and simulation creation","07:00","16:00","6,6","60",
"15.06.10","2","09.00582","856","120","Codierung","","0","From f2: 1007: 9x6: PSM/ABS II: Stellglieder: Implementierung. Assisting collegue with implementation","","","0,5","0",
"15.06.10","2","09.00582","119","110","Engineering","","0","8501: 9x6: allg. Projekttätigkeit C1.3/ae20. Common project tasks and installing new 9x6 ODX","","","0,9","0",
"16.06.10","3","100023","0","910","Urlaub","","0","Holiday. Public holiday","07:00","16:00","8","60",
"17.06.10","4","100023","0","910","Urlaub","","0","Holiday. Time off","07:00","16:00","8","60",
"18.06.10","5","100023","0","910","Urlaub","","0","Holiday. Time off","07:00","16:00","8","60",
