"08.02.10","1","09.00582","354","170","Schulung","","0","Installing software for 9x6 project, reading 9x6 analysis guideline. none","07:00","16:00","8","60",
"09.02.10","2","09.00582","354","170","Schulung","","0","Reading 9x6 analysis guideline, studying 9x8 bosch source code. none","07:00","16:00","8","60",
"10.02.10","3","09.00582","354","170","Schulung","","0","Studying 9x6 source code. none","07:00","16:00","3","60",
"10.02.10","3","077353","10552","181","Fehlerbes. vor Ausl. (Bugzilla)","","0","Working on bugs #21487(still working on), #21725(fixed). Used prio point from S47 for E1 bugfixing","","","5","0",
"11.02.10","4","077353","10549","181","Fehlerbes. vor Ausl. (Bugzilla)","","0","Working on bugs #21794, #21739. Used prio point from S44 for E1bugfixing task","07:00","16:00","8","60",
"12.02.10","5","077353","10549","181","Fehlerbes. vor Ausl. (Bugzilla)","","0","Working on bug #21831. Used prio point from S44 for E1bugfixing task","07:00","16:00","8","60",
