"01.02.10","1","077353","2938","110","Engineering","","0","8501: E1 M5: allg. Projekttätigkeiten A1.15/ae19. General admin, assisting colleagues.","07:00","16:00","3","60",
"01.02.10","1","09.00582","90","170","Schulung","","0","8503: 9x6: get into Subject E1.3/ae20. Source code analysis - PIWIS coding selection","","","5","0",
"02.02.10","2","09.00582","116","110","Engineering","","0","8501: 9x6: allg. Projekttätigkeit C1.3/ae20. PT2G setup + troubleshooting.","07:00","16:00","2","60",
"02.02.10","2","077353","2938","110","Engineering","","0","8501: E1 M5: allg. Projekttätigkeiten A1.15/ae19. General admin, assisting colleagues.","","","4","0",
"02.02.10","2","077353","2929","110","Engineering","","0","8501: E1 M5: CoMod A1.4/ae19. Phone call with dr, mi","","","0,5","0",
"02.02.10","2","09.00582","178","110","Engineering","","0","1020: 9x6: Kombi I: ECU Analyse. dsc file analysis fro kombi03, kombi03n, komb2000, k01_k09","","","1,5","0",
"03.02.10","3","077353","2938","110","Engineering","","0","8501: E1 M5: allg. Projekttätigkeiten A1.15/ae19. Meeting","07:00","16:00","1","60",
"03.02.10","3","077353","2938","110","Engineering","","0","8501: E1 M5: allg. Projekttätigkeiten A1.15/ae19. General admin, assisting colleagues.","","","5","0",
"03.02.10","3","09.00582","178","110","Engineering","","0","1020: 9x6: Kombi I: ECU Analyse. Analysis of Spoiler Coding","","","2","0",
"04.02.10","4","09.00582","178","110","Engineering","","0","1020: 9x6: Kombi I: ECU Analyse. Analysis of variants, V-Mode, Tankenlinnie, simlautions","07:00","16:00","6","60",
"04.02.10","4","077353","2938","110","Engineering","","0","8501: E1 M5: allg. Projekttätigkeiten A1.15/ae19. Assisting colleagues, genral admin","","","2","0",
"05.02.10","5","077353","2938","110","Engineering","","0","8501: E1 M5: allg. Projekttätigkeiten A1.15/ae19. KTS520 firmware upgrade and PIWIS setup.","07:00","16:00","1","60",
"05.02.10","5","077353","2929","110","Engineering","","0","8501: E1 M5: CoMod A1.4/ae19. Timesheets","","","1","0",
"05.02.10","5","09.00582","178","110","Engineering","","0","1020: 9x6: Kombi I: ECU Analyse. Variant + V-Mode checks. Documentation","","","6","0",
