"24.05.10","1","100152","7","110","Engineering","","80","1000: E1 PIROL: EDC17: ECU Analyse. Analysis source and creating document","07:00","16:00","8","60",
"25.05.10","2","100152","7","110","Engineering","","0","1000: E1 PIROL: EDC17: ECU Analyse. Analysis source and creating document","07:00","16:00","6","60",
"25.05.10","2","077353","1","181","Fehlerbes. vor Ausl. (Bugzilla)","","0","1106: E1 M5: RegrTests Bugfixing BUG#23270. BUG#23270","","","1","0",
"25.05.10","2","077353","0","181","Fehlerbes. vor Ausl. (Bugzilla)","","0","1106: E1 M5: RegrTests Bugfixing BUG#23370. BUG #23370","","","1","0",
"26.05.10","3","077353","1","181","Fehlerbes. vor Ausl. (Bugzilla)","","0","1106: E1 M5: RegrTests Bugfixing BUG#23270. BUG #23270","07:00","16:00","6","60",
"26.05.10","3","077353","0","181","Fehlerbes. vor Ausl. (Bugzilla)","","0","1106: E1 M5: RegrTests Bugfixing BUG#23370. BUG #23370","","","2","0",
"27.05.10","4","077353","1","181","Fehlerbes. vor Ausl. (Bugzilla)","","0","1106: E1 M5: RegrTests Bugfixing BUG#23270. BUG #23270","07:00","16:00","2","60",
"27.05.10","4","100152","7","110","Engineering","","80","1000: E1 PIROL: EDC17: ECU Analyse. Analysis source and creating document (modifying files)","","","3","0",
"27.05.10","4","100018","48","110","Engineering","","0","Wochenaufgaben AES. Timesheets + Meeting","","","1","0",
"27.05.10","4","100152","7","110","Engineering","","0","1000: E1 PIROL: EDC17: ECU Analyse. Various issues with other tasks","","","2","0",
"28.05.10","5","100018","48","110","Engineering","","0","Wochenaufgaben AES. Timesheets + Meetings","07:00","16:00","1","60",
"28.05.10","5","100152","7","110","Engineering","","90","1000: E1 PIROL: EDC17: ECU Analyse. Analysis source and creating document","","","7","0",
