"06.09.10","1","100334","26","110","Engineering","","60","BI1000298    0300: Alt-BR: KW71 Analyse D1.1/ae14-From md. Creating dme 06,07 project in Netbeans.Alt.Br/911/DME","07:00","16:00","8","60",
"07.09.10","2","100334","26","110","Engineering","","65","BI1000298    0300: Alt-BR: KW71 Analyse D1.1/ae14-From md. Added dsa log module for all dme's","07:00","16:00","8","60",
"08.09.10","3","100334","26","110","Engineering","","70","BI1000298    0300: Alt-BR: KW71 Analyse D1.1/ae14-From md. Added dsa log module for all dme's and fix errors","07:00","16:00","8","60",
"09.09.10","4","100334","26","110","Engineering","","75","BI1000298    0300: Alt-BR: KW71 Analyse D1.1/ae14-From md. Creating G00 project in Netbeans.Alt.Br/911/G00","07:00","16:00","6","60",
"09.09.10","4","100018","53","110","Engineering","","0","Wochenaufgaben AES. DSA update meeting","","","2","0",
"10.09.10","5","100334","26","110","Engineering","","80","BI1000298    0300: Alt-BR: KW71 Analyse D1.1/ae14-From md. Creating G00 and G03 project in Netbeans.Alt.Br/911/G00","07:00","16:00","8","60",
