"08.11.10","1","09.00582","2477","181","Fehlerbes. vor Ausl. (Bugzilla)","","0","5026: 9x6: Bugfixing: Bedat: BF + Test. Worked on bug 26430 for PTTD attributing","07:00","16:00","0,5","60",
"08.11.10","1","09.00582","2744","181","Fehlerbes. vor Ausl. (Bugzilla)","","0","5029: Bugfixing: ODX. Worked on ME5.2 mapping and attributing for bug 26506 (DSN13) (task taken from s53)","","","3","0",
"08.11.10","1","09.00582","2744","181","Fehlerbes. vor Ausl. (Bugzilla)","","0","5029: Bugfixing: ODX. Retested ODX for dsn 1702,1802,1901,2001,2401,2501 (task taken from s53)","","","4,5","0",
"09.11.10","2","09.00582","2744","181","Fehlerbes. vor Ausl. (Bugzilla)","","0","5029: Bugfixing: ODX. Retested ODX for dsn 2501, 2601, 2701, 2801, 2901, 3001, 3301 (this task is closed)","07:00","16:00","8","60",
"10.11.10","3","09.00582","2477","181","Fehlerbes. vor Ausl. (Bugzilla)","","0","5026: 9x6: bugfixing: bedat: bf+test. Worked on bug 26506 and 26430","07:00","16:00","2","60",
"10.11.10","3","09.00582","2744","181","Fehlerbes. vor Ausl. (Bugzilla)","","0","5029: Bugfixing: ODX. Reattributed measurement and actuators for all DSN for ME5.2 (task taken from s53)","","","2","0",
"10.11.10","3","09.00582","2744","181","Fehlerbes. vor Ausl. (Bugzilla)","","0","5029: Bugfixing: ODX. ODX testing of config read, write and reread (this task is closed)","","","4","0",
"11.11.10","4","09.00582","2212","120","Codierung","","0","3065: ME5.2: PTTD: textmapping+attributierung. PTTD attributing for ME5.2 and creating exports for testing changes (task is closed, taken from s53)","07:00","16:00","2","60",
"11.11.10","4","09.00582","2745","181","Fehlerbes. vor Ausl. (Bugzilla)","","0","5029: Bugfixing: ODX. Reattributed coding values for variants where tables are unshared in odx (task taken from s53)","","","0,5","0",
"11.11.10","4","09.00582","2744","181","Fehlerbes. vor Ausl. (Bugzilla)","","0","3001: 9x6: ME7.2: ODX Bedat + FAP. ODX testing of ME7.2 (task taken from s53)","","","5,5","0",
"12.11.10","5","09.00582","2204","120","Codierung","","0","3055: 9x6: ME7.11: PTTD: Textmapping+Attributierung. Mapping and attributing for ME7.11","07:00","16:00","3","60",
"12.11.10","5","09.00582","2744","181","Fehlerbes. vor Ausl. (Bugzilla)","","0","5029: Bugfixing: ODX. ODX testing of ME7.2 (task taken from s53)","","","5","0",
