DATE;NAME;PROJECT;ACTIVITY;DESCRIPTION;NORMAL HOURS;LUNCH HOURS;OVERTIME HOURS;
01.01.10;Brendan van Zyl;0-0;910;Holiday. ;9;0;0;
04.01.10;Nico Claassen;077353-2938;110;8501: E1 M5: allg. Projekttätigkeiten A1.15/ae19. Checking + replying on email, new staff introductions, admin, etc.;8;1;0;
04.01.10;Graham Meyer;077353-9560;110;8501: E1 M5: allg. Projekttätigkeiten. Installing new PIDt and update of svn;4.00;1;0;
04.01.10;Graham Meyer;077353-11790;140;5428: E1 M5: PCM2-MMI: SG-Tausch: Modultest. Initail Module test;4;0;0;
04.01.10;Thando Katywa;077353-6170;110;8185: Warten auf Authoring (Performance-Probleme bei Ausführung). Waiting for authoring to respond and attempting to check in and creating deliverables;3.00;1;0;
04.01.10;Thando Katywa;077353-11587;170;8501: E1 M5: Assisting colleagues. Helping collegues with testing tasks and training;1.00;0;0;
04.01.10;Thando Katywa;077353-11861;181;5921: E1 M5: PCM2 MOST-KomponentPrüf: PCM MOST Komp SystTest: Bugfixing. Fixing bugs found in CTS using authoring;2.00;0;0;
04.01.10;Thando Katywa;077353-11860;140;5921: E1 M5: PCM2 MOST-KomponentPrüf: PCM MOST Komp SystTest: Modultest. Running CTS in Pidt to find problems;2;0;0;
04.01.10;Paul Helliwell;077353-1898;110;8501: E1 M5: allg. Projekttätigkeiten A1.15/ae15. Formating and installation of laptops (s50 and s45) for new collegues and general maintenance;5.00;1;0;
04.01.10;Paul Helliwell;077353-11955;110;6024: E1 M5: PCM3.0 (24.100): HeadUnit: Soll-/Ist Konfig: Testspec. Creating Simulations;3;0;0;
04.01.10;Richard Raymond;077353-7686;110;8501: E1 M5: allg. Projekttätigkeiten. Re-installing all outdated software as well as data;4.00;1;0;
04.01.10;Richard Raymond;077353-10721;170;8501: E1 M5: Assisting colleagues. Helping collegues with various issues;3.00;0;0;
04.01.10;Richard Raymond;077353-7686;110;8501: E1 M5: allg. Projekttätigkeiten. Investigating bugs 20712,20832,20833;1;0;0;
04.01.10;Thembela Dokoda;077353-6340;185;E1 M5: Gateway CAN: Wake-Up Guardian : Bugfixing. Bugfixed the CTS.;5.00;1;0;
04.01.10;Thembela Dokoda;077353-11598;110;E1 M5: allg. Projekttatigkeiten A1.15/ae15. Waiting for Authoring and PIDT installation.;3;0;0;
04.01.10;Brendan van Zyl;0-0;910;Holiday. ;9;0;0;
04.01.10;Jason Smith;09.00455-0;110;Working on bugs 20706, 207034, 20709. ;8;1;0;
04.01.10;Justin Jansen Van Vuuren;077353-11583;170;Assisting colleagues. Helping with CTS implementation and a bug;4.00;1;0;
04.01.10;Justin Jansen Van Vuuren;077251-3417;182;Worked on bug number 17510 (minor) MOST Systempruefung: Falsche Icons bei NOK / Warning, ICS. ;4;0;0;
05.01.10;Nico Claassen;077353-2938;110;8501: E1 M5: allg. Projekttätigkeiten A1.15/ae19. General admin, arrangements fro new staff.;6.00;1;0;
05.01.10;Nico Claassen;077353-2929;110;8501: E1 M5: CoMod A1.4/ae19. Project tracking and phone call with dr and mi.;2;0;0;
05.01.10;Nico Claassen;077353-2938;110;8501: E1 M5: allg. Projekttätigkeiten A1.15/ae19. Meeting with S4 management;0;0;1;
05.01.10;Graham Meyer;077353-11790;140;5428: E1 M5: PCM2-MMI: SG-Tausch: Modultest. Initial Tesing;3.00;1;0;
05.01.10;Graham Meyer;077353-10867;110;8185: Warten auf Authoring (Performance-Probleme bei Ausführung). Waiting for TOKEN for Deliverable creation;1.00;0;0;
05.01.10;Graham Meyer;077353-9560;110;8501: E1 M5: allg. Projekttätigkeiten. Comms problem with VCI device;4;0;0;
05.01.10;Thando Katywa;077353-2946;110;Common project tasks and installing Pidt and OET. Installing applications, recording changes made to the svn and CTS database;2.00;1;0;
05.01.10;Thando Katywa;077353-6170;110;8185: Warten auf Authoring (Performance-Probleme bei Ausführung). Waiting for authoring to respond and attempting to check in and creating deliverables;1.50;0;0;
05.01.10;Thando Katywa;077353-11587;110;8501: E1 M5: Assisting colleagues. Helping collegues with testing tasks and training;1.00;0;0;
05.01.10;Thando Katywa;077353-10549;181;Fixing bug 20808 and verifying bug 20664. Fixing bugs and testing if bugs are fixed;3.5;0;0;
05.01.10;Paul Helliwell;077353-1898;110;8501: E1 M5: allg. Projekttätigkeiten A1.15/ae15. Meeting;1.00;1;0;
05.01.10;Paul Helliwell;077353-1898;110;8501: E1 M5: allg. Projekttätigkeiten A1.15/ae15. Discussion of ODA Modules;1.00;0;0;
05.01.10;Paul Helliwell;077353-1898;110;8501: E1 M5: allg. Projekttätigkeiten A1.15/ae15. Assisting new collegues with installation of PIDT;1.00;0;0;
05.01.10;Paul Helliwell;077353-1898;110;8501: E1 M5: allg. Projekttätigkeiten A1.15/ae15. Assisting collegue with SG-Tausch Write Bugfix;1.00;0;0;
05.01.10;Paul Helliwell;077353-11955;110;6024: E1 M5: PCM3.0 (24.100): HeadUnit: Soll-/Ist Konfig: Testspec. Creating of Test Spec;4;0;0;
05.01.10;Richard Raymond;077353-11840;110; 5685: E1 M5: PCM2-DVD-Navi: Werkseinstellung (GESiC): PH. Closing task. (Was completed by mi);1.00;1;0;
05.01.10;Richard Raymond;077353-7683;110;8185: Warten auf Authoring (Performance-Probleme bei Ausführung). General authoring installation and issues;2.00;0;0;
05.01.10;Richard Raymond;077353-10721;170;8501: E1 M5: Assisting colleagues. Helping collegues with various issues;2.00;0;0;
05.01.10;Richard Raymond;077353-11921;181; 6127: E1 M5: FZGweite Fkt: Bugfixing Abläufe 5.4: BF+Test. Investigating bugs 20712,20832,20833;3;0;0;
05.01.10;Thembela Dokoda;077353-01210;181;E1 M5: Gateway CAN:Bugfixing zu Integrationstest. Bugfixed Gateway CAN;4.00;1;0;
05.01.10;Thembela Dokoda;077353-12057;140;E1 M5:SWSG: Flashen: Moduletest. Fixed the errors that were on the document.;4;0;0;
05.01.10;Brendan van Zyl;0-0;910;Holiday. ;9;0;0;
05.01.10;Jason Smith;09.00455-0;110;working on bugs 20706, 20734, 20709. ;8;1;0;
05.01.10;Justin Jansen Van Vuuren;077353-11644;181;5300: E1 M5: Gateway CAN: Bugfixing zu Integrationstest (s48). Did bug #20910. Did not have another open bug task to book on.;3.00;1;0;
05.01.10;Justin Jansen Van Vuuren;077353-11583;170;8501: E1 M5: Assisting colleagues. CTS and simulation implementation;2.50;0;0;
05.01.10;Justin Jansen Van Vuuren;077251-3528;110;8501: allg. Projekttätigkeiten. Installing new PIDT and new Delta Setup;1.50;0;0;
05.01.10;Justin Jansen Van Vuuren;077251-3417;182;6010: P4 #17510 (minor) MOST Systempruefung: Falsche Icons bei NOK / Warning, ICS. ;1;0;0;
06.01.10;Nico Claassen;077353-12104;120;6024: E1 M5: PCM3.0 (24.100): HeadUnit: Soll-/Ist Konfig: Implementierung. Cleaning up comments and naming inside CTS.;1.00;1;0;
06.01.10;Nico Claassen;077353-2938;110;8501: E1 M5: allg. Projekttätigkeiten A1.15/ae19. Installing latest Authoring and PIDT.;1.00;0;0;
06.01.10;Nico Claassen;077353-2938;110;8501: E1 M5: allg. Projekttätigkeiten A1.15/ae19. Assisting colleagues with problems.;3.00;0;0;
06.01.10;Nico Claassen;077353-2929;110;8501: E1 M5: CoMod A1.4/ae19. Discussion emails about modules and ODA with dr and s47;2.00;0;0;
06.01.10;Nico Claassen;077353-2938;110;8501: E1 M5: allg. Projekttätigkeiten A1.15/ae19. Arranging and installing backup hardware for department.;1;0;0;
06.01.10;Graham Meyer;077353-9560;110;8501: E1 M5: allg. Projekttätigkeiten. Meeting;1.00;1;0;
06.01.10;Graham Meyer;077353-11980;110;6062: E1 M5: PCM3.0 (24.100): Verstärker: Lautsprecher Selbsttest: PH. GESIC PH - Time taken for Source code interpratation;3.00;0;0;
06.01.10;Graham Meyer;077353-11984;120;6062: E1 M5: PCM3.0 (24.100): Verstärker: Lautsprecher Selbsttest: Implementierung. GESIC Implementation;3.00;0;0;
06.01.10;Graham Meyer;077353-10867;110;8185: Warten auf Authoring (Performance-Probleme bei Ausführung). Server downtime;1;0;0;
06.01.10;Thando Katywa;077353-6170;110;8185: Warten auf Authoring (Performance-Probleme bei Ausführung). Waiting for authoring response,  for Entities to be checked in and for corrupt database to be fixed;3.00;1;0;
06.01.10;Thando Katywa;077353-2946;110;Common project tasks. Department Meeting. Recording changes made to the svn and CTS database;1.00;0;0;
06.01.10;Thando Katywa;077353-11587;170;8501: E1 M5: Assisting colleagues. Helping collegues with testing tasks and training new collegue;4;0;0;
06.01.10;Paul Helliwell;077353-1898;110;8501: E1 M5: allg. Projekttätigkeiten A1.15/ae15. Assisting collegeue with PCM3 Selbstest MORS;1.00;1;0;
06.01.10;Paul Helliwell;077353-1898;110;8501: E1 M5: allg. Projekttätigkeiten A1.15/ae15. Assisting new collegue with running simulations and Testing vs Test Specification;1.00;0;0;
06.01.10;Paul Helliwell;077353-11955;110;6024: E1 M5: PCM3.0 (24.100): HeadUnit: Soll-/Ist Konfig: Testspec. Creation of test specification;6;0;0;
06.01.10;Richard Raymond;077353-7686;110;8501: E1 M5: allg. Projekttätigkeiten. Staff Meeting;1.00;1;0;
06.01.10;Richard Raymond;077353-10721;170;8501: E1 M5: Assisting colleagues. Training colleges;4.00;0;0;
06.01.10;Richard Raymond;077353-7683;110;8185: Warten auf Authoring (Performance-Probleme bei Ausführung). Authoring downtime;1.00;0;0;
06.01.10;Richard Raymond;077353-11946;140; 6022: E1 M5: PCM3.0 (24.100): HeadUnit: Selbsttest: Modultest und Bugfixing. Project has had multiple issues, and method of implimentation has changed.;2;0;0;
06.01.10;Thembela Dokoda;077353-11943;110;E1 M5: PCM3.0 (24.100): HeadUnit: Selbsttest: Testspec. From hm,reworked the PCM3_HeadUnit_Selbsttest.MOTS document and thesimulation.;7.00;1;0;
06.01.10;Thembela Dokoda;077353-11598;110;E1 M5: allg. Projekttatigkeiten A1.15/ae15. Staff meeting;1;0;0;
06.01.10;Brendan van Zyl;0-0;910;Holiday. ;9;0;0;
06.01.10;Jason Smith;09.00455-0;110;Working on bug 20709 and 20708. Meeting in boardroom for 1 hour;8;1;0;
06.01.10;Justin Jansen Van Vuuren;077251-3528;110;8501: allg. Projekttätigkeiten. Project meeting;1.00;1;0;
06.01.10;Justin Jansen Van Vuuren;077353-11658;181;5400: E1 M5: PCM2-GW: Bugfixing zu Integrationstest. Worked on bug # 17227. No other open bug task to book it on.;2.00;0;0;
06.01.10;Justin Jansen Van Vuuren;077251-3417;182;6010: P4 #17510 (minor) MOST Systempruefung: Falsche Icons bei NOK / Warning, ICS. Re-tested and ensured that everything worked. Discussed how to get ODA BASICs imp. in CTS verified;3.50;0;0;
06.01.10;Justin Jansen Van Vuuren;077251-3528;110;8501: allg. Projekttätigkeiten. Assisting colleague with CTS implementation;1.5;0;0;
07.01.10;Nico Claassen;077353-2938;110;8501: E1 M5: allg. Projekttätigkeiten A1.15/ae19. Reports for S4 management.;2.00;1;0;
07.01.10;Nico Claassen;077353-12103;140;6024: E1 M5: PCM3.0 (24.100): HeadUnit: Soll-/Ist Konfig: Modultest und Bugfixing. Problems with ODA script not working in Authoring with configuration files. Minor CTS fix for string;5.00;0;0;
07.01.10;Nico Claassen;077353-2929;110;8501: E1 M5: CoMod A1.4/ae19. task tracking and communications with DSA;1;0;0;
07.01.10;Graham Meyer;077353-11984;120;6062: E1 M5: PCM3.0 (24.100): Verstärker: Lautsprecher Selbsttest: Implementierung. Completed Implementation;8;1;0;
07.01.10;Thando Katywa;077353-6170;110;8185: Warten auf Authoring (Performance-Probleme bei Ausführung). Waiting for authoring response, for Entities to be checked in and for corrupt database to be fixed;3.00;1;0;
07.01.10;Thando Katywa;077353-2946;110;Common project tasks. Recording changes made to the svn and CTS database, looking for bugs to fix on bugzilla;1.00;0;0;
07.01.10;Thando Katywa;077353-10549;181;Working on bug 20828. Fixing bug but could not test if soultion works because deleiverable could not be created;3.00;0;0;
07.01.10;Thando Katywa;077353-11587;170;8501: E1 M5: Assisting colleagues. Helping collegues with testing tasks and training new collegue;1;0;0;
07.01.10;Paul Helliwell;077353-1898;110;8501: E1 M5: allg. Projekttätigkeiten A1.15/ae15. Backing up and cleaning out of s50 Authoring Workspace;1.50;1;0;
07.01.10;Paul Helliwell;077353-1898;110;8501: E1 M5: allg. Projekttätigkeiten A1.15/ae15. Teleco with dr;1.00;0;0;
07.01.10;Paul Helliwell;077353-11955;110;6024: E1 M5: PCM3.0 (24.100): HeadUnit: Soll-/Ist Konfig: Testspec. Completion of MORS and fixing of simulations.;3.00;0;0;
07.01.10;Paul Helliwell;077353-1898;110;8501: E1 M5: allg. Projekttätigkeiten A1.15/ae15. Assisting collegue with PCM3 Selbstest MORS and MOTS;0.50;0;0;
07.01.10;Paul Helliwell;077353-10550;181;1604: E1 M5: Bugfixing /ae15. Bug 20422, 20739, 20758, 20765;2;0;0;
07.01.10;Richard Raymond;077353-10721;170;8501: E1 M5: Assisting colleagues. Working with colleges, explaining implimentation methods, while implimenting;4.00;1;0;
07.01.10;Richard Raymond;077353-11946;140; 6022: E1 M5: PCM3.0 (24.100): HeadUnit: Selbsttest: Modultest und Bugfixing. Working with colleges, explaining implimentation methods, while implimenting;4;0;0;
07.01.10;Thembela Dokoda;077353-7705;140;E1 M5:SWSG: Flashen: Moduletest. Did some testing after bugfixing by s44;4.00;1;0;
07.01.10;Thembela Dokoda;077353-11943;110;E1 M5: PCM3.0 (24.100): HeadUnit: Selbsttest: Testspec. Reworking the testspec and the simulation after a change in the requirements.;4;0;0;
07.01.10;Brendan van Zyl;0-0;910;Holiday. ;9;0;0;
07.01.10;Jason Smith;09.00455-0;110;working on bug 20709 and 20708. ;8;1;0;
07.01.10;Justin Jansen Van Vuuren;077353-9664;181;Worked on bug #20112. (from bl). Bug blocked by a kernel bug... (no open task);4.00;1;0;
07.01.10;Justin Jansen Van Vuuren;077353-11583;170;8501: E1 M5: Assisting colleagues. Helped colleague with simulations and kernel (comm.'s issue);3.00;0;0;
07.01.10;Justin Jansen Van Vuuren;077353-11654;181;Worked on bug #20246. (from s43). Attachments posted on bugzilla are corrupted (no open task to book on);1;0;0;
08.01.10;Nico Claassen;077353-2938;110;8501: E1 M5: allg. Projekttätigkeiten A1.15/ae19. Assisting colleagues, genral admin;2.00;1;0;
08.01.10;Nico Claassen;077353-2929;110;8501: E1 M5: CoMod A1.4/ae19. Timesheets;1.00;0;0;
08.01.10;Nico Claassen;077353-12103;140;6024: E1 M5: PCM3.0 (24.100): HeadUnit: Soll-/Ist Konfig: Modultest und Bugfixing. Provisionally finalize bugfixing and testing.;5;0;0;
08.01.10;Graham Meyer;077353-11982;110;6062: E1 M5: PCM3.0 (24.100): Verstärker: Lautsprecher Selbsttest: Testspec. Test spec;8;1;0;
08.01.10;Thando Katywa;077353-6170;110;8185: Warten auf Authoring (Performance-Probleme bei Ausführung). Waiting for authoring response, for Entities to be checked in and for corrupt database to be fixed;2.00;1;0;
08.01.10;Thando Katywa;077353-2946;110;Common project tasks and setting up pidt. Installing applications, recording changes made to the svn and CTS database;1.50;0;0;
08.01.10;Thando Katywa;077353-10549;181;Bugfixing as a result of changes in Pidt enter diagnostic mode changes. Fixing scripts due to changes in Pidt;3.50;0;0;
08.01.10;Thando Katywa;077353-11587;170;Assisting colleagues with testing and training. Helping collegues with testing tasks and training;1;0;0;
08.01.10;Paul Helliwell;077353-10550;181;1604: E1 M5: Bugfixing /ae15. Bug 20422, 20739, 20758, 20765;8;1;0;
08.01.10;Richard Raymond;077353-7683;170;8501: E1 M5: Assisting colleagues. Working with colleges, explaining implimentation methods, while implimenting;4.00;1;0;
08.01.10;Richard Raymond;077353-11946;140; 6022: E1 M5: PCM3.0 (24.100): HeadUnit: Selbsttest: Modultest und Bugfixing. Working with colleges, explaining implimentation methods, while implimenting;4;0;0;
08.01.10;Thembela Dokoda;077353-11943;110;E1 M5:PCM3.0(24.100): HeadUnit:Selbsttest:Testspec. Changes made to the spec thus the testspec and the simulation need to be reworked.;8;1;0;
08.01.10;Brendan van Zyl;0-0;910;Holiday. ;9;0;0;
08.01.10;Jason Smith;09.00455-0;110;working on bug 20708. ;8;1;0;
08.01.10;Justin Jansen Van Vuuren;077353-11644;181;5300: E1 M5: Gateway CAN: Bugfixing zu Integrationstest (s48). Worked on bug #20831 (no open bug fixing task to book on);8;1;0;
09.01.10;Thembela Dokoda;077353-11943;110;E1 M5: PCM3.0 (24.100): HeadUnit: Selbsttest: Testspec. From hm,reworked the PCM3_HeadUnit_Selbsttest.MOTS document and thesimulation.;4.00;1;0;
09.01.10;Thembela Dokoda;077353-7705;140;E1 M5: SWSG: Flashen:Moduletest. Fixed errors on the SWSG_Flashen.MOTS;3.00;0;0;
09.01.10;Thembela Dokoda;077353-11598;110;Staff Meeting for an hour. Staff Meeting for an hour;1;0;0;
11.01.10;Nico Claassen;077353-2938;110;8501: E1 M5: allg. Projekttätigkeiten A1.15/ae19. General admin, D3 sequence checks, D1 performance problems;8;1;0;
11.01.10;Malcolm Vorster;077353-11799;140;5904: E1 M5: PCM2-TV-Tuner: Feldstärke über Kanal und Land: Moduletest. Complete - Pierre Jansen;1.00;1;0;
11.01.10;Malcolm Vorster;077353-11800;181;5904: E1 M5: PCM2-TV-Tuner: Feldstärke über Kanal und Land: Bugfixing zum Modultest. Complete - Pierre Jansen;1.00;0;0;
11.01.10;Malcolm Vorster;077353-9551;110;8501: E1 M5: allg. Projekttätigkeiten. Getting into subject and meeting;2.00;0;0;
11.01.10;Malcolm Vorster;077353-12095;110;5425: E1 M5: PCM2-MMI: Komplex Codier: Testspec. Busy with changes;4;0;0;
11.01.10;Graham Meyer;077353-11982;110;6062: E1 M5: PCM3.0 (24.100): Verstärker: Lautsprecher Selbsttest: Testspec. Test Spec and Sim;8;1;0;
11.01.10;Thando Katywa;077353-11587;170;Assisting colleagues with testing and training. Helping collegues with testing tasks, checking into svn and training;2.50;1;0;
11.01.10;Thando Katywa;077353-11861;181; 5921: E1 M5: PCM2 MOST-KomponentPrüf: PCM MOST Komp SystTest: Bugfixing. CTS could not be bugfixed due to waiting for Authoring DB errors to be fixed.;0.00;0;0;
11.01.10;Thando Katywa;077353-10549;181;Bug testing and verification. Testing if bug 20408 is fixed. Testing alternative verbau solution on Flashing CTSs;4.50;0;0;
11.01.10;Thando Katywa;077353-2946;110;Common project tasks. Working with svn and Setting up Pidt;1;0;0;
11.01.10;Ludumo Sankobe;077353-1916;110;8185: Warten auf Authoring (Performance-Probleme bei Ausführung). Waiting For Authoring;2.00;1;0;
11.01.10;Ludumo Sankobe;077251-1372;110;8501: G1: allg. Projekttätigkeiten. Installing PIDT;1.00;0;0;
11.01.10;Ludumo Sankobe;077251-3401;181;6010: Bugfixing. Fixing E1 Bug 20739;2.00;0;0;
11.01.10;Ludumo Sankobe;077251-3401;181;6010: Bugfixing. Fixing G1 Bug 17015;3;0;0;
11.01.10;Paul Helliwell;077353-11916;181;6127: E1 M5: FZGweite Fkt: Bugfixing Abläufe 5.4: BF+Test. Bug 20422, 20739, 20758, 20765;3.00;1;0;
11.01.10;Paul Helliwell;077353-1898;110;8185: Warten auf Authoring (Performance-Probleme bei Ausführung). Authoring D1 Performance problems. 1hr just to launch sequence and other issues.;5;0;0;
11.01.10;Richard Raymond;077353-11945;120;6022: E1 M5: PCM3.0 (24.100): HeadUnit: Selbsttest: Implementierung. Closing task;0.50;1;0;
11.01.10;Richard Raymond;077353-11943;110;6022: E1 M5: PCM3.0 (24.100): HeadUnit: Selbsttest: Testspec. Reworking Simualtion and Document for testing, **Document still has issues and must be reviewed.;5.00;0;0;
11.01.10;Richard Raymond;077353-11941;110;6022: E1 M5: PCM3.0 (24.100): HeadUnit: Selbsttest: PH. Implementation was changes to GESIC format, therefore document was reworked as a GESIC document;0.50;0;0;
11.01.10;Richard Raymond;077353-11946;140;6022: E1 M5: PCM3.0 (24.100): HeadUnit: Selbsttest: Modultest und Bugfixing. Testing of implimentation.;2;0;0;
11.01.10;Ntombenkosi Maldaki;09.00065;170;Training: CTS Authoring + GESIC/em949fp1. gesicHeadunint testing;3.00;1;0;
11.01.10;Ntombenkosi Maldaki;09.00065;170;Training: CTS Authoring + GESIC/em949fp1. gesicHeadunit implementation;5;0;0;
11.01.10;Abdul-Aziz Hendricks;09.00065;170;Training: CTS Authoring + GESIC/emp949fp1. Worked on the Selbsttest_HeadUnit implementation.;5.00;1;0;
11.01.10;Abdul-Aziz Hendricks;09.00065;170;Training: CTS Authoring + GESIC/emp949fp1. Testing of the Selbsttest_HeadUnit through simulations.;3;0;0;
11.01.10;Ralf Hummel;09.00065-170;270;ECU  Simulations. Training;8;1;0;
11.01.10;Brendan van Zyl;09.00455-250;110;F142 Allg. Projekttätigkeiten: Deliverables erzeugen/ Base Line Konfig. ;2.00;1;0;
11.01.10;Brendan van Zyl;09.00455-180;120;F142 NSV CTS impl. ;6;0;0;
11.01.10;Brendan van Zyl;09.00455-154;181;NCM CTS: Bugfixen nach test an Fzg.. ;0;0;0;
11.01.10;Brendan van Zyl;09.00455-216;181;NFA CTS: Bugfixen nach test an Fzg.. ;0;0;0;
11.01.10;Jason Smith;09.00455-179;120;Creating simulation for  f142 nsv. Had problems getting a working nsv simulation;8;1;0;
11.01.10;Justin Jansen Van Vuuren;077353-12094;181;6127: E1 M5: FZGweite Fkt: Bugfixing Ablaufe 5.4: BF+Test. Worked on bugs #20968 and 20831;6.00;1;0;
11.01.10;Justin Jansen Van Vuuren;077353-11583;170;8501: E1 M5: Assisting colleagues. Help colleagues with simulations and CTS implementation;2;0;0;
12.01.10;Nico Claassen;077353-11600;181;5281: E1 M5: RDK: Gen ODX-Bedat Kodier: Bugfixing. Looking into Base Variant problems with RDK coding / PIWIS;1.00;1;0;
12.01.10;Nico Claassen;077353-2938;110;8501: E1 M5: allg. Projekttätigkeiten A1.15/ae19. Assisting with recompile of CTS's and resolving errors on D3.;3.00;0;0;
12.01.10;Nico Claassen;077353-11944;110;6022: E1 M5: PCM3.0 (24.100): HeadUnit: Selbsttest: Testspec Review. Test Spec review + fixes;2.00;0;0;
12.01.10;Nico Claassen;077353-1913;110;8185: Warten auf Authoring (Performance-Probleme bei Ausführung). D3 Database upgrade;2;0;0;
12.01.10;Malcolm Vorster;077353-12095;110;5425: E1 M5: PCM2-MMI: Komplex Codier: Testspec. Working on simulations and testspecification;6.00;1;0;
12.01.10;Malcolm Vorster;077353-9551;110;8501: E1 M5: allg. Projekttätigkeiten. Assisting colleague's and meeting, basic admin;2;0;0;
12.01.10;Graham Meyer;077353-10867;110;8185: Warten auf Authoring (Performance-Probleme bei Ausführung). D1 to D3 migration down time;3.00;1;0;
12.01.10;Graham Meyer;077353-11985;140;6062: E1 M5: PCM3.0 (24.100): Verstärker: Lautsprecher Selbsttest: Modultest und Bugfixing. Testing 90% complete: Bugfixing 80% complete;5;0;0;
12.01.10;Thando Katywa;077353-11861;181;	 5921: E1 M5: PCM2 MOST-KomponentPrüf: PCM MOST Komp SystTest: Bugfixing. CTS could not be bugfixed due to waiting for Authoring DB errors to be fixed.;0.00;1;0;
12.01.10;Thando Katywa;077353-2946;110;Common project tasks. Department meeting and  Working with svn;1.50;0;0;
12.01.10;Thando Katywa;077353-11587;170;Assisting colleagues with testing and training. Helping collegues with testing tasks, checking into svn and training;2.00;0;0;
12.01.10;Thando Katywa;077353-6170;110;	8185: Warten auf Authoring (Performance-Probleme bei Ausführung). Waiting for authoring response, for Entities to be checked in and for corrupt database to be fixed;3.00;0;0;
12.01.10;Thando Katywa;077353-10549;181;Bug fixing. Fixing bug 20574;1.5;0;0;
12.01.10;Ludumo Sankobe;077251-3401;181;6010: Bugfixing. Fixing Bug 17087;1.00;1;0;
12.01.10;Ludumo Sankobe;077353-3401;181;6010: Bugfixing. Fixing Bug 18207;5.00;0;0;
12.01.10;Ludumo Sankobe;077353-1916;110;	 8185: Warten auf Authoring (Performance-Probleme bei Ausführung). Problem with Server.;2;0;0;
12.01.10;Paul Helliwell;077353-11916;181;6127: E1 M5: FZGweite Fkt: Bugfixing Abläufe 5.4: BF+Test. Bug 20422, 20739, 20758, 20765. Updating Test specification/Testing;2.00;1;0;
12.01.10;Paul Helliwell;077353-1898;110;8185: Warten auf Authoring (Performance-Probleme bei Ausführung). Authoring D1 Performance problems.;2.00;0;0;
12.01.10;Paul Helliwell;077353-11783;140;5427: E1 M5: PCM2-MMI: Videoanschluss (GESiC): Modultest. Testing vs simulation. (from ac);2.00;0;0;
12.01.10;Paul Helliwell;077353-11784;181;5427: E1 M5: PCM2-MMI: Videoanschluss (GESiC): Bugfixing zum Modultest. Fixing of sequence and correcting test specification;2;0;0;
12.01.10;Richard Raymond;077353-11946;140;6022: E1 M5: PCM3.0 (24.100): HeadUnit: Selbsttest: Modultest und Bugfixing. Finished testing & bugfixing, although test spec has not been reviewed;3.00;1;0;
12.01.10;Richard Raymond;077353-10721;170;8501: E1 M5: Assisting colleagues. Helping with training;3.00;0;0;
12.01.10;Richard Raymond;077353-7683;110;8185: Warten auf Authoring (Performance-Probleme bei Ausführung). Issues with Authoring;2;0;0;
12.01.10;Ntombenkosi Maldaki;09.00065;170;Training:Basics/ECU/Sinumlations/ODX/OET/emp94fp1. worked on basics of simulation creation;8;1;0;
12.01.10;Abdul-Aziz Hendricks;09.00065;170;Training: Basics/ECU/Simulations/ODX/OET/emp949fp1. Worked on the basics of creating simulations.;8;1;0;
12.01.10;Ralf Hummel;09.00065-170;270;ECU  Simulations  ODX. Training;8;1;0;
12.01.10;Brendan van Zyl;09.00455-250;110;F142 Allg. Projekttätigkeiten: Deliverables erzeugen/ Base Line Konfig. ;2.00;1;0;
12.01.10;Brendan van Zyl;09.00455-180;120;F142 NSV CTS impl. ;6;0;0;
12.01.10;Jason Smith;09.00455-180;120;Implementing f142 lifter check. ;8;1;0;
12.01.10;Justin Jansen Van Vuuren;077251-3417;182;6010: P4 #17510 (minor) MOST Systempruefung: Falsche Icons bei NOK / Warning, ICS. Checked the changes in, waiting for verification;2.00;1;0;
12.01.10;Justin Jansen Van Vuuren;077251-3462;120;6001: Kombi Wartungsintervall setzen: Stringresourcen C1.5/aeB1. ;3.00;0;0;
12.01.10;Justin Jansen Van Vuuren;077251-3463;120;6001: Kombi Wartungsintervall setzen: Impl. C1.6/aeB1. ;3;0;0;
13.01.10;Nico Claassen;077353-1913;110;8185: Warten auf Authoring (Performance-Probleme bei Ausführung). D3 Database upgrade;6.00;1;0;
13.01.10;Nico Claassen;077353-2929;110;8501: E1 M5: CoMod A1.4/ae19. Discussions about work / D3;0.50;0;0;
13.01.10;Nico Claassen;077353-2938;110;8501: E1 M5: allg. Projekttätigkeiten A1.15/ae19. General admin;1.5;0;0;
13.01.10;Malcolm Vorster;077353-12095;110;5425: E1 M5: PCM2-MMI: Komplex Codier: Testspec. Complete, Sims and test specification - Waiting for review;7.00;1;0;
13.01.10;Malcolm Vorster;077353-9551;110;8501: E1 M5: allg. Projekttätigkeiten. Assisting new members;1;0;0;
13.01.10;Graham Meyer;077353-10867;110;8185: Warten auf Authoring (Performance-Probleme bei Ausführung). D1 to D3 migration down time;4.00;1;0;
13.01.10;Graham Meyer;077353-11985;140;6062: E1 M5: PCM3.0 (24.100): Verstärker: Lautsprecher Selbsttest: Modultest und Bugfixing. Complete;4;0;0;
13.01.10;Thando Katywa;077353-6170;110; 8185: Warten auf Authoring (Performance-Probleme bei Ausführung). Waiting for re-compilation and migration to D3 database;5.00;1;0;
13.01.10;Thando Katywa;077353-11587;170;Assisting colleagues with testing and training. Helping collegues with testing tasks, checking into svn and training;3;0;0;
13.01.10;Ludumo Sankobe;077353-1916;110; 8185: Warten auf Authoring (Performance-Probleme bei Ausführung). Waiting for Authoring;2.00;1;0;
13.01.10;Ludumo Sankobe;077251-3489;120;6005: DME Erststart: Stringresourcen C6.5/aeB1. Creating String Resources;3.00;0;0;
13.01.10;Ludumo Sankobe;077251-3401;181;6010: Bugfixing. Fixing Bug 17087;3;0;0;
13.01.10;Paul Helliwell;077353-11950;110;6023: E1 M5: PCM3.0 (24.100): HeadUnit: Lautsprechertest: Testspec Review. Review (from mi);3.00;1;0;
13.01.10;Paul Helliwell;077353-11944;110;6022: E1 M5: PCM3.0 (24.100): HeadUnit: Selbsttest: Testspec Review. Review (from mi);3.00;0;0;
13.01.10;Paul Helliwell;077353-1898;110;8185: Warten auf Authoring (Performance-Probleme bei Ausführung). Migration from D1 to D3;2;0;0;
13.01.10;Richard Raymond;077353-7683;110;8185: Warten auf Authoring (Performance-Probleme bei Ausführung). Waiting for d3 database;8;1;0;
13.01.10;Ntombenkosi Maldaki;09.00065;170;Training:Basics/ECU/Sinumlations/ODX/OET/emp94fp1. worked on more basics of ECU, simulations and OET;8;1;0;
13.01.10;Abdul-Aziz Hendricks;09.00065;170;Training: Basics/ECU/Simulations/ODX/OET/emp949fp1. Learnt some more basic of the ECU, simulation, ODX and OET.;8;1;0;
13.01.10;Ralf Hummel;09.00065-170;270;Testing Vs Simulation. Training Simulations MORS  Waiting for authorin8.g;4.00;0;0;
13.01.10;Brendan van Zyl;09.00455-250;110;F142 Allg. Projekttätigkeiten: Deliverables erzeugen/ Base Line Konfig. ;1.00;1;0;
13.01.10;Brendan van Zyl;09.00455-180;120;F142 NSV CTS impl. ;5.00;0;0;
13.01.10;Brendan van Zyl;077472-2359;120;Anpassungen wegen Update DEIS 2_4_9 auf DEIS 3_0_0. Update DEIS and Authoring to latest versions;2;0;0;
13.01.10;Jason Smith;09.00455-180;120;Implementing f142 lifter up cts. ;8;1;0;
13.01.10;Justin Jansen Van Vuuren;077598-0;920;Took sick leave.... ;8;1;0;
14.01.10;Nico Claassen;077353-2938;110;8501: E1 M5: allg. Projekttätigkeiten A1.15/ae19. General admin, D3 sequence checks after DB came up again;6.00;1;0;
14.01.10;Nico Claassen;077353-1913;110;8185: Warten auf Authoring (Performance-Probleme bei Ausführung). D3 Database upgrade;2;0;0;
14.01.10;Malcolm Vorster;077251-0;110;G1 GESiC: New CTS. GESiC sequence migration;7.00;1;0;
14.01.10;Malcolm Vorster;077353-9551;110;8501: E1 M5: allg. Projekttätigkeiten. General Assisting and short project meeting;1;0;0;
14.01.10;Graham Meyer;077353-9523;110;7001: E1: Rework GESiC Modularize: Testspec /Sim B1.2/ae20. From S47;8;1;0;
14.01.10;Thando Katywa;077353-11587;170;Assisting colleagues with testing and training. Helping collegues with testing, bug-fixing, gesic migration;3.50;1;0;
14.01.10;Thando Katywa;077353-6170;110;8185: Warten auf Authoring (Performance-Probleme bei Ausführung). Waiting for authoring response, for Entities to be checked in and for corrupt database to be fixed;1.50;0;0;
14.01.10;Thando Katywa;077353-2946;110;Common project tasks. Meeting, Setting up Authoring;1.50;0;0;
14.01.10;Thando Katywa;077251-0;110;Migration of gesic sequence. Migration of gesic sequence;1.5;0;0;
14.01.10;Ludumo Sankobe;077251-1372;110;8501: G1: allg. Projekttätigkeiten. Helping Collegue;1.00;1;0;
14.01.10;Ludumo Sankobe;077251-1372;110;8501: G1: allg. Projekttätigkeiten. Translating document;2.00;0;0;
14.01.10;Ludumo Sankobe;077353-1916;110;8185: Warten auf Authoring (Performance-Probleme bei Ausführung). Waiting For Authoring;1.00;0;0;
14.01.10;Ludumo Sankobe;077251-3490;120;6005: DME Erststart: Impl. C6.6/aeB1. Implementation of CTS PAG_G1_BDE_Erststart;4;0;0;
14.01.10;Paul Helliwell;077251-0;110;Training. Migrating of GESiCs and Training of collegeus;8;1;0;
14.01.10;Richard Raymond;077353-7683;110;8185: Warten auf Authoring (Performance-Probleme bei Ausführung). While waiting for d3 database to be fixed, migration of the old G1 GESIC CTS was carried out.;6.00;1;0;
14.01.10;Richard Raymond;077353-7686;110;8501: E1 M5: allg. Projekttätigkeiten. Working on issue with GW-CAN WakeUp Guardian. (Apparently not on bugzilla);2;0;0;
14.01.10;Ntombenkosi Maldaki;09.00065;170;Training: CTS Authoring + GESIC/em949fp1. migration from old gesic to latest gesic implementation;8;1;0;
14.01.10;Abdul-Aziz Hendricks;09.00065;170;Training: CTS Authoring + GESIC/emp949fp1. Migration from old gesic to latest gesic implementation.;8;1;0;
14.01.10;Ralf Hummel;09.00065-170;270;ODX / OET / Simulations / gesic convertion. Training;8;1;0;
14.01.10;Brendan van Zyl;09.00455-250;110;F142 Allg. Projekttätigkeiten: Deliverables erzeugen/ Base Line Konfig. ;2.00;1;0;
14.01.10;Brendan van Zyl;09.00455-180;120;F142 NSV CTS impl. ;6;0;0;
14.01.10;Jason Smith;09.00455-180;120;implementing f142 zero scale position calibration cts. ;8;1;0;
14.01.10;Justin Jansen Van Vuuren;077598-0;920;Took sick leave.... ;8;1;0;
15.01.10;Nico Claassen;077353-12103;140;6024: E1 M5: PCM3.0 (24.100): HeadUnit: Soll-/Ist Konfig: Modultest und Bugfixing. Reworking for L10nLongName suppression;1.00;1;0;
15.01.10;Nico Claassen;077353-2929;110;8501: E1 M5: CoMod A1.4/ae19. Timesheets, discussion with sc, task tracking;3.00;0;0;
15.01.10;Nico Claassen;077353-2938;110;8501: E1 M5: allg. Projekttätigkeiten A1.15/ae19. Assisting colleagues, genral admin;4;0;0;
15.01.10;Malcolm Vorster;077353-9551;110;8501: E1 M5: allg. Projekttätigkeiten. Meeting with Nico and Paul;2.00;1;0;
15.01.10;Malcolm Vorster;077251-0;110;G1 GESiC: New CTS. GESiC sequence migration;6;0;0;
15.01.10;Graham Meyer;077353-12076;181;5863: E1 M5: PCM2-SBS2: Mikrofontest: Bugfixing (Zusatz). Bugfixing bugs found during module test;7.00;1;0;
15.01.10;Graham Meyer;077353-10867;110;8185: Warten auf Authoring (Performance-Probleme bei Ausführung). Waiting for Authoring;1;0;0;
15.01.10;Thando Katywa;077353-6170;110;8185: Warten auf Authoring (Performance-Probleme bei Ausführung). Waiting for authoring response, for Entities to be checked in and for corrupted CTS to be fixed;1.50;1;0;
15.01.10;Thando Katywa;077353-2946;110;Common project tasks. Working with svn and Setting up Pidt;1.00;0;0;
15.01.10;Thando Katywa;077353-10549;181;Bug fixing. Retesting and reimplementing bugfixes that were not imported into the D3 database: Bugs 20408, 20574;4.00;0;0;
15.01.10;Thando Katywa;077353-11861;181; 5921: E1 M5: PCM2 MOST-KomponentPrüf: PCM MOST Komp SystTest: Bugfixing. Fixing bugs found;1.5;0;0;
15.01.10;Ludumo Sankobe;077251-3490;120;6005: DME Erststart: Impl. C6.6/aeB1. Implementation of CTS PAG_G1_BDE_Erststart;6.00;1;0;
15.01.10;Ludumo Sankobe;077353-1916;110;8185: Warten auf Authoring (Performance-Probleme bei Ausführung). Waiting For Authoring;2;0;0;
15.01.10;Paul Helliwell;077251-0;110;Training. Migrating of GESiCs and training of collegues;8;1;0;
15.01.10;Richard Raymond;077353-7686;110;8501: E1 M5: allg. Projekttätigkeiten. Bugfixing various issues, including bugs (20712,20832,20833);8;1;0;
15.01.10;Ntombenkosi Maldaki;09.00065;170;Training: CTS Authoring + GESIC/em949fp1. migration from old gesic to latest gesic implementation;8;1;0;
15.01.10;Abdul-Aziz Hendricks;09.00065;170;Training: CTS Authoring + GESIC/emp949fp1. Migration from old gesic to latest gesic implementation.;8;1;0;
15.01.10;Ralf Hummel;09.00065-170;270;gesic Training. gesic convertion;8;1;0;
15.01.10;Brendan van Zyl;09.00455-250;110;F142 Allg. Projekttätigkeiten: Deliverables erzeugen/ Base Line Konfig. ;2.00;1;0;
15.01.10;Brendan van Zyl;09.00455-182;181;F142 NSV CTS: Bugfixen nach Test gegen Sim.. ;6;0;0;
15.01.10;Jason Smith;09.00455-180;120;implementing f142 zero scale position calibration cts. ;8;1;0;
15.01.10;Justin Jansen Van Vuuren;077251-3463;120;6001: Kombi Wartungsintervall setzen: Impl. C1.6/aeB1. ;8;1;0;
18.01.10;Nico Claassen;09.00582-0;110;9x6 Allg.Projekttätigkeiten. Download and install required software for analysis.;1.00;1;0;
18.01.10;Nico Claassen;09.00582-0;110;9x6 Allg.Projekttätigkeiten. Arrangements for SVN access.;0.50;0;0;
18.01.10;Nico Claassen;09.00582-0;110;9x6 Allg.Projekttätigkeiten. Getting into subject - Analysis.;1.00;0;0;
18.01.10;Nico Claassen;077353-2938;110;8501: E1 M5: allg. Projekttätigkeiten A1.15/ae19. Assisting colleagues with problems.;3.00;0;0;
18.01.10;Nico Claassen;077353-2929;110;8501: E1 M5: CoMod A1.4/ae19. Discussions about work / D3, work assignments, admin;2.5;0;0;
18.01.10;Malcolm Vorster;077598-0;910;Time Off. Leave;8;1;0;
18.01.10;Graham Meyer;077353-10867;110;8185: Warten auf Authoring (Performance-Probleme bei Ausführung). Importing CTSs into new E1 database;2.00;1;0;
18.01.10;Graham Meyer;077353-11791;181;5428: E1 M5: PCM2-MMI: SG-Tausch: Bugfixing zum Modultest. Bugfixing bugs found during module test;5.00;0;0;
18.01.10;Graham Meyer;077353-10867;110;8185: Warten auf Authoring (Performance-Probleme bei Ausführung). Waiting for authoring - CTS execution;1;0;0;
18.01.10;Thando Katywa;077353-6170;110;	8185: Warten auf Authoring (Performance-Probleme bei Ausführung). Waiting for authoring response and authoring delpoyment to be completed;2.00;1;0;
18.01.10;Thando Katywa;077353-11861;181;5921: E1 M5: PCM2 MOST-KomponentPrüf: PCM MOST Komp SystTest: Bugfixing. Fixing bugs found;2.75;0;0;
18.01.10;Thando Katywa;077353-11860;140;	5921: E1 M5: PCM2 MOST-KomponentPrüf: PCM MOST Komp SystTest: Modultest. Running CTS in Pidt and authoring to find problems;2.75;0;0;
18.01.10;Thando Katywa;077353-11587;170;	Assisting colleagues with testing and training. Helping collegues with testing, bug-fixing, gesic migration;0.5;0;0;
18.01.10;Ludumo Sankobe;077353-1916;110;8185: Warten auf Authoring (Performance-Probleme bei Ausführung). Waiting For Authoring;3.00;1;0;
18.01.10;Ludumo Sankobe;077251-3490;120;6005: DME Erststart: Impl. C6.6/aeB1. Implementation of CTS PAG_G1_BDE_Erststart;5;0;0;
18.01.10;Paul Helliwell;077353-1898;110;8185: Warten auf Authoring (Performance-Probleme bei Ausführung). Exporting and Importing of sequences from D1 - D3;1.00;1;0;
18.01.10;Paul Helliwell;077251-3545;170;8503: GESIC: Training of collegues. Assisting collegues with GESiC migration task;7;0;0;
18.01.10;Richard Raymond;077353-7686;110;8501: E1 M5: allg. Projekttätigkeiten. Bugfixing: 21151;6.00;1;0;
18.01.10;Richard Raymond;077353-7683;110;8185: Warten auf Authoring (Performance-Probleme bei Ausführung). Server issues;2;0;0;
18.01.10;Johannes Geldenhuys;09.00582;130;9x6 Analysis. Install + Configure;8;1;0;
18.01.10;Ntombenkosi Maldaki;09.00065-352;170;Training: CTS Authoring + GESIC/em949fp1. worked on gesic migration BKE-autoaddressing ECU;5.00;1;0;
18.01.10;Ntombenkosi Maldaki;09.00065-354;170;Training: Testing Vs. Simulation/em949fp1. tested gesic migration BKE against sim;3;0;0;
18.01.10;Abdul-Aziz Hendricks;09.00065-361;170;Training: CTS Authoring + GESIC/emp949fp1. Migration from old gesic to latest gesic implementation.;8;1;0;
18.01.10;Ralf Hummel;09.00065-370;170;Testing implementation GESIC convertion. gesic convertion;8;1;0;
18.01.10;Brendan van Zyl;09.00455-0;110;Allg. Projekttätigkeiten: Deliverables erzeugen/ Base Line Konfig. Waiting for authoring and general work;1.00;1;0;
18.01.10;Brendan van Zyl;09.00455-0;140;F142 NFA Extended Complete test. Task given by rj and f3.;5.00;0;0;
18.01.10;Brendan van Zyl;077472-2362;181;Bugfixen Regressionstests. bugzilla;2;0;0;
18.01.10;Jason Smith;077472-0;110;Started testing F141 NAB. ;8;1;0;
18.01.10;Justin Jansen Van Vuuren;077251-3463;120;6001: Kombi Wartungsintervall setzen: Impl. C1.6/aeB1. Worked on CTS;3.00;1;0;
18.01.10;Justin Jansen Van Vuuren;077251-3528;110;Waiting for Authoring. ;1.00;0;0;
18.01.10;Justin Jansen Van Vuuren;077251-3528;110;Assisting colleagues. ;2.00;0;0;
18.01.10;Justin Jansen Van Vuuren;077353-12094;181;6127: E1 M5: FZGweite Fkt: bugfixing Ablaeufe 5.4: BF + Test. Worked on bug #20968;2;0;0;
19.01.10;Nico Claassen;077353-12104;120;6024: E1 M5: PCM3.0 (24.100): HeadUnit: Soll-/Ist Konfig: Modultest und Bugfixing. Bugfix for L10nText suppression not working.;4.00;1;0;
19.01.10;Nico Claassen;077353-2938;110;8501: E1 M5: allg. Projekttätigkeiten A1.15/ae19. General admin, assisting colleagues.;4;0;0;
19.01.10;Malcolm Vorster;077353-9551;110;8501: E1 M5: allg. Projekttätigkeiten. Assisiting colleague's and timesheets and simulation reworks;2.00;1;0;
19.01.10;Malcolm Vorster;077251-3544;120;6050: GESiC: sequence migration. Found original sequences not functioning according to TS;6;0;0;
19.01.10;Graham Meyer;077353-10867;110;8185: Warten auf Authoring (Performance-Probleme bei Ausführung). Waiting for authoring - CTS execution;3.00;1;0;
19.01.10;Graham Meyer;077353-11791;181;5428: E1 M5: PCM2-MMI: SG-Tausch: Bugfixing zum Modultest. Bugfixing bugs found during module test;5;0;0;
19.01.10;Thando Katywa;077353-11860;140;5921: E1 M5: PCM2 MOST-KomponentPrüf: PCM MOST Komp SystTest: Modultest. Running CTS in Pidt and authoring to find bugs;2.50;1;0;
19.01.10;Thando Katywa;077353-11861;181;5921: E1 M5: PCM2 MOST-KomponentPrüf: PCM MOST Komp SystTest: Bugfixing. Fixing bugs found in CTS;2.50;0;0;
19.01.10;Thando Katywa;077353-6170;110;8185: Warten auf Authoring (Performance-Probleme bei Ausführung). Waiting for authoring response and database swap to be completed;1.50;0;0;
19.01.10;Thando Katywa;077353-2946;110;Common project tasks and setting up pidt and authoring. setting up pidt and authoring;1.5;0;0;
19.01.10;Ludumo Sankobe;077251-3398;110;	 8185: Warten auf Authoring (Performance-Probleme bei Ausführung). Waiting For Authoring;2.00;1;0;
19.01.10;Ludumo Sankobe;077251-1372;110;8501: G1: allg. Projekttätigkeiten. Fixing G1 Bug;2.00;0;0;
19.01.10;Ludumo Sankobe;077251-1372;110;8501: G1: allg. Projekttätigkeiten. Translating document for G1 Implementation;3.00;0;0;
19.01.10;Ludumo Sankobe;077251-3490;120;6005: DME Erststart: Impl. C6.6/aeB1. Implementation of CTS PAG_G1_BDE_Erststart;1;0;0;
19.01.10;Paul Helliwell;077353-1898;110;8185: Warten auf Authoring (Performance-Probleme bei Ausführung). Executing Sequence in Authoring to test and debug;1.50;1;0;
19.01.10;Paul Helliwell;077353-1088	;110;8501: E1 M5: allg. Projekttätigkeiten A1.15/ae15. Teleco with dr/sc regarding Modules;1.00;0;0;
19.01.10;Paul Helliwell;077353-11779;140;5425: E1 M5: PCM2-MMI: Komplex Codier: Modultest /Sim. Testing vs simulation;2.00;0;0;
19.01.10;Paul Helliwell;077353-11780;181;5425: E1 M5: PCM2-MMI: Komplex Codier: Bugfixing. Bugfixing sequence/simulations;3.5;0;0;
19.01.10;Richard Raymond;077353-10721;170;8501: E1 M5: Assisting colleagues. Assisting with training;2.00;1;0;
19.01.10;Richard Raymond;077353-7683;110;8185: Warten auf Authoring (Performance-Probleme bei Ausführung). Server issues;1.00;0;0;
19.01.10;Richard Raymond;077353-7686;110;8501: E1 M5: allg. Projekttätigkeiten. Investigating bugs on bug list, for milestone;5;0;0;
19.01.10;Johannes Geldenhuys;09.00582;130;9x6 Analysis. Install + Configuration;8;1;0;
19.01.10;Ntombenkosi Maldaki;09.00065-352;170;Training: CTS Authoring + GESIC/em949fp1. worked on gesic migration DME 4;5.00;1;0;
19.01.10;Ntombenkosi Maldaki;09.00065-354;170;Training: Testing Vs. Simulation/em949fp1. tested gesic migration from other team members;3;0;0;
19.01.10;Abdul-Aziz Hendricks;09.00065-361;170;Training: CTS Authoring + GESIC/emp949fp1. Migration from old gesic to latest gesic implementation.;8;1;0;
19.01.10;Ralf Hummel;09.00065-370;170;Testing implementation GESIC convertion. gesic convertion;8;1;0;
19.01.10;Brendan van Zyl;09.00455-0;110;Allg. Projekttätigkeiten A1.6/ae15. Waiting for authoring and general work;2.00;1;0;
19.01.10;Brendan van Zyl;077472-2362;181;Bugfixen Regressionstests. ;6;0;0;
19.01.10;Jason Smith;077472-1322;110;Continued testing F141 NAB, fixing bug 21069 and 21075. ;8;1;0;
19.01.10;Justin Jansen Van Vuuren;077353-12094;181;6127: E1 M5: FZGweite Fkt: Bugfixing Ablaufe 5.4: BF+Test. Worked on bug #20968;1.50;1;0;
19.01.10;Justin Jansen Van Vuuren;077251-3463;120;6001: Kombi Wartungsintervall setzen: Impl. C1.6/aeB1. Worked on CTS;4.00;0;0;
19.01.10;Justin Jansen Van Vuuren;077251-3528;110;Assisting colleagues. Helpedwith simulations and ODX issues;2.00;0;0;
19.01.10;Justin Jansen Van Vuuren;077251-3448;120;5000: Kombi: Warnereignisspeicher: Aneige C4.6/aeB1. Worked on CTS;0.5;0;0;
20.01.10;Nico Claassen;077353-2938;110;8501: E1 M5: allg. Projekttätigkeiten A1.15/ae19. Department meeting;1.50;1;0;
20.01.10;Nico Claassen;077353-2929;110;8501: E1 M5: CoMod A1.4/ae19. Setup testing of DSL lines and Router;3.00;0;0;
20.01.10;Nico Claassen;077353-2938;110;8501: E1 M5: allg. Projekttätigkeiten A1.15/ae19. Create and check-in new Application start for E1 D3;1.00;0;0;
20.01.10;Nico Claassen;077353-2938;110;8501: E1 M5: allg. Projekttätigkeiten A1.15/ae19. Assisting colleagues, genral admin;2.00;0;0;
20.01.10;Nico Claassen;077251-1545;110;8501: G1: allg. Projekttätigkeiten. Assisting with G1 module problems;0.5;0;0;
20.01.10;Malcolm Vorster;077353-9551;110;8501: E1 M5: allg. Projekttätigkeiten. Meeting and assising colleague;4.00;1;0;
20.01.10;Malcolm Vorster;077251-3544;120;6050: GESiC: sequence migration. Continued with sequence migration and workspace interation;4;0;0;
20.01.10;Graham Meyer;077353-10867;110;8185: Warten auf Authoring (Performance-Probleme bei Ausführung). Waiting for authoring - CTS execution;3.00;1;0;
20.01.10;Graham Meyer;077353-11791;181;5428: E1 M5: PCM2-MMI: SG-Tausch: Bugfixing zum Modultest. Bugfixing bugs found during module test;5;0;0;
20.01.10;Thando Katywa;077353-2946;110;Common project tasks. Updating pidt, re-importing workspace after DB swap and department meeting.;2.00;1;0;
20.01.10;Thando Katywa;077353-6170;110;8185: Warten auf Authoring (Performance-Probleme bei Ausführung). Waiting for authoring response;1.00;0;0;
20.01.10;Thando Katywa;077353-11860;140;5921: E1 M5: PCM2 MOST-KomponentPrüf: PCM MOST Komp SystTest: Modultest. Running CTS in Pidt and authoring to find bugs;2.00;0;0;
20.01.10;Thando Katywa;077353-11861;181;5921: E1 M5: PCM2 MOST-KomponentPrüf: PCM MOST Komp SystTest: Bugfixing. Fixing bugs found in CTS;3;0;0;
20.01.10;Ludumo Sankobe;077251-1372;110;8501: G1: allg. Projekttätigkeiten. Meeting;1.50;1;0;
20.01.10;Ludumo Sankobe;077251-3398;110;8185: Warten auf Authoring (Performance-Probleme bei Ausführung). Waiting For Authoring;3.00;0;0;
20.01.10;Ludumo Sankobe;077251-3455;120;5001: Zusatzheizung: Leitungsbefüllung: Ablauf Impl. C5.8/aeB1. Implemanting Zusatzheizung CTS;3.5;0;0;
20.01.10;Paul Helliwell;077353-1898;110;8185: Warten auf Authoring (Performance-Probleme bei Ausführung). Importing from D3 -> New D3. No application start;2.00;1;0;
20.01.10;Paul Helliwell;077353-11780;181;5425: E1 M5: PCM2-MMI: Komplex Codier: Bugfixing. Bugfixing;4.00;0;0;
20.01.10;Paul Helliwell;077353-1898;110;8185: Warten auf Authoring (Performance-Probleme bei Ausführung). Performance problem while debugging sequence;0.50;0;0;
20.01.10;Paul Helliwell;077353-1088;110;8501: E1 M5: allg. Projekttätigkeiten A1.15/ae15. S4 Meeting;1.5;0;0;
20.01.10;Richard Raymond;077353-7686;110;8501: E1 M5: allg. Projekttätigkeiten. Meeting;2.00;1;0;
20.01.10;Richard Raymond;077353-10721;170;8501: E1 M5: Assisting colleagues. Assisting with training;1.00;0;0;
20.01.10;Richard Raymond;077353-11951;120;6023: E1 M5: PCM3.0 (24.100): HeadUnit: Lautsprechertest: Implementierung. Intitial investigations. Implimentation has begun. Minor issues with requested method resolved;5;0;0;
20.01.10;Johannes Geldenhuys;077353-0;;General Task. Meeting;1.50;1;0;
20.01.10;Johannes Geldenhuys;09.00582;130;9x6 Analysis. Install + Configuration;6.5;0;0;
20.01.10;Ntombenkosi Maldaki;077353-0;110;8501: E1 M5: allg. Projekttätigkeiten A1.1. Meeting;2.00;1;0;
20.01.10;Ntombenkosi Maldaki;09.00065-352;170;Training: CTS Authoring + GESIC/em949fp1. error fixing on my gesic migration CTS';3.00;0;0;
20.01.10;Ntombenkosi Maldaki;09.00065-354;170;Training: Testing Vs. Simulation/em949fp1. tested my gesic migration CTS'as well as the other team meber's;3;0;0;
20.01.10;Abdul-Aziz Hendricks;09.00065-361;170;Training: CTS Authoring + GESIC/emp949fp1. Migration from old gesic to latest gesic implementation.;6.00;1;0;
20.01.10;Abdul-Aziz Hendricks;077353-0;110;8501: E1 M5: allg. Projekttätigkeiten A1.15. Meeting;2;0;0;
20.01.10;Ralf Hummel;09.00065-370;170;Testing implementation GESIC convertion. gesic convertion Training;6.70;1;0;
20.01.10;Ralf Hummel;Meeting;900;Group Meeting. Meeting . (Nico Claassen);1.3;0;0;
20.01.10;Brendan van Zyl;09.00455-0;110;Allg. Projekttätigkeiten A1.6/ae15. Waiting for authoring and general work;2.00;1;0;
20.01.10;Brendan van Zyl;077472-2362;181;Bugfixen Regressionstests. ;6;0;0;
20.01.10;Jason Smith;077472-0;110;Continued testing F141 NAB against simulation. Boardroom meeting for 1 hour;8;1;0;
20.01.10;Justin Jansen Van Vuuren;077251-3528;110;8501: allg. Projekttätigkeiten. Had a project meeting;2.00;1;0;
20.01.10;Justin Jansen Van Vuuren;077251-3528;100;8501: allg. Projekttätigkeiten. Assisting colleagues with simulations and ODX;1.50;0;0;
20.01.10;Justin Jansen Van Vuuren;077251-3448;120;5000: Kombi: Warnereignisspeicher: Aneige C4.6/aeB1. Worked on CTS;4.5;0;0;
21.01.10;Nico Claassen;09.00582-0;110;9x6 Allg.Projekttätigkeiten. Configured software for 9x6 analysis and got into subject.;6.00;1;0;
21.01.10;Nico Claassen;077353-2938;110;8501: E1 M5: allg. Projekttätigkeiten A1.15/ae19. ODA discussions and creating list of changes that must be done.;2;0;0;
21.01.10;Malcolm Vorster;077353-1914;110;8185: Warten auf Authoring (Performance-Probleme bei Ausführung). Wait time while trying to run CTS with minor update;1.50;1;0;
21.01.10;Malcolm Vorster;077353-9551;110;8501: E1 M5: allg. Projekttätigkeiten. Assisiting colleague's;1.50;0;0;
21.01.10;Malcolm Vorster;077251-3544;120;6050: GESiC: sequence migration. Continued with sequence migration and workspace interation;5;0;0;
21.01.10;Graham Meyer;077353-9560;110;8501: E1 M5: allg. Projekttätigkeiten. Meeting;1.50;1;0;
21.01.10;Graham Meyer;077353-10867;110;8185: Warten auf Authoring (Performance-Probleme bei Ausführung). Waiting for Authoring;2.50;0;0;
21.01.10;Graham Meyer;077353-11791;181;5428: E1 M5: PCM2-MMI: SG-Tausch: Bugfixing zum Modultest. Fixing simulation to get proper variant identification;4;0;0;
21.01.10;Thando Katywa;077353-6170;110;8185: Warten auf Authoring (Performance-Probleme bei Ausführung). Waiting for authoring response and  deliverable creation;3.00;1;0;
21.01.10;Thando Katywa;077353-11861;181;5921: E1 M5: PCM2 MOST-KomponentPrüf: PCM MOST Komp SystTest: Bugfixing. Fixing bugs found in CTS;3.00;0;0;
21.01.10;Thando Katywa;077353-11860;140;5921: E1 M5: PCM2 MOST-KomponentPrüf: PCM MOST Komp SystTest: Modultest. Running CTS in Pidt and authoring to find bugs;2;0;0;
21.01.10;Ludumo Sankobe;077251-3398;110; 8185: Warten auf Authoring (Performance-Probleme bei Ausführung). Waiting For Authoring;3.00;1;0;
21.01.10;Ludumo Sankobe;077251-1372;110;8501: G1: allg. Projekttätigkeiten. Creating Simulation for Zusatzheizung;2.00;0;0;
21.01.10;Ludumo Sankobe;077251-3455;120;5001: Zusatzheizung: Leitungsbefüllung: Ablauf Impl. C5.8/aeB1. Implemanting Zusatzheizung CTS;3;0;0;
21.01.10;Paul Helliwell;077353-1088;110;8501: E1 M5: allg. Projekttätigkeiten A1.15/ae15. Discussion of ODA Modules and drafting proposal of used Modules and scripts;1.00;1;0;
21.01.10;Paul Helliwell;077353-1898;110;8185: Warten auf Authoring (Performance-Probleme bei Ausführung). Waiting for authoring while debugging sequence;1.00;0;0;
21.01.10;Paul Helliwell;077353-11780;181;5425: E1 M5: PCM2-MMI: Komplex Codier: Bugfixing. Fixing of Test Specification and simulation. Correcting Diff-Results. General sequence bugfixing;6;0;0;
21.01.10;Richard Raymond;077353-11951;120;6023: E1 M5: PCM3.0 (24.100): HeadUnit: Lautsprechertest: Implementierung. Continued implimentation;6.00;1;0;
21.01.10;Richard Raymond;077353-7683;110;8185: Warten auf Authoring (Performance-Probleme bei Ausführung). Server issues;2;0;0;
21.01.10;Johannes Geldenhuys;09.00582;130;9x6 Analysis. Install + Configuration;8;1;0;
21.01.10;Ntombenkosi Maldaki;09.00065-352;170;Training: CTS Authoring + GESIC/em949fp1. gesic migration;4.00;1;0;
21.01.10;Ntombenkosi Maldaki;09.00065-354;170;Training: Testing Vs. Simulation/em949fp1. gesic migration testing;4;0;0;
21.01.10;Abdul-Aziz Hendricks;09.00065-361;170;Training: CTS Authoring + GESIC/emp949fp1. Migration from old gesic to latest gesic implementation.;5.00;1;0;
21.01.10;Abdul-Aziz Hendricks;09.00065-363;170;Training: Testing vs. Simulation/emp949fp1. Testing the new gesic migration files against the test specification;3;0;0;
21.01.10;Ralf Hummel;09.00065-370;170;Testing Vs Simulation. Simulation editing;8;1;0;
21.01.10;Brendan van Zyl;09.00455-0;110;Allg. Projekttätigkeiten A1.6/ae15. Waiting for authoring and general work;2.00;1;0;
21.01.10;Brendan van Zyl;077472-2362;181;Bugfixen Regressionstests. ;6;0;0;
21.01.10;Jason Smith;077472-0;110;Bugfixing F141 nab after testing. ;8;1;0;
21.01.10;Justin Jansen Van Vuuren;077251-3448;120;5000: Kombi: Warnereignisspeicher: Aneige C4.6/aeB1. Worked on CTS. Halted implementation because the PH not verified.;1.50;1;0;
21.01.10;Justin Jansen Van Vuuren;077251-3463;120;6001: Kombi Wartungsintervall setzen: Impl. C1.6/aeB1. Continued with the implementatin of Setzen and Zuruecksetzen;3.00;0;0;
21.01.10;Justin Jansen Van Vuuren;077251-3528;110;Wating for authoring. ;1.50;0;0;
21.01.10;Justin Jansen Van Vuuren;077353-12094;181;6127: E1 M5: FZGweite Fkt: bugfixing Ablaeufe 5.4: BF + Test. Worked on bug #20968;2;0;0;
22.01.10;Nico Claassen;077353-2938;110;8501: E1 M5: allg. Projekttätigkeiten A1.15/ae19. Assisting colleagues, genral admin;3.00;1;0;
22.01.10;Nico Claassen;077353-9721;181;5063: E1 M5: SDI4.1. SG-Program: WFS: Bugfixing zum Modultest. From S46: Fixing bug 21218;2.00;0;0;
22.01.10;Nico Claassen;077353-1913;110;8185: Warten auf Authoring (Performance-Probleme bei Ausführung). Saving, deliverable, check-in;0.50;0;0;
22.01.10;Nico Claassen;09.00582-0;110;9x6 Allg.Projekttätigkeiten. Re-configure for analysis;0.50;0;0;
22.01.10;Nico Claassen;077353-2929;110;8501: E1 M5: CoMod A1.4/ae19. Timesheets;1.00;0;0;
22.01.10;Nico Claassen;09.00582-0;110;9x6 Allg.Projekttätigkeiten. ODA Module discussions;1;0;0;
22.01.10;Malcolm Vorster;077251-3544;120;6050: GESiC: sequence migration. Integrated updated GESiC files, simulations and documents into the SVN, requires final testing;6.00;1;0;
22.01.10;Malcolm Vorster;077353-9551;110;8501: E1 M5: allg. Projekttätigkeiten. Timesheets, and other basic admin;2;0;0;
22.01.10;Graham Meyer;077353-10867;110;8185: Warten auf Authoring (Performance-Probleme bei Ausführung). Server down time, deliverable creation problems;4.00;1;0;
22.01.10;Graham Meyer;077353-11791;181;5428: E1 M5: PCM2-MMI: SG-Tausch: Bugfixing zum Modultest. Bugfixing bugs found during module test;4;0;0;
22.01.10;Thando Katywa;077353-6170;110;8185: Warten auf Authoring (Performance-Probleme bei Ausführung) and Application server. Waiting for response from authoring and application server;4.00;1;0;
22.01.10;Thando Katywa;077353-11587;170;Assisting colleagues with testing and training. Helping collegue with training, svn and other common project tasks;1.00;0;0;
22.01.10;Thando Katywa;077353-11861;181;5921: E1 M5: PCM2 MOST-KomponentPrüf: PCM MOST Komp SystTest: Bugfixing. Fixing bugs found in CTS;3;0;0;
22.01.10;Ludumo Sankobe;077353-1916;110;8185: Warten auf Authoring (Performance-Probleme bei Ausführung). Waiting For Authoring;3.00;1;0;
22.01.10;Ludumo Sankobe;077251-3455;120;5001: Zusatzheizung: Leitungsbefüllung: Ablauf Impl. C5.8/aeB1. Implemanting Zusatzheizung CTS;5;0;0;
22.01.10;Paul Helliwell;077353-1898;110;8185: Warten auf Authoring (Performance-Probleme bei Ausführung). Partition was full;2.00;1;0;
22.01.10;Paul Helliwell;077353-1898;110;8185: Warten auf Authoring (Performance-Probleme bei Ausführung). Authroing performance problems while debugging;0.50;0;0;
22.01.10;Paul Helliwell;077353-11779;140;5425: E1 M5: PCM2-MMI: Komplex Codier: Modultest /Sim. Testing vs simulation;4.50;0;0;
22.01.10;Paul Helliwell;077353-11780;180;5425: E1 M5: PCM2-MMI: Komplex Codier: Bugfixing. Bugfixing sequence;1;0;0;
22.01.10;Richard Raymond;077353-11951;120;6023: E1 M5: PCM3.0 (24.100): HeadUnit: Lautsprechertest: Implementierung. Continued implimentation;7.00;1;0;
22.01.10;Richard Raymond;077353-7686;110;8501: E1 M5: allg. Projekttätigkeiten. General issues, and maintainence;1;0;0;
22.01.10;Johannes Geldenhuys;077591-0;910;Leave. ;8;1;0;
22.01.10;Ntombenkosi Maldaki;09.00065-352;170;Training: CTS Authoring + GESIC/em949fp1. ;4.00;1;0;
22.01.10;Ntombenkosi Maldaki;09.00065-354;170;Training: Testing Vs. Simulation/em949fp1. ;4;0;0;
22.01.10;Abdul-Aziz Hendricks;09.00065-363;170;Training: Testing vs Simulation/em949fp1. Testing completed gesic migration.;8;1;0;
22.01.10;Ralf Hummel;09.00065-0;181;Training Create Test Specification. Training Create Test Specification;5.00;1;0;
22.01.10;Ralf Hummel;09.00065-0;181;Testing implementation GESIC convertion. Testing / Simulation;3;0;0;
22.01.10;Brendan van Zyl;09.00455-0;110;Allg. Projekttätigkeiten A1.6/ae15. Waiting for authoring and general work;2.00;1;0;
22.01.10;Brendan van Zyl;077472-2362;181;Bugfixen Regressionstests. ;6;0;0;
22.01.10;Jason Smith;077472-0;110;Bugfixing F141 nab after testing. ;8;1;0;
22.01.10;Justin Jansen Van Vuuren;077251-3528;110;Assisting colleagues. Helping with simulations and ODX;1.50;1;0;
22.01.10;Justin Jansen Van Vuuren;077251-3463;120;6001: Kombi Wartungsintervall setzen: Impl. C1.6/aeB1. Implementing setzen and Zuruecksetzen;5.50;0;0;
22.01.10;Justin Jansen Van Vuuren;077251-3528;110;8501: allg. Projekttätigkeiten. Waiting for authoring;1;0;0;
25.01.10;Nico Claassen;077353-12135;181;6127: E1 M5: FZGweite Fkt: Bugfixing Abläufe 5.4: BF+Test. Bugfix for Bug 21218;1.00;1;0;
25.01.10;Nico Claassen;09.00582-90;170;8503: 9x6: get into Subject E1.3/ae20. Installation fo software, source and SVN updates;3.00;0;0;
25.01.10;Nico Claassen;09.00582-116;110;8501: 9x6: allg. Projekttätigkeit C1.3/ae20. Discussions with sc and fp;1.00;0;0;
25.01.10;Nico Claassen;077353-2938;110;8501: E1 M5: allg. Projekttätigkeiten A1.15/ae19. Assisting colleagues, genral admin;3;0;0;
25.01.10;Malcolm Vorster;077353-10552;181;1604: E1 M5: Bugfixing /ae15. Working on Bug 21186 - missing logging;6.00;1;0;
25.01.10;Malcolm Vorster;077353-9551;110;8501: E1 M5: allg. Projekttätigkeiten. Assisiting with Testing vs simulation;2;0;0;
25.01.10;Graham Meyer;077353-11790;140;5428: E1 M5: PCM2-MMI: SG-Tausch: Modultest. Complete;1.00;1;0;
25.01.10;Graham Meyer;077353-11791;181;5428: E1 M5: PCM2-MMI: SG-Tausch: Bugfixing zum Modultest. Complete;1.00;0;0;
25.01.10;Graham Meyer;077353-10867;110;8185: Warten auf Authoring (Performance-Probleme bei Ausführung). Waiting for authoring - CTS execution;1.00;0;0;
25.01.10;Graham Meyer;077353-9523;110;7001: E1: Rework GESiC Modularize: Testspec /Sim B1.2/ae20. Writing test sequnce;5;0;0;
25.01.10;Thando Katywa;077353-11860;140;5921: E1 M5: PCM2 MOST-KomponentPrüf: PCM MOST Komp SystTest: Modultest. Fixing bugs found in CTS;1.70;1;0;
25.01.10;Thando Katywa;077353-11861;181;5921: E1 M5: PCM2 MOST-KomponentPrüf: PCM MOST Komp SystTest: Bugfixing. Running CTS in Pidt and authoring to find bugs;2.10;0;0;
25.01.10;Thando Katywa;077353-6170;110;	8185: Warten auf Authoring (Performance-Probleme bei Ausführung) and Application server. Waiting for response from authoring;1.00;0;0;
25.01.10;Thando Katywa;077353-11587;170;8501: E1 M5: Assisting colleagues. Helping collegue with training, svn and other common project tasks;2.00;0;0;
25.01.10;Thando Katywa;077353-10549;181;Bug testing and verification. Testing if bug 20408 is fixed.;0.20;0;0;
25.01.10;Thando Katywa;077353-2946;110;Common project tasks. Updating pidt and department meeting.;1;0;0;
25.01.10;Ludumo Sankobe;077251-3398;110;8185: Warten auf Authoring (Performance-Probleme bei Ausführung). Authoring Slow and Freezes more often(Out of memory Error);3.00;1;0;
25.01.10;Ludumo Sankobe;077251-3455;120;5001: Zusatzheizung: Leitungsbefüllung: Ablauf Impl. C5.8/aeB1. Implemanting Zusatzheizung CTS;5;0;0;
25.01.10;Paul Helliwell;077353-11779;140;5425: E1 M5: PCM2-MMI: Komplex Codier: Modultest /Sim. Testing vs simulation;5.00;1;0;
25.01.10;Paul Helliwell;077353-11780;181;5425: E1 M5: PCM2-MMI: Komplex Codier: Bugfixing. Bugfixing during Testing;2.00;0;0;
25.01.10;Paul Helliwell;077353-1898;110;8185: Warten auf Authoring (Performance-Probleme bei Ausführung). Authoring Performance during debugging inside authoring;1;0;0;
25.01.10;Richard Raymond;077353-11951;120;6023: E1 M5: PCM3.0 (24.100): HeadUnit: Lautsprechertest: Implementierung. Closing task. (Completed over weekend);0.50;1;0;
25.01.10;Richard Raymond;077353-11952;140;6023: E1 M5: PCM3.0 (24.100): HeadUnit: Lautsprechertest: Modultest und Bugfixing. Multiple issues with documentation and simulation caused rework;7.5;0;0;
25.01.10;Johannes Geldenhuys;09.00582-96;170;8503: 9x6: get into Subject E1.3/ae20. Installation + Config;8;1;0;
25.01.10;Ntombenkosi Maldaki;077353-0;181;6127: E1 M5: FZGweite Fkt: Bugfixing Abläufe 5.4: BF+Test. GESIC rework PCM2_MMI-MOST Istverbauliste;5.00;1;0;
25.01.10;Ntombenkosi Maldaki;077353-0;181;6127: E1 M5: FZGweite Fkt: Bugfixing Abläufe 5.4: BF+Test. GESIC reworkPCM2_Satradio-Sonderfunktionen: Empfangstest;3;0;0;
25.01.10;Abdul-Aziz Hendricks;077353-0;181;6127: E1 M5: FZGweite Fkt: Bugfixing Abläufe 5.4: BF+Test. GESIC rework of gesicEcuReset;4.00;1;0;
25.01.10;Abdul-Aziz Hendricks;077353-0;181;6127: E1 M5: FZGweite Fkt: Bugfixing Abläufe 5.4: BF+Test. GESIC rework of gesicGatewayCanEindrahtpruefung;4;0;0;
25.01.10;Ralf Hummel;077353-0;181; GESIC rework LWR_L Kalibrierung.  GESIC rework LWR_L Kalibrierung;4.00;1;0;
25.01.10;Ralf Hummel;077353-0;181; GESIC rework LWR_L Kalibrierung. GESIC rework LWR_L Kalibrierung;4;0;0;
25.01.10;Brendan van Zyl;09.00455-250;110;F142 Allg. Projekttätigkeiten: Deliverables erzeugen/ Base Line Konfig. Waiting for authoring and general work;2.00;1;0;
25.01.10;Brendan van Zyl;077472-2362;181;Bugfixen Regressionstests. ;6;0;0;
25.01.10;Jason Smith;077472;110;Bugfixing F141 nab after testing. ;8;1;0;
25.01.10;Justin Jansen Van Vuuren;077353-12094;181;6127: E1 M5: FZGweite Fkt: Bugfixing Ablaeufe 5.4: BF + Test. Worked on bugs #: 20968, 21288 and 21211;6.00;1;0;
25.01.10;Justin Jansen Van Vuuren;077353-11583;170;8501: E1 M5: Assisting colleagues. Helped colleagues out with simulations and ODX issues;2;0;0;
26.01.10;Nico Claassen;09.00582-90;110;8503: 9x6: get into Subject E1.3/ae20. Source code setup for Netbeans;2.00;1;0;
26.01.10;Nico Claassen;09.00582-178;110;1020: 9x6: Kombi I: ECU Analyse. Start analysing coding for kombi03.ide;2.00;0;0;
26.01.10;Nico Claassen;077353-2938;110;8501: E1 M5: allg. Projekttätigkeiten A1.15/ae19. Assisting colleagues, genral admin;4;0;0;
26.01.10;Malcolm Vorster;077353-10552;181;1604: E1 M5: Bugfixing /ae15. Working on Bug 21213 - Testing v sim ok, suspect session change on ECU;6.00;1;0;
26.01.10;Malcolm Vorster;077353-9551;110;8501: E1 M5: allg. Projekttätigkeiten. Install ODX Authoring, checking SVN documents;2;0;0;
26.01.10;Graham Meyer;077353-10867;110;8185: Warten auf Authoring (Performance-Probleme bei Ausführung). Waiting for authoring - CTS execution;2.00;1;0;
26.01.10;Graham Meyer;077353-10551;181;1604: E1 M5: Bugfixing /ae15. Bug # 21043;4.00;0;0;
26.01.10;Graham Meyer;077353-11905;110;7001: E1: Rework GESiC Modularize: Testspec /Sim B1.2/ae20. Implementing new Test sequnce;2;0;0;
26.01.10;Thando Katywa;077598-0;920;Sick leave. ;9;0;0;
26.01.10;Ludumo Sankobe;077251-3398;110;8185: Warten auf Authoring (Performance-Probleme bei Ausführung). Authoring Slow and Freezes more often(Out of memory Error);4.00;1;0;
26.01.10;Ludumo Sankobe;077251-3455;120;5001: Zusatzheizung: Leitungsbefüllung: Ablauf Impl. C5.8/aeB1. Implemanting Zusatzheizung CTS;4;0;0;
26.01.10;Paul Helliwell;077353-11772;140;5422: E1 M5: PCM2-MMI: Sl-/I-Konfig: Modultest. Closing Task;0.00;1;0;
26.01.10;Paul Helliwell;077353-11916;181;6127: E1 M5: FZGweite Fkt: Bugfixing Abläufe 5.4: BF+Test. Investigating Module bugs and testing;5.00;0;0;
26.01.10;Paul Helliwell;077353-1088;110;8501: E1 M5: allg. Projekttätigkeiten A1.15/ae15. Assisting collegeues with bugs;3;0;0;
26.01.10;Richard Raymond;077353-7686;110;8501: E1 M5: allg. Projekttätigkeiten. Office maintainence and server issues;2.00;1;0;
26.01.10;Richard Raymond;077353-11921;181;6127: E1 M5: FZGweite Fkt: Bugfixing Abläufe 5.4: BF+Test. Investigating or Fixing bugs: 20833,21151,21162 + other;6;0;0;
26.01.10;Johannes Geldenhuys;09.00582-96;170;8503: 9x6: get into Subject E1.3/ae20. Install + Config;8;1;0;
26.01.10;Ntombenkosi Maldaki;077353-0;181;6127: E1 M5: FZGweite Fkt: Bugfixing Abläufe 5.4: BF+Test. GESIC reworkPCM2_Satradio-Sonderfunktionen: Empfangstest;3.00;1;0;
26.01.10;Ntombenkosi Maldaki;077353-0;181;6127: E1 M5: FZGweite Fkt: Bugfixing Abläufe 5.4: BF+Test. GESIC rework Gateway Can-Fehlerbits lesen;5;0;0;
26.01.10;Abdul-Aziz Hendricks;077353-0;181;6127: E1 M5: FZGweite Fkt: Bugfixing Abläufe 5.4: BF+Test. GESIC rework of gesicKlimaKalibrierung;4.00;1;0;
26.01.10;Abdul-Aziz Hendricks;077353-0;181;6127: E1 M5: FZGweite Fkt: Bugfixing Abläufe 5.4: BF+Test. GESIC rework of gesicKlimaServicePosition;2.00;0;0;
26.01.10;Abdul-Aziz Hendricks;077353-0;181;6127: E1 M5: FZGweite Fkt: Bugfixing Abläufe 5.4: BF+Test. GESIC rework of gesicKombiServiceIntervallAnzeigeZuruecksetzen;2;0;0;
26.01.10;Ralf Hummel;077353-0;181;GESIC rework Gateway Can Schlafzustand. GESIC rework Gateway Can Schlafzustand;4.00;1;0;
26.01.10;Ralf Hummel;077251-3336;110;gesic /oet. gesic /oet . from s49;4;0;0;
26.01.10;Brendan van Zyl;09.00455-250;110;F142 Allg. Projekttätigkeiten: Deliverables erzeugen/ Base Line Konfig. Waiting for authoring and general work;3.00;1;0;
26.01.10;Brendan van Zyl;077472-2362;181;Bugfixen Regressionstests. ;5;0;0;
26.01.10;Jason Smith;077472-0;110;Bugfixing F141 nab after testing. ;8;1;0;
26.01.10;Justin Jansen Van Vuuren;077251-3528;110;8501: allg. Projeckttaetigkeiten - No task for waiting for authoring. G1 D3 database was down for 2.5 hours and waiting for authoring;4.00;1;0;
26.01.10;Justin Jansen Van Vuuren;077251-3463;120;6001: Kombi Wartungsintervall setzen: Impl. C1.6/aeB1. Implemeted CTs but couldnt run PAG Application Start;3.00;0;0;
26.01.10;Justin Jansen Van Vuuren;077353-11583;181;8501: E1 M5: Assisting colleagues. Helped colleagues with ODX and CTs implementation;1;0;0;
27.01.10;Nico Claassen;077353-2938;110;8501: E1 M5: allg. Projekttätigkeiten A1.15/ae19. Assisting colleagues, genral admin;3.00;1;0;
27.01.10;Nico Claassen;077353-2929;110;8501: E1 M5: CoMod A1.4/ae19. Task tracking and assignments.;2.00;0;0;
27.01.10;Nico Claassen;09.00582-178;110;1020: 9x6: Kombi I: ECU Analyse. Further analysis of coding options;3;0;0;
27.01.10;Malcolm Vorster;077353-10552;181;1604: E1 M5: Bugfixing /ae15. Working on Bug 21221 - PIWIS and PIDT respond the same;6.00;1;0;
27.01.10;Malcolm Vorster;077353-9551;110;8501: E1 M5: allg. Projekttätigkeiten. New PIDT Build, also setting up routing table for Webstart ODX Auth;1.00;0;0;
27.01.10;Malcolm Vorster;077353-6338;190;8501: E1 M5: Modular Impl old CTS. Closing task after finilising procedure;1;0;0;
27.01.10;Graham Meyer;077353-9523;110;7001: E1: Rework GESiC Modularize: Testspec /Sim B1.2/ae20. Implementing new Test sequnce;6.00;1;0;
27.01.10;Graham Meyer;077353-10867;110;8185: Warten auf Authoring (Performance-Probleme bei Ausführung). Waiting for authoring - CTS execution;1.00;0;0;
27.01.10;Graham Meyer;077353-11905;181;6124: E1 M5: FZGweite Fkt: GESiC allg 5.4: BF+Test. Bug found during E1 GESiC Sequnce rework;1;0;0;
27.01.10;Thando Katywa;077598-0;920;Sick leave. ;9;0;0;
27.01.10;Ludumo Sankobe;077251-3398;110;8185: Warten auf Authoring (Performance-Probleme bei Ausführung). Authoring Slow and Freezes more often(Out of memory Error);4.00;1;0;
27.01.10;Ludumo Sankobe;077251-3455;120;5001: Zusatzheizung: Leitungsbefüllung: Ablauf Impl. C5.8/aeB1. Implemanting Zusatzheizung CTS;4;0;0;
27.01.10;Paul Helliwell;077251-3545;170;8503: GESIC: Training of collegues. Assisting collegeues with migration of GESiC Sequences;4.00;1;0;
27.01.10;Paul Helliwell;077353-1088;110;8501: E1 M5: allg. Projekttätigkeiten A1.15/ae15. Assisting collegeues with code freeze bugs;2.00;0;0;
27.01.10;Paul Helliwell;077353-11916;181;6127: E1 M5: FZGweite Fkt: Bugfixing Abläufe 5.4: BF+Test. Analysis and fixing of bugs;2;0;0;
27.01.10;Richard Raymond;077353-10721;170;8501: E1 M5: Assisting colleagues. Assisting with various issues;2.00;1;0;
27.01.10;Richard Raymond;077353-11921;181;6127: E1 M5: FZGweite Fkt: Bugfixing Abläufe 5.4: BF+Test. Investigation of bugs, and bug fixing;6;0;0;
27.01.10;Johannes Geldenhuys;09.00582-96;170;8503: 9x6: get into Subject E1.3/ae20. ;4.00;1;0;
27.01.10;Johannes Geldenhuys;09.00582-122;110;8501: 9x6: allg. Projekttätigkeit C1.3/ae20. ;4;0;0;
27.01.10;Ntombenkosi Maldaki;077353-0;181;6127: E1 M5: FZGweite Fkt: Bugfixing Abläufe 5.4: BF+Test. GESIC rework PASM-Befüllung;8;1;0;
27.01.10;Abdul-Aziz Hendricks;077353-0;181;6127: E1 M5: FZGweite Fkt: Bugfixing Abläufe 5.4: BF+Test. GESIC rework of gesicDME_Kurztests_E1_ME711;4.00;1;0;
27.01.10;Abdul-Aziz Hendricks;077353-0;181;6127: E1 M5: FZGweite Fkt: Bugfixing Abläufe 5.4: BF+Test. GESIC rework of gesicDME_Systemanpassung;4;0;0;
27.01.10;Ralf Hummel;077353-0;181;GESIC rework PSM Kalibrierung. GESIC rework PSM Kalibrierung;4.00;1;0;
27.01.10;Ralf Hummel;077353-0;181;GESIC rework Sitz_F	De-Initialisieren. GESIC rework Sitz_F	De-Initialisieren;4;0;0;
27.01.10;Brendan van Zyl;09.00455-250;110;F142 Allg. Projekttätigkeiten: Deliverables erzeugen/ Base Line Konfig. Waiting for authoring and general work;1.00;1;0;
27.01.10;Brendan van Zyl;077472-2362;181;Bugfixen Regressionstests. ;2.00;0;0;
27.01.10;Brendan van Zyl;077251-3491;140;TS DME Erststart. ;5;0;0;
27.01.10;Jason Smith;077353-0;110;Working on bug #21066,#21064. Installing new authoring+PIDT after transfer from Ferrari to Porsche. ;2.00;1;0;
27.01.10;Jason Smith;077251-3460;110;Working on test specification for Kombi Wartungsintervallgrenzen setzen. ;6;0;0;
27.01.10;Justin Jansen Van Vuuren;077353-12094;181;6127: E1 M5: FZGweite Fkt: Bugfixing Ablaufe 5.4: BF+Test. Worked on bug #21162, couldnt find the problem.;3.00;1;0;
27.01.10;Justin Jansen Van Vuuren;077353-11583;170;8501: E1 M5: Assisting colleagues. Helped colleagues with ODX, simulations, CTS implementation;2.00;0;0;
27.01.10;Justin Jansen Van Vuuren;077251-3463;120;6001: Kombi Wartungsintervall setzen: Impl. C1.6/aeB1. Worked on CTS.;2.00;0;0;
27.01.10;Justin Jansen Van Vuuren;077251-3528;110;8501: E1 M5: allg. Projekttätigkeiten (Meeting). Waiting for authoring - No task to book it on.;1;0;0;
28.01.10;Nico Claassen;077251-1545;110;8501: E1 M5: allg. Projekttätigkeiten. Task tracking and assignments.;2.00;1;0;
28.01.10;Nico Claassen;09.00582-178;110;1020: 9x6: Kombi I: ECU Analyse. Analysis of kombi03.ide and kombi03n.ide;4.00;0;0;
28.01.10;Nico Claassen;077353-2938;110;8501: E1 M5: allg. Projekttätigkeiten A1.15/ae19. Assisting colleagues, genral admin;2;0;0;
28.01.10;Malcolm Vorster;077353-10552;110;8501: E1 M5: allg. Projekttätigkeiten. Assisiting colleague's and general admin on SVN;2.00;1;0;
28.01.10;Malcolm Vorster;077353-10552;181;1604: E1 M5: Bugfixing /ae15. Overall bugfixing and assisting colleague's with bug interpretation;6;0;0;
28.01.10;Graham Meyer;077353-11905;181;6124: E1 M5: FZGweite Fkt: GESiC allg 5.4: BF+Test. Bug found during E1 GESiC Sequnce rework;4.00;1;0;
28.01.10;Graham Meyer;077353-10867;110;8185: Warten auf Authoring (Performance-Probleme bei Ausführung). Problem with deliverable creation;3.00;0;0;
28.01.10;Graham Meyer;077353-9523;110;7001: E1: Rework GESiC Modularize: Testspec /Sim B1.2/ae20. Implementing new Test sequnce;1;0;0;
28.01.10;Thando Katywa;077353-2946;110;Common project tasks and setting up Pidt. Installing pidt and delta setup.;1.00;1;0;
28.01.10;Thando Katywa;077353-6170;110;	 8185: Warten auf Authoring (Performance-Probleme bei Ausführung). Waiting for response from authoring;1.50;0;0;
28.01.10;Thando Katywa;077353-10549;181;Bug testing and fixing. Re-implemeting lost changes in D3 for alternative verbau problem on Flashing CTSs and testing it.;5.5;0;0;
28.01.10;Ludumo Sankobe;077251-3398;110;8185: Warten auf Authoring (Performance-Probleme bei Ausführung). Authoring Slow and Freezes more often(Out of memory Error);4.00;1;0;
28.01.10;Ludumo Sankobe;077251-3455;120;5001: Zusatzheizung: Leitungsbefüllung: Ablauf Impl. C5.8/aeB1. Implemanting Zusatzheizung CTS;4;0;0;
28.01.10;Paul Helliwell;077251-3545;170;8503: GESIC: Training of collegues. Assisting collegues with GESiC migration task;4.00;1;0;
28.01.10;Paul Helliwell;077353-11916;181;6127: E1 M5: FZGweite Fkt: Bugfixing Abläufe 5.4: BF+Test. Analysis of session change bugs. FIxing of documentation;4;0;0;
28.01.10;Richard Raymond;077353-10721;170;8501: E1 M5: Assisting colleagues. Assisting with various issues;2.00;1;0;
28.01.10;Richard Raymond;077353-11921;181;6127: E1 M5: FZGweite Fkt: Bugfixing Abläufe 5.4: BF+Test. Bugfixing various issues - BUG#21039;6;0;0;
28.01.10;Johannes Geldenhuys;09.00582-96;170;8503: 9x6: get into Subject E1.3/ae20. ;4.00;1;0;
28.01.10;Johannes Geldenhuys;09.00582-122;110;8501: 9x6: allg. Projekttätigkeit C1.3/ae20. ;4;0;0;
28.01.10;Ntombenkosi Maldaki;077353-0;181;6127: E1 M5: FZGweite Fkt: Bugfixing Abläufe 5.4: BF+Test. GESIC rework PASM-Entlüften;8;1;0;
28.01.10;Abdul-Aziz Hendricks;077353-0;181;6127: E1 M5: FZGweite Fkt: Bugfixing Abläufe 5.4: BF+Test. GESIC rework of gesicSwsgBetriebswerteAbblendlichtZuruecksetzen;4.00;1;0;
28.01.10;Abdul-Aziz Hendricks;077353-0;181;6127: E1 M5: FZGweite Fkt: Bugfixing Abläufe 5.4: BF+Test. GESIC rework of gesicSwsgBetriebswerteFernlichtZuruecksetzen;2.00;0;0;
28.01.10;Abdul-Aziz Hendricks;077353-0;181;6127: E1 M5: FZGweite Fkt: Bugfixing Abläufe 5.4: BF+Test. GESIC rework of gesicSwsgBetriebswerteStatischesKurvenlichtZuruecksetzen;2;0;0;
28.01.10;Ralf Hummel;077353-0;181;GESIC rework PSM	Kalibrierung. GESIC rework PSM	Kalibrierung;2.00;1;0;
28.01.10;Ralf Hummel;077353-0;181;GESIC rework RDK SzstemPrufung. GESIC rework RDK SzstemPrufung;4.00;0;0;
28.01.10;Ralf Hummel;077353-0;181;GESIC rework Sitz_B	De-Initialisieren. GESIC rework Sitz_B	De-Initialisieren;2;0;0;
28.01.10;Brendan van Zyl;09.00455-250;110;F142 Allg. Projekttätigkeiten: Deliverables erzeugen/ Base Line Konfig. General work;1.00;1;0;
28.01.10;Brendan van Zyl;077251-3491;140;TS DME Erststart. ;5.00;0;0;
28.01.10;Brendan van Zyl;077251-3494;110;TS DME Adaptionswerte löschen. ;2;0;0;
28.01.10;Jason Smith;077251-3501;110;Working on test specification for Kombi Tankgeberkalibrierung. ;8;1;0;
28.01.10;Justin Jansen Van Vuuren;077251-3528;110;8501: E1 M5: allg. Projekttätigkeiten (Meeting). Waiting for authoring - No waiting for authoring task.;3.00;1;0;
28.01.10;Justin Jansen Van Vuuren;077251-3463;120;6001: Kombi Wartungsintervall setzen: Impl. C1.6/aeB1. Worked on CTS, had to wait about 2 hours for a module to be made.;5;0;0;
29.01.10;Nico Claassen;077353-2929;110;8501: E1 M5: CoMod A1.4/ae19. Timesheets;1.00;1;0;
29.01.10;Nico Claassen;09.00582-90;110;8503: 9x6: get into Subject E1.3/ae20. Installation and setup of PIWIS and KTS250 + simulations;5.00;0;0;
29.01.10;Nico Claassen;077353-2938;110;8501: E1 M5: allg. Projekttätigkeiten A1.15/ae19. Assisting colleagues, genral admin;1.00;0;0;
29.01.10;Nico Claassen;09.00582-178;110;1020: 9x6: Kombi I: ECU Analyse. Further cosing analysis.;1;0;0;
29.01.10;Nico Claassen;077353-12119;181;5281: E1 M5: RDK: Gen ODX-Bedat: Kodier: Bugfixing. No Work;0;0;0;
29.01.10;Nico Claassen;077353-11893;181;5900: E1 M5: PCM2-TV-Tuner: Bugfixing zu Integrationstest. No Work;0;0;0;
29.01.10;Nico Claassen;077353-11899;181;5660: E1 M5: PCM2-Telefon: Bugfixing zu Integrationstest. No Work;0;0;0;
29.01.10;Nico Claassen;077353-12135;181;6127: E1 M5: FZGweite Fkt: Bugfixing Abläufe 5.4: BF+Test. No Work;0;0;0;
29.01.10;Malcolm Vorster;077353-9551;110;8501: E1 M5: allg. Projekttätigkeiten. Time sheets, assisting colleague wtith PH interpretation;3.00;1;0;
29.01.10;Malcolm Vorster;077353-10552;181;1604: E1 M5: Bugfixing /ae15. E1 Bugfixing as per bug list, checking data into SVN etc;5;0;0;
29.01.10;Malcolm Vorster;077251-3544;120;6050: GESIC: sequence migration. Closed;0;0;0;
29.01.10;Malcolm Vorster;077353-11709;181;5340: E1 M5: Kombi: Bugfixing zu Integrationstest. Closed;0;0;0;
29.01.10;Malcolm Vorster;077353-12051;181;6127: E1 M5: FZGweite Fkt: Bugfixing Abläufe 5.4: BF+Test. Closed;0;0;0;
29.01.10;Malcolm Vorster;077353-12095;110;5425: E1 M5: PCM2-MMI: Komplex Codier: Testspec. Closed;0;0;0;
29.01.10;Malcolm Vorster;077353-11888;181;5800: E1 M5: CDR23-GW: Bugfixing zu Integrationstest. Closed;0;0;0;
29.01.10;Malcolm Vorster;077353-11894;181;5900: E1 M5: PCM2-TV-Tuner: Bugfixing zu Integrationstest. Closed;0;0;0;
29.01.10;Malcolm Vorster;077353-11897;181;5620: E1 M5: PCM2-Bose: Bugfixing zu Integrationstest. Closed;0;0;0;
29.01.10;Graham Meyer;077353-9523;110;7001: E1: Rework GESiC Modularize: Testspec /Sim B1.2/ae20. Creating new Test Spec;8;1;0;
29.01.10;Graham Meyer;077353-12075;140;5863: E1 M5: PCM2-SBS2: Mikrofontest: Modultest (Zusatz). ;0;0;0;
29.01.10;Graham Meyer;077353-12076;181;5863: E1 M5: PCM2-SBS2: Mikrofontest: Bugfixing (Zusatz). ;0;0;0;
29.01.10;Graham Meyer;077353-11989;181;6060: E1 M5: PCM3.0 (24.100): Verstärker: Bugfixing zu Integrationstest. ;0;0;0;
29.01.10;Graham Meyer;077353-8645;190;8501: E1 M5: Modular Impl old CTS. ;0;0;0;
29.01.10;Graham Meyer;077353-11905;181;6124: E1 M5: FZGweite Fkt: GESiC allg 5.4: BF+Test. ;0;0;0;
29.01.10;Graham Meyer;077353-11918;181;6127: E1 M5: FZGweite Fkt: Bugfixing Abläufe 5.4: BF+Test. ;0;0;0;
29.01.10;Thando Katywa;077353-2946	;110;Common project tasks and setting up Pidt. Installing pidt and delta setup.;1.00;1;0;
29.01.10;Thando Katywa;077353-6170;110;8185: Warten auf Authoring (Performance-Probleme bei Ausführung). Waiting for response from authoring	;1.00;0;0;
29.01.10;Thando Katywa;077353-10549;181;Bug-fixing and testing. Fixing and testing bugs 20613, 20967;1.50;0;0;
29.01.10;Thando Katywa;077353-10549;181;Bug-fixing and testing. Making sure flashing CTSs can connect to the base variant in new Pidt with Alternate verbau;4.5;0;0;
29.01.10;Thando Katywa;077353-12120;181;5400: E1 M5: PCM2-GW: Bugfixing zu Integrationstest. Closing task;0;0;0;
29.01.10;Thando Katywa;077353-11722;181;5860: E1 M5: PCM2-SBS2: Bugfixing zu Integrationstest. Closing task;0;0;0;
29.01.10;Thando Katywa;077353-11904;181;5920: E1 M5: PCM2 MOST-KomponentPrüfi: Bugfixing zu Integrationstest. Closing task;0;0;0;
29.01.10;Thando Katywa;077353-11719;181;5820: E1 M5: PCM2-CD-Navi: Bugfixing zu Integrationstest. Closing task;0;0;0;
29.01.10;Thando Katywa;077353-11714;181;5460: E1 M5: Airbag: Bugfixing zu Integrationstest. Closing task;0;0;0;
29.01.10;Thando Katywa;077353-11712;181;5360: E1 M5: SWSG: Bugfixing zu Integrationstest. Closing task;0;0;0;
29.01.10;Thando Katywa;077353-11642;181;5280: E1 M5: RDK: Bugfixing zu Integrationstest. Closing task;0;0;0;
29.01.10;Thando Katywa;077353-11674;140;5464: E1 M5: Airbag: SG-Tausch: Modultest. Closing task;0;0;0;
29.01.10;Thando Katywa;077353-11621;181;5322: E1 M5: Gateway K-Line: SG-Tausch: Bugfixing zum Modultest. Closing task;0;0;0;
29.01.10;Thando Katywa;077353-10957;181;5160: E1 M5: KESSY: Bugfixing zu Integrationstest. Closing task;0;0;0;
29.01.10;Ludumo Sankobe;077251-1372;110;8501: G1: allg. Projekttätigkeiten. Installing New PIDT and Authoring for D3;2.00;1;0;
29.01.10;Ludumo Sankobe;077251-3398;110;8185: Warten auf Authoring (Performance-Probleme bei Ausführung). Authoring Slow and Freezes(reason:Out of memory Error);3.00;0;0;
29.01.10;Ludumo Sankobe;077251-3490;120;6005: DME Erststart: Impl. C6.6/aeB1. Implementation of CTS PAG_G1_BDE_Erststart;3;0;0;
29.01.10;Ludumo Sankobe;077251-3456;140;5001: Zusatzheizung: Leitungsbefüllung: Test gegen Sim C5.10/aeB1. this task is not started yet( 0 %);0;0;0;
29.01.10;Ludumo Sankobe;077353-7681;190;8501: E1 M5: Modular Impl old CTS. Ordered to close Task;0;0;0;
29.01.10;Ludumo Sankobe;077353-1165;181;5720: E1 M5: AWS: Bugfixing zu Integrationstest. Ordered to close Task;0;0;0;
29.01.10;Ludumo Sankobe;077353-11806;181;5623: E1 M5: PCM2-Bose: Manueller/Automatischer Test: Bugfixing. Ordered to close Task;0;0;0;
29.01.10;Ludumo Sankobe;077353-12098;181;5622: E1 M5: PCM2-Bose: Mikrofon- / Lautsprecherselbsttest: Bugfixing. Ordered to close Task;0;0;0;
29.01.10;Ludumo Sankobe;077251-3490;120;6005: DME Erststart: Impl. C6.6/aeB1. Ordered to close Task;0;0;0;
29.01.10;Ludumo Sankobe;077251-3491;140;6005: DME Erststart: Test gegen Sim. C6.7/aeB1. Ordered to close Task;0;0;0;
29.01.10;Ludumo Sankobe;077251-3455;120;5001: Zusatzheizung: Leitungsbefüllung: Ablauf Impl. C5.8/aeB1. Ordered to close Task;0;0;0;
29.01.10;Ludumo Sankobe;077251-3401;181;6010: Bugfixing. Ordered to close Task;0;0;0;
29.01.10;Paul Helliwell;077353-11916;181;6127: E1 M5: FZGweite Fkt: Bugfixing Abläufe 5.4: BF+Test. Updating of documentation and fixing PASM Calibration, AWS Kalibration;6.00;1;0;
29.01.10;Paul Helliwell; 077251-3545;170;8503: GESIC: Training of collegues. Migrating of GESiCs;2;0;0;
29.01.10;Paul Helliwell;077353-11883;181;5940: E1 M5: FÜP: Bugfixing zu Integrationstest. Closing Task;0;0;0;
29.01.10;Paul Helliwell;077353-7413;120;4465: E1 M5: Airbag: PTTD: Textmapping. Closing Task;0;0;0;
29.01.10;Paul Helliwell;077353-9534;110;7002: E1: ECU replacement CTS: Testspec D1.3/ae18. Closing Task;0;0;0;
29.01.10;Paul Helliwell;077353-7414;120;4465: E1 M5: Airbag: PTTD: Attributierung. Closing Task;0;0;0;
29.01.10;Paul Helliwell;077353-7415;140;4465: E1 M5: Airbag: PTTD: Modultest. Closing Task;0;0;0;
29.01.10;Paul Helliwell;077353-7416;181;4465: E1 M5: Airbag: PTTD: Bugfixing. Closing Task;0;0;0;
29.01.10;Paul Helliwell;077353-11916;181;6127: E1 M5: FZGweite Fkt: Bugfixing Abläufe 5.4: BF+Test. Closing Task;0;0;0;
29.01.10;Paul Helliwell;077353-11995;181;6080: E1 M5: PCM3.0 (24.100): FÜP: Bugfixing zu Integrationstest. Closing Task;0;0;0;
29.01.10;Paul Helliwell;077353-12099;181;5280: E1 M5: RDK: Bugfixing zu Integrationstest. Closing Task;0;0;0;
29.01.10;Paul Helliwell;077353-12100;181;5720: E1 M5: AWS: Bugfixing zu Integrationstest. Closing Task;0;0;0;
29.01.10;Paul Helliwell;077353-10550;181;1604: E1 M5: Bugfixing /ae15. Closing Task;0;0;0;
29.01.10;Paul Helliwell;077353-10568;182;1603: E1 M5: Bugfixing /ae15. Closing Task;0;0;0;
29.01.10;Richard Raymond;077353-11921;181;6127: E1 M5: FZGweite Fkt: Bugfixing Abläufe 5.4: BF+Test. Bugfixing;8;1;0;
29.01.10;Richard Raymond;077353-11901;181;5680: E1 M5: PCM2-DVD-Navi: Bugfixing zu Integrationstest. Closing Task;0;0;0;
29.01.10;Richard Raymond;077353-11973;181;6020: E1 M5: PCM3.0 (24.100): HeadUnit: Bugfixing zu Integrationstest. Closing Task;0;0;0;
29.01.10;Richard Raymond;077353-11951;120;6023: E1 M5: PCM3.0 (24.100): HeadUnit: Lautsprechertest: Implementierung. Closing Task;0;0;0;
29.01.10;Richard Raymond;077353-12124;110;6022: E1 M5: PCM3.0 (24.100): HeadUnit: Selbsttest: Testspec. Closing Task;0;0;0;
29.01.10;Johannes Geldenhuys;09.00582-96;170;8503: 9x6: get into Subject E1.3/ae20. ;4.00;1;0;
29.01.10;Johannes Geldenhuys;09.00582-122;110;8501: 9x6: allg. Projekttätigkeit C1.3/ae20. ;4;0;0;
29.01.10;Johannes Geldenhuys;077353-9573;181;6127: E1 M5: FZGweite Fkt: Bugfixing Abläufe 5.4: BF+Test. No Work;0;0;0;
29.01.10;Johannes Geldenhuys;077353-11891;181;5420: E1 M5: PCM2-MMI: Bugfixing zu Integrationstest. No Work;0;0;0;
29.01.10;Johannes Geldenhuys;077353-11902;181;5680: E1 M5: PCM2-DVD-Navi: Bugfixing zu Integrationstest. No Work;0;0;0;
29.01.10;Johannes Geldenhuys;077353-7689;190;501: E1 M5: Modular Impl old CTS. No Work;0;0;0;
29.01.10;Ntombenkosi Maldaki;077353-0;181;6127: E1 M5: FZGweite Fkt: Bugfixing Abläufe 5.4: BF+Test. GESIC rework SDI4.1-Transport-/Produktionsmodus;8;1;0;
29.01.10;Abdul-Aziz Hendricks;077353-0;181;6127: E1 M5: FZGweite Fkt: Bugfixing Abläufe 5.4: BF+Test. GESIC rework of gesicWZHKraftstoffleitungErstbefuellung;1.50;1;0;
29.01.10;Abdul-Aziz Hendricks;077353-0;181;6127: E1 M5: FZGweite Fkt: Bugfixing Abläufe 5.4: BF+Test. GESIC rework of gesicWZHSteuergeraetEntriegeln;1.50;0;0;
29.01.10;Abdul-Aziz Hendricks;077353-0;181;6127: E1 M5: FZGweite Fkt: Bugfixing Abläufe 5.4: BF+Test. GESIC rework of gesicPCM2_CD-Navigation_GPS_Position;1.50;0;0;
29.01.10;Abdul-Aziz Hendricks;077353-0;181;6127: E1 M5: FZGweite Fkt: Bugfixing Abläufe 5.4: BF+Test. GESIC rework of gesicDME_Kurztests_E1_SDI;3.5;0;0;
29.01.10;Ralf Hummel;077353-0;181;GESIC rework RDK SzstemPrufung. GESIC rework RDK SzstemPrufung;2.00;1;0;
29.01.10;Ralf Hummel;077353-0;181;GESIC rework PASM Befüllung. GESIC rework PAS Befüllung;2.00;0;0;
29.01.10;Ralf Hummel;077353-0;181;GESIC rework PSM	Kalibrierung. GESIC rework PSM	Kalibrierung;2.00;0;0;
29.01.10;Ralf Hummel;077353-0;181;GESIC rework Sitz_B De-Initialisieren. GESIC rework Sitz_B De-Initialisieren;2;0;0;
29.01.10;Brendan van Zyl;09.00455-250;110;F142 Allg. Projekttätigkeiten: Deliverables erzeugen/ Base Line Konfig. General work;1.00;1;0;
29.01.10;Brendan van Zyl;077472-2362;181;Bugfixen Regressionstests. ;1.00;0;0;
29.01.10;Brendan van Zyl;077251-3494;110;TS DME Adaptionswerte löschen. ;6;0;0;
29.01.10;Jason Smith;077251-3501;110;Working on test specification for Kombi Tankgeberkalibrierung. ;4.00;1;0;
29.01.10;Jason Smith;077251-3460;110;Working on test specification Kombi Gesamtwegstrecke setzen. ;4;0;0;
29.01.10;Justin Jansen Van Vuuren;077251-3462;120;6001: Kombi Wartungsintervall setzen: Stringresourcen C1.5/aeB1. Finished implementing the string resource;0.00;1;0;
29.01.10;Justin Jansen Van Vuuren;077251-3463;120;6001: Kombi Wartungsintervall setzen: Impl. C1.6/aeB1. Compelted CTs implementation;2.00;0;0;
29.01.10;Justin Jansen Van Vuuren;077251-3469;120;6002: Kombi Gesamtwegstrecke setzen: Imp. Worked on CTS;4.00;0;0;
29.01.10;Justin Jansen Van Vuuren;077251-3503;120;6007: Kombi Tankgeberkalibrierung: Imp. Worked on CTS;2;0;0;