"05.04.10","1","100023","0","910","Urlaub","","0","	Holiday. Public Holiday","07:00","16:00","8","60",
"06.04.10","2","077353","12376","182","Fehlerbes. nach Ausl. (Bugzilla)","","90","6320: E1 M5: Bugfixing: BF+Test: #20095. Investigating Cause of flashing CTS","07:00","16:00","2","60",
"06.04.10","2","077353","12376","182","Fehlerbes. nach Ausl. (Bugzilla)","","45","6320: E1 M5: Bugfixing: BF+Test: #20095. Waiting for authoring","","","2","0",
"06.04.10","2","077353","12381","182","Fehlerbes. nach Ausl. (Bugzilla)","","20","6320: E1 M5: Bugfixing: BF+Test: #22326. Investigating changes required from G1 database","","","1","0",
"06.04.10","2","100018","38","110","Engineering","","0","S4/DSA overall task. Assisting collegue with setting up for PIWIS source code logging","","","1","0",
"06.04.10","2","100018","38","110","Engineering","","0","S4/DSA overall task. Assisting collegue with Single ECU job for writing of VIN and PIWIS source analysis","","","1","0",
"06.04.10","2","077353","12277","182","Fehlerbes. nach Ausl. (Bugzilla)","","25","6320: E1 M5: Bugfixing: BF+Test: #21016. Analysis of Session changes in SBS2 Microphone test","","","1","0",
"07.04.10","3","077353","12289","182","Fehlerbes. nach Ausl. (Bugzilla)","","80","6320: E1 M5: Bugfixing: BF+Test: #20719. Reworking sequence due to new services.","07:00","16:00","7","60",
"07.04.10","3","100018","38","110","Engineering","","0","S4/DSA overall task. Assisting collegue with Netbeans and borland to recompile PIWIS source code","","","1","0",
"08.04.10","4","100025","317","170","Schulung","","0","Schulungen 2010. DSA Sequence builder","07:00","16:00","6","60",
"08.04.10","4","100018","38","110","Engineering","","0","S4/DSA overall task. Discussion of DSA Sequence builder","","","1","0",
"08.04.10","4","077353","12277","182","Fehlerbes. nach Ausl. (Bugzilla)","","0","182	Porsche STU	6320: E1 M5: Bugfixing: BF+Test: #21016	. Investigation of bug cause and possible solutions","","","0,5","0",
"08.04.10","4","077353","12289","182","Fehlerbes. nach Ausl. (Bugzilla)","","90","6320: E1 M5: Bugfixing: BF+Test: #20719. Reworking sequence due to new services.","","","0,5","0",
"09.04.10","5","077353","12288","182","Fehlerbes. nach Ausl. (Bugzilla)","","50","6320: E1 M5: Bugfixing: BF+Test: #16018. Reworking of AudioTest sequence to only use BOSE ecu and modified services","07:00","16:00","8","60",
