"18.01.10","1","077353","10867","110","Engineering","","0","8185: Warten auf Authoring (Performance-Probleme bei Ausführung). Importing CTSs into new E1 database","07:00","16:00","2","60",
"18.01.10","1","077353","11791","181","Fehlerbes. vor Ausl. (Bugzilla)","","20","5428: E1 M5: PCM2-MMI: SG-Tausch: Bugfixing zum Modultest. Bugfixing bugs found during module test","","","5","0",
"18.01.10","1","077353","10867","110","Engineering","","0","8185: Warten auf Authoring (Performance-Probleme bei Ausführung). Waiting for authoring - CTS execution","","","1","0",
"19.01.10","2","077353","10867","110","Engineering","","0","8185: Warten auf Authoring (Performance-Probleme bei Ausführung). Waiting for authoring - CTS execution","07:00","16:00","3","60",
"19.01.10","2","077353","11791","181","Fehlerbes. vor Ausl. (Bugzilla)","","50","5428: E1 M5: PCM2-MMI: SG-Tausch: Bugfixing zum Modultest. Bugfixing bugs found during module test","","","5","0",
"20.01.10","3","077353","10867","110","Engineering","","0","8185: Warten auf Authoring (Performance-Probleme bei Ausführung). Waiting for authoring - CTS execution","07:00","16:00","3","60",
"20.01.10","3","077353","11791","181","Fehlerbes. vor Ausl. (Bugzilla)","","70","5428: E1 M5: PCM2-MMI: SG-Tausch: Bugfixing zum Modultest. Bugfixing bugs found during module test","","","5","0",
"21.01.10","4","077353","9560","110","Engineering","","0","8501: E1 M5: allg. Projekttätigkeiten. Meeting","07:00","16:00","1,5","60",
"21.01.10","4","077353","10867","110","Engineering","","0","8185: Warten auf Authoring (Performance-Probleme bei Ausführung). Waiting for Authoring","","","2,5","0",
"21.01.10","4","077353","11791","181","Fehlerbes. vor Ausl. (Bugzilla)","","80","5428: E1 M5: PCM2-MMI: SG-Tausch: Bugfixing zum Modultest. Fixing simulation to get proper variant identification","","","4","0",
"22.01.10","5","077353","10867","110","Engineering","","0","8185: Warten auf Authoring (Performance-Probleme bei Ausführung). Server down time, deliverable creation problems","07:00","16:00","4","60",
"22.01.10","5","077353","11791","181","Fehlerbes. vor Ausl. (Bugzilla)","","90","5428: E1 M5: PCM2-MMI: SG-Tausch: Bugfixing zum Modultest. Bugfixing bugs found during module test","","","4","0",
