"15.11.10","1","09.00582","2741","181","Fehlerbes. vor Ausl. (Bugzilla)","","0","5029: Bugfixing: CTSs. PCM2 Sg-Tausch bug fixing","07:00","16:00","7,8","60",
"15.11.10","1","100018","47","110","Engineering","","0","Wochenaufgaben AES. Morning meeting","","","0,2","0",
"16.11.10","2","100018","47","110","Engineering","","0","Wochenaufgaben AES. Morning meeting","07:00","16:00","0,2","60",
"16.11.10","2","09.00582","2741","181","Fehlerbes. vor Ausl. (Bugzilla)","","0","5029: Bugfixing: CTSs. PCM2 Sg-Tausch bug fixing","","","7,8","0",
"17.11.10","3","100018","47","110","Engineering","","0","Wochenaufgaben AES. Morning meeting","07:00","16:00","0,2","60",
"17.11.10","3","09.00582","120","110","Engineering","","0","8501: 9x6: allg. Projekttätigkeit C1.3/ae31. 9x6 project meeting","","","0,6","0",
"17.11.10","3","09.00582","120","110","Engineering","","0","8501: 9x6: allg. Projekttätigkeit C1.3/ae31. Kurztest framework discussion","","","0,5","0",
"17.11.10","3","09.00582","2741","181","Fehlerbes. vor Ausl. (Bugzilla)","","0","5029: Bugfixing: CTSs. PCM2 Sg-Tausch bug fixing","","","6,7","0",
"18.11.10","4","100018","47","110","Engineering","","0","Wochenaufgaben AES. Morning meeting","07:00","16:00","0,2","60",
"18.11.10","4","09.00582","2741","181","Fehlerbes. vor Ausl. (Bugzilla)","","0","5029: Bugfixing: CTSs. Bug 26322, 26925, 26634","","","7,8","0",
"19.11.10","5","09.00582","2741","181","Fehlerbes. vor Ausl. (Bugzilla)","","0","5029: Bugfixing: CTSs. Bugfixing","07:00","16:00","7","60",
"19.11.10","5","100018","47","110","Engineering","","0","Wochenaufgaben AES. Morning meeting","","","0,2","0",
"19.11.10","5","100018","47","110","Engineering","","0","Wochenaufgaben AES. Timesheets","","","0,8","0",
