"18.01.10","1","09.00582","0","110","Engineering","","0","9x6 Allg.Projekttätigkeiten. Download and install required software for analysis.","07:00","16:00","1","60",
"18.01.10","1","09.00582","0","110","Engineering","","0","9x6 Allg.Projekttätigkeiten. Arrangements for SVN access.","","","0,5","0",
"18.01.10","1","09.00582","0","110","Engineering","","0","9x6 Allg.Projekttätigkeiten. Getting into subject - Analysis.","","","1","0",
"18.01.10","1","077353","2938","110","Engineering","","0","8501: E1 M5: allg. Projekttätigkeiten A1.15/ae19. Assisting colleagues with problems.","","","3","0",
"18.01.10","1","077353","2929","110","Engineering","","0","8501: E1 M5: CoMod A1.4/ae19. Discussions about work / D3, work assignments, admin","","","2,5","0",
"19.01.10","2","077353","12104","120","Codierung","","100","6024: E1 M5: PCM3.0 (24.100): HeadUnit: Soll-/Ist Konfig: Modultest und Bugfixing. Bugfix for L10nText suppression not working.","07:00","16:00","4","60",
"19.01.10","2","077353","2938","110","Engineering","","0","8501: E1 M5: allg. Projekttätigkeiten A1.15/ae19. General admin, assisting colleagues.","","","4","0",
"20.01.10","3","077353","2938","110","Engineering","","0","8501: E1 M5: allg. Projekttätigkeiten A1.15/ae19. Department meeting","07:00","16:00","1,5","60",
"20.01.10","3","077353","2929","110","Engineering","","0","8501: E1 M5: CoMod A1.4/ae19. Setup testing of DSL lines and Router","","","3","0",
"20.01.10","3","077353","2938","110","Engineering","","0","8501: E1 M5: allg. Projekttätigkeiten A1.15/ae19. Create and check-in new Application start for E1 D3","","","1","0",
"20.01.10","3","077353","2938","110","Engineering","","0","8501: E1 M5: allg. Projekttätigkeiten A1.15/ae19. Assisting colleagues, genral admin","","","2","0",
"20.01.10","3","077251","1545","110","Engineering","","0","8501: G1: allg. Projekttätigkeiten. Assisting with G1 module problems","","","0,5","0",
"21.01.10","4","09.00582","0","110","Engineering","","0","9x6 Allg.Projekttätigkeiten. Configured software for 9x6 analysis and got into subject.","07:00","16:00","6","60",
"21.01.10","4","077353","2938","110","Engineering","","0","8501: E1 M5: allg. Projekttätigkeiten A1.15/ae19. ODA discussions and creating list of changes that must be done.","","","2","0",
"22.01.10","5","077353","2938","110","Engineering","","0","8501: E1 M5: allg. Projekttätigkeiten A1.15/ae19. Assisting colleagues, genral admin","07:00","16:00","3","60",
"22.01.10","5","077353","9721","181","Fehlerbes. vor Ausl. (Bugzilla)","","100","5063: E1 M5: SDI4.1. SG-Program: WFS: Bugfixing zum Modultest. From S46: Fixing bug 21218","","","2","0",
"22.01.10","5","077353","1913","110","Engineering","","0","8185: Warten auf Authoring (Performance-Probleme bei Ausführung). Saving, deliverable, check-in","","","0,5","0",
"22.01.10","5","09.00582","0","110","Engineering","","0","9x6 Allg.Projekttätigkeiten. Re-configure for analysis","","","0,5","0",
"22.01.10","5","077353","2929","110","Engineering","","0","8501: E1 M5: CoMod A1.4/ae19. Timesheets","","","1","0",
"22.01.10","5","09.00582","0","110","Engineering","","0","9x6 Allg.Projekttätigkeiten. ODA Module discussions","","","1","0",
