"16.08.10","1","09.00582","2134","140","Test","","100","1007: 9x6: PSM/ABS: Stellglieder_abs_0678: Modultest+Bugfixing. closing task","07:00","16:00","0","60",
"16.08.10","1","09.00582","2135","140","Test","","100","1007: 9x6: PSM/ABS: Stellglieder_abs_0123: Modultest+Bugfixing. closing task","","","0","0",
"16.08.10","1","100023","0","920","Krankheit","","0","Sick leave. Sick Leave","","","6","0",
"16.08.10","1","100018","53","110","Engineering","","0","Wochenaufgaben AES. Assist colleague with option items implimentation","","","2","0",
"17.08.10","2","09.00582","2138","140","Test","","90","1024: 9x6: Kombi: SG-Tausch_0x: Modultest+Bugfixing. Test CTS and bugfixing","07:00","16:00","6","60",
"17.08.10","2","100018","53","110","Engineering","","0","Wochenaufgaben AES. Updating pidt and config.Created deliverables","","","2","0",
"18.08.10","3","09.00582","2138","140","Test","","100","11024: 9x6: Kombi: SG-Tausch_0x: Modultest+Bugfixing. Test CTS and bugfixing","07:00","16:00","2","60",
"18.08.10","3","09.00582","2140","140","Test","","50","1024: 9x6: Kombi: SG-Tausch_PRE-READ_2000: Modultest+Bugfixing. Test CTS and bugfixing","","","4","0",
"18.08.10","3","100018","53","110","Engineering","","0","Wochenaufgaben AES. Reading Besteltye documentation and assisting colleague","","","2","0",
"19.08.10","4","100018","53","110","Engineering","","0","Wochenaufgaben AES. Correcting testspec results to correct 9x6 migration proj.","07:00","16:00","4","60",
"19.08.10","4","09.00582","2142","140","Test","","50","1024: 9x6: Kombi: SG-Tausch_POST-WRITE_2000: Modultest+Bugfixing. Test CTS and bugfixing","","","4","0",
"20.08.10","5","09.00582","2140","140","Test","","100","1024: 9x6: Kombi: SG-Tausch_PRE-READ_2000: Modultest+Bugfixing. Test CTS and bugfixing","07:00","16:00","3","60",
"20.08.10","5","09.00582","2142","140","Test","","100","1024: 9x6: Kombi: SG-Tausch_POST-WRITE_2000: Modultest+Bugfixing. Test CTS and bugfixing","","","3","0",
"20.08.10","5","100018","53","110","Engineering","","0","Wochenaufgaben AES. Updating timesheet  assisting colleague","","","2","0",
