"06.09.10","1","09.00582","2491","181","Fehlerbes. vor Ausl. (Bugzilla)","","0","5027: 9x6: Bugfixing: Abläufe: BF+Test. BugFixing Bugs: 25433, 25407, 25425","07:00","16:00","6","60",
"06.09.10","1","09.00582","2245","110","Engineering","","0","4042: 9x6: Alarmanlage/WFS: Wegfahrsperre: Testspec + erw. Sim. Updating Tespec After Review","","","2","0",
"07.09.10","2","09.00582","2253","140","Test","","100","4043: 9x6: Alarmanlage/WFS: Transponderschlüssel: Modultest+Bugfixing. Bugfixing and testing Transponderschlüssel CTS","07:00","16:00","8","60",
"08.09.10","3","09.00582","2247","120","Codierung","","100","4042: 9x6: Alarmanlage/WFS: Wegfahrsperre: Implementierung. Closing TAsk","07:00","16:00","0","60",
"08.09.10","3","09.00582","2250","110","Engineering","","100","4043: 9x6: Alarmanlage/WFS: Transponderschlüssel: Testspec + erw. Sim. Closing Task","","","0","0",
"08.09.10","3","09.00582","2372","140","Test","","50","2181: 9x6: Flashen Pre/Post CTS gen: WFS programmieren: Modultest+Bugfixing. Testing and Bugfixing WFS CTS","","","7,5","0",
"08.09.10","3","100025","316","170","Schulung","","0","Schulungen 2010. Training Colleague in CTS Creation","","","0,5","0",
"09.09.10","4","09.00582","2491","181","Fehlerbes. vor Ausl. (Bugzilla)","","0","5027: 9x6: Bugfixing: Abläufe: BF+Test. BugFixing Bug:25426","07:00","16:00","4","60",
"09.09.10","4","09.00582","2371","120","Codierung","","0","2181: 9x6: Flashen Pre/Post CTS gen: WFS programmieren: Implementierung. Implementing WFS CTS","","","4","0",
"10.09.10","5","09.00582","2371","120","Codierung","","80","2181: 9x6: Flashen Pre/Post CTS gen: WFS programmieren: Implementierung. Implementing WFS CTS","07:00","16:00","8","60",
