"24.05.10","1","100152","39","110","Engineering","","95","E1 Pirol EDC17 Kurztest Partikelfilter Service Generation PH. Continued creating PH for kurztest partikelfilter","07:00","16:00","8","60",
"25.05.10","2","100152","39","110","Engineering","","100","E1 Pirol EDC17 Kurztest Partikelfilter Service Generation PH. Continued with creating PH for kurztest partikelfilter","07:00","16:00","7","60",
"25.05.10","2","09.00582","124","110","Engineering","","0","9x6: allg. Projekttatigkeit. Fixing kombi actuator service for kombi2000 to make pdu available in OET.","","","1","0",
"26.05.10","3","100152","40","110","Engineering","","20","E1 Pirol EDC17 Kurztest Partikelfilter Service Generation Testspec + erw. Sim. Started creating the test specification and simulation.","07:00","16:00","8","60",
"27.05.10","4","100152","40","110","Engineering","","60","E1 Pirol EDC17 Kurztest Partikelfilter Service Generation Testspec + erw. Sim. Creating the test specification and simulation.","07:00","16:00","8","60",
"28.05.10","5","100152","40","110","Engineering","","100","E1 Pirol EDC17 Kurztest Partikelfilter Service Generation Testspec + erw. Sim. Creating the test specification and simulation.","07:00","16:00","8","60",
