"15.11.10","1","09.00582","2744","181","Fehlerbes. vor Ausl. (Bugzilla)","","0","5029: Bugfixing: ODX from s53. resolving Bug 26718, bug 26823 and bug 26816","07:00","16:00","8","60",
"16.11.10","2","09.00582","2717","181","Fehlerbes. vor Ausl. (Bugzilla)","","100","1020: 9x6: Kombi: Bugfixing zu Integrationstest. Completed","07:00","16:00","0","60",
"16.11.10","2","09.00582","2761","181","Fehlerbes. vor Ausl. (Bugzilla)","","0","5029: Bugfixing: ODXx. Resolving Bugzilla Bug 26718","","","5","0",
"16.11.10","2","09.00582","2717","181","Fehlerbes. vor Ausl. (Bugzilla)","","0","5029: Bugfixing: ODXx. Resolving Bug 26723","","","3","0",
"17.11.10","3","100023","0","910","Urlaub","","0","Holiday. Time-Off","07:00","16:00","8","60",
"18.11.10","4","09.00582","2761","181","Fehlerbes. vor Ausl. (Bugzilla)","","0","5029: Bugfixing: ODXx. resolving Bugzilla Bug 26880","07:00","16:00","3,5","60",
"18.11.10","4","09.00582","2761","181","Fehlerbes. vor Ausl. (Bugzilla)","","0","5029: Bugfixing: ODXx. resolving Bugzilla Bug 26928","","","3","0",
"18.11.10","4","09.00582","2761","181","Fehlerbes. vor Ausl. (Bugzilla)","","0","5029: Bugfixing: ODXx. resolving Bugzilla Bug 26814","","","1,5","0",
"19.11.10","5","09.00582","2762","181","Fehlerbes. vor Ausl. (Bugzilla)","","0","5029: Bugfixing: CTSs. resolving bugzilla bug 26818","07:00","16:00","2,5","60",
"19.11.10","5","100018","51","110","Engineering","","0","Wochenaufgaben AES. Meetings and Timesheets for the week","","","1,5","0",
"19.11.10","5","09.00582","2761","181","Fehlerbes. vor Ausl. (Bugzilla)","","0","5029: Bugfixing: ODXx. resolving bugzilla bugs, 26569, 26570","","","4","0",
