"27.12.10","1","100023","0","910","Urlaub","","0","Time-Off. Public Holiday","07:00","16:00","8","60",
"28.12.10","2","100023","1690","910","Urlaub","","0","Urlaub 17.12.2010-09.01.2011. Holiday","07:00","16:00","8","60",
"29.12.10","3","100023","1690","910","Urlaub","","0","Urlaub 17.12.2010-09.01.2011. Holiday","07:00","16:00","8","60",
"30.12.10","4","100023","1690","910","Urlaub","","0","Urlaub 17.12.2010-09.01.2011. Holiday","07:00","16:00","8","60",
"31.12.10","5","100023","1690","910","Urlaub","","0","Urlaub 17.12.2010-09.01.2011. Holiday","07:00","16:00","8","60",
