"11.10.10","1","100018","55","110","Engineering","","0","S4 Administrative Tasks. Collect sc from Airport","07:00","16:00","1,5","60",
"11.10.10","1","100334","718","110","Engineering","","0","3020: Alt-BR: LH: Stellglied+CTS Analyse. Systemanpassung analysis","","","1","0",
"11.10.10","1","100334","574","110","Engineering","","0","4000: Alt-BR: ABS5: CTS Analyse. Stellglieder analysis","","","2,5","0",
"11.10.10","1","100018","42","110","Engineering","","0","Wochenaufgaben AES. Short introduction meeting with sc and S4","","","0,5","0",
"11.10.10","1","100018","54","110","Engineering","","0","S4 Technical Support / Troubleshooting. Assisting colleagues with questions, problems.","","","2,5","0",
"12.10.10","2","100334","574","110","Engineering","","0","4000: Alt-BR: ABS5: CTS Analyse. Stellglieder analysis","07:00","16:00","3","60",
"12.10.10","2","100018","54","110","Engineering","","0","S4 Technical Support / Troubleshooting. Work with sc, supporting colleagues","","","5","0",
"13.10.10","3","100334","574","110","Engineering","","10","4000: Alt-BR: ABS5: CTS Analyse. Stellglieder analysis","07:00","16:00","3","60",
"13.10.10","3","09.00582","1317","110","Engineering","","0","8501: 9x6: ProjStatus + Bespr C1.1/ae31. Weekly Telco with sc, fp, md, we","","","1,5","0",
"13.10.10","3","100018","55","110","Engineering","","0","S4 Administrative Tasks. Meeting with S4 Management","","","0,5","0",
"13.10.10","3","100018","54","110","Engineering","","0","S4 Technical Support / Troubleshooting. Supporting colleagues","","","3","0",
"14.10.10","4","100334","574","110","Engineering","","15","4000: Alt-BR: ABS5: CTS Analyse. Stellglieder analysis","07:00","16:00","1","60",
"14.10.10","4","100334","718","110","Engineering","","0","3020: Alt-BR: LH: Stellglied+CTS Analyse. Systemanpassung tests in PIWIS + Drezahl signal generator","","","0,5","0",
"14.10.10","4","100018","54","110","Engineering","","0","S4 Technical Support / Troubleshooting. Supporting colleagues","","","4,5","0",
"14.10.10","4","100018","42","110","Engineering","","0","Wochenaufgaben AES. Various topics discussed with sc","","","2","0",
"15.10.10","5","100334","574","110","Engineering","","20","4000: Alt-BR: ABS5: CTS Analyse. Stellglieder analysis completed","07:00","16:00","3","60",
"15.10.10","5","100018","42","110","Engineering","","0","Wochenaufgaben AES. Timesheets + discussion with sc","","","1","0",
"15.10.10","5","100018","54","110","Engineering","","0","S4 Technical Support / Troubleshooting. Assisting colleagues with questions, problems.","","","4","0",
