"05.04.10","1","100023","0","910","Urlaub","","0","Holiday. Public Holiday","07:00","16:00","8","60",
"06.04.10","2","09.00582","416","120","Codierung","","90","1001: 9x6: PSM/ABS I: ODX Bedat. Creating a job for ABS/PSM LWS Kalib","07:00","16:00","8","60",
"07.04.10","3","100025","312","170","Schulung","","0","Schulungen 2010. Learning how to use the sequence builder","07:00","16:00","7","60",
"07.04.10","3","09.00582","416","120","Codierung","","90","1001: 9x6: PSM/ABS I: ODX Bedat. Creating a LWS Kalib job","","","1","0",
"08.04.10","4","09.00582","416","120","Codierung","","91","1001: 9x6: PSM/ABS I: ODX Bedat. Creating a LWS Kalib job","07:00","16:00","4","60",
"08.04.10","4","09.00582","416","120","Codierung","","0","1001: 9x6: PSM/ABS I: ODX Bedat. Waiting for authoing - performace issue","","","2","0",
"08.04.10","4","09.00582","594","110","Engineering","","0","8501: 9x6: allg. Projekttaetigkeit. Training colleague","","","2","0",
"09.04.10","5","100025","312","170","Schulung","","0","Schulungen 2010. Training/working on sequence builder","07:00","16:00","2","60",
"09.04.10","5","09.00582","594","110","Engineering","","0","8501: 9x6: allg. Projekttaetigkeit. Project meeting regarding 9x6 analysis and sequence bulding","","","1,25","0",
"09.04.10","5","09.00582","416","120","Codierung","","91","1001: 9x6: PSM/ABS I: ODX Bedat. Creating a LWS Kalib job","","","3,75","0",
"09.04.10","5","09.00582","416","120","Codierung","","0","1001: 9x6: PSM/ABS I: ODX Bedat. Waiting for authoring. Exprot performance.","","","1","0",
