"25.10.10","1","09.00582","626","120","Codierung","","0","3061: 9x6: ME5.2: ODX Bedat.. Tested ME 5.2 Task of F5","07:00","16:00","4","60",
"25.10.10","1","09.00582","626","120","Codierung","","0","3061: 9x6: ME5.2: ODX Bedat.. Restructuring Piwis and Pidt Results.Task of F5","","","4","0",
"26.10.10","2","09.00582","626","120","Codierung","","0","3061: 9x6: ME5.2: ODX Bedat. Tested ME5.2 Task of F5","07:00","16:00","2","60",
"26.10.10","2","09.00582","626","120","Codierung","","0","3061: 9x6: ME5.2: ODX Bedat. Restructuring Piwis and Pidt Results.Task of F5","","","4","0",
"26.10.10","2","100018","53","110","Engineering","","0","Wochenaufgaben AES. Setting up my machine for testing on the car.Pidt,Baureihen_31,ODX, and HSX","","","2","0",
"27.10.10","3","09.00582","0","140","Test","","0","3000: 9x6: ME7.2: Integrationstest. Tested DME7.2,kombi,kombi2000 and klimaanlage.Task required","07:00","16:00","4","60",
"27.10.10","3","09.00582","0","140","Test","","0","3000: 9x6: ME7.2: Integrationstest. Updated test rsults in test specs.Task required","","","4","0",
"28.10.10","4","09.00582","0","140","Test","","0","3000: 9x6: ME7.2: Integrationstest. Tested DME7.2,kombi,kombi2000 and klimaanlage.Task required","07:00","16:00","4","60",
"28.10.10","4","09.00582","0","140","Test","","0","3000: 9x6: ME7.2: Integrationstest. Updated test results in test specs.Task required","","","4","0",
"29.10.10","5","100018","53","110","Engineering","","0","Wochenaufgaben AES. MEETING to discuss AltBR documentation","07:00","16:00","1","60",
"29.10.10","5","0900582","0","140","Test","","0","3000: 9x6: ME7.2: Integrationstest. Updated test results in test specs.Task required","","","7","0",
