"11.01.10","1","077353","11982","110","Engineering","","100","6062: E1 M5: PCM3.0 (24.100): Verstärker: Lautsprecher Selbsttest: Testspec. Test Spec and Sim","07:00","16:00","8","60",
"12.01.10","2","077353","10867","110","Engineering","","0","8185: Warten auf Authoring (Performance-Probleme bei Ausführung). D1 to D3 migration down time","07:00","16:00","3","60",
"12.01.10","2","077353","11985","140","Test","","75","6062: E1 M5: PCM3.0 (24.100): Verstärker: Lautsprecher Selbsttest: Modultest und Bugfixing. Testing 90% complete: Bugfixing 80% complete","","","5","0",
"13.01.10","3","077353","10867","110","Engineering","","0","8185: Warten auf Authoring (Performance-Probleme bei Ausführung). D1 to D3 migration down time","07:00","16:00","4","60",
"13.01.10","3","077353","11985","140","Test","","100","6062: E1 M5: PCM3.0 (24.100): Verstärker: Lautsprecher Selbsttest: Modultest und Bugfixing. Complete","","","4","0",
"14.01.10","4","077353","9523","110","Engineering","","40","7001: E1: Rework GESiC Modularize: Testspec /Sim B1.2/ae20. From S47","07:00","16:00","8","60",
"15.01.10","5","077353","12076","181","Fehlerbes. vor Ausl. (Bugzilla)","","80","5863: E1 M5: PCM2-SBS2: Mikrofontest: Bugfixing (Zusatz). Bugfixing bugs found during module test","07:00","16:00","7","60",
"15.01.10","5","077353","10867","110","Engineering","","0","8185: Warten auf Authoring (Performance-Probleme bei Ausführung). Waiting for Authoring","","","1","0",
