"16.08.10","1","100018","55","110","Engineering","","0","S4 Administrative Tasks. Trask tracking","07:00","16:00","2","60",
"16.08.10","1","100018","54","110","Engineering","","0","S4 Technical Support / Troubleshooting. Suporting colleagues with issues.","","","4","0",
"16.08.10","1","09.00582","2163","110","Engineering","","30","3006: 9x6: ME7.2: SG-Typ: PH+Testspec Review. Test Spec complete rework.","","","2","0",
"17.08.10","2","09.00582","2163","110","Engineering","","100","3006: 9x6: ME7.2: SG-Typ: PH+Testspec Review. PH re-review. Test Spec complete rework + simulations","07:00","16:00","4","60",
"17.08.10","2","100018","54","110","Engineering","","0","S4 Technical Support / Troubleshooting. Supporting colleagues with issues.","","","4","0",
"18.08.10","3","100152","424","110","Engineering","","0","1104: E1 PIROL: RegrTests Bugfixing. Corrected bug 24996 + Testing long run","07:00","16:00","3","60",
"18.08.10","3","100018","54","110","Engineering","","0","S4 Technical Support / Troubleshooting. Supporting colleagues, finding work items, project tracking","","","4","0",
"18.08.10","3","100018","37","110","Engineering","","0","S4/DSA overall tasks. Weekly Telco","","","1","0",
"19.08.10","4","100018","55","110","Engineering","","0","S4 Administrative Tasks. Meeting with S4 Management","07:00","16:00","1","60",
"19.08.10","4","100018","54","110","Engineering","","0","S4 Technical Support / Troubleshooting. Supporting f4 with WFS, VIN, Prog Code CTS understanding.","","","2","0",
"19.08.10","4","100018","54","110","Engineering","","0","S4 Technical Support / Troubleshooting. Supporting colleagues with various issues.","","","3","0",
"19.08.10","4","100025","265","170","Schulung","","0","Schulungen 2010. Training + Supporting new team members","","","2","0",
"20.08.10","5","100018","55","110","Engineering","","0","S4 Administrative Tasks. Meeting with S4 management, monthly reports, misc. admin tasks","07:00","16:00","6","60",
"20.08.10","5","100018","54","110","Engineering","","0","S4 Technical Support / Troubleshooting. Assisting colleagues","","","2","0",
