"24.05.10","1","09.00582","491","110","Engineering","","90","3000: 9x6: ME7.2: ECU Analyse. Analysis","07:00","16:00","7","60",
"24.05.10","1","100025","314","170","Schulung","","0","Schulungen 2010. Assisting s56 with GESIC","","","1","0",
"25.05.10","2","09.00582","491","110","Engineering","","92","3000: 9x6: ME7.2: ECU Analyse. Analysis:","07:00","16:00","8","60",
"26.05.10","3","09.00582","491","110","Engineering","","95","3000: 9x6: ME7.2: ECU Analyse. Analysis","07:00","16:00","6","60",
"26.05.10","3","09.00582","880","120","Codierung","","3","3003: 9x6: ME7.2: Kurztest: Implementierung. FROM S53 -","","","2","0",
"27.05.10","4","09.00582","880","120","Codierung","","15","3003: 9x6: ME7.2: Kurztest: Implementierung. FROM S53 - Kurtz Test Implementation","07:00","16:00","6","60",
"27.05.10","4","09.00582","422","140","Test","","100","1002: 9x6: PSM/ABS I: Statischer Test: Modultest+Bugfixing. FROM F4: Assiting with PIDT configuration.","","","2","0",
"28.05.10","5","09.00582","880","120","Codierung","","20","3003: 9x6: ME7.2: Kurztest: Implementierung. FROM S53 - Implementing SEJ for Kurtztests","07:00","16:00","8","60",
