"29.11.10","1","100334","1137","120","Codierung","","0","3021: Alt-BR:LH:ODX Bedat. Created ODX services from (Task from F2)","07:00","16:00","8","60",
"30.11.10","2","100334","1137","120","Codierung","","0","3021: Alt-BR:LH:ODX Bedat. Created ODX services(task from f2)","07:00","16:00","6","60",
"30.11.10","2","100334","1137","120","Codierung","","0","3021: Alt-BR:LH:ODX Bedat. Waiting for ODX Authoring","","","2","0",
"01.12.10","3","100334","1137","120","Codierung","","0","3021: Alt-BR:LH:ODX Bedat. Created ODX services(task from f2)","07:00","16:00","3","60",
"01.12.10","3","100334","890","120","Codierung","","0","3001:Alt-BR: Motronic: ODx Bedat. Created ODX services(task from s44)","","","5","0",
"02.12.10","4","100334","890","120","Codierung","","0","3001:Alt-BR: Motronic: ODx Bedat. Created ODX services(task from s44)","07:00","16:00","3","60",
"02.12.10","4","100334","1137","120","Codierung","","0","3021: Alt-BR:LH:ODX Bedat. Creating ODX services(task from f2)","","","5","0",
"03.12.10","5","100018","481","110","Engineering","","0","Wochenaufgaben AES. Meetings and Timesheets","07:00","16:00","3","60",
"03.12.10","5","100334","890","120","Codierung","","0","3001:Alt-BR: Motronic: ODx Bedat. Created ODX services from s44","","","5","0",
