"18.10.10","1","09.00582","2665","120","Codierung","","0","3001: 9x6: ME7.2: ODX Bedat + FAP. Retested FSP and Measurement values for DME7.2","07:00","16:00","4","60",
"18.10.10","1","09.00582","2665","120","Codierung","","0","3001: 9x6: ME7.2: ODX Bedat + FAP. Restructuring Piwis and Pidt Results","","","4","0",
"19.10.10","2","09.00582","2665","120","Codierung","","0","3001: 9x6: ME7.2: ODX Bedat + FAP. Retested Actuators and Measurement values for DME7.2","07:00","16:00","3","60",
"19.10.10","2","09.00582","2665","120","Codierung","","0","3001: 9x6: ME7.2: ODX Bedat + FAP. Restructuring Piwis and Pidt Results","","","3","0",
"19.10.10","2","100018","53","110","Engineering","","0","Wochenaufgaben AES. Project discussion with Werner","","","1","0",
"19.10.10","2","100025","323","170","Schulung","","0","Schulungen 2010. KW71 Training","","","1","0",
"20.10.10","3","09.00582","2665","120","Codierung","","0","3001: 9x6: ME7.2: ODX Bedat + FAP. ODX Testing ME7.2.Task","07:00","16:00","4","60",
"20.10.10","3","09.00582","2665","120","Codierung","","0","3001: 9x6: ME7.2: ODX Bedat + FAP. Restructuring Results of Piwis and Pidt in xlt sheet","","","4","0",
"21.10.10","4","09.00582","2665","120","Codierung","","0","3001: 9x6: ME7.2: ODX Bedat + FAP. ODX Testing ME7.2.","07:00","16:00","3","60",
"21.10.10","4","09.00582","2665","120","Codierung","","0","3001: 9x6: ME7.2: ODX Bedat + FAP. Restructuring Actuators and Measurement  results of Piwis and Pidt .Updating Test specs","","","4","0",
"21.10.10","4","100025","323","170","Schulung","","0","Schulungen 2010. Pidt and configuration setup for AltBr","","","1","0",
"22.10.10","5","09.00582","2665","120","Codierung","","100","3001: 9x6: ME7.2: ODX Bedat + FAP. Retesting Fahrzeugdaten,Fsp and Istwerte","07:00","16:00","4","60",
"22.10.10","5","09.00582","2665","120","Codierung","","0","3001: 9x6: ME7.2: ODX Bedat + FAP. Restructuring Piwis and Pidt results","","","2","0",
"22.10.10","5","100025","323","170","Schulung","","0","Schulungen 2010. Pidt and configuration setup for Altbr","","","2","0",
"22.10.10","5","09.00582","2149","140","Test","","100","1035: 9x6: Kombi: PTTD: Modultest+Bugfixing. Closing Task","","","0","0",
