"25.01.10","1","077472","","110","Engineering","","0","Bugfixing F141 nab after testing","07:00","16:00","8","60",
"26.01.10","2","077472","0","110","Engineering","","0","Bugfixing F141 nab after testing","07:00","16:00","8","60",
"27.01.10","3","077353","0","110","Engineering","","0","Working on bug #21066,#21064. Installing new authoring+PIDT after transfer from Ferrari to Porsche","07:00","16:00","2","60",
"27.01.10","3","077251","3460","110","Engineering","","10","Working on test specification for Kombi Wartungsintervallgrenzen setzen","","","6","0",
"28.01.10","4","077251","3501","110","Engineering","","30","Working on test specification for Kombi Tankgeberkalibrierung","07:00","16:00","8","60",
"29.01.10","5","077251","3501","110","Engineering","","60","Working on test specification for Kombi Tankgeberkalibrierung","07:00","16:00","4","60",
"29.01.10","5","077251","3460","110","Engineering","","50","Working on test specification Kombi Gesamtwegstrecke setzen","","","4","0",
