"15.03.10","1","100023","0","920","Krankheit","","0","Sick leave. Sick leave","07:00","16:00","8","60",
"16.03.10","2","100025","300","170","Schulung","","0","Schulungen 2010: ODX-Training. ODX Job Creation Training","07:00","16:00","4","60",
"16.03.10","2","09.00582","411","110","Engineering","","0","8508: 9x6:  Waiting for Authoring. Waiting for authoring response","","","1","0",
"16.03.10","2","09.00582","406","120","Codierung","","30","1001: 9x6: PSM/ABS I: ODX Bedat. Creating variants and variant patterns and ODX Job Creation for variant identification","","","3","0",
"17.03.10","3","100025","300","170","Schulung","","0","Schulungen 2010: ODX-Training. ODX Job Creation Training","07:00","16:00","3","60",
"17.03.10","3","09.00582","411","110","Engineering","","0","8508: 9x6: Waiting for Authoring. Waiting for authoring response","","","1","0",
"17.03.10","3","09.00582","119","110","Engineering","","0","8501: 9x6: allg. Projekttätigkeit C1.3/ae20. Common project tasks: Meeting","","","1","0",
"17.03.10","3","09.00582","406","120","Codierung","","65","1001: 9x6: PSM/ABS I: ODX Bedat. Creating variants and variant patterns and ODX Job Creation for variant identification","","","3","0",
"18.03.10","4","09.00582","411","110","Engineering","","0","8508: 9x6: Waiting for Authoring. Waiting for authoring response","07:00","16:00","1","60",
"18.03.10","4","09.00582","160","120","Codierung","","0","From s46: 1001: 9x6: PSM/ABS I: ODX Bedat JavaJobs. Assisting collegue with ODX Job creation","","","1","0",
"18.03.10","4","09.00582","119","110","Engineering","","0","8501: 9x6: allg. Projekttätigkeit C1.3/ae20. Common project tasks: Installating applications for ODX creation and odx job creation","","","2","0",
"18.03.10","4","09.00582","406","120","Codierung","","0","	1001: 9x6: PSM/ABS I: ODX Bedat. Creating variants, variant patterns and ODX Job Creation for variant identification","","","4","0",
"19.03.10","5","100023","0","910","Urlaub","","0","Holiday. Holiday","07:00","16:00","8","60",
