"11.01.10","1","09.00455","250","110","Engineering","","0","F142 Allg. Projekttätigkeiten: Deliverables erzeugen/ Base Line Konfig","07:00","16:00","2","60",
"11.01.10","1","09.00455","180","120","Codierung","","0","F142 NSV CTS impl","","","6","0",
"11.01.10","1","09.00455","154","181","Fehlerbes. vor Ausl. (Bugzilla)","","100","NCM CTS: Bugfixen nach test an Fzg.","","","0","0",
"11.01.10","1","09.00455","216","181","Fehlerbes. vor Ausl. (Bugzilla)","","100","NFA CTS: Bugfixen nach test an Fzg.","","","0","0",
"12.01.10","2","09.00455","250","110","Engineering","","0","F142 Allg. Projekttätigkeiten: Deliverables erzeugen/ Base Line Konfig","07:00","16:00","2","60",
"12.01.10","2","09.00455","180","120","Codierung","","0","F142 NSV CTS impl","","","6","0",
"13.01.10","3","09.00455","250","110","Engineering","","0","F142 Allg. Projekttätigkeiten: Deliverables erzeugen/ Base Line Konfig","07:00","16:00","1","60",
"13.01.10","3","09.00455","180","120","Codierung","","0","F142 NSV CTS impl","","","5","0",
"13.01.10","3","077472","2359","120","Codierung","","100","Anpassungen wegen Update DEIS 2_4_9 auf DEIS 3_0_0. Update DEIS and Authoring to latest versions","","","2","0",
"14.01.10","4","09.00455","250","110","Engineering","","0","F142 Allg. Projekttätigkeiten: Deliverables erzeugen/ Base Line Konfig","07:00","16:00","2","60",
"14.01.10","4","09.00455","180","120","Codierung","","100","F142 NSV CTS impl","","","6","0",
"15.01.10","5","09.00455","250","110","Engineering","","100","F142 Allg. Projekttätigkeiten: Deliverables erzeugen/ Base Line Konfig","07:00","16:00","2","60",
"15.01.10","5","09.00455","182","181","Fehlerbes. vor Ausl. (Bugzilla)","","100","F142 NSV CTS: Bugfixen nach Test gegen Sim.","","","6","0",
