"25.10.10","1","09.00582","1866","181","Fehlerbes. vor Ausl. (Bugzilla)","","0","5026: 9x6: Bugfixing: Bedat: BF+Test. Resolving bug [Bug 26287] 9x6_Kombi_K01: Identifications missing","07:00","16:00","3","60",
"25.10.10","1","09.00582","1866","181","Fehlerbes. vor Ausl. (Bugzilla)","","0","5026: 9x6: Bugfixing: Bedat: BF+Test. Resolving bug [Bug 26291] 9x6_Kombi_K01: Measurements wrong values","","","3","0",
"25.10.10","1","09.00582","2210","140","Test","","0","3062: 9x6: ME5.2: Kurztest: Modultest+Bugfixing. Bugfixing and Testing kurztest sequence from s43","","","2","0",
"26.10.10","2","09.00582","2210","140","Test","","60","3062: 9x6: ME5.2: Kurztest: Modultest+Bugfixing. Bugfixing and Testing kurztest sequence from s43","07:00","16:00","3,5","60",
"26.10.10","2","09.00582","2210","140","Test","","0","3062: 9x6: ME5.2: Kurztest: Modultest+Bugfixing. Installing and setting up PIDT 9.0 to work correctly from s43","","","1,5","0",
"26.10.10","2","09.00582","1866","181","Fehlerbes. vor Ausl. (Bugzilla)","","0","5026: 9x6: Bugfixing: Bedat: BF+Test. Resolving bug [Bug 26287] 9x6_Kombi_K01: Identifications missing","","","1,5","0",
"26.10.10","2","09.00582","1866","181","Fehlerbes. vor Ausl. (Bugzilla)","","0","5026: 9x6: Bugfixing: Bedat: BF+Test. Resolving bug [Bug 26291] 9x6_Kombi_K01: Measurements wrong values","","","1,5","0",
"27.10.10","3","09.00582","2210","140","Test","","0","3062: 9x6: ME5.2: Kurztest: Modultest+Bugfixing. Bugfixing and Testing kurztest sequence from s43","07:00","16:00","5","60",
"27.10.10","3","09.00582","2210","140","Test","","0","3062: 9x6: ME5.2: Kurztest: Modultest+Bugfixing. Resolving issues with PIDT v9 to execute in V-mode from s43","","","2,5","0",
"27.10.10","3","100018","51","110","Engineering","","0","Wochenaufgaben AES. Correcting and completing Timesheets for the week","","","0,5","0",
"28.10.10","4","09.00582","2210","140","Test","","100","3062: 9x6: ME5.2: Kurztest: Modultest+Bugfixing. Completing the testing and bugfixing of the kurztest sequence","07:00","16:00","8","60",
"29.10.10","5","100023","0","910","Urlaub","","0","Holiday. Time-Off","07:00","16:00","8","60",
