"11.10.10","1","09.00582","2543","120","Codierung","","32","3001: 9x6: ME7.2: ODX Bedat + FAP. Continued with ODX testing and bugfixing ME72 (Task taken from F5)","07:00","16:00","8","60",
"12.10.10","2","09.00582","2543","120","Codierung","","40","3001: 9x6: ME7.2: ODX Bedat + FAP. Continued with ODX testing and bugfixing ME72 (Task taken from F5)","07:00","16:00","8","60",
"13.10.10","3","09.00582","2543","120","Codierung","","50","3001: 9x6: ME7.2: ODX Bedat + FAP. Continued with ODX testing and bugfixing ME72 (Task taken from F5)","07:00","16:00","8","60",
"14.10.10","4","09.00582","2543","120","Codierung","","55","3001: 9x6: ME7.2: ODX Bedat + FAP. Continued with ODX testing and bugfixing ME72 (Task taken from F5)","07:00","16:00","8","60",
"15.10.10","5","09.00582","2543","120","Codierung","","65","3001: 9x6: ME7.2: ODX Bedat + FAP. Continued with ODX testing and bugfixing ME72 (Task taken from F5)","07:00","16:00","8","60",
