"17.05.10","1","09.00582","0","110","Engineering","","80","9x6: PSM/ABS I: Vertauschungspruefung: Implementierung. Continued with Vertauschungspruefung implementation","07:00","16:00","8","60",
"18.05.10","2","09.00582","124","110","Engineering","","0","9x6: allg. Projekttatigkeit. Attended meeting concerning the project plan for E1 Pirol, 9x6 and old models.","07:00","16:00","1","60",
"18.05.10","2","09.00582","0","110","Engineering","","0","9x6: PSM/ABS I: Vertauschungspruefung: Implementierung. Waiting for authoring","","","0,6","0",
"18.05.10","2","09.00582","0","110","Engineering","","99","9x6: PSM/ABS I: Vertauschungspruefung: Implementierung. Implementing Vertausch CTS","","","6,4","0",
"19.05.10","3","100152","39","110","Engineering","","35","E1 Pirol EDC17 Kurztest Partikelfilter Service Generation PH. Started on PH creation for kurztest partikelfilter","07:00","16:00","7,5","60",
"19.05.10","3","09.00582","124","110","Engineering","","0","9x6: allg. Projekttatigkeit. Testing new code for image renderer in CTS authoring","","","0,5","0",
"20.05.10","4","100152","39","110","Engineering","","60","E1 Pirol EDC17 Kurztest Partikelfilter Service Generation PH. Continued with creating PH for kurztest partikelfilter","07:00","16:00","7,5","60",
"20.05.10","4","09.00582","124","110","Engineering","","0","9x6: allg. Projekttatigkeit. Boardroom meeting about 9x6 project progress and project plan","","","0,5","0",
"21.05.10","5","100152","39","110","Engineering","","90","E1 Pirol EDC17 Kurztest Partikelfilter Service Generation PH. Continued with creating PH for kurztest partikelfilter","07:00","16:00","8","60",
