"04.01.10","1","077353","6340","185","Service, Telefon-Support","","100","E1 M5: Gateway CAN: Wake-Up Guardian : Bugfixing. Bugfixed the CTS.","07:00","16:00","5","60",
"04.01.10","1","077353","11598","110","Engineering","","100","E1 M5: allg. Projekttatigkeiten A1.15/ae15. Waiting for Authoring and PIDT installation.","","","3","0",
"05.01.10","2","077353","01210","181","Fehlerbes. vor Ausl. (Bugzilla)","","100","E1 M5: Gateway CAN:Bugfixing zu Integrationstest. Bugfixed Gateway CAN","07:00","16:00","4","60",
"05.01.10","2","077353","12057","140","Test","","100","E1 M5:SWSG: Flashen: Moduletest. Fixed the errors that were on the document.","","","4","0",
"06.01.10","3","077353","11943","110","Engineering","","100","E1 M5: PCM3.0 (24.100): HeadUnit: Selbsttest: Testspec. From hm,reworked the PCM3_HeadUnit_Selbsttest.MOTS document and thesimulation.","07:00","16:00","7","60",
"06.01.10","3","077353","11598","110","Engineering","","100","E1 M5: allg. Projekttatigkeiten A1.15/ae15. Staff meeting","","","1","0",
"07.01.10","4","077353","7705","140","Test","","100","E1 M5:SWSG: Flashen: Moduletest. Did some testing after bugfixing by s44","07:00","16:00","4","60",
"07.01.10","4","077353","11943","110","Engineering","","40","E1 M5: PCM3.0 (24.100): HeadUnit: Selbsttest: Testspec. Reworking the testspec and the simulation after a change in the requirements.","","","4","0",
"08.01.10","5","077353","11943","110","Engineering","","100","E1 M5:PCM3.0(24.100): HeadUnit:Selbsttest:Testspec. Changes made to the spec thus the testspec and the simulation need to be reworked.","07:00","16:00","8","60",
