"24.05.10","1","09.00582","532","110","Engineering","","95","3060: 9x6: MED5.2: ECU Analyse. Analysis of DTC's","07:00","16:00","6","60",
"24.05.10","1","100018","38","110","Engineering","","0","S4/DSA overall task. Assisting collegue with PIROL Analysis","","","2","0",
"25.05.10","2","100018","38","110","Engineering","","0","S4/DSA overall task. Telecos","07:00","16:00","1","60",
"25.05.10","2","09.00582","532","110","Engineering","","97","3060: 9x6: MED5.2: ECU Analyse. Analysis of Security Access","","","7","0",
"26.05.10","3","09.00582","756","110","Engineering","","100","1023: 9x6: Kombi I: Tankabgleich: PH+Testspec Review. Review of CORS and Test Specification for Kombi and Kombi 2000","07:00","16:00","8","60",
"27.05.10","4","09.00582","850","110","Engineering","","100","1006: 9x6: PSM/ABS II: Lenkwinkelsensor kalibrieren: PH+Testspec Review. PH review and Test speicification review","07:00","16:00","5","60",
"27.05.10","4","100018","38","110","Engineering","","0","S4/DSA overall task. Teleco regarding EDC17 ODX review","","","1","0",
"27.05.10","4","100018","38","110","Engineering","","0","S4/DSA overall task. Assiting collegues with EDC17 ODX","","","1","0",
"27.05.10","4","100018","38","110","Engineering","","0","S4/DSA overall task. Assiting collegues with EDC17 Source code analysis","","","1","0",
"28.05.10","5","09.00582","532","110","Engineering","","100","3060: 9x6: MED5.2: ECU Analyse. Updating Kurztest Analysis document","07:00","16:00","4","60",
"28.05.10","5","09.00582","751","110","Engineering","","100","1022: 9x6: Kombi I: Gesamtwegstrecke: PH+Testspec Review. Test spec review","","","3","0",
"28.05.10","5","100018","38","110","Engineering","","0","S4/DSA overall task. Assisting collegue with EDC17 ODX and analysis","","","1","0",
"28.05.10","5","077353","1088","110","Engineering","","100","8501: E1 M5: allg. Projekttätigkeiten A1.15/ae15. Closing Task","","","0","0",
