"01.03.10","1","09.00582","96","170","Schulung","","4","8503: 9x6: get into Subject E1.3/ae20. Create Netbeans Projects","07:00","16:00","8","60",
"02.03.10","2","09.00582","96","170","Schulung","","10","8503: 9x6: get into Subject E1.3/ae20. Create Netbeans Projects","07:00","16:00","8","60",
"03.03.10","3","09.00582","122","110","Engineering","","0","8501: 9x6: allg. Projekttätigkeit C1.3/ae20. Meeting","07:00","16:00","1","60",
"03.03.10","3","09.00582","96","170","Schulung","","40","8503: 9x6: get into Subject E1.3/ae20. Create Netbeans Projects	","","","7","0",
"04.03.10","4","09.00582","96","170","Schulung","","50","8503: 9x6: get into Subject E1.3/ae20. Create Netbeans Projects","07:00","16:00","8","60",
"05.03.10","5","09.00582","96","170","Schulung","","55","8503: 9x6: get into Subject E1.3/ae20. Fix Netbeans include files reference errors","07:00","16:00","5","60",
"05.03.10","5","077591","0","910","Urlaub","","0","Leave. Leave","","","3","0",
