"13.09.10","1","09.00582","2169","120","Codierung","","70","3029: 9x6: ME7.8/ME7.8min: CVN-Check Implementierung. Creating steps in CTS, checking one run through","07:00","16:00","4","60",
"13.09.10","1","09.00582","2169","120","Codierung","","0","3029: 9x6: ME7.8/ME7.8min: CVN-Check Implementierung. Waiting for Authoring","","","3","0",
"13.09.10","1","100018","52","110","Engineering","","0","Wochenaufgaben AES. Meeting","","","1","0",
"14.09.10","2","09.00582","2192","120","Codierung","","95","3029: 9x6: ME7.8/ME7.8min: CVN-Check Implementierung. Finishing cases. Checking run through.","07:00","16:00","6,5","60",
"14.09.10","2","09.00582","2192","120","Codierung","","0","3029: 9x6: ME7.8/ME7.8min: CVN-Check Implementierung. Waiting for Authoring","","","1","0",
"14.09.10","2","100018","52","110","Engineering","","0","Wochenaufgaben AES. Meeting","","","0,5","0",
"15.09.10","3","09.00582","2187","120","Codierung","","20","3028: 9x6: ME7.8/ME7.8min: Doku im AP-Prot: Implementierung. Creating use cases in CTS authoring","07:00","16:00","4","60",
"15.09.10","3","09.00582","2192","120","Codierung","","100","3029: 9x6: ME7.8/ME7.8min: CVN-Check Implementierung. Checking in CTS, config files and updating release notes","","","0,5","0",
"15.09.10","3","09.00582","2169","120","Codierung","","0","3021: 9x6: ME7.8/ME7.8min: ODX Bedat + FAP. Creating services for Dokufeld CTS","","","3,5","0",
"16.09.10","4","100018","52","110","Engineering","","0","Wochenaufgaben AES. Meeting to discuss ODA sequence builder.","07:00","16:00","2","60",
"16.09.10","4","09.00582","2187","120","Codierung","","50","3028: 9x6: ME7.8/ME7.8min: Doku im AP-Prot: Implementierung. Creating a script to format output","","","5","0",
"16.09.10","4","09.00582","2193","140","Test","","0","3029: 9x6: ME7.8/ME7.8min: CVN-Check Modultest+Bugfixing. Correcting logical flow in CTS.","","","1","0",
"17.09.10","5","09.00582","2187","120","Codierung","","80","3028: 9x6: ME7.8/ME7.8min: Doku im AP-Prot: Implementierung. Implementing use cases and checking flow control","07:00","16:00","7,5","60",
"17.09.10","5","100018","52","110","Engineering","","0","Wochenaufgaben AES. Filling in timesheets","","","0,5","0",
