"07.06.10","1","09.00582","904","110","Engineering","","40","3040: 9x6: ME7.11: ECU Analyse. ME7.11 Kurztest Analysis + documentation","07:00","16:00","3","60",
"07.06.10","1","100018","54","110","Engineering","","0","S4 Technical Support/Troubleshooting. Testing Authroing + DSL performance","","","2","0",
"07.06.10","1","100018","55","110","Engineering","","0","S4 Administrative Tasks. General admin work. Tracking work items.","","","1,5","0",
"07.06.10","1","09.00582","1317","110","Engineering","","0","8501: 9x6: ProjStatus + Bespr. Daily team meeting","","","0,5","0",
"07.06.10","1","100018","54","110","Engineering","","0","S4 Technical Support/Troubleshooting. Assisting colleagues with issues and questions. Troubleshooting module problems.","","","1","0",
"08.06.10","2","09.00582","904","110","Engineering","","40","3040: 9x6: ME7.11: ECU Analyse. Kurztest documentation","07:00","16:00","0,5","60",
"08.06.10","2","100018","55","110","Engineering","","0","S4 Administrative Tasks. Meeting with S4 management","","","1","0",
"08.06.10","2","09.00582","1317","110","Engineering","","0","8501: 9x6: ProjStatus + Bespr. Daily team meeting","","","0,5","0",
"08.06.10","2","100018","37","110","Engineering","","0","S4/DSA overall tasks. Weekly telco with dr, mi","","","1","0",
"08.06.10","2","100018","55","110","Engineering","","0","S4 Administrative Tasks. Task tracking for E1.","","","0,5","0",
"08.06.10","2","100018","54","110","Engineering","","0","S4 Technical Support/Troubleshooting. Assisting colleagues with issues and questions. Troubleshooting module problems.","","","4,5","0",
"09.06.10","3","09.00582","904","110","Engineering","","40","3040: 9x6: ME7.11: ECU Analyse. Kurztest documentation. troubleshooting bug in kurztest conditions","07:00","16:00","2","60",
"09.06.10","3","09.00582","904","110","Engineering","","40","3040: 9x6: ME7.11: ECU Analyse. Main ECU document update. Adding variants","","","1","0",
"09.06.10","3","09.00582","1317","110","Engineering","","0","8501: 9x6: ProjStatus + Bespr. Status update + Weekly Telco","","","2","0",
"09.06.10","3","100018","54","110","Engineering","","0","S4 Technical Support/Troubleshooting. Troubleshooting Authoring slowness.","","","0,5","0",
"09.06.10","3","09.00582","1317","110","Engineering","","0","8501: 9x6: ProjStatus + Bespr. Daily team meeting","","","0,5","0",
"09.06.10","3","100018","54","110","Engineering","","0","S4 Technical Support/Troubleshooting. Assisting colleagues with issues and questions.","","","2","0",
"10.06.10","4","09.00582","904","110","Engineering","","45","3040: 9x6: ME7.11: ECU Analyse. Troubleshooting PIWIS bug. Documentation.","07:00","16:00","5","60",
"10.06.10","4","100018","54","110","Engineering","","0","S4 Technical Support/Troubleshooting. Assisting colleagues with issues and questions.","","","2","0",
"10.06.10","4","100018","55","110","Engineering","","0","S4 Administrative Tasks. Interviewing new personnel.","","","1","0",
"11.06.10","5","100018","55","110","Engineering","","0","S4 Administrative Tasks. Monthly report + management meeting","07:00","14:00","2,5","0",
"11.06.10","5","100018","55","110","Engineering","","0","S4 Administrative Tasks. General admin work.","","","1","0",
"11.06.10","5","100018","54","110","Engineering","","0","S4 Technical Support/Troubleshooting. Assisting colleagues with issues and questions.","","","1,5","0",
"11.06.10","5","09.00582","904","110","Engineering","","0","3040: 9x6: ME7.11: ECU Analyse. Documentation for Kurztest implementation. Clearing up communication ODX implementation.","","","2","0",
