"20.12.10","1","100023","1693","910","Urlaub","","0","Urlaub 17.12.2010-04.01.2011. Time-Off","07:00","16:00","8","60",
"21.12.10","2","100023","1693","910","Urlaub","","0","Urlaub 17.12.2010-04.01.2011. Time-Off","07:00","16:00","8","60",
"22.12.10","3","100023","1693","910","Urlaub","","0","Urlaub 17.12.2010-04.01.2011. Time-Off","07:00","16:00","8","60",
