"21.06.10","1","09.00582","1379","110","Engineering","","100","1027: 9x6: Kombi: Tankabgleich rücksetzen (GESiC): PH, Testspec Review. Test spec review","07:00","16:00","2","60",
"21.06.10","1","09.00582","1387","110","Engineering","","50","1029: 9x6: Kombi: Tacho A_2000: PH, Testspec Review. CORS review","","","3","0",
"21.06.10","1","09.00582","1390","110","Engineering","","50","1029: 9x6: Kombi: Tacho A_0x: PH, Testspec Review	. CORS review","","","3","0",
"22.06.10","2","09.00582","1359","120","Codierung","","50","1021: 9x6: Kombi: Ereignisse lesen/löschen: ODX Bedat JavaJobs. Implementation of Single ECU Job for Ereignisse Lessen","07:00","16:00","7","60",
"22.06.10","2","09.00582","120","110","Engineering","","0","8501: 9x6: allg. Projekttätigkeit C1. S4 Project Meeting","","","1","0",
"23.06.10","3","09.00582","1395","110","Engineering","","100","1030: 9x6: Kombi: Stellglieder_2000: PH, Testspec Review. Review of CORS document and Test Specification","07:00","16:00","7","60",
"23.06.10","3","09.00582","120","110","Engineering","","0","8501: 9x6: allg. Projekttätigkeit C1. Telec regarding 9x6 Project","","","1","0",
"24.06.10","4","09.00582","1359","120","Codierung","","70","1021: 9x6: Kombi: Ereignisse lesen/löschen: ODX Bedat JavaJobs. Implementation of ODX service for Ereignisse","07:00","16:00","5,5","60",
"24.06.10","4","09.00582","120","110","Engineering","","0","8501: 9x6: allg. Projekttätigkeit C1. S4 Project Meeting","","","2","0",
"24.06.10","4","100018","38","110","Engineering","","0","S4/DSA overall tasks. Assisting collegue with ECU Communication problem in new PIDT install","","","0,5","0",
"25.06.10","5","09.00582","1359","120","Codierung","","100","1021: 9x6: Kombi: Ereignisse lesen/löschen: ODX Bedat JavaJobs. Implementation of Single ECU Job for Ereignisse Lessen/Loschen","07:00","16:00","7,5","60",
"25.06.10","5","09.00582","38","110","Engineering","","0","S4/DSA overall tasks. Assisting collegue with VAG formulas and PIWIS implementation","","","0,5","0",
