"11.01.10","1","077353","1916","110","Engineering","","0","8185: Warten auf Authoring (Performance-Probleme bei Ausführung). Waiting For Authoring","07:00","16:00","2","60",
"11.01.10","1","077251","1372","110","Engineering","","0","8501: G1: allg. Projekttätigkeiten. Installing PIDT","","","1","0",
"11.01.10","1","077251","3401","181","Fehlerbes. vor Ausl. (Bugzilla)","","0","6010: Bugfixing. Fixing E1 Bug 20739","","","2","0",
"11.01.10","1","077251","3401","181","Fehlerbes. vor Ausl. (Bugzilla)","","0","6010: Bugfixing. Fixing G1 Bug 17015","","","3","0",
"12.01.10","2","077251","3401","181","Fehlerbes. vor Ausl. (Bugzilla)","","0","6010: Bugfixing. Fixing Bug 17087","07:00","16:00","1","60",
"12.01.10","2","077353","3401","181","Fehlerbes. vor Ausl. (Bugzilla)","","0","6010: Bugfixing. Fixing Bug 18207","","","5","0",
"12.01.10","2","077353","1916","110","Engineering","","0","	 8185: Warten auf Authoring (Performance-Probleme bei Ausführung). Problem with Server.","","","2","0",
"13.01.10","3","077353","1916","110","Engineering","","0"," 8185: Warten auf Authoring (Performance-Probleme bei Ausführung). Waiting for Authoring","07:00","16:00","2","60",
"13.01.10","3","077251","3489","120","Codierung","","100","6005: DME Erststart: Stringresourcen C6.5/aeB1. Creating String Resources","","","3","0",
"13.01.10","3","077251","3401","181","Fehlerbes. vor Ausl. (Bugzilla)","","0","6010: Bugfixing. Fixing Bug 17087","","","3","0",
"14.01.10","4","077251","1372","110","Engineering","","0","8501: G1: allg. Projekttätigkeiten. Helping Collegue","07:00","16:00","1","60",
"14.01.10","4","077251","1372","110","Engineering","","0","8501: G1: allg. Projekttätigkeiten. Translating document","","","2","0",
"14.01.10","4","077353","1916","110","Engineering","","0","8185: Warten auf Authoring (Performance-Probleme bei Ausführung). Waiting For Authoring","","","1","0",
"14.01.10","4","077251","3490","120","Codierung","","0","6005: DME Erststart: Impl. C6.6/aeB1. Implementation of CTS PAG_G1_BDE_Erststart","","","4","0",
"15.01.10","5","077251","3490","120","Codierung","","0","6005: DME Erststart: Impl. C6.6/aeB1. Implementation of CTS PAG_G1_BDE_Erststart","07:00","16:00","6","60",
"15.01.10","5","077353","1916","110","Engineering","","0","8185: Warten auf Authoring (Performance-Probleme bei Ausführung). Waiting For Authoring","","","2","0",
