"05.07.10","1","09.00582","1259","120","Codierung","","15","3001: 9x6: ME7.2: ODX BEdat + FAP. Working on ODX. Testing current implementations","07:00","16:00","5,5","60",
"05.07.10","1","09.00582","1259","120","Codierung","","0","3001: 9x6: ME7.2: ODX BEdat + FAP. Waiting for authoring","","","1","0",
"05.07.10","1","09.00582","1443","120","Codierung","","100","3001: 9x6: ME7.2: ODX BEdat + FAP. Assisting f4 with some ODX issues","","","1,5","0",
"06.07.10","2","09.00582","1444","120","Codierung","","35","3001: 9x6: ME7.2: ODX Bedat + FAP. Creating and testing odx for DME ME07","07:00","16:00","5","60",
"06.07.10","2","09.00582","1444","120","Codierung","","0","3001: 9x6: ME7.2: ODX Bedat + FAP. Waiting for Authoring","","","1,5","0",
"06.07.10","2","09.00582","1443","120","Codierung","","100","3001: 9x6: ME7.2: ODX Bedat + FAP. Assisted colleage with ODX issues. From F4","","","1,5","0",
"06.07.10","2","09.00582","1428","120","Codierung","","100","2162: 9x6: Ereginesse lesen/loeschen: Implementierung. Completed implementation","","","0","0",
"06.07.10","2","09.00582","1389","110","Engineering","","100","1029: 9x6: Kombi: Tacho A_0x: Testspec + erw.Sim. Completed test spec and sim","","","0","0",
"07.07.10","3","100152","8","120","Codierung","","100","1001: E1 PIROL: EDC17: ODX Bedat. Implemented Kurztest service for Pirol. From s53","07:00","16:00","2,5","60",
"07.07.10","3","09.00582","1444","120","Codierung","","30","3001: 9x6: ME7.2: ODX Bedat + FAP. Creating and testing odx for DME ME07","","","4","0",
"07.07.10","3","09.00582","1444","120","Codierung","","0","3001: 9x6: ME7.2: ODX Bedat + FAP. Waiting for Authoring","","","1","0",
"07.07.10","3","09.00582","1443","120","Codierung","","100","3001: 9x6: ME7.2: ODX Bedat + FAP. Assisting colleague with ODX Ccreating. From F2.","","","0,5","0",
"08.07.10","4","09.00582","1444","120","Codierung","","40","3001: 9x6: ME7.2: ODX Bedat + FAP. Creating and testing odx for DME ME07","07:00","16:00","5","60",
"08.07.10","4","09.00582","1444","120","Codierung","","0","3001: 9x6: ME7.2: ODX Bedat + FAP. Waiting for Authoring","","","1,5","0",
"08.07.10","4","09.00582","1443","120","Codierung","","0","3001: 9x6: ME7.2: ODX Bedat + FAP. Assisting colleague with ODX Implementation. From F4","","","0,5","0",
"08.07.10","4","09.00582","594","110","Engineering","","0","8501: 9x6: allg. Projekttaetigkeit. Discussing ODX service and ODX implementation","","","1","0",
"09.07.10","5","09.00582","1444","120","Codierung","","60","3001: 9x6: ME7.2: ODX Bedat + FAP. Creating the test specs for DME 7.2 and creating the ENV Data","07:00","16:00","7","60",
"09.07.10","5","09.00582","1444","120","Codierung","","0","3001: 9x6: ME7.2: ODX Bedat + FAP. Waiting for Authoring","","","1","0",
