"26.04.10","1","100023","0","910","Urlaub","","0","Holiday. Time-Off","07:00","16:00","8","60",
"27.04.10","2","100023","850","910","Urlaub","","100","Urlaub 27.04.2010. Time-Off","07:00","16:00","8","60",
"28.04.10","3","09.00582","440","120","Codierung","","0","1022: 9x6: Kombi I: Gesamtwegstrecke: Modultest+bugfixing. waiting for authoring","07:00","16:00","4","60",
"28.04.10","3","09.00582","440","120","Codierung","","0","1022: 9x6: Kombi I: Gesamtwegstrecke: Modultest+bugfixing. test sequence","","","4","0",
"29.04.10","4","09.00582","440","120","Codierung","","0","1022: 9x6: Kombi I: Gesamtwegstrecke: Implementierung. PAG_9x6_Kombi_Gesamtwegstrecke","07:00","16:00","6","60",
"29.04.10","4","100018","50","110","Engineering","","0","Wochenaufgaben PAE. Meeting","","","1","0",
"29.04.10","4","09.00582","440","120","Codierung","","0","1022: 9x6: Kombi I: Gesamtwegstrecke: Implementierung. waiting for authoring, performance problems","","","1","0",
"30.04.10","5","09.00582","441","140","Test","","0","1022: 9x6: Kombi I: Gesamtwegstrecke: Modultest+bugfixing. PAG_9x6_Kombi_Gesamtwegstrecke testing","07:00","16:00","7","60",
"30.04.10","5","09.00582","441","140","Test","","0","1022: 9x6: Kombi I: Gesamtwegstrecke: Modultest+bugfixing. waiting for authoring","","","1","0",
