"18.10.10","1","100018","54","110","Engineering","","0","S4 Technical Support / Troubleshooting. Supporting colleagues","07:00","16:00","4,5","60",
"18.10.10","1","100018","42","110","Engineering","","0","Wochenaufgaben AES. Discussions with sc","","","2,5","0",
"18.10.10","1","100018","55","110","Engineering","","0","S4 Administrative Tasks. General admin tasks","","","1","0",
"19.10.10","2","100334","574","110","Engineering","","0","4000: Alt-BR: ABS5: CTS Analyse. Statischer Test analysis + documentation","07:00","16:00","5","60",
"19.10.10","2","100025","265","170","Schulung","","0","Schulungen 2010. KW71 Training","","","1","0",
"19.10.10","2","100018","42","110","Engineering","","0","Wochenaufgaben AES. Project discussion with sc","","","1","0",
"19.10.10","2","100018","54","110","Engineering","","0","S4 Technical Support / Troubleshooting. Supporting colleagues","","","1","0",
"20.10.10","3","100334","574","110","Engineering","","50","4000: Alt-BR: ABS5: CTS Analyse. Statischer Test analysis + documentation","07:00","16:00","5","60",
"20.10.10","3","09.00582","1317","110","Engineering","","0","8501: 9x6: ProjStatus + Bespr C1.1/ae31. Weekly Telco with fp, rj, we.","","","1","0",
"20.10.10","3","100018","54","110","Engineering","","0","S4 Technical Support / Troubleshooting. Supporting colleagues","","","2","0",
"21.10.10","4","100025","265","170","Schulung","","0","Schulungen 2010. Altbaureihen project training","07:00","16:00","1","60",
"21.10.10","4","100018","54","110","Engineering","","0","S4 Technical Support / Troubleshooting. Supporting colleagues","","","5","0",
"21.10.10","4","100018","55","110","Engineering","","0","S4 Administrative Tasks. General admin tasks","","","2","0",
"22.10.10","5","100025","265","170","Schulung","","0","Schulungen 2010. PIDT configuration training","07:00","16:00","2","60",
"22.10.10","5","100018","54","110","Engineering","","0","S4 Technical Support / Troubleshooting. Supporting gs with Authoring performance tests","","","3,5","0",
"22.10.10","5","100018","54","110","Engineering","","0","S4 Technical Support / Troubleshooting. Supporting colleagues","","","2,5","0",
