"11.10.10","1","09.00582","2670","110","Engineering","","100","1028: Kombi: K-Zahl synchronisieren: PH (Update PCM1). Rework due to incorrect interpretation of analysis","07:00","16:00","4","60",
"11.10.10","1","09.00582","2662","110","Engineering","","10","1028: Kombi: K-Zahl synchronisieren: Testspec + erw. Sim (Update PCM1). Began rework of simulations adding PCM and modifying the configuration file","","","4","0",
"12.10.10","2","09.00582","2662","110","Engineering","","50","1028: Kombi: K-Zahl synchronisieren: Testspec + erw. Sim (Update PCM1). Continued updating simulations and test specifications","07:00","16:00","8","60",
"13.10.10","3","09.00582","2662","110","Engineering","","75","1028: Kombi: K-Zahl synchronisieren: Testspec + erw. Sim (Update PCM1). Continued updating simulations and modifying test specifications","07:00","16:00","7","60",
"13.10.10","3","100018","43","110","Engineering","","0","Wochenaufgaben AES. General tasks, assisting with problems, query for CTS modification","","","1","0",
"14.10.10","4","09.00582","2670","110","Engineering","","100","1028: Kombi: K-Zahl synchronisieren: PH (Update PCM1). Modyfying for service use instead of job use","07:00","16:00","2","60",
"14.10.10","4","09.00582","2662","110","Engineering","","75","1028: Kombi: K-Zahl synchronisieren: Testspec + erw. Sim (Update PCM1). Updating test psecification in test link","","","5","0",
"14.10.10","4","100018","43","110","Engineering","","0","Wochenaufgaben AES. Timesheet checks and updating","","","1","0",
"15.10.10","5","09.00582","0","910","Urlaub","","0","Time-Off. Time-Off","07:00","16:00","3","60",
"15.10.10","5","09.00582","2662","110","Engineering","","100","1028: Kombi: K-Zahl synchronisieren: Testspec + erw. Sim (Update PCM1). Completed test specification rework and bus logging","","","3,5","0",
"15.10.10","5","100018","43","110","Engineering","","0","Wochenaufgaben AES. Timesheet process with sc, department meeting","","","1,5","0",
