"29.03.10","1","100036","67","170","Schulung","","0","Training: Basics/ECU/Simulations/ODX/OET/em009fp1. Testing simulations against new firmware, creating simulations for ABS06","07:00","16:00","4","60",
"29.03.10","1","100036","76","170","Schulung","","0","Training: ODX Authoring /em009fp1. Learning how to fix ODX conversions and structures for PSM01 and PSM57","","","4","0",
"30.03.10","2","100036","67","170","Schulung","","0","Training: Basics/ECU/Simulations/ODX/OET/em009fp1. Testing ODX conversions, Creating simulations from KW2000 on CAN","07:00","16:00","8","60",
"31.03.10","3","100036","76","170","Schulung","","0","Training: ODX Authoring /em009fp1. Developing a code snippet to calculate the values in a byte array","07:00","16:00","1","60",
"31.03.10","3","100036","67","170","Schulung","","0","Training: Basics/ECU/Simulations/ODX/OET/em009fp1. Creating CAN simulation, testing ODX vs simulation","","","7","0",
"01.04.10","4","100036","0","110","Engineering","","0","General Task. Fortnightly meeting to dsicuss general progress within the DSA development team","07:00","16:00","0,5","60",
"01.04.10","4","100036","84","170","Schulung","","0","Trianing: PIWIS Source /em009fp1. Learning how to insert debug statements for entry and exit of functions","","","7,5","0",
"02.04.10","5","100023","0","910","Urlaub","","0","Holiday. Time off","07:00","16:00","8","60",
