"04.01.10","1","0","0","910","Urlaub","","0","Holiday","07:00","16:00","9","0",
"05.01.10","2","0","0","910","Urlaub","","0","Holiday","07:00","16:00","9","0",
"06.01.10","3","0","0","910","Urlaub","","0","Holiday","07:00","16:00","9","0",
"07.01.10","4","0","0","910","Urlaub","","0","Holiday","07:00","16:00","9","0",
"08.01.10","5","0","0","910","Urlaub","","0","Holiday","07:00","16:00","9","0",
