"06.12.10","1","09.00582","1900","181","Fehlerbes. vor Ausl. (Bugzilla)","","0","1104: 9x6: RegrTests Bugfixing. bug 27312","07:00","16:00","8","60",
"07.12.10","2","100334","889","120","Codierung","","0","3001: Alt-BR: Motronic: ODX Bedat. implemented measurements for m05, from s61","07:00","16:00","8","60",
"08.12.10","3","100023","0","910","Urlaub","","0","Time-Off. Staff function","07:00","16:00","3","60",
"08.12.10","3","09.00582","1900","181","Fehlerbes. vor Ausl. (Bugzilla)","","0","1104: 9x6: RegrTests Bugfixing. bug 27343","","","5","0",
"09.12.10","4","09.00582","1900","181","Fehlerbes. vor Ausl. (Bugzilla)","","0","1104: 9x6: RegrTests Bugfixing. bug 27254, 27431, 27395","07:00","16:00","8","60",
"10.12.10","5","100334","888","120","Codierung","","0","3001: Alt-BR: Motronic: ODX Bedat. implemented measurements for m03, from s58","07:00","16:00","5,5","60",
"10.12.10","5","100018","50","110","Engineering","","0","Wochenaufgaben AES. Meeting and updating timesheets","","","1,5","0",
"10.12.10","5","100334","888","120","Codierung","","0","3001: Alt-BR: Motronic: ODX Bedat. waiting for authoring, from s58","","","1","0",
