"26.04.10","1","100036","72","170","Schulung","","100","Training:CTS implimentation. Creating CTS sequences","07:00","16:00","8","60",
"27.04.10","2","100023","853","910","Urlaub","","100","Urlaub 27.04.2010. Holiday","07:00","16:00","8","60",
"28.04.10","3","100036","72","170","Schulung","","70","Training:CTS implimentation. Creating CTS's and implement","07:00","16:00","5","60",
"28.04.10","3","100036","79","170","Schulung","","30","Training: Create Test Specification /em009fp1. Created tester files for simulations and tested it","","","3","0",
"29.04.10","4","100036","72","170","Schulung","","100","Training:CTS implimentation/em009fp1. Creating CTS's and implement","07:00","16:00","8","60",
"30.04.10","5","100036","79","170","Schulung","","50","Training: Create Test Specification /em009fp1. Created new simulations and tested it","07:00","16:00","4","60",
"30.04.10","5","100036","72","170","Schulung","","50","Training:CTS implimentation/em009fp1. Creating CTS's","","","4","0",
