"11.10.10","1","09.00582","2665","120","Codierung","","0","3001: 9x6: ME7.2: ODX Bedat + FAP. ODX Testing ME7.2.","07:00","16:00","4","60",
"11.10.10","1","09.00582","2665","120","Codierung","","0","3001: 9x6: ME7.2: ODX Bedat + FAP. Restructuring Results of Piwis and Pidt .Updating Test specs.","","","4","0",
"12.10.10","2","09.00582","2665","120","Codierung","","0","3001: 9x6: ME7.2: ODX Bedat + FAP. ODX Testing ME7.2.","07:00","16:00","4","60",
"12.10.10","2","09.00582","2665","120","Codierung","","0","3001: 9x6: ME7.2: ODX Bedat + FAP. Updating configuration Reread,Config writng,Config Read.","","","4","0",
"13.10.10","3","09.00582","2665","120","Codierung","","0","3001: 9x6: ME7.2: ODX Bedat + FAP. ODX Testing ME7.2.","07:00","16:00","4","60",
"13.10.10","3","09.00582","2665","120","Codierung","","0","3001: 9x6: ME7.2: ODX Bedat + FAP. Updating FSP Testspec and restructured results.","","","4","0",
"14.10.10","4","09.00582","2665","120","Codierung","","0","3001: 9x6: ME7.2: ODX Bedat + FAP. ODX Testing ME7.2.","07:00","16:00","4","60",
"14.10.10","4","09.00582","2665","120","Codierung","","0","3001: 9x6: ME7.2: ODX Bedat + FAP. Updating Actuators results.","","","4","0",
"15.10.10","5","09.00582","2665","120","Codierung","","0","3001: 9x6: ME7.2: ODX Bedat + FAP. ODX Testing ME7.2.","07:00","16:00","5","60",
"15.10.10","5","09.00582","2665","120","Codierung","","0","3001: 9x6: ME7.2: ODX Bedat + FAP. Updating Test results DME2001,2401,3001.","","","3","0",
