"03.01.11","1","100023","1693","910","Urlaub","","100","Urlaub 17.12.2010-04.01.2011. Time-Off","07:00","16:00","8","60",
"04.01.11","2","09.00582","2836","182","Fehlerbes. nach Ausl. (Bugzilla)","","0","6026: 9x6: Bugfixing: BF-Test 1.0.1. bug 27273, 27241","07:00","16:00","8","60",
"05.01.11","3","09.00582","2836","182","Fehlerbes. nach Ausl. (Bugzilla)","","0","6026: 9x6: Bugfixing: BF-Test 1.0.1. bug 27437, 7436, 27312","07:00","16:00","8","60",
"06.01.11","4","09.00582","2836","182","Fehlerbes. nach Ausl. (Bugzilla)","","0","6026: 9x6: Bugfixing: BF-Test 1.0.1. bug 27714, 27354, 2741","07:00","16:00","8","60",
"07.01.11","5","09.00582","2836","182","Fehlerbes. nach Ausl. (Bugzilla)","","0","6026: 9x6: Bugfixing: BF-Test 1.0.1. bug 27421, 27510","07:00","16:00","7","60",
"07.01.11","5","110018","35","101","PM/Mod/Meetings","","0","Wochenaufgaben AES. Meeting and updating timesheets","","","1","0",
