"05.12.11","1","110408","69","140","Test","","100","1110: BaseLib: Stufe 1: KSM: Review/Bugfix. (from hd) Review ECU. Closing task","07:00","16:00","3,2","60",
"05.12.11","1","110025","403","170","Schulung","","0","Training: P.Automation. Training review","","","4,8","0",
"06.12.11","2","110025","403","170","Schulung","","0","Training: P.Automation. Training bugfixing","07:00","16:00","8","60",
"07.12.11","3","110018","39","101","PM/Mod/Meetings","","0","Wochenaufgaben AES. Weekly MAN meeting","07:00","16:00","1","60",
"07.12.11","3","110025","403","170","Schulung","","0","Training: P.Automation. Training bugfixing","","","7","0",
"08.12.11","4","110408","121","140","Test","","50","1110: BaseLib: Stufe 1: TRON: Review/Bugfix. Doing review","07:00","16:00","1,5","60",
"08.12.11","4","110408","89","120","Codierung","","100","2110: BaseLib: Stufe 2: BNLW: Update. Updating to baselib 2.5.03. Closing task","","","6,5","0",
"09.12.11","5","110408","121","140","Test","","100","1110: BaseLib: Stufe 1: TRON: Review/Bugfix. Fixing odx after review. Closing task","07:00","16:00","1,7","60",
"09.12.11","5","110018","39","101","PM/Mod/Meetings","","0","Wochenaufgaben AES. Meetings and Timesheets","","","2,5","0",
"09.12.11","5","110408","60","120","Codierung","","100","1110: BaseLib: Stufe 1: TRON: Update. Closing Task","","","0","0",
"09.12.11","5","110025","403","170","Schulung","","0","Training: P.Automation. Training bugfixing","","","3,8","0",
