"29.08.11","1","110018","32","101","PM/Mod/Meetings","","0","Wochenaufgaben AES. Timesheets and daily meeting","07:00","16:00","2","60",
"29.08.11","1","110011","793","120","Codierung","","0","PG3: WDI-DataLogger. Testcases for datalogger","","","6","0",
"30.08.11","2","110011","793","120","Codierung","","0","PG3: WDI-DataLogger. Testcases for datalogger","07:00","16:00","8","60",
"31.08.11","3","110011","793","120","Codierung","","0","PG3: WDI-DataLogger. Testcases for datalogger","07:00","16:00","8","60",
"01.09.11","4","110011","793","120","Codierung","","0","PG3: WDI-DataLogger. Testcases for datalogger","07:00","16:00","8","60",
"02.09.11","5","110011","793","120","Codierung","","0","PG3: WDI-DataLogger. Testcases for datalogger","07:00","16:00","8","60",
