"24.01.11","1","100023","0","910","Urlaub","","0","Holiday. Time-Off","07:00","16:00","8","60",
"24.01.11","1","100334","1292","110","Engineering","","100","5020: Alt-BR: Alarm: CTS Analyse. Task moved to S56, CLOSING TASK","","","0","0",
"24.01.11","1","100334","886","110","Engineering","","100","3000: Alt-BR: Motronic: Stellglied+Codier Analyse. CLOSE TASK","","","0","0",
"25.01.11","2","100334","1041","110","Engineering","","40","5040: Alt-BR: Airbag (Übernahme 9x6): Analyse. Transfering required documents from 9x6 to ABR SVN, minor updates","07:00","16:00","8","60",
"26.01.11","3","100334","1041","110","Engineering","","50","5040: Alt-BR: Airbag (Übernahme 9x6): Analyse. Updating new SVN locations and removing unnecessary  information","07:00","16:00","8","60",
"27.01.11","4","100334","1036","102","Spez: LH/PH/Design","","0","5005: Alt-BR: Airbag: Codierung ändern: PH. (from s58) assisting with PH, first attempt","07:00","16:00","3","60",
"27.01.11","4","100334","1041","110","Engineering","","100","5040: Alt-BR: Airbag (Übernahme 9x6): Analyse. Completed analysis, SVN checked in","","","5","0",
"28.01.11","5","110018","29","101","PM/Mod/Meetings","","0","Wochenaufgaben AES. Weekly meetings and checking timesheets","07:00","16:00","2","60",
"28.01.11","5","100334","1185","140","Test","","40","4061: Alt-BR: ABS (Übernahme 9x6): ODX Test. Testing against ODX test specifications","","","5","0",
"28.01.11","5","100334","62","101","PM/Mod/Meetings","","0","8501: Alt-BR: allg. Projekttätigkeit C1.3/ae14. Assisting with task allocations and current status","","","1","0",
