"27.06.11","1","110117","238","120","Codierung","","0","1002: Seq.: (CR033hz2): Step FAP: Impl.. Worked on FAP step CTS","07:00","16:00","3","60",
"27.06.11","1","110036","189","170","Schulung","","0","DaigFunktionen /s63-anlrn. Fixed problems found in code review","","","5","0",
"28.06.11","2","110117","220","104","Test-Spezifikation","","0","1002: Seq.: (CR033hz2): Testspec. Worked on Automatic Action Sequencing Testspec","07:00","16:00","8","60",
"29.06.11","3","110117","220","104","Test-Spezifikation","","0","1002: Seq.: (CR033hz2): Testspec. Worked on Automatic Action Sequencing Testspec","07:00","16:00","8","60",
"30.06.11","4","110036","189","170","Schulung","","0","DaigFunktionen /s63-anlrn. Worked on Automatic Action Sequencing Testspec","07:00","16:00","8","60",
"01.07.11","5","110036","189","170","Schulung","","0","DaigFunktionen /s63-anlrn. Worked on Automatic Action Sequencing Testspec","07:00","16:00","8","60",
