"28.11.11","1","110025","403","170","Schulung","","0","Training: P.Automation. Getting into subject with Step-by-step guide and final steps of proc descrip","07:00","16:00","8","60",
"29.11.11","2","110408","60","120","Codierung","","0","1110: BaseLib: Stufe 1: TRON: Update. Implementation of ODX update","07:00","16:00","4","60",
"29.11.11","2","110025","403","170","Schulung","","0","Training: P.Automation. fixing of odx","","","4","0",
"30.11.11","3","110408","60","120","Codierung","","0","1110: BaseLib: Stufe 1: TRON: Update. Implementation of ODX update","07:00","16:00","4","60",
"30.11.11","3","110018","39","101","PM/Mod/Meetings","","0","Wochenaufgaben AES. Weekly meeting","","","1","0",
"30.11.11","3","110025","403","170","Schulung","","0","Training: P.Automation. Training","","","3","0",
"01.12.11","4","110408","58","120","Codierung","","100","1110: BaseLib: Stufe 1: AIR: Update. Closing task","07:00","16:00","0","60",
"01.12.11","4","110408","120","140","Test","","100","1110: BaseLib: Stufe 1: AIR: Review/Bugfix. Review and bugfixing. Closing task","","","2,4","0",
"01.12.11","4","110025","403","170","Schulung","","0","Training: P.Automation. Training comparing old and new odx","","","5,6","0",
"02.12.11","5","110018","39","101","PM/Mod/Meetings","","0","Wochenaufgaben AES. Meetings and Timesheets","07:00","16:00","2,5","60",
"02.12.11","5","110023","0","910","Urlaub","","0","Time-Off. Time-Off","","","3","0",
"02.12.11","5","110025","403","170","Schulung","","0","Training: P.Automation. Training","","","2,5","0",
