"11.07.11","1","110025","403","170","Schulung","","0","Training: P.Automation. Working through CODA sequences","07:00","16:00","8","60",
"12.07.11","2","110025","403","170","Schulung","","0","Training: P.Automation. Creating simulations for CODA, bugfixing CODA seq","07:00","16:00","8","60",
"13.07.11","3","110025","403","170","Schulung","","0","Training: P.Automation. Investigating Events and Signals for CODA, new P. Automation installation, checking building blocks","07:00","16:00","8","60",
"14.07.11","4","110025","403","170","Schulung","","0","Training: P.Automation. Fixing building blocks P.Automation, trying to implement Events and Signals, troubleshooting P.Offic","07:00","16:00","8","60",
"15.07.11","5","110018","39","101","PM/Mod/Meetings","","0","Wochenaufgaben AES. Meetings and Timesheets","07:00","16:00","2","60",
"15.07.11","5","110025","403","170","Schulung","","0","Training: P.Automation. fixing P.Automation strings, training with P.Office and events","","","6","0",
