"10.10.11","1","110025","391","170","Schulung","","0","Training: P.Automation. Training","07:00","16:00","8","60",
"11.10.11","2","110025","391","170","Schulung","","0","Training: P.Automation. Training","07:00","16:00","8","60",
"12.10.11","3","110025","391","170","Schulung","","0","Training: P.Automation. Training","07:00","16:00","8","60",
"13.10.11","4","110025","391","170","Schulung","","0","Training: P.Automation. Training","07:00","16:00","8","60",
"14.10.11","5","110025","391","170","Schulung","","0","Training: P.Automation. Training","07:00","16:00","8","60",
