"07.11.11","1","110292","161","120","Codierung","","0","1012: SG Suche FAP Optimierung: Lesezugriffsschicht auf FAP Dokument (CR140da6). 1012: SG Suche FAP Optimierung: Lesezugriffsschicht auf FAP Dokument (CR140da6)","07:00","16:00","8","60",
"08.11.11","2","110292","161","120","Codierung","","100","1012: SG Suche FAP Optimierung: Lesezugriffsschicht auf FAP Dokument (CR140da6). 1012: SG Suche FAP Optimierung: Lesezugriffsschicht auf FAP Dokument (CR140da6)","07:00","16:00","8","60",
"09.11.11","3","110292","162","120","Codierung","","0","1012: SG Suche FAP Optimierung: EcuDetailsProcessor verarbeitet FAP Dokument (CR140da6). 1012: SG Suche FAP Optimierung: EcuDetailsProcessor verarbeitet FAP Dokument (CR140da6)","07:00","16:00","8","60",
"10.11.11","4","110292","162","120","Codierung","","100","1012: SG Suche FAP Optimierung: EcuDetailsProcessor verarbeitet FAP Dokument (CR140da6). 1012: SG Suche FAP Optimierung: EcuDetailsProcessor verarbeitet FAP Dokument (CR140da6)","07:00","16:00","8","60",
"11.11.11","5","110292","159","120","Codierung","","100","1012: SG Suche FAP Optimierung: FAP Frage nach vorne (CR140da6). 1012: SG Suche FAP Optimierung: FAP Frage nach vorne (CR140da6)","07:00","16:00","3","60",
"11.11.11","5","110292","163","120","Codierung","","0","1012: SG Suche FAP Optimierung: Überprüfung auf doppelte Variantenidentification (CR140da6). 1012: SG Suche FAP Optimierung: Überprüfung auf doppelte Variantenidentification (CR140da6)","","","5","0",
