"21.02.11","1","100334","948","140","Test","","96","3061: Alt-BR: Getr Tiptronic: ODX Test. G10, G20, G03 FSP","07:00","16:00","8","60",
"22.02.11","2","100334","949","181","Fehlerbes. vor Ausl. (Bugzilla)","","0","3061: Alt-BR: Getr Tiptronic: ODX Bugfixing. G00, 01, 02 FSP and istwerte bug fixing, from s46","07:00","16:00","8","60",
"23.02.11","3","100334","949","181","Fehlerbes. vor Ausl. (Bugzilla)","","0","3061: Alt-BR: Getr Tiptronic: ODX Bugfixing. G10, G20 FSP and istwerte bug fixing, from s46","07:00","16:00","8","60",
"24.02.11","4","100334","949","181","Fehlerbes. vor Ausl. (Bugzilla)","","0","3061: Alt-BR: Getr Tiptronic: ODX Bugfixing. G20,G10 Ext FSP, from s46","07:00","16:00","4","60",
"24.02.11","4","100334","948","140","Test","","98","3061: Alt-BR: Getr Tiptronic: ODX Test. retest after bugfixing","","","4","0",
"25.02.11","5","100334","949","181","Fehlerbes. vor Ausl. (Bugzilla)","","100","3061: Alt-BR: Getr Tiptronic: ODX Bugfixing. G03, G10, G20 Ext FSP, from s46","07:00","16:00","4","60",
"25.02.11","5","110018","35","101","PM/Mod/Meetings","","0","Wochenaufgaben AES. Meeting and updating timesheets","","","1,5","0",
"25.02.11","5","100334","948","140","Test","","100","3061: Alt-BR: Getr Tiptronic: ODX Test. retest after bugfixing","","","2,5","0",
