"04.04.11","1","110101","76","120","Codierung","","0","1011: OBD ScanTool: Vehicle Inform: Transfer CTS E2.1/pa11. OBD Mode9: Manual take-over of PIDT generic OBD sequences for Ferrari DEIS.","07:00","16:00","8","60",
"05.04.11","2","110101","76","120","Codierung","","100","1011: OBD ScanTool: Vehicle Inform: Transfer CTS E2.1/pa11. OBD Mode9: Manual take-over of PIDT generic OBD sequences for Ferrari DEIS.","07:00","16:00","6","60",
"05.04.11","2","110101","81","120","Codierung","","0","1012: OBD ScanTool: Mode1: Transfer CTS E3.1/pa11. OBD Parameters: Manual take-over of PIDT generic OBD sequences for Ferrari DEIS.","","","2","0",
"06.04.11","3","110101","81","120","Codierung","","0","1012: OBD ScanTool: Mode1: Transfer CTS E3.1/pa11. OBD Parameters: Manual take-over of PIDT generic OBD sequences for Ferrari DEIS.","07:00","16:00","8","60",
"07.04.11","4","110101","81","120","Codierung","","100","1012: OBD ScanTool: Mode1: Transfer CTS E3.1/pa11. OBD Parameters: Manual take-over of PIDT generic OBD sequences for Ferrari DEIS.","07:00","16:00","4","60",
"07.04.11","4","110101","84","120","Codierung","","0","1013: OBD-ScanTool: Mode2: Transfer CTS E4.1/pa11. OBD Environment Data: Manual take-over of PIDT OBD sequence for Ferrari DEIS.","","","4","0",
"08.04.11","5","110018","24","101","PM/Mod/Meetings","","0","Wochenaufgaben AES. Weekly timesheet report, department meeting.","07:00","16:00","1,5","60",
"08.04.11","5","110101","84","120","Codierung","","100","1013: OBD-ScanTool: Mode2: Transfer CTS E4.1/pa11. OBD Environment Data: Manual take-over of PIDT OBD sequence for Ferrari DEIS.","","","4","0",
"08.04.11","5","110101","87","120","Codierung","","0","1014: OBD ScanTool: Mode3,4,7&A: Transfer CTS E4.1/pa11. OBD error memory: Manual take-over of PIDT OBD sequence for Ferrari DEIS.","","","2,5","0",
