"04.04.11","1","100334","1685","140","Test","","100","1104: Alt-BR: Attr ODX in PTTD: Test Attr. testing PTTD CTS(from ac)","07:00","16:00","8","60",
"05.04.11","2","100334","1685","140","Test","","100","1104: Alt-BR: Attr ODX in PTTD: Test Attr. testing PTTD CTS(from ac)","07:00","16:00","4","60",
"05.04.11","2","110025","373","170","Schulung","","0","Training. Working on Prodis.Automation","","","4","0",
"06.04.11","3","100334","1685","140","Test","","100","1104: Alt-BR: Attr ODX in PTTD: Test Attr. testing PTTD CTS(from ac)","07:00","16:00","8","60",
"07.04.11","4","110025","373","170","Schulung","","100","Training. Working on Prodis.Automation","07:00","16:00","8","60",
"08.04.11","5","110025","373","170","Schulung","","100","Training. Working on Prodis.Automation","07:00","16:00","8","60",
