"18.04.11","1","110025","0","170","Schulung","","100","P.Automation Training. P.Automation: Training presentation","07:00","16:00","2","60",
"18.04.11","1","110025","0","170","Schulung","","100","P.Automation Training. P.Automation:Configure & run existing sequences that handle vci communication to grasp understanding","","","6","0",
"19.04.11","2","110025","0","170","Schulung","","100","P.Automation Training. P.Automation:edit & test existing vci comm. sequences, requests and responses to grasp understanding","07:00","16:00","8","60",
"20.04.11","3","110025","0","170","Schulung","","100","P.Automation Training. P.Automation: edit & test existing vci comm. sequences, requests and responses to grasp understandin","07:00","16:00","8","60",
"21.04.11","4","110025","0","170","Schulung","","100","P.Automatiom Training. P.Automation: creating a release for a cts and transfer to runtime system.","07:00","16:00","8","60",
"22.04.11","5","110023","0","910","Urlaub","","0","Holiday. Time-Off","07:00","16:00","8","60",
