"20.06.11","1","110117","220","104","Test-Spezifikation","","0","1002: Seq.: (CR033hz2): Testspec from s43. Worked on Automatic Action Sequencing Testspec","07:00","16:00","8","60",
"21.06.11","2","110117","220","104","Test-Spezifikation","","0","1002: Seq.: (CR033hz2): Testspec from s43. Worked on Automatic Action Sequencing Testspec","07:00","16:00","7","60",
"21.06.11","2","110117","245","104","Test-Spezifikation","","0","1002: Seq.: (CR033hz2): MCR-Codierung: Step Delay: Testspec. Worked on the step delay test spec","","","1","0",
"22.06.11","3","110117","220","104","Test-Spezifikation","","0","1002: Seq.: (CR033hz2): Testspec from s43. Worked on Automatic Action Sequencing Testspec","07:00","16:00","8","60",
"23.06.11","4","110117","220","104","Test-Spezifikation","","0","1002: Seq.: (CR033hz2): Testspec from s43. Worked on Automatic Action Sequencing Testspec","07:00","16:00","3","60",
"23.06.11","4","110036","189","170","Schulung","","0","DaigFunktionen /s63-anlrn. Training","","","5","0",
"24.06.11","5","110117","238","120","Codierung","","0","1002: Seq.: (CR033hz2): Step FAP: Impl.. Worked on DSA_PAG_Action_FAPStep CTS","07:00","16:00","8","60",
