"07.03.11","1","100334","1084","110","Engineering","","50","5026: Alt-BR: Alarm: Codierungen: PH, Testspec Review. Review and updating of test specification","07:00","16:00","8","60",
"08.03.11","2","110025","0","170","Schulung","","0","P.Automation. Installation and configuration.  Reading documentation","07:00","16:00","8","60",
"09.03.11","3","100334","1084","110","Engineering","","100","5026: Alt-BR: Alarm: Codierungen: PH, Testspec Review. Review and updating of test specification and simulations","07:00","16:00","8","60",
"10.03.11","4","100334","941","140","Test","","10","3010: Alt-BR: Motronic: Stellglieder: Modultest+Bugfixing. Testing of actuators and bugfixing(from s61)","07:00","16:00","5","60",
"10.03.11","4","110018","33","101","PM/Mod/Meetings","","0","S4/DSA overall tasks. Project meeting with md","","","1","0",
"10.03.11","4","100334","33","101","PM/Mod/Meetings","","0","S4/DSA overall tasks. Testing of Analog Signals with  and response seperator in ODX","","","2","0",
"11.03.11","5","100334","985","110","Engineering","","100","4004: Alt-BR: ABS5: Systemprüfung: PH+Testspec Review. Task taken over by collegue","07:00","16:00","0","60",
"11.03.11","5","100334","1005","110","Engineering","","50","4022: Alt-BR: PDAS: Stellglieder: PH+Testspec Review. Review of test specification","","","4","0",
"11.03.11","5","100334","941","140","Test","","20","3010: Alt-BR: Motronic: Stellglieder: Modultest+Bugfixing. Testing of actuators and bugfixing(from s61)","","","3","0",
"11.03.11","5","110018","34","101","PM/Mod/Meetings","","0","Wochenaufgaben AES. Timesheets","","","0,3","0",
"11.03.11","5","110018","34","101","PM/Mod/Meetings","","0","Wochenaufgaben AES. Weekly Meetings","","","0,7","0",
