"16.05.11","1","110117","0","181","Fehlerbes. vor Ausl. (Bugzilla)","","0","PIDT SWE Bug Fixing. Getting into Subject Pidt SWE - working on Bug 29597","08:00","16:30","8","30",
"17.05.11","2","110117","0","181","Fehlerbes. vor Ausl. (Bugzilla)","","0","PIDT SWE Bug Fixing. Getting into Subject Pidt SWE - working on Bug 29597","08:00","16:30","8","30",
"18.05.11","3","110117","0","181","Fehlerbes. vor Ausl. (Bugzilla)","","0","PIDT SWE Bug Fixing. Getting into Subject Pidt SWE - working on Bug 29597","08:00","16:30","8","30",
