"10.01.11","1","100334","890","120","Codierung","","0","3001: Alt-BR: Motronic: ODX Bedat. Creating Measurement Values for DME ECU from s44","07:00","16:00","8","60",
"11.01.11","2","100334","890","120","Codierung","","0","3001: Alt-BR: Motronic: ODX Bedat. Creating Measurement Values for DME ECU from s44","07:00","16:00","8","60",
"12.01.11","3","100334","890","120","Codierung","","0","3001: Alt-BR: Motronic: ODX Bedat. Creating Measurement Values for DME ECU from s44","07:00","16:00","5","60",
"12.01.11","3","100334","973","104","Test-Spezifikation","","30","4002: Alt-BR: ABS5: stat Test: Testspec + erw. Sim. Creating Test Spec and Simulation for ABS5 from sd","","","3","0",
"13.01.11","4","100334","973","104","Test-Spezifikation","","90","4002: Alt-BR: ABS5: stat Test: Testspec + erw. Sim. Creating Test Spec and Simulation for ABS5 from sd","07:00","16:00","8","60",
"14.01.11","5","100334","910","120","Codierung","","50","3004: Alt-BR: Motronic: Zyklusflag: Implementierung. Implementing Zyklusflag CTS from s53","07:00","16:00","8","60",
