"02.05.11","1","2011","0","910","Urlaub","","0","02.05.2011. Time-Off","07:00","16:00","8","60",
"03.05.11","2","110025","187","170","Schulung","","100","Training: PTTD. P.Automation Training. Booking on closed task.","07:00","16:00","8","60",
"04.05.11","3","110018","39","101","PM/Mod/Meetings","","0","Wochenaufgaben AES. Meeting with bosses.","07:00","16:00","2","60",
"04.05.11","3","110018","39","101","PM/Mod/Meetings","","0","Wochenaufgaben AES. Installing new P.Automation versions, JRTS, etc","","","2","0",
"04.05.11","3","09.00790","2631","104","Test-Spezifikation","","0","8000: Elfis Statistics RT: Testcases C5.1/AE10. Fixing runtime cts and attempting to get it to work","","","4","0",
"05.05.11","4","110025","187","170","Schulung","","100","Training: PTTD. Training on other functions of P.Automation. Booking on closed task","07:00","16:00","4","60",
"05.05.11","4","09.00790","2631","104","Test-Spezifikation","","0","8000: Elfis Statistics: Testcases B5.1/AE10. Updating the cts","","","4","0",
"06.05.11","5","110018","39","101","PM/Mod/Meetings","","0","Wochenaufgaben AES. Meetings and Timesheets","07:00","16:00","1,5","60",
"06.05.11","5","09.00790","2790","120","Codierung","","0","2340: P.Autom: R4: P.Lib F5-30: HW Control Impl. Starting the hardware control impl.from s61","","","6,5","0",
