"12.12.11","1","110036","413","170","Schulung","","0","Einarbeitung Ablaufentwicklung mit Authoring.ODX. Fisker Authoring training","07:00","16:00","8","60",
"13.12.11","2","110618","118","102","Spez: LH/PH/Design","","100","FISKER: PWR-MODE-PRE-COND: Specification (CODG) B3.1/pa10. created specification","07:00","16:00","1,5","60",
"13.12.11","2","110618","119","120","Codierung","","0","FISKER: PWR-MODE-PRE-COND: Implementation B3.2/pa10. CTS implementation, rework","","","6,5","0",
"14.12.11","3","110036","119","120","Codierung","","100","FISKER: PWR-MODE-PRE-COND: Implementation B3.2/pa10. CTS implementation, rework","07:00","16:00","3","60",
"14.12.11","3","110036","413","170","Schulung","","0","Einarbeitung Ablaufentwicklung mit Authoring.ODX. Fisker Authoring training","","","4","0",
"14.12.11","3","110618","120","120","Codierung","","0","FISKER: VCM - TYRE: Implementation C2.2/pa10. CTS implementation, from s46","","","1","0",
"15.12.11","4","110018","35","101","PM/Mod/Meetings","","0","Wochenaufgaben AES. Meetings and updating timesheets","07:00","16:00","2,5","60",
"15.12.11","4","110036","413","170","Schulung","","0","Einarbeitung Ablaufentwicklung mit Authoring.ODX. Fisker Authoring training","","","2,5","0",
"15.12.11","4","110036","126","120","Codierung","","0","FISKER: VCM - TYRE: Implementation C2.2/pa10. CTS implementation","","","3","0",
"16.12.11","5","110023","0","910","Urlaub","","100","Public Holiday. Time Off","07:00","16:00","8","60",
