"20.06.11","1","110117","228","120","Codierung","","95","1002: Seq.: (CR033hz2): MCR-Codierung: Fehlerbehandlung: Impl.. Modifying CTS to return errorObject","07:00","16:00","2","60",
"20.06.11","1","110036","183","170","Schulung","","0","Sequentialisierung von Aktionen /s43-anlrn. Modifying CTS to return errorObject","","","6","0",
"21.06.11","2","110117","228","120","Codierung","","100","1002: Seq.: (CR033hz2): MCR-Codierung: Fehlerbehandlung: Impl.. Modifying CTS to return errorObject","07:00","16:00","0","60",
"21.06.11","2","110117","229","120","Codierung","","100","1002: Seq.: (CR033hz2): MCR-Codierung: autom. Codierung: Impl.. Modifying CTS to return errorObject","","","1","0",
"21.06.11","2","110036","183","170","Schulung","","0","Sequentialisierung von Aktionen /s43-anlrn. Modifying CTS to return errorObject","","","7","0",
"22.06.11","3","110036","183","170","Schulung","","0","Sequentialisierung von Aktionen /s43-anlrn. Checkin - Problems with jobs on server","07:00","16:00","8","60",
"23.06.11","4","110036","183","170","Schulung","","0","Sequentialisierung von Aktionen /s43-anlrn. Checkin - Problems with jobs on server","07:00","16:00","5","60",
"23.06.11","4","110023","0","910","Urlaub","","0","Time off. Time off","","","3","0",
"24.06.11","5","110036","183","170","Schulung","","0","Sequentialisierung von Aktionen /s43-anlrn. Checkin - Problems with jobs on server","07:00","16:00","4","60",
"24.06.11","5","110036","183","170","Schulung","","0","Sequentialisierung von Aktionen /s43-anlrn. Testing","","","4","0",
