DATE;NAME;START;END;LUNCH;1;2;3;4;5;6;7;8;9;10;11;12;13;14;15;16;17;18;19;20;21;22;23;24;
01.10.11;Brendan van Zyl;
01.10.11;Nico Claassen;
01.10.11;Graham Meyer;
01.10.11;Thando Katywa;
01.10.11;Ludumo Sankobe;
01.10.11;Paul Helliwell;
01.10.11;Ntombenkosi Maldaki;
01.10.11;Wesley Saunders;
01.10.11;Mario Jansen van Vuuren;
02.10.11;Brendan van Zyl;
02.10.11;Nico Claassen;
02.10.11;Graham Meyer;
02.10.11;Thando Katywa;
02.10.11;Ludumo Sankobe;
02.10.11;Paul Helliwell;
02.10.11;Ntombenkosi Maldaki;
02.10.11;Wesley Saunders;
02.10.11;Mario Jansen van Vuuren;
03.10.11;Brendan van Zyl;07:00:00;16:00:00;60;110036-391;110036-391;110036-391;110036-391;110036-391;110036-391;110036-391;110036-391;
03.10.11;Nico Claassen;07:00:00;16:00:00;60;110018-27;110018-27;110018-27;110018-27;110018-27;110018-27;110018-27;110018-27;
03.10.11;Graham Meyer;07:00:00;16:00:00;60;110023-0;110023-0;110023-0;110023-0;110023-0;110023-0;110023-0;110023-0;
03.10.11;Thando Katywa;07:00:00;16:00:00;60;110292-7;110292-7;110292-7;110292-7;110292-7;110292-7;110292-7;110292-7;
03.10.11;Ludumo Sankobe;07:00:00;16:00:00;60;110025-185;110025-185;110025-185;110025-185;110025-185;110025-185;110025-185;110025-185;
03.10.11;Paul Helliwell;08:45:00;17:15:00;30;110357-10;110357-10;110357-10;110357-10;110357-10;110357-10;110357-10;110357-10;
03.10.11;Ntombenkosi Maldaki;07:00:00;16:00:00;60;110025-465;110025-465;110025-465;110025-465;110025-465;110025-465;110025-465;110025-465;
03.10.11;Wesley Saunders;07:00:00;16:00:00;60;110025-403;110025-403;110025-403;110025-403;110025-403;110025-403;110025-403;110025-403;
03.10.11;Mario Jansen van Vuuren;07:00:00;16:00:00;60;110292-29;110292-29;110292-29;110292-29;110292-29;110292-29;110292-29;110292-29;
04.10.11;Brendan van Zyl;07:00:00;16:00:00;60;110036-391;110036-391;110036-391;110036-391;110036-391;110036-391;110036-391;110036-391;
04.10.11;Nico Claassen;07:00:00;16:00:00;60;110018-27;110018-27;110018-27;110018-27;110018-27;110018-27;110018-27;110018-27;
04.10.11;Graham Meyer;07:00:00;16:00:00;60;110292-20;110292-20;110292-20;110292-20;110292-20;110292-20;110292-20;110292-20;
04.10.11;Thando Katywa;07:00:00;16:00:00;60;110292-7;110292-7;110292-7;110292-7;110292-7;110292-7;110292-7;110292-7;
04.10.11;Ludumo Sankobe;07:00:00;16:00:00;60;110025-391;110025-391;110025-391;110025-391;110025-391;110025-391;110025-391;110025-391;
04.10.11;Paul Helliwell;08:30:00;17:00:00;30;110357-10;110357-10;110357-10;110357-10;110357-10;110357-10;110357-10;110357-10;
04.10.11;Ntombenkosi Maldaki;07:00:00;16:00:00;60;110025-465;110025-465;110025-465;110025-465;110025-465;110025-465;110025-465;110025-465;
04.10.11;Wesley Saunders;07:00:00;16:00:00;60;110025-403;110025-403;110025-403;110025-403;110025-403;110025-403;110025-403;110025-403;
04.10.11;Mario Jansen van Vuuren;07:00:00;16:00:00;60;110292-29;110292-29;110292-29;110292-29;110292-0;110292-0;110292-0;110292-0;
05.10.11;Brendan van Zyl;07:00:00;16:00:00;60;110036-391;110036-391;110036-391;110036-391;110036-391;110036-391;110036-391;110036-391;
05.10.11;Nico Claassen;07:00:00;16:00:00;60;110023-0;110023-0;110023-0;110023-0;110023-0;110023-0;110023-0;110023-0;
05.10.11;Graham Meyer;07:00:00;16:00:00;60;110292-10 / 110292-20;110292-20;110292-20;110292-20;110292-20;110292-20;110292-20;110292-20;
05.10.11;Thando Katywa;07:00:00;16:00:00;60;100023-0;100023-0;100023-0;100023-0;100023-0;100023-0;100023-0;100023-0;
05.10.11;Ludumo Sankobe;07:00:00;16:00:00;60;110025-391;110025-391;110025-391;110025-391;110025-391;110025-391;110025-391;110025-391;
05.10.11;Paul Helliwell;07:00:00;16:00:00;60;110023-0;110023-0;110023-0;110023-0;110023-0;110023-0;110023-0;110023-0;
05.10.11;Ntombenkosi Maldaki;07:00:00;16:00:00;60;110025-465;110025-465;110025-465;110025-465;110025-465;110025-465;110025-465;110025-465;
05.10.11;Wesley Saunders;07:00:00;16:00:00;60;110025-403;110025-403;110025-403;110025-403;110025-403;110025-403;110025-403;110025-403;
05.10.11;Mario Jansen van Vuuren;07:00:00;16:00:00;60;110292-0;110292-0;110292-0;110292-0;110292-0;110292-0;110292-0;110292-0;
06.10.11;Brendan van Zyl;07:00:00;16:00:00;60;110036-391;110036-391;110036-391;110036-391;110036-391;110036-391;110036-391;110036-391;
06.10.11;Nico Claassen;07:00:00;16:00:00;60;110023-0;110023-0;110023-0;110023-0;110023-0;110023-0;110023-0;110023-0;
06.10.11;Graham Meyer;07:00:00;16:00:00;60;110292-19;110292-19;110292-19;110292-19;110292-19;110292-19;110292-19;110292-19;
06.10.11;Thando Katywa;07:00:00;16:00:00;60;100023-0;100023-0;100023-0;100023-0;100023-0;100023-0;100023-0;100023-0;
06.10.11;Ludumo Sankobe;07:00:00;16:00:00;60;110025-391;110025-391;110025-391;110025-391;110025-391;110025-391;110025-391;110025-391;
06.10.11;Paul Helliwell;08:30:00;17:15:00;30;110357-10;110357-10;110357-10;110357-10;110357-10;110357-10;110357-10;110357-10;110357-10;
06.10.11;Ntombenkosi Maldaki;07:00:00;16:00:00;60;110025-465;110025-465;110025-465;110025-465;110025-465;110025-465;110025-465;110025-465;
06.10.11;Wesley Saunders;07:00:00;16:00:00;60;110310-63;110310-63;110310-63;110310-63;110025-403;110025-403;110025-403;110025-403;
06.10.11;Mario Jansen van Vuuren;07:00:00;16:00:00;60;110292-0;110292-0;110292-0;110292-0;110292-0;110292-0;110292-0;110292-0;
07.10.11;Brendan van Zyl;07:00:00;16:00:00;60;110022-307;110036-392;110036-392;110036-392;110036-392;110036-392;110036-392;110036-392;
07.10.11;Nico Claassen;07:00:00;16:00:00;60;110023-0;110023-0;110023-0;110023-0;110023-0;110023-0;110023-0;110023-0;
07.10.11;Graham Meyer;07:00:00;16:00:00;60;110292-20;110292-20;110292-20;110292-20;110292-20;110292-20;110292-20;110292-20;
07.10.11;Thando Katywa;07:00:00;16:00:00;60;100023-0;100023-0;100023-0;100023-0;100023-0;100023-0;100023-0;100023-0;
07.10.11;Ludumo Sankobe;07:00:00;16:00:00;60;110025-391;110025-391;110025-391;110025-391;110025-391;110025-391;110025-391;110025-391;
07.10.11;Paul Helliwell;08:30:00;16:45:00;30;110357-10;110357-10;110357-10;110357-10;110357-10;110357-10;110357-10;110357-10;
07.10.11;Ntombenkosi Maldaki;07:00:00;16:00:00;60;110025-465;110025-465;110025-465;110025-465;110025-465;110025-465;110018-35;110018-35;
07.10.11;Wesley Saunders;07:00:00;16:00:00;60;110018-39;110018-39;110310-63;110310-63;110310-63;110310-63;110025-403;110025-403;
07.10.11;Mario Jansen van Vuuren;07:00:00;16:00:00;60;110292-0;110292-0;110292-0;110292-0;110292-0;110292-0;110292-0;110292-0;
08.10.11;Brendan van Zyl;
08.10.11;Nico Claassen;
08.10.11;Graham Meyer;07:00:00;16:00:00;60;
08.10.11;Thando Katywa;
08.10.11;Ludumo Sankobe;
08.10.11;Paul Helliwell;
08.10.11;Ntombenkosi Maldaki;
08.10.11;Wesley Saunders;
08.10.11;Mario Jansen van Vuuren;
09.10.11;Brendan van Zyl;
09.10.11;Nico Claassen;
09.10.11;Graham Meyer;07:00:00;16:00:00;60;
09.10.11;Thando Katywa;
09.10.11;Ludumo Sankobe;
09.10.11;Paul Helliwell;
09.10.11;Ntombenkosi Maldaki;
09.10.11;Wesley Saunders;
09.10.11;Mario Jansen van Vuuren;
10.10.11;Brendan van Zyl;07:00:00;16:00:00;60;110036-392;110036-392;110036-392;110036-392;110036-392;110036-392;110036-392;110036-392;
10.10.11;Nico Claassen;07:00:00;16:00:00;60;110023-0;110023-0;110023-0;110023-0;110023-0;110023-0;110023-0;110023-0;
10.10.11;Graham Meyer;07:00:00;16:00:00;60;110292-17;110292-17;110292-17;110292-17;110292-18;110292-18;110292-18;110292-18;
10.10.11;Thando Katywa;07:00:00;16:00:00;60;110101-202;110101-202;110101-202;110101-202;110101-202;110101-202;110101-202;110101-202;
10.10.11;Ludumo Sankobe;07:00:00;16:00:00;60;110025-391;110025-391;110025-391;110025-391;110025-391;110025-391;110025-391;110025-391;
10.10.11;Paul Helliwell;08:30:00;17:30:00;30;110357-10;110357-10;110357-10;110357-10;110357-10;110357-10;110357-10;110357-10;110357-10;
10.10.11;Ntombenkosi Maldaki;09:00:00;17:00:00;0;110023-0;110023-0;110023-0;110023-0;110023-0;110023-0;110023-0;110023-0;
10.10.11;Wesley Saunders;07:00:00;16:00:00;60;110025-403;110025-403;110025-403;110025-403;110025-403;110025-403;110025-403;110025-403;
10.10.11;Mario Jansen van Vuuren;07:00:00;16:00:00;60;110292-0;110292-0;110292-0;110292-0;110292-0;110292-0;110292-0;110292-0;
11.10.11;Brendan van Zyl;07:00:00;16:00:00;60;110036-392;110036-392;110036-392;110036-392;110036-392;110036-392;110036-392;110036-392;
11.10.11;Nico Claassen;09:00:00;17:00:00;30;110036-415;110036-415;110036-415;110036-417;110036-417;110036-417;110036-417;110018-26;
11.10.11;Graham Meyer;07:00:00;16:00:00;60;110292-19;110292-19;110292-19;110292-20;110292-20;110292-20;110292-20;110292-20;
11.10.11;Thando Katywa;07:00:00;16:00:00;60;110101-202;110101-202;110101-202;110101-202;110101-202;110101-202;110101-202;110101-202;
11.10.11;Ludumo Sankobe;07:00:00;16:00:00;60;110025-391;110025-391;110025-391;110025-391;110025-391;110025-391;110025-391;110025-391;
11.10.11;Paul Helliwell;08:30:00;17:30:00;30;110357-10;110357-10;110357-10;110357-10;110357-10;110357-10;110357-10;110357-10;110357-10;
11.10.11;Ntombenkosi Maldaki;09:00:00;17:00:00;30;110036-408;110036-408;110036-408;110036-408;110036-408;110036-408;110036-408;110036-408;
11.10.11;Wesley Saunders;07:00:00;16:00:00;60;110025-403;110025-403;110025-403;110025-403;110025-403;110025-403;110025-403;110025-403;
11.10.11;Mario Jansen van Vuuren;07:00:00;16:00:00;60;110292-0;110292-0;110292-0;110292-0;110292-0;110292-0;110292-0;110292-0;
12.10.11;Brendan van Zyl;07:00:00;16:00:00;60;110036-392;110036-392;110036-393;110036-393;110036-393;110036-393;110036-393;110036-393;
12.10.11;Nico Claassen;09:00:00;17:00:00;30;110310-72;110310-72;110310-72;110310-72 / 110036-417;110036-417;110036-417 / 110036-415;110036-415;110036-415;
12.10.11;Graham Meyer;07:00:00;16:00:00;60;110292-20;110292-20;110292-20;110292-20;110292-20;110292-10 / 110292-16;110292-16;110292-16;
12.10.11;Thando Katywa;07:00:00;16:00:00;60;110101-202;110101-202;110101-202;110101-202;110101-202;110101-202;110101-202;110101-202 / 110292-14;
12.10.11;Ludumo Sankobe;07:00:00;16:00:00;60;110025-391;110025-391;110025-391;110025-391;110025-391;110025-391;110025-391;110025-391;
12.10.11;Paul Helliwell;08:30:00;17:30:00;30;110357-10;110357-10;110357-10;110357-10;110357-10;110357-10;110357-10;110357-10;110357-10;
12.10.11;Ntombenkosi Maldaki;09:00:00;17:00:00;30;110036-411;110036-411;110036-411;110036-411;110036-411;110036-411;110036-411;110036-411;
12.10.11;Wesley Saunders;07:00:00;16:00:00;60;110025-403;110025-403;110025-403;110025-403;110025-403;110025-403;110025-403;110025-403;
12.10.11;Mario Jansen van Vuuren;07:00:00;16:00:00;60;110292-0;110292-0;110292-0;110292-0;110292-0;110292-0;110292-0;110292-57;
13.10.11;Brendan van Zyl;07:00:00;16:00:00;60;110036-393;110036-393;110036-393;110036-393;110036-393;110036-393;110036-393;110036-393;
13.10.11;Nico Claassen;09:00:00;17:00:00;30;110310-72;110310-72;110310-72;110036-417;110036-417;110036-417;110036-415;110036-415;
13.10.11;Graham Meyer;07:00:00;16:00:00;60;110292-0;110292-0;110292-0;110292-0;110292-0;110292-0;110292-0;110292-0;
13.10.11;Thando Katywa;07:00:00;16:00:00;60;110292-41;110292-41;110292-41;110292-41;110292-41;110292-41;110292-41;110292-41;
13.10.11;Ludumo Sankobe;07:00:00;16:00:00;60;110025-391;110025-391;110025-391;110025-391;110025-391;110025-391;110025-391;110025-391;
13.10.11;Paul Helliwell;08:30:00;17:30:00;30;110357-10;110357-10;110357-10;110357-10;110357-10;110357-10;110357-10;110357-10;110357-10;
13.10.11;Ntombenkosi Maldaki;09:00:00;17:00:00;30;110036-409;110036-409;110036-409;110036-409;110036-409;110036-409;110036-409;110036-409;
13.10.11;Wesley Saunders;07:00:00;16:00:00;60;110025-403;110025-403;110025-403;110025-403;110025-403;110025-403;110025-403;110025-403;
13.10.11;Mario Jansen van Vuuren;07:00:00;16:00:00;60;110292-0;110292-0;110292-0;110292-0;110292-0;110292-0;110292-0;110292-0;
14.10.11;Brendan van Zyl;07:00:00;16:00:00;60;110036-393;110036-393;110036-393;110036-393;110036-393;110036-393;110036-393;110022-307;
14.10.11;Nico Claassen;09:00:00;17:00:00;30;110310-70;110310-70;110310-71;110310-71;110310-71;110310-71;110018-26 / 110036-415;110036-415;
14.10.11;Graham Meyer;07:00:00;16:00:00;60;110292-0;110292-0;110292-0;110292-0;110292-0;110292-0;110292-0;110292-0;
14.10.11;Thando Katywa;07:00:00;16:00:00;60;110292-0;110292-0;110292-0;110292-0;110292-1;110292-1;110292-1;110292-1;
14.10.11;Ludumo Sankobe;07:00:00;16:00:00;60;110025-391;110025-391;110025-391;110025-391;110025-391;110025-391;110025-391;110025-391;
14.10.11;Paul Helliwell;08:30:00;16:00:00;30;110357-10;110357-10;110357-10;110357-10;110357-10;110357-10;110357-10;
14.10.11;Ntombenkosi Maldaki;09:00:00;17:00:00;30;110018-35;110018-35 / 110036-409;110036-409;110036-409;110036-409;110036-409;110036-409;110036-409;
14.10.11;Wesley Saunders;07:00:00;16:00:00;60;110018-39;110018-39;110025-403;110025-403;110025-403;110025-403;110025-403;110025-403;
14.10.11;Mario Jansen van Vuuren;07:00:00;16:00:00;60;110292-0;110292-0;110292-0;110292-0;110292-0;110292-0;110292-0;110292-0;
15.10.11;Brendan van Zyl;
15.10.11;Nico Claassen;
15.10.11;Graham Meyer;
15.10.11;Thando Katywa;
15.10.11;Ludumo Sankobe;
15.10.11;Paul Helliwell;
15.10.11;Ntombenkosi Maldaki;
15.10.11;Wesley Saunders;
15.10.11;Mario Jansen van Vuuren;
16.10.11;Brendan van Zyl;
16.10.11;Nico Claassen;
16.10.11;Graham Meyer;
16.10.11;Thando Katywa;
16.10.11;Ludumo Sankobe;
16.10.11;Paul Helliwell;
16.10.11;Ntombenkosi Maldaki;
16.10.11;Wesley Saunders;
16.10.11;Mario Jansen van Vuuren;
17.10.11;Brendan van Zyl;07:00:00;16:00:00;60;110036-393;110036-393;110036-393;110036-393;110036-393;110036-393;110036-393;110036-393;
17.10.11;Nico Claassen;09:00:00;17:00:00;30;110310-71;110310-71;110310-71 / 110310-72;110310-72;110310-72;110310-72;110310-72;110310-72;
17.10.11;Graham Meyer;07:00:00;16:00:00;60;110292-43;110292-43;110292-43;110292-43;110292-43;110292-43;110292-43;110292-43;
17.10.11;Thando Katywa;07:00:00;16:00:00;60;110292-0;110292-0;110292-0;110292-0;110292-0;110292-0;110292-0;110292-0;
17.10.11;Ludumo Sankobe;07:00:00;16:00:00;60;110025-391;110025-391;110025-391;110025-391;110025-391;110025-391;110025-391;110025-391;
17.10.11;Paul Helliwell;08:30:00;17:00:00;30;110357-10;110357-10;110357-10;110357-10;110357-10;110357-10;110357-10;110357-10;
17.10.11;Ntombenkosi Maldaki;09:00:00;17:00:00;30;110036-409;110036-409;110036-409;110036-410;110036-410;110036-410;110036-410;110036-410;
17.10.11;Wesley Saunders;07:00:00;16:00:00;60;110025-403;110025-403;110025-403;110025-403;110618-79;110618-79;110618-79;110618-79;
17.10.11;Mario Jansen van Vuuren;07:00:00;16:00:00;60;110292-0;110292-0;110292-0;110292-0;110292-0;110292-0;110292-0;110292-0;
18.10.11;Brendan van Zyl;07:00:00;16:00:00;60;110036-393;110036-393;110036-393;110036-393;110036-393;110036-393;110036-393;110036-393;
18.10.11;Nico Claassen;09:00:00;17:00:00;30;110310-72;110310-72 / 110310-71;110310-71;110310-71 / 110036-416;110036-416;110036-416;110036-416;110036-416;
18.10.11;Graham Meyer;07:00:00;16:00:00;60;110292-43;110292-43;110292-43;110292-43;110292-43;110292-43;110292-43;110292-43;
18.10.11;Thando Katywa;07:00:00;16:00:00;60;110292-1;110292-1;110292-1;110292-1;110292-1;110292-1;110292-1;110292-1;
18.10.11;Ludumo Sankobe;07:00:00;16:00:00;60;110025-391;110025-391;110025-391;110025-391;110025-391;110025-391;110025-391;110025-391;
18.10.11;Paul Helliwell;08:30:00;17:15:00;30;110357-10;110357-10;110357-10;110357-10;110357-10;110357-10;110357-10;110357-10;110357-10;
18.10.11;Ntombenkosi Maldaki;09:00:00;17:00:00;30;110036-410;110036-410;110036-410;110036-410;110018-48;110018-48;110018-48;110018-48;
18.10.11;Wesley Saunders;07:00:00;16:00:00;60;110025-403;110025-403;110025-403;110025-403;110618-79;110618-79;110618-79;110618-79;
18.10.11;Mario Jansen van Vuuren;07:00:00;16:00:00;60;110292-0;110292-0;110292-0;110292-0;110292-0;110292-0;110292-0;110292-0;
19.10.11;Brendan van Zyl;07:00:00;16:00:00;60;110036-393;110036-393;110036-393;110036-393;110036-394;110036-394;110036-394;110036-394;
19.10.11;Nico Claassen;09:00:00;17:00:00;30;110036-415;110036-415;110036-415;110036-415;110036-415;110036-415;110036-415;110036-415;
19.10.11;Graham Meyer;07:00:00;16:00:00;60;110292-43;110292-43;110292-43;110292-43;110292-43;110292-43;110292-43;110292-43;
19.10.11;Thando Katywa;07:00:00;16:00:00;60;110292-2;110292-2;110292-2;110292-2;110292-2;110292-2;110292-2;110292-2;
19.10.11;Ludumo Sankobe;07:00:00;16:00:00;60;110025-391;110025-391;110025-391;110025-391;110025-391;110025-391;110025-391;110025-391;
19.10.11;Paul Helliwell;08:45:00;17:30:00;30;110357-10;110357-10;110357-10;110357-10;110357-10;110357-10;110357-10;110357-10;110357-10;
19.10.11;Ntombenkosi Maldaki;09:00:00;17:00:00;30;110018-48;110018-48;110018-48;110018-48;110018-48;110018-48;110018-48;110018-48;
19.10.11;Wesley Saunders;07:00:00;16:00:00;60;110025-403;110025-403;110025-403;110025-403;110618-79;110618-79;110618-79;110618-79;
19.10.11;Mario Jansen van Vuuren;07:00:00;16:00:00;60;110292-0;110292-0;110292-0;110292-0;110292-0;110292-0;110292-0;110292-0;
20.10.11;Brendan van Zyl;07:00:00;16:00:00;60;110036-394;110036-394;110036-394;110036-394;110036-394;110036-394;110036-394;110036-394;
20.10.11;Nico Claassen;09:00:00;17:00:00;30;110036-416;110036-416;110036-416;110036-416;110036-416;110036-416;110036-416;110036-416;
20.10.11;Graham Meyer;07:00:00;16:00:00;60;110292-43;110292-43;110292-43;110292-43;110292-43;110292-43;110292-43;110292-43;
20.10.11;Thando Katywa;07:00:00;16:00:00;60;110292-2;110292-2;110292-2;110292-2;110292-2;110292-2;110292-2;110292-2;
20.10.11;Ludumo Sankobe;07:00:00;16:00:00;60;110025-391;110025-391;110025-391;110025-391;110025-391;110025-391;110025-391;110025-391;
20.10.11;Paul Helliwell;08:45:00;17:15:00;30;110357-10;110357-10;110357-10;110357-10;110357-10;110357-10;110357-10;110357-10;
20.10.11;Ntombenkosi Maldaki;09:00:00;17:00:00;30;110018-36;110018-36;110018-36;110018-36;110018-36;110018-36 / 110018-48;110018-48;110018-48;
20.10.11;Wesley Saunders;07:00:00;16:00:00;60;110618-79;110618-79;110618-79;110618-79;110025-403;110025-403;110025-403;110025-403;
20.10.11;Mario Jansen van Vuuren;07:00:00;16:00:00;60;110292-0;110292-0;110292-0;110292-0;110292-0;110292-0;110292-0;110292-0;
21.10.11;Brendan van Zyl;07:00:00;16:00:00;60;110022-307;110022-307;110036-394;110036-394;110036-394;110036-394;110036-394;110036-394;
21.10.11;Nico Claassen;09:00:00;17:00:00;30;110018-26 / 110018-26;110018-26;110036-416;110036-416;110036-416;110036-416;110036-416;110310-72;
21.10.11;Graham Meyer;07:00:00;16:00:00;60;110292-43;110292-43;110292-43;110292-43;110292-43;110292-43;110292-43;110292-43;
21.10.11;Thando Katywa;07:00:00;16:00:00;60;110292-3;110292-7;110292-7;110292-7;110292-7;110292-7;110292-7;110292-7;
21.10.11;Ludumo Sankobe;07:00:00;16:00:00;60;110025-391;110025-391;110025-391;110025-391;110025-391;110025-391;110025-391;110025-391;
21.10.11;Paul Helliwell;08:30:00;17:00:00;30;110357-10;110357-10;110357-10;110357-10;110357-10;110357-10;110357-10;110357-10;
21.10.11;Ntombenkosi Maldaki;09:00:00;17:00:00;30;110018-35;110018-35 / 110018-36;110018-36;110018-36;110018-36;110018-36;110018-36;110018-36;
21.10.11;Wesley Saunders;07:00:00;16:00:00;60;110018-39;110018-39;110618-79;110618-79;110618-79;110618-79;110025-403;110025-403;
21.10.11;Mario Jansen van Vuuren;07:00:00;16:00:00;60;110292-0;110292-0;110292-0;110292-0;110292-0;110292-0;110292-0;110292-0;
22.10.11;Brendan van Zyl;
22.10.11;Nico Claassen;
22.10.11;Graham Meyer;
22.10.11;Thando Katywa;
22.10.11;Ludumo Sankobe;
22.10.11;Paul Helliwell;
22.10.11;Ntombenkosi Maldaki;
22.10.11;Wesley Saunders;
22.10.11;Mario Jansen van Vuuren;
23.10.11;Brendan van Zyl;
23.10.11;Nico Claassen;
23.10.11;Graham Meyer;
23.10.11;Thando Katywa;
23.10.11;Ludumo Sankobe;
23.10.11;Paul Helliwell;
23.10.11;Ntombenkosi Maldaki;
23.10.11;Wesley Saunders;
23.10.11;Mario Jansen van Vuuren;
24.10.11;Brendan van Zyl;07:00:00;16:00:00;60;110036-395;110036-395;110036-395;110036-395;110036-395;110036-395;110036-395;110036-395;
24.10.11;Nico Claassen;07:00:00;16:00:00;60;110023-0;110023-0;110023-0;110023-0;110023-0;110023-0;110023-0;110023-0;
24.10.11;Graham Meyer;07:00:00;16:00:00;60;110292-43;110292-43;110292-43;110292-43;110292-43;110292-43;110292-43;110292-43;
24.10.11;Thando Katywa;07:00:00;16:00:00;60;110292-7;110292-7;110292-7;110292-7;110292-7;110292-7;110292-7;110292-7;
24.10.11;Ludumo Sankobe;07:00:00;16:00:00;60;110025-391;110025-391;110025-391;110025-391;110025-391;110025-391;110025-391;110025-391;
24.10.11;Paul Helliwell;08:30:00;17:15:00;30;110357-10;110357-10;110357-10;110357-10;110357-10;110357-10;110357-10;110357-10;110357-10;
24.10.11;Ntombenkosi Maldaki;09:00:00;17:00:00;30;110036-412;110036-412;110036-412;110036-412;110036-412;110036-412;110036-412;110036-412;
24.10.11;Wesley Saunders;07:00:00;16:00:00;60;110618-67;110618-67;110618-67;110618-67;110618-67;110025-403;110025-403;110025-403;
24.10.11;Mario Jansen van Vuuren;07:00:00;16:00:00;60;110292-0;110292-0;110292-0;110292-0;110292-0;110292-0;110292-0;110292-0;
25.10.11;Brendan van Zyl;07:00:00;16:00:00;60;110036-395;110036-395;110036-395;110036-395;110036-395;110036-395;110036-395;110036-395;
25.10.11;Nico Claassen;07:00:00;16:00:00;60;110018-28;110018-28;110018-27;110018-27;110018-27;110018-27;110036-415;110036-415;
25.10.11;Graham Meyer;07:00:00;16:00:00;60;110292-43;110292-43;110292-43;110292-43;110292-43;110292-43;110292-43;110292-43;
25.10.11;Thando Katywa;07:00:00;16:00:00;60;110292-7;110292-7;110292-7;110292-7;110292-7;110292-7;110292-7;110292-7;
25.10.11;Ludumo Sankobe;07:00:00;16:00:00;60;110025-391;110025-391;110025-391;110025-391;110025-391;110025-391;110025-391;110025-391;
25.10.11;Paul Helliwell;08:30:00;17:45:00;30;110357-10;110357-10;110357-10;110357-10;110357-10;110357-10;110357-10;110357-10;110357-10;
25.10.11;Ntombenkosi Maldaki;09:00:00;17:00:00;30;110036-412;110036-412;110036-412;110036-412;110036-412;110036-412;110036-412;110036-412;
25.10.11;Wesley Saunders;07:00:00;16:00:00;60;110025-403;110025-403;110025-403;110618-67;110618-67;110618-67;110618-67;110618-67;
25.10.11;Mario Jansen van Vuuren;07:00:00;16:00:00;60;110292-0;110292-0;110292-0;110292-0;110292-0;110292-0;110292-0;110292-0;
26.10.11;Brendan van Zyl;07:00:00;16:00:00;60;110036-395;110036-395;110036-395;110036-395;110036-395;110036-395;110036-395;110036-395;
26.10.11;Nico Claassen;07:00:00;16:00:00;60;110310-106;110036-416;110036-416;110036-416;110036-416;110036-416;110036-416;110036-416;
26.10.11;Graham Meyer;07:00:00;16:00:00;60;110292-10 / 110292-43;110292-43;110292-43;110292-43;110292-43;110292-43;110292-43;110292-43;
26.10.11;Thando Katywa;07:00:00;16:00:00;60;110292-7;110292-7;110292-7;110292-7;110292-7;110292-7;110292-7;110292-7 / 110292-14;
26.10.11;Ludumo Sankobe;07:00:00;16:00:00;60;110025-391;110025-391;110025-391;110025-391;110025-391;110025-391;110025-391;110025-391;
26.10.11;Paul Helliwell;08:45:00;17:15:00;30;110357-10;110357-10;110357-10;110357-10;110357-10;110357-10;110357-10;110357-10;
26.10.11;Ntombenkosi Maldaki;09:00:00;17:00:00;30;110618-36;110618-36;110618-36;110618-36;110618-36;110618-36;110618-36;110618-36;
26.10.11;Wesley Saunders;07:00:00;16:00:00;60;110018-39;110018-39 / 110025-403;110025-403;110025-403;110618-67;110618-67;110618-67;110618-67;
26.10.11;Mario Jansen van Vuuren;07:00:00;16:00:00;60;110292-0;110292-0;110292-0;110292-0;110292-57;110292-0;110292-0;110292-0;
27.10.11;Brendan van Zyl;07:00:00;16:00:00;60;110036-395;110036-395;110036-395;110036-395;110036-395;110036-395;110036-395;110036-395;
27.10.11;Nico Claassen;07:00:00;16:00:00;60;110310-106;110310-106;110310-106;110036-416;110036-416;110036-416;110036-416;110036-416;
27.10.11;Graham Meyer;07:00:00;16:00:00;60;110292-9;110292-9;110292-9;110292-9;110292-9;110292-9;110292-9;110292-9;
27.10.11;Thando Katywa;07:00:00;16:00:00;60;110292-7;110292-7;110292-7;110292-7;110292-92;110292-0;110292-0;110292-0;
27.10.11;Ludumo Sankobe;07:00:00;16:00:00;60;110025-391;110025-391;110025-391;110025-391;110025-391;110025-391;110025-391;110025-391;
27.10.11;Paul Helliwell;09:00:00;17:00:00;0;110357-10;110357-10;110357-10;110023-0;110023-0;110023-0;110023-0;110023-0;
27.10.11;Ntombenkosi Maldaki;09:00:00;17:00:00;30;110618-42;110618-42;110618-42;110618-42;110618-36;110618-36;110618-36;110618-36;
27.10.11;Wesley Saunders;07:00:00;16:00:00;60;110025-403;110025-403;110025-403;110618-67;110618-67;110618-67;110618-67;110618-67;
27.10.11;Mario Jansen van Vuuren;07:00:00;16:00:00;60;110292-0;110292-0;110292-0;110292-0;110292-0;110292-0;110292-0;110292-0;
28.10.11;Brendan van Zyl;07:00:00;16:00:00;60;110022-307;110022-307;110036-394;110036-394;110036-394;110036-394;110036-394;110036-394;
28.10.11;Nico Claassen;07:00:00;16:00:00;60;110310-106;110310-106;110036-416;110036-416;110036-416;110036-416;110018-26;110018-26;
28.10.11;Graham Meyer;07:00:00;16:00:00;60;110292-9;110292-9;110292-9;110292-9;110292-9;110023-0;110023-0;110023-0;
28.10.11;Thando Katywa;07:00:00;16:00:00;60;110292-1;110292-1;110292-1;110292-1;110292-0;110292-0;110292-0;110292-0;
28.10.11;Ludumo Sankobe;07:00:00;16:00:00;60;110025-391;110025-391;110025-391;110025-391;110025-391;110025-391;110025-391;110025-391;
28.10.11;Paul Helliwell;08:00:00;16:30:00;30;110357-10;110357-10;110357-10;110357-10;110357-10;110357-10;110357-10;110357-10;
28.10.11;Ntombenkosi Maldaki;09:00:00;17:00:00;30;110018-35;110018-35 / 110618-42;110618-42;110618-42;110618-42;110618-42;110618-42;110618-42;
28.10.11;Wesley Saunders;07:00:00;16:00:00;60;110018-39;110018-39;110025-403;110025-403;110025-403;110618-67;110618-67;110618-67;
28.10.11;Mario Jansen van Vuuren;07:00:00;16:00:00;60;110292-0;110292-0;110292-0;110292-0;110292-0;110292-0;110292-0;110292-0;
29.10.11;Brendan van Zyl;
29.10.11;Nico Claassen;
29.10.11;Graham Meyer;
29.10.11;Thando Katywa;
29.10.11;Ludumo Sankobe;
29.10.11;Paul Helliwell;
29.10.11;Ntombenkosi Maldaki;
29.10.11;Wesley Saunders;
29.10.11;Mario Jansen van Vuuren;
30.10.11;Brendan van Zyl;
30.10.11;Nico Claassen;
30.10.11;Graham Meyer;
30.10.11;Thando Katywa;
30.10.11;Ludumo Sankobe;
30.10.11;Paul Helliwell;
30.10.11;Ntombenkosi Maldaki;
30.10.11;Wesley Saunders;
30.10.11;Mario Jansen van Vuuren;
31.10.11;Brendan van Zyl;07:00:00;16:00:00;60;110036-386;110036-386;110036-386;110036-386;110036-386;110036-386;110036-386;110036-386;
31.10.11;Nico Claassen;
31.10.11;Graham Meyer;
31.10.11;Thando Katywa;
31.10.11;Ludumo Sankobe;
31.10.11;Paul Helliwell;
31.10.11;Ntombenkosi Maldaki;
31.10.11;Wesley Saunders;
31.10.11;Mario Jansen van Vuuren;