"04.04.11","1","110023","0","910","Urlaub","","0","Holiday. Time-Off","07:00","16:00","8","60",
"05.04.11","2","110023","0","910","Urlaub","","0","Holiday. Time-Off","07:00","16:00","8","60",
"06.04.11","3","110023","0","910","Urlaub","","0","Holiday. Time-Off","07:00","16:00","8","60",
"07.04.11","4","110023","0","910","Urlaub","","0","Holiday. Time-Off","07:00","16:00","8","60",
"08.04.11","5","110023","0","910","Urlaub","","0","Holiday. Time-Off","07:00","16:00","8","60",
