"04.07.11","1","110025","383","170","Schulung","","0","P.Automation: Inst., Config.. Training","07:00","16:00","8","60",
"05.07.11","2","110025","383","170","Schulung","","0","P.Automation: ODX. Training","07:00","16:00","8","60",
"06.07.11","3","110025","465","170","Schulung","","0","P.Office: Inst., Config.. Training","07:00","16:00","8","60",
"07.07.11","4","110025","465","170","Schulung","","0","P.Server: PRODIS.Control. Training","07:00","16:00","8","60",
"08.07.11","5","110025","256","170","Schulung","","0","Production: ECOS. Training","07:00","16:00","7","60",
"08.07.11","5","110018","35","101","PM/Mod/Meetings","","0","Wochenaufgaben AES. Meeting and updating timesheets","","","1","0",
