"27.06.11","1","110036","178","170","Schulung","","0","Write-Only Coding /s44-anlrn. Reading write-only Coding specifications and integrating changes for bug 30443","07:00","16:00","8","60",
"28.06.11","2","110036","178","170","Schulung","","100","Write-Only Coding /s44-anlrn. Reading write-only Coding specifications and integrating changes for CR109da3","07:00","16:00","8","60",
"29.06.11","3","110117","268","104","Test-Spezifikation","","100","FlashJob Logfile: (CR109da3): Testspec.. Completing test spec","07:00","16:00","2","60",
"29.06.11","3","110117","271","120","Codierung","","100","1004: FlashJob Logfile: (CR109da3): ZIP-Verschlüsselung: Impl.. Fixing FlashJob Logfile implementation according review","","","4","0",
"29.06.11","3","110117","206","120","Codierung","","0","1001: Kodierung o. Lesedienst (CR033hz3): ohne MCR: Eingabe von Werten. Modifying source code for change request","","","2","0",
"30.06.11","4","110117","206","120","Codierung","","0","1001: Kodierung o. Lesedienst (CR033hz3): ohne MCR: Eingabe von Werten. Modifying source code for change request","07:00","16:00","2,9","60",
"30.06.11","4","110117","205","120","Codierung","","0","1001: Kodierung o. Lesedienst (CR033hz3): ohne MCR: Fehlermedlungen beim Lesen. Modifying source code for change request","","","2,5","0",
"30.06.11","4","110117","207","120","Codierung","","0","1001: Kodierung o. Lesedienst (CR033hz3): ohne MCR: Schreiben von Werten. Modifying source code for change request","","","2,6","0",
"01.07.11","5","110117","205","120","Codierung","","0","1001: Kodierung o. Lesedienst (CR033hz3): ohne MCR: Fehlermedlungen beim Lesen. Modifying source code for change request","07:00","16:00","3","60",
"01.07.11","5","110117","206","120","Codierung","","0","1001: Kodierung o. Lesedienst (CR033hz3): ohne MCR: Eingabe von Werten. Modifying source code for change request","","","2,5","0",
"01.07.11","5","110117","207","120","Codierung","","0","1001: Kodierung o. Lesedienst (CR033hz3): ohne MCR: Schreiben von Werten. Modifying source code for change request","","","2,5","0",
