"21.11.11","1","110018","28","101","PM/Mod/Meetings","","0","S4 Administrative Tasks. Meeting with S4 Management","07:00","16:00","2","60",
"21.11.11","1","110018","28","101","PM/Mod/Meetings","","0","S4 Administrative Tasks. Network support","","","1","0",
"21.11.11","1","110018","28","101","PM/Mod/Meetings","","0","S4 Administrative Tasks. Interviews","","","2","0",
"21.11.11","1","100876","352","120","Codierung","","0","FSD:FUNCTIONAL 1540: HUA-MSL: Funktionale Diagnose: Erstellung u. Anpassung Bausteine (Unter. Working on lib elements","","","3","0",
"22.11.11","2","110310","123","150","Inbetriebnahme","","0","MainCTS: Inbetriebnahmeunterst. u. Tel.support D1.1/pa10. VCI example help for DSA systems","07:00","16:00","3","60",
"22.11.11","2","110018","27","101","PM/Mod/Meetings","","0","S4 Technical Support / Troubleshoot. Supporting colleagues","","","3","0",
"22.11.11","2","100876","352","120","Codierung","","0","FSD:FUNCTIONAL 1540: HUA-MSL: Funktionale Diagnose: Erstellung u. Anpassung Bausteine (Unter. Working on lib elements","","","2","0",
"23.11.11","3","110018","27","101","PM/Mod/Meetings","","0","S4 Technical Support / Troubleshoot. Supporting colleagues","07:00","16:00","5","60",
"23.11.11","3","100876","352","120","Codierung","","0","FSD:FUNCTIONAL 1540: HUA-MSL: Funktionale Diagnose: Erstellung u. Anpassung Bausteine (Unter. Working on lib elements","","","3","0",
"24.11.11","4","110018","27","101","PM/Mod/Meetings","","0","S4 Technical Support / Troubleshoot. Supporting colleagues with Fidker issues.","07:00","16:00","4","60",
"24.11.11","4","100876","352","120","Codierung","","0","FSD:FUNCTIONAL 1540: HUA-MSL: Funktionale Diagnose: Erstellung u. Anpassung Bausteine (Unter. Working on lib elements","","","4","0",
"25.11.11","5","110018","28","101","PM/Mod/Meetings","","0","S4 Administrative Tasks. Interviews","07:00","16:00","4","60",
"25.11.11","5","100876","309","101","PM/Mod/Meetings","","0","8501: HUA-MSL: Mod. Team S4 A1.3/ae10. Telco with Mr. Pillau","","","0,5","0",
"25.11.11","5","110018","26","101","PM/Mod/Meetings","","0","Wochenaufgaben AES. Timesheets + daily meetings","","","2","0",
"25.11.11","5","110036","416","170","Schulung","","0","Einarbeitung FSD specific PO Development. Troubleshoot Functional Comms + vci driver","","","1,5","0",
