"16.05.11","1","110025","392","170","Schulung","","0","Training: P.Automation. PLibElement testing and documenting","07:00","16:00","8","60",
"17.05.11","2","110025","392","170","Schulung","","0","Training: P.Automation/Polarion. TestCase and TestSuite creation for PLibElements","07:00","16:00","8","60",
"18.05.11","3","110023","0","910","Urlaub","","0","Holiday. Time-Off","07:00","16:00","8","60",
"19.05.11","4","09.00790","2773","140","Test","","100","P.Autom:R4:P.LibF5-37:Fcalc/MsgFilter Test. Testing functionality for msgfltr and fcalc elements","07:00","16:00","8","60",
"20.05.11","5","110018","41","101","PM/Mod/Meetings","","0","Wochenaufgben AES. Departmental meeting","07:00","16:00","0,5","60",
"20.05.11","5","110025","41","170","Schulung","","0","Training: P.Automation. Automatic Test Creation, and Polarion work item organization.","","","7,5","0",
