"21.03.11","1","110023","0","910","Urlaub","","100","21.03.2011. Public Holiday","07:00","16:00","8","60",
"22.03.11","2","110025","327","170","Schulung","","0","Training. Self Learning introduction and other information on P.Automation","07:00","16:00","8","60",
"23.03.11","3","100334","1389","140","Test","","0","Alt-BR: Motronic:Stellglieder. Testing motronic stellglieder","07:00","16:00","8","60",
"24.03.11","4","100334","1389","140","Test","","100","Alt-BR: Motronic:Stellglieder. Testing motronic stellglieder","07:00","16:00","8","60",
"25.03.11","5","100334","1082","102","Spez: LH/PH/Design","","100","5026:Alt-BR-Alarm:Codierungen:PH. Alarm:Codierungen:PH","07:00","16:00","8","60",
