"09.05.11","1","110117","102","120","Codierung","","65","1002: Seq.: (CR033hz2): Hauptmodul: Behandl. einzelne Steps: Impl.. Implementing Main Module","09:00","17:30","3","30",
"09.05.11","1","110036","183","170","Schulung","","0","Sequentialisierung von Aktionen /s43-anlrn. Reading Specificayion for Programming and Coding CTSs","","","5","0",
"10.05.11","2","110117","103","120","Codierung","","60","1002: Seq.: (CR033hz2): Hauptmodul: Ergebnis-Screen: Impl.. Implementing Overview Screen","09:00","17:30","8","30",
"11.05.11","3","110117","106","120","Codierung","","65","1002: Seq.: (CR033hz2): Regelflashen: autom. Programmierung: Impl.. Adapting automatic programing CTS","09:00","17:30","3","30",
"11.05.11","3","110117","111","120","Codierung","","40","1002: Seq.: (CR033hz2): MCR-Codierung: autom. Codierung: Impl.. From s63: Adapting automatic coding CTS","","","5","0",
"12.05.11","4","110036","183","170","Schulung","","0","Sequentialisierung von Aktionen /s43-anlrn. Reading Specificayion for Programming and Coding CTSs","09:00","17:30","8","30",
"13.05.11","5","110036","183","170","Schulung","","0","Sequentialisierung von Aktionen /s43-anlrn. Reading Specificayion for Programming and Coding CTSs","09:00","17:30","8","30",
