"16.05.11","1","110025","401","170","Schulung","","0","Training: Polarion. Moving work items, Approving, Accepting and marking a inplemented.","07:00","16:00","2","60",
"16.05.11","1","110018","27","101","PM/Mod/Meetings","","0","S4 Technical Support / Troubleshoot. Reloading computer operating system after failure.","","","6","0",
"17.05.11","2","100537","0","180","Fehlerbes. nach Auslieferung (SA)","","100","9x6: Bug: 30079. Assisting with solving of bug 30079","07:00","16:00","2","60",
"17.05.11","2","110018","27","101","PM/Mod/Meetings","","0","S4 Technical Support / Troubleshoot. Assisting colleagues with P.Automation + Polarion issues, 9x6 Kombi testing","","","6","0",
"18.05.11","3","110023","0","910","Urlaub","","100","Urlaub. Municipal Election Day","07:00","16:00","8","60",
"19.05.11","4","09.00790","0","120","Codierung","","0","P.Autom: ComplexTableWidgets. Getting into subject + reworking Test CTS for Exceptions","07:00","16:00","4","60",
"19.05.11","4","110018","27","101","PM/Mod/Meetings","","0","S4 Technical Support / Troubleshoot. Assisting colleagues with P.Automation + Polarion issues","","","4","0",
"20.05.11","5","110018","28","101","PM/Mod/Meetings","","0","Wochenaufgaben AES. Timesheets + daily meetings","07:00","16:00","2","60",
"20.05.11","5","110025","401","170","Schulung","","0","Training: Polarion. Deletion of work items","","","1","0",
"20.05.11","5","09.00790","0","120","Codierung","","0","P.Autom: ComplexTableWidgets. Working on getting the ColorRenderer to work.","","","2","0",
"20.05.11","5","09.00790","2785","140","Test","","100","2340: P.Autom: R4: P.Lib F5-31: PROT2X Test. Testing","","","3","0",
"20.05.11","5","09.00790","2786","181","Fehlerbes. vor Ausl. (Bugzilla)","","100","2340: P.Autom: R4: P.Lib F5-31: PROT2X Bugfixing. No bugs.","","","0","0",
