"08.08.11","1","110025","517","170","Schulung","","0","9999: Training: MAN-ODX Get into subject. Completing ECAS2","07:00","16:00","4,5","60",
"08.08.11","1","110018","39","101","PM/Mod/Meetings","","0","Wochenaufgaben AES. Telco Meeting about MAN ODX","","","0,5","0",
"08.08.11","1","09.00790","2819","120","Codierung","","0","2501: P.Autom: R5: P.Lib F5-26: Strings Impl. Implementing string functions","","","3","0",
"09.08.11","2","2011","0","910","Urlaub","","0","08.08.-09.08.2011. Public Holiday","07:00","16:00","8","60",
"10.08.11","3","09.00790","2819","120","Codierung","","0","2501: P.Autom: R5: P.Lib F5-26: Strings Impl. Implementing string functions","07:00","16:00","8","60",
"11.08.11","4","09.00790","2819","120","Codierung","","0","2501: P.Autom: R5: P.Lib F5-26: Strings Impl. Implementing and then Checking string functions","07:00","16:00","8","60",
"12.08.11","5","110018","39","101","PM/Mod/Meetings","","0","Wochenaufgaben AES. Meetings and Timesheets","07:00","16:00","2","60",
"12.08.11","5","09.00790","2819","120","Codierung","","0","2501: P.Autom: R5: P.Lib F5-26: Strings Impl. Checking and figuring out functions that dont work as expected","","","6","0",
