"14.03.11","1","110025","367","170","Schulung","","0","Training. PRODIS.Automation, working through setup documentation","07:00","16:00","8","60",
"15.03.11","2","110018","29","101","PM/Mod/Meetings","","0","Wochenaufgaben AES. Meeting with nc regarding possible tasks","07:00","16:00","1","60",
"15.03.11","2","110025","367","170","Schulung","","0","Training. PRODIS.Automation, working through setup documentation","","","7","0",
"16.03.11","3","110025","367","170","Schulung","","0","Training. PRODIS.Automation, working through setup documentation","07:00","16:00","8","60",
"17.03.11","4","100334","62","101","PM/Mod/Meetings","","0","8501: Alt-BR: allg. Projekttätigkeit C1.3/ae14. Making up temporary cable for 2nd HSX, original faulty","07:00","16:00","3","60",
"17.03.11","4","110025","367","170","Schulung","","0","Training. PRODIS.Automation, working through training .ppt, trying to understand concepts","","","5","0",
"18.03.11","5","110018","29","101","PM/Mod/Meetings","","0","Wochenaufgaben AES. Weekly meetings and completing timesheets","07:00","16:00","2","60",
"18.03.11","5","110025","367","170","Schulung","","0","Training. PRODIS.Automation, sequence creation and working with document","","","6","0",
"18.03.11","5","100334","1148","110","Engineering","","100","3023: Alt-BR: LH: Systemanpassung: PH+Testspec Review. CLOSING TASK","","","0","0",
