"25.07.11","1","110025","403","170","Schulung","","0","Training: P.Automation. Training In2Soft DB Designer, ECAS2","07:00","16:00","8","60",
"26.07.11","2","110025","403","170","Schulung","","0","Training: P.Automation. Training In2Soft DB Designer, ECAS2","07:00","16:00","8","60",
"27.07.11","3","110018","39","101","PM/Mod/Meetings","","0","Wochenaufgaben AES. Telco meeting about In2Soft","07:00","16:00","1","60",
"27.07.11","3","110025","403","170","Schulung","","0","Training: P.Automation. Training In2Soft DB Designer, ECAS2","","","7","0",
"28.07.11","4","110025","403","170","Schulung","","0","Training: P.Automation. Training In2Soft DB Designer, ECAS2","07:00","16:00","8","60",
"29.07.11","5","110025","403","170","Schulung","","0","Training: P.Automation. Training In2Soft DB Designer, ECAS2","07:00","16:00","6","60",
"29.07.11","5","110018","39","101","PM/Mod/Meetings","","0","Wochenaufgaben AES. Meetings and Timesheets","","","2","0",
