"21.02.11","1","0","0","170","Schulung","","0","Getting into Subject Pidt SWE. Coping and installing software","08:30","17:00","6","30",
"21.02.11","1","0","0","100","SOFTWARE-ENTWICKLUNG (SWE)","","0","Travel. Travel","","","2","0",
"22.02.11","2","0","0","170","Schulung","","0","Getting into Subject Pidt SWE. Setting up Eclipse environmant","08:30","17:00","8","30",
"23.02.11","3","0","0","170","Schulung","","0","Getting into Subject Pidt SWE. Introduction to PIDT classes and packages","08:30","17:00","8","30",
"24.02.11","4","0","0","170","Schulung","","0","Getting into Subject Pidt SWE. Running PIDT from eclipse, setting up Authoring","08:30","17:00","8","30",
"25.02.11","5","0","0","170","Schulung","","0","Getting into Subject Pidt SWE. updating wiki.","08:30","17:00","8","30",
