"25.04.11","1","110023","0","910","Urlaub","","0","Holiday. Time off.","07:00","16:00","8","60",
"26.04.11","2","110023","0","910","Urlaub","","0","Holiday. Time off.","07:00","16:00","8","60",
"27.04.11","3","2011","0","910","Urlaub","","100","27.04.2011. Time off.","07:00","16:00","8","60",
"28.04.11","4","110023","0","910","Urlaub","","0","Holiday. Time off.","07:00","16:00","8","60",
"29.04.11","5","110023","0","910","Urlaub","","0","Holiday. Time off.","07:00","16:00","8","60",
