"20.06.11","1","110025","0","170","Schulung","","0","P.Server: Concepts, Server process + config. basics. Training","07:00","16:00","8","60",
"21.06.11","2","110025","0","170","Schulung","","0","P.Server: PRODIS.Control, Inst., Config.. Training","07:00","16:00","8","60",
"22.06.11","3","110025","0","170","Schulung","","0","P.Office: Library, Include files, Release Monitor. Training","07:00","16:00","8","60",
"23.06.11","4","110025","0","170","Schulung","","0","Sequences (including practical work). Training","07:00","16:00","8","60",
"24.06.11","5","110018","35","101","PM/Mod/Meetings","","0","Wochenaufgaben AES. Meeting and updating timesheets","07:00","16:00","1","60",
"24.06.11","5","110025","0","170","Schulung","","0","Sequences (including practical work). Training","","","7","0",
