"29.08.11","1","110036","346","170","Schulung","","0","SWE PRODIS.Authoring.ODX: getting into subject. Bug 26464, 31346, 6559, 25929","07:00","16:00","7","60",
"29.08.11","1","110036","345","170","Schulung","","100","SWE PRODIS.Authoring.ODX: getting into subject. Bug 26464, 31346, 6559, 25929","","","1","0",
"30.08.11","2","110036","346","170","Schulung","","0","SWE PRODIS.Authoring.ODX: getting into subject. Bug 26464, 31346, 6559, 25929","07:00","16:00","8","60",
"31.08.11","3","110023","0","910","Urlaub","","0","Urlaub. Urlaub","07:00","16:00","4","60",
"31.08.11","3","110022","307","101","PM/Mod/Meetings","","0","Wochenaufgaben SDR 2011. SWE meeting","","","0,5","0",
"31.08.11","3","110036","346","170","Schulung","","100","SWE PRODIS.Authoring.ODX: getting into subject. Bug 26464, 31346, 6559, 25929","","","3,5","0",
"01.09.11","4","110036","347","170","Schulung","","100","SWE PRODIS.Authoring.ODX: getting into subject. Bug 26464, 31346, 6559, 25929","07:00","16:00","8","60",
"02.09.11","5","110022","307","101","PM/Mod/Meetings","","0","Wochenaufgaben SDR 2011. Weekly timesheet report","07:00","16:00","0,5","60",
"02.09.11","5","110036","0","170","Schulung","","0","SWE PRODIS.Authoring.ODX: getting into subject. Bug 26464, 31346, 6559, 25929","","","7,5","0",
