"04.07.11","1","110036","258","170","Schulung","","0","Production: get into subject, practice in production. Training on PRODIS.RTS, examples of production problems and solutions.","07:00","16:00","8","60",
"05.07.11","2","110101","0","120","Codierung","","100","OBD ScanTool. CTS import into new Authoring; CTS updates; simulation creation from OBD log file.","07:00","16:00","4","60",
"05.07.11","2","110036","258","170","Schulung","","0","Training. Training on PRODIS.RTS, examples of production problems and solutions.","","","4","0",
"06.07.11","3","110036","258","170","Schulung","","0","Production: get into subject, practice in production. Training on PRODIS.RTS, examples of production problems and solutions.","07:00","16:00","8","60",
"07.07.11","4","110025","374","170","Schulung","","0","Training. PRODIS.Automation, PRODIS.RTS, MFT","07:00","16:00","8","60",
"08.07.11","5","110018","24","101","PM/Mod/Meetings","","0","Wochenaufgaben AES. Weekly timesheet report, department meeting.","07:00","16:00","1,5","60",
"08.07.11","5","110101","0","120","Codierung","","0","OBD ScanTool. CTS updates in Generic Ferrari CTS database","","","3","0",
"08.07.11","5","110036","258","170","Schulung","","0","Production: get into subject, practice in production. Training on PRODIS.RTS, examples of production problems and solutions.","","","3,5","0",
