"14.03.11","1","110025","375","170","Schulung","","0","P.Automation: get into subject. Going through P.Automation training material","07:00","16:00","8","60",
"15.03.11","2","110025","375","170","Schulung","","0","P.Automation: get into subject. Going through P.Automation training material","07:00","16:00","8","60",
"16.03.11","3","110025","375","170","Schulung","","0","P.Automation: get into subject. Going through P.Automation training material","07:00","16:00","8","60",
"17.03.11","4","110025","375","170","Schulung","","0","P.Automation: get into subject. Going through P.Automation training material","07:00","16:00","8","60",
"18.03.11","5","110025","375","170","Schulung","","0","P.Automation: get into subject. Going through P.Automation training material","07:00","16:00","8","60",
