"21.03.11","1","110036","91","170","Schulung","","0","allg. Einarbeitung. Worked on bug 28672","09:00","17:30","8","30",
"22.03.11","2","110036","91","170","Schulung","","0","allg. Einarbeitung. Worked on bug 28672","09:00","17:30","8","30",
"23.03.11","3","110036","91","170","Schulung","","0","allg. Einarbeitung. Worked on bug 28672","08:00","17:30","8","30",
"24.03.11","4","110036","91","170","Schulung","","0","allg. Einarbeitung. Worked on bug 28672","08:00","16:30","8","30",
"25.03.11","5","110036","91","170","Schulung","","0","allg. Einarbeitung. Worked on bug 28672","08:00","16:30","8","30",
