"03.01.11","1","100334","889","120","Codierung","","60","3001: Alt-BR: Motronic: ODX Bedat. Worked on two Messwerte services on  variant M06 that were left out","07:00","16:00","4","60",
"03.01.11","1","100334","889","120","Codierung","","60","3001: Alt-BR: Motronic: ODX Bedat. Testing the created services","","","4","0",
"04.01.11","2","100334","889","120","Codierung","","60","3001: Alt-BR: Motronic: ODX Bedat. Worked on messwerte services on variant M14","07:00","16:00","4","60",
"04.01.11","2","100334","889","120","Codierung","","60","3001: Alt-BR: Motronic: ODX Bedat. Testing messwerte services on variant M14","","","4","0",
"05.01.11","3","100334","889","120","Codierung","","60","3001: Alt-BR: Motronic: ODX Bedat. Found missing messwerte services on variant M07 and fixed them","07:00","16:00","2","60",
"05.01.11","3","100334","889","120","Codierung","","60","3001: Alt-BR: Motronic: ODX Bedat. Found missing messwerte services on variant M05 and fixed them","","","4","0",
"05.01.11","3","100334","889","120","Codierung","","60","3001: Alt-BR: Motronic: ODX Bedat. Testing the services","","","2","0",
"06.01.11","4","100025","1814","170","Schulung","","80","Training: ODX Authoring. More training on messwerte service conversion and structures","07:00","16:00","1","60",
"06.01.11","4","100334","889","120","Codierung","","60","3001: Alt-BR: Motronic: ODX Bedat. Checking the correctness of conversions on variants M06,M04, and M07","","","4","0",
"07.01.11","5","100334","889","120","Codierung","","100","3001: Alt-BR: Motronic: ODX Bedat. Comparing messwerte values on Piwis and OET and fixing any problems found","07:00","16:00","8","60",
