"31.01.11","1","100334","1268","120","Codierung","","100","3001: Alt-BR: Motronic: ODX Bedat. Closed","07:00","16:00","0","60",
"31.01.11","1","100334","945","120","Codierung","","0","3061: Alt-BR: Getr Tiptronic: ODX Bedat. implemented stellglieder for G03, 10, 20. Reworked measurements for G00","","","8","0",
"01.02.11","2","100334","1234","101","PM/Mod/Meetings","","0","8501: Alt-BR: allg. Projekttätigkeit C1.3/ae14. ABR project progress meeting","07:00","16:00","0,75","60",
"01.02.11","2","100334","947","104","Test-Spezifikation","","0","3061: Alt-BR: Getr Tiptronic: ODX Testspec+erw. Created odx testspec for G01,00,02","","","5","0",
"01.02.11","2","100334","1138","120","Codierung","","0","3021: Alt-BR: LH: ODX PTTD Attr. attributation for LH measurements","","","2,25","0",
"02.02.11","3","09.00582","2873","182","Fehlerbes. nach Ausl. (Bugzilla)","","0","6226: Bugfixing: BF+Test 1.0.2: #28092,#28104. bug 28092","07:00","16:00","2,5","60",
"02.02.11","3","100334","1234","101","PM/Mod/Meetings","","0","8501: Alt-BR: allg. Projekttätigkeit C1.3/ae14. Waiting for authoring, connection down","","","1","0",
"02.02.11","3","100334","945","120","Codierung","","0","3061: Alt-BR: Getr Tiptronic: ODX Bedat. reworked measurements for G03, 10, 20","","","3","0",
"02.02.11","3","100334","1138","120","Codierung","","0","3021: Alt-BR: LH: ODX PTTD Attr. FSP attributation.","","","1,5","0",
"03.02.11","4","100334","1138","120","Codierung","","100","3021: Alt-BR: LH: ODX PTTD Attr. envdata attributation","07:00","16:00","5","60",
"03.02.11","4","100334","945","120","Codierung","","0","3061: Alt-BR: Getr Tiptronic: ODX Bedat. implemented FSP and EnvData for G03","","","2","0",
"03.02.11","4","09.00582","2871","182","Fehlerbes. nach Ausl. (Bugzilla)","","0","6226: Bugfixing: BF+Test 1.0.2: #28072,#28102,#27988. bug 28102","","","1","0",
"04.02.11","5","110018","35","101","PM/Mod/Meetings","","0","Wochenaufgaben AES. updating timesheets","07:00","16:00","1","60",
"04.02.11","5","100334","1134","181","Fehlerbes. vor Ausl. (Bugzilla)","","0","3081: Alt-BR: EZK: ODX Bugfixing. reworked measurements, from s58","","","2","0",
"04.02.11","5","09.00582","2871","182","Fehlerbes. nach Ausl. (Bugzilla)","","0","6226: Bugfixing: BF+Test 1.0.2: #28072,#28102,#27988. bug 28072","","","4","0",
"04.02.11","5","100334","945","120","Codierung","","0","3061: Alt-BR: Getr Tiptronic: ODX Bedat. worked on G10 FSP and EnvData","","","1","0",
