"19.09.11","1","110018","28","101","PM/Mod/Meetings","","0","S4 Administrative Tasks. Meeting with S4 Management","07:00","16:00","1","60",
"19.09.11","1","110018","27","101","PM/Mod/Meetings","","0","S4 Technical Support / Troubleshoot. Supporting colleagues","","","7","0",
"20.09.11","2","110310","65","120","Codierung","","0","MainCTS: Impl. Main_CTS Framework (incl. User Login) B2.4/pa10. Initial template layout and discussion with S58, we","07:00","16:00","1","60",
"20.09.11","2","110018","27","101","PM/Mod/Meetings","","0","S4 Technical Support / Troubleshoot. Supporting colleagues","","","7","0",
"21.09.11","3","110018","28","101","PM/Mod/Meetings","","0","S4 Administrative Tasks. Interviews, new network backup investigations.","07:00","16:00","8","60",
"22.09.11","4","110310","65","120","Codierung","","0","MainCTS: Impl. Main_CTS Framework (incl. User Login) B2.4/pa10. Assisting S58 with XML read issues.","07:00","16:00","1","60",
"22.09.11","4","110018","27","101","PM/Mod/Meetings","","0","S4 Technical Support / Troubleshoot. Supporting colleagues","","","7","0",
"23.09.11","5","110023","0","910","Urlaub","","0","Urlaub. Afternoon off","07:00","16:00","4","60",
"23.09.11","5","110018","26","101","PM/Mod/Meetings","","0","Wochenaufgaben AES. Timesheets + daily meetings","","","2","0",
"23.09.11","5","110025","350","170","Schulung","","0","MCD-Kernel, PIDT, ECU Training. CODA Datalogger log save script changes.","","","2","0",
