"11.04.11","1","110036","89","170","Schulung","","0","allg.Einarbeitung. Getting into subject: PIDT SWE","09:00","17:30","8","30",
"12.04.11","2","110036","89","170","Schulung","","0","allg.Einarbeitung. Getting into subject: PIDT SWE","09:00","17:30","8","30",
"13.04.11","3","110036","89","170","Schulung","","0","allg.Einarbeitung. Getting into subject: PIDT SWE","09:00","17:30","8","30",
"14.04.11","4","110036","89","170","Schulung","","0","allg.Einarbeitung. Getting into subject: PIDT SWE","08:00","16:30","8","30",
