"24.01.11","1","100334","998","120","Codierung","","0","4021: Alt-BR: PDAS: ODX Bedat. Creating sub-variant for PDAS ecu","07:00","16:00","8","60",
"25.01.11","2","100334","998","120","Codierung","","0","4021: Alt-BR: PDAS: ODX Bedat. Creating simulations and ODX entries for Sub-Variant PDAS S00","07:00","16:00","8","60",
"26.01.11","3","09.00582","2831","182","Fehlerbes. nach Ausl. (Bugzilla)","","0","6104: 9x6: RegrTests Bugfixing. resolving Bugzilla Bug 28015 from s53","07:00","16:00","1,5","60",
"26.01.11","3","09.00582","2831","182","Fehlerbes. nach Ausl. (Bugzilla)","","0","6104: 9x6: RegrTests Bugfixing. resolving Bugzilla Bug 28026 from s53","","","1,5","0",
"26.01.11","3","100334","1002","181","Fehlerbes. vor Ausl. (Bugzilla)","","0","4021: Alt-BR: PDAS: ODX Bugfixing. Testing and Correcting PDAS ODX where needed","","","5","0",
"27.01.11","4","09.00582","2831","181","Fehlerbes. vor Ausl. (Bugzilla)","","0","6104: 9x6: RegrTests Bugfixing. resolving Bugzilla Bug 28026 from s53","07:00","16:00","5,5","60",
"27.01.11","4","09.00582","2831","181","Fehlerbes. vor Ausl. (Bugzilla)","","0","6104: 9x6: RegrTests Bugfixing. resolving Bugzilla Bug 28085 from s53","","","2,5","0",
"28.01.11","5","09.00582","2831","181","Fehlerbes. vor Ausl. (Bugzilla)","","0","6104: 9x6: RegrTests Bugfixing. resolving Bugzilla Bug 28085 from s53","07:00","16:00","7","60",
"28.01.11","5","110018","36","101","PM/Mod/Meetings","","0","Wochenaufgaben AES. Correcting and completing Timesheets for the week","","","1","0",
