"05.09.11","1","110118","21","120","Codierung","","0","MCD 3.0: Performance-Analyse (BI-Pos4.). Analyse Kernel 3 performance","07:00","16:00","8","60",
"06.09.11","2","110118","21","120","Codierung","","0","MCD 3.0: Performance-Analyse (BI-Pos4.). Analyse Kernel 3 performance","07:00","16:00","8","60",
"07.09.11","3","110118","21","120","Codierung","","0","MCD 3.0: Performance-Analyse (BI-Pos4.). Analyse Kernel 3 performance","07:00","16:00","7","60",
"07.09.11","3","110292","57","101","PM/Mod/Meetings","","0","8501: weekly tel. conference A1.5/pa10. Weekly meeting","","","1","0",
"08.09.11","4","110118","23","120","Codierung","","0","MCD 3.0: Umstellung PIDT 11.1.0 auf Kernel P.MCD 3.0.5 (BI-Pos5.). MCD 3.0: Umstellung PIDT 11.1.0 auf Kernel P.MCD 3.0.5 (BI-Pos5.)","07:00","16:00","8","60",
"09.09.11","5","110118","23","120","Codierung","","0","MCD 3.0: Umstellung PIDT 11.1.0 auf Kernel P.MCD 3.0.5 (BI-Pos5.). MCD 3.0: Umstellung PIDT 11.1.0 auf Kernel P.MCD 3.0.5 (BI-Pos5.)","07:00","16:00","8","60",
