"21.11.11","1","110036","412","170","Schulung","","0","Einarbeitung Scripting Object und Editoren. Fisker Authoring training","07:00","16:00","4","60",
"21.11.11","1","110618","102","120","Codierung","","0","FISKER: BRAKE-BLEED: Impl. C1.2/pa10. CTS implementation","","","4","0",
"22.11.11","2","110036","412","170","Schulung","","0","Einarbeitung Scripting Object und Editoren. Fisker Authoring training","07:00","16:00","5","60",
"22.11.11","2","110618","102","120","Codierung","","0","FISKER: BRAKE-BLEED: Impl. C1.2/pa10. CTS implementation","","","3","0",
"23.11.11","3","110036","412","170","Schulung","","0","Einarbeitung Scripting Object und Editoren. Fisker Authoring training","07:00","16:00","4","60",
"23.11.11","3","110618","102","120","Codierung","","0","FISKER: BRAKE-BLEED: Impl. C1.2/pa10. CTS implementation","","","4","0",
"24.11.11","4","110036","412","170","Schulung","","0","Einarbeitung Scripting Object und Editoren. Fisker Authoring training","07:00","16:00","4","60",
"24.11.11","4","110618","102","120","Codierung","","0","FISKER: BRAKE-BLEED: Impl. C1.2/pa10. CTS implementation","","","4","0",
"25.11.11","5","110018","35","101","PM/Mod/Meetings","","0","Wochenaufgaben AES. Meetings and updating timesheets","07:00","16:00","2,5","60",
"25.11.11","5","110036","412","170","Schulung","","0","Einarbeitung Scripting Object und Editoren. Fisker Authoring training","","","3,5","0",
"25.11.11","5","110618","102","120","Codierung","","0","FISKER: BRAKE-BLEED: Impl. C1.2/pa10. CTS implementation","","","2","0",
