"19.09.11","1","100498","170","182","Fehlerbes. nach Ausl. (Bugzilla)","","0","4082: 9x6: Bugfixing Puffer D2.1/ae22. fixing bugs 31934 and 319345","07:00","16:00","8","60",
"20.09.11","2","110025","391","170","Schulung","","0","P.Automation: Training. Training","07:00","16:00","8","60",
"21.09.11","3","110025","391","170","Schulung","","0","Training: P.Automation. Training","07:00","16:00","8","60",
"22.09.11","4","110025","391","170","Schulung","","0","Training: P.Automation. Training","07:00","16:00","8","60",
"23.09.11","5","110025","391","170","Schulung","","0","Training: P.Automation. Training","07:00","16:00","8","60",
