"19.09.11","1","110036","386","170","Schulung","","0","Authoring workspace and Oracle setup. Authoring and Oracle workspace maintenance","07:00","16:00","8","60",
"20.09.11","2","110036","388","170","Schulung","","100","Authoring bugs 6559, 29699. Bugs 6559, 29699","07:00","16:00","8","60",
"21.09.11","3","110036","389","170","Schulung","","0","Authoring bugs 6559, 29699. Bugs 6559, 29699","07:00","16:00","8","60",
"22.09.11","4","110036","389","170","Schulung","","0","Authoring bug 29699. Bug 29699","07:00","16:00","8","60",
"23.09.11","5","110022","307","101","PM/Mod/Meetings","","0","Wochenaufgaben SDR 2011. Weekly timesheet report, SWE team meeting","07:00","16:00","1","60",
"23.09.11","5","110036","389","170","Schulung","","0","Authoring bugs 29699, 29892. Bugs 29699, 29892","","","7","0",
