"08.08.11","1","110117","0","181","Fehlerbes. vor Ausl. (Bugzilla)","","0","Worked on Bug #31038. Worked on Bug #31038","07:00","16:00","8","60",
"09.08.11","2","2011","S4","910","Urlaub","","0","Public Holiday. Public Holiday","07:00","16:00","8","60",
"10.08.11","3","110117","0","181","Fehlerbes. vor Ausl. (Bugzilla)","","0","Worked on Bug 31201. Worked on Bug 31201","07:00","16:00","4","60",
"10.08.11","3","110117","363","101","PM/Mod/Meetings","","0","8501: weekly telephone conference. Meeting","","","1","0",
"10.08.11","3","110117","0","181","Fehlerbes. vor Ausl. (Bugzilla)","","0","Worked on Bug 29391. Worked on Bug 29391","","","3","0",
"11.08.11","4","110117","0","181","Fehlerbes. vor Ausl. (Bugzilla)","","0","Worked on Bug 29391. Worked on Bug 29391","07:00","16:00","2","60",
"11.08.11","4","110117","0","140","Test","","0","Testing for PIDT 11.1.0. Testing for PIDT 11.1.0","","","6","0",
"12.08.11","5","110117","0","181","Fehlerbes. vor Ausl. (Bugzilla)","","0","Worked on Bug 29391. Worked on Bug 29391","07:00","16:00","8","60",
