"12.12.11","1","110036","0","182","Fehlerbes. nach Ausl. (Bugzilla)","","0","SWE: Authoring.ODX bugs 31349, 30110, 26172, 32074. Bugs 31349, 30110, 26172, 32074","07:00","16:00","7","60",
"12.12.11","1","110036","518","182","Fehlerbes. nach Ausl. (Bugzilla)","","100","Bug 30110. Bug 30110","","","1","0",
"13.12.11","2","110036","0","182","Fehlerbes. nach Ausl. (Bugzilla)","","0","SWE: Authoring.ODX bugs 31349, 30110, 26172, 32074. Bugs 31349, 30110, 26172, 32074","07:00","16:00","8","60",
"14.12.11","3","110036","0","182","Fehlerbes. nach Ausl. (Bugzilla)","","0","SWE: Authoring.ODX bugs 31349, 30110, 26172, 32074. Bug 31349, 30110, 26172, 32074","07:00","16:00","8","60",
"15.12.11","4","110022","307","101","PM/Mod/Meetings","","100","Wochenaufgaben SDR 2011. Weekly timesheet report, meetings","07:00","16:00","2","60",
"15.12.11","4","110036","0","182","Fehlerbes. nach Ausl. (Bugzilla)","","0","SWE: Authoring.ODX bugs 31349, 30110, 26172, 32074. Bug 31349, 30110, 26172, 32074","","","6","0",
"16.12.11","5","110023","0","910","Urlaub","","0","Holiday. South Africa banked public holiday","07:00","16:00","8","60",
