"24.01.11","1","100334","951","104","Test-Spezifikation","","80","3062: Alt-BR: Getr Tiptronic: Stellglieder: Testspec + erw. Sim. Creating Tespec and Simulations for Titronic Ecu from s47","07:00","16:00","8","60",
"25.01.11","2","100334","951","104","Test-Spezifikation","","90","3062: Alt-BR: Getr Tiptronic: Stellglieder: Testspec + erw. Sim. Creating Tespec and Simulations for Titronic Ecu from s47","07:00","16:00","2","60",
"25.01.11","2","100023","0","910","Urlaub","","0","Holiday. Time-Off","","","4","0",
"25.01.11","2","100025","0","170","Schulung","","0","CTS Training. Giving training for CTS Implementation","","","2","0",
"26.01.11","3","100334","903","104","Test-Spezifikation","","60","3003: Alt-BR: Motronic: Tankentlüftung: Testspec + erw. Sim. Creating Tespec and Simulations for Monotronic Tankentlüftung Ecu from s47","07:00","16:00","8","60",
"27.01.11","4","100334","903","104","Test-Spezifikation","","90","3003: Alt-BR: Motronic: Tankentlüftung: Testspec + erw. Sim. Creating Tespec and Simulations for Motronic: Tankentlüftung CTS from s47","07:00","16:00","8","60",
"28.01.11","5","100018","46","110","Engineering","","0","Wochenaufgaben AES. Department Meeting and Doing Timesheets","07:00","16:00","2","60",
"28.01.11","5","100334","903","104","Test-Spezifikation","","100","3003: Alt-BR: Motronic: Tankentlüftung: Testspec + erw. Sim. Updating Tespec After Review from s47","","","3","0",
"28.01.11","5","100334","951","104","Test-Spezifikation","","100","3062: Alt-BR: Getr Tiptronic: Stellglieder: Testspec + erw. Sim. Updating Tespec After Review from s47","","","3","0",
