"26.09.11","1","110292","16","104","Test-Spezifikation","","75","1000: LIN Slaves: Sim (CR129my1) D1.4/pa10. Creating SIM","07:00","16:00","3","60",
"26.09.11","1","110292","19","120","Codierung","","50","1000: LIN Slaves: SG deaktivieren (CR129my1) E1.3pa10. Update for Lin-Slave ECUs","","","5","0",
"27.09.11","2","110292","19","120","Codierung","","70","1000: LIN Slaves: SG deaktivieren (CR129my1) E1.3pa10. Update for Lin-Slave ECUs","07:00","16:00","8","60",
"28.09.11","3","110292","10","101","PM/Mod/Meetings","","0","8501: weekly telephone conference. Weekly telco","07:00","16:00","0,5","60",
"28.09.11","3","110292","16","104","Test-Spezifikation","","80","1000: LIN Slaves: Sim (CR129my1) D1.4/pa10. Creating SIM","","","1,5","0",
"28.09.11","3","110292","19","120","Codierung","","80","1000: LIN Slaves: SG deaktivieren (CR129my1) E1.3pa10. Update for Lin-Slave ECUs","","","6","0",
"29.09.11","4","11292","20","120","Codierung","","45","1000: LIN Slaves: Aktionsprogr.  (CR129my1) E1.4pa10. Update for Lin-Slave ECUs","07:00","16:00","8","60",
"30.09.11","5","110292","20","120","Codierung","","90","1000: LIN Slaves: Aktionsprogr.  (CR129my1) E1.4pa10. Update for Lin-Slave ECUs","07:00","16:00","8","60",
