"24.01.11","1","100334","940","120","Codierung","","95","3010:Alt-BR:Motronic:Stellglieder: Implementierung. Training on some gesic ways of dealing with some service handling","07:00","16:00","1,5","60",
"24.01.11","1","100334","940","120","Codierung","","95","3010:Alt-BR:Motronic:Stellglieder: Implementierung. Implementing sequences for aktiv actuators","","","4","0",
"24.01.11","1","100334","940","120","Codierung","","95","3010:Alt-BR:Motronic:Stellglieder: Implementierung. Testing and fixing","","","2,5","0",
"25.01.11","2","100334","940","120","Codierung","","95","3010:Alt-BR:Motronic:Stellglieder: Implementierung. Implementing sequences for aktiv actuators","07:00","16:00","4","60",
"25.01.11","2","100334","940","120","Codierung","","95","3010:Alt-BR:Motronic:Stellglieder: Implementierung. Testing and fixing","","","4","0",
"26.01.11","3","100334","940","120","Codierung","","95","3010:Alt-BR:Motronic:Stellglieder: Implementierung. Implementing sequences for added aktiv actuators for variant M04","07:00","16:00","4","60",
"26.01.11","3","100334","940","120","Codierung","","95","3010:Alt-BR:Motronic:Stellglieder: Implementierung. Testing and fixing","","","4","0",
"27.01.11","4","100334","940","120","Codierung","","95","3010:Alt-BR:Motronic:Stellglieder: Implementierung. Gesic Stellglieder implementation","07:00","16:00","8","60",
"28.01.11","5","100334","940","120","Codierung","","100","3010:Alt-BR:Motronic:Stellglieder: Implementierung. Gesic Stellglieder implementation","07:00","16:00","4","60",
"28.01.11","5","100334","940","120","Codierung","","100","3010:Alt-BR:Motronic:Stellglieder: Implementierung. Mistake checks and fixing","","","4","0",
