"12.12.11","1","110408","91","120","Codierung","","100","2110: BaseLib: Stufe 2: MTG: Update. Updating to baselib 2.5.03. Closing task","07:00","16:00","4","60",
"12.12.11","1","110408","71","140","Test","","100","1110: BaseLib: Stufe 1: MMDS: Review/Bugfix. Review. Closing task","","","3","0",
"12.12.11","1","110408","90","140","Test","","50","2110: BaseLib: Stufe 2: BNLW: Review/Bugfix. Bugfixing after review","","","1","0",
"13.12.11","2","110408","90","140","Test","","100","2110: BaseLib: Stufe 2: BNLW: Review/Bugfix. Bugfixing after review. Closing task.","07:00","16:00","1","60",
"13.12.11","2","110408","92","140","Test","","100","2110: BaseLib: Stufe 2: MTG: Review/Bugfix. Bugfixing after review. Closing task.","","","2","0",
"13.12.11","2","110408","93","120","Codierung","","60","2110: BaseLib: Stufe 2: UCM: Update. Updating to baselib 2.5.03","","","5","0",
"14.12.11","3","110408","93","120","Codierung","","100","2110: BaseLib: Stufe 2: UCM: Update. Updating to baselib 2.5.03. Closing task","07:00","16:00","3","60",
"14.12.11","3","110408","94","140","Test","","100","2110: BaseLib: Stufe 2: UCM: Review/Bugfix. Review and bugfixing. Closing task","","","2","0",
"14.12.11","3","110018","39","101","PM/Mod/Meetings","","0","Wochenaufgaben AES. MAN Meeting","","","0,5","0",
"14.12.11","3","110408","99","120","Codierung","","40","2110: BaseLib: Stufe 2: MMDS-SU: Update. Updating to baselib 2.5.03","","","2,5","0",
"15.12.11","4","110018","39","101","PM/Mod/Meetings","","0","Wochenaufgaben AES. Meetings and Timesheets","07:00","16:00","2,5","60",
"15.12.11","4","110408","99","120","Codierung","","100","2110: BaseLib: Stufe 2: MMDS-SU: Review/Bugfix. Updating to baselib 2.5.03","","","5,5","0",
"16.12.11","5","110023","0","910","Urlaub","","0","Public Holiday. Time-Off","07:00","16:00","8","60",
