"17.10.11","1","110292","0","104","Test-Spezifikation","","0","Creating test specifications for Voltage and clear DTC steps. Creating test specifications for Voltage and clear DTC steps","07:00","16:00","8","60",
"18.10.11","2","110292","0","104","Test-Spezifikation","","0","Creating test specifications for Voltage and clear DTC steps. Creating test specifications for Voltage and clear DTC steps","07:00","16:00","8","60",
"19.10.11","3","110292","0","104","Test-Spezifikation","","0","Creating test specifications for Voltage and clear DTC steps. Creating test specifications for Voltage and clear DTC steps","07:00","16:00","8","60",
"20.10.11","4","110292","0","104","Test-Spezifikation","","100","Worked on Test Specification for the Voltage and Clear DTC steps. Worked on Test Specification for the Voltage and Clear DTC steps","07:00","16:00","8","60",
"21.10.11","5","110292","0","120","Codierung","","0","CR140da2: ''Fortschrittsanzeige Aktionen'': Impl. Working on Scritps for CR140da2","07:00","16:00","8","60",
