"21.03.11","1","110023","0","910","Urlaub","","100","21.03.2011. Public holiday","07:00","16:00","8","60",
"22.03.11","2","100334","1358","120","Codierung","","0","2080: Alt-Br: Job ID lesen: Anpassung ODX Bedat. Booked on task of s47, ODX implementation for this SingleEcuJob.","07:00","16:00","3","60",
"22.03.11","2","100334","883","140","Test","","0","2080: Alt-Br: Job ID lesen: Modultest+bugfix. Booked on task of s47, ODX testing","","","3","0",
"22.03.11","2","100334","882","120","Codierung","","0","2080: Alt-Br: Job ID lesen: Implementierung. Booked on task of s47, updates to SingleEcuJob.","","","2","0",
"23.03.11","3","100334","1358","120","Codierung","","0","2080: Alt-Br: Job ID lesen: Anpassung ODX Bedat. Booked on task of s47, ODX implementation for this SingleEcuJob.","07:00","16:00","4","60",
"23.03.11","3","100334","882","120","Codierung","","0","2080: Alt-Br: Job ID lesen: Implementierung. Booked on task of s47, updates to SingleEcuJob.","","","2","0",
"23.03.11","3","100334","883","140","Test","","0","2080: Alt-Br: Job ID lesen: Modultest+bugfix. Booked on task of s47, ODX testing","","","2","0",
"24.03.11","4","100334","1358","120","Codierung","","100","2080: Alt-Br: Job ID lesen: Anpassung ODX Bedat. Booked on task of s47, comparam changes.","07:00","16:00","1","60",
"24.03.11","4","100334","883","140","Test","","100","2080: Alt-Br: Job ID lesen: Modultest+bugfix. Booked on task of s47, ODX testing and PTTD checking, bug 29071","","","5","0",
"24.03.11","4","100334","882","120","Codierung","","100","2080: Alt-Br: Job ID lesen: Implementierung. Booked on task of s47, updates to SingleEcuJob.","","","1","0",
"24.03.11","4","100334","1119","181","Fehlerbes. vor Ausl. (Bugzilla)","","0","6020: Alt-Br: Heizung: Bugfixing zu Integrationstest. Booked on task of f2, task already closed, bug 28826","","","1","0",
"25.03.11","5","100334","1119","181","Fehlerbes. vor Ausl. (Bugzilla)","","100","6020: Alt-Br: Heizung: Bugfixing zu Integrationstest. Booked on task of f2, task already closed, bugs 28826, 29071, 29107, 29108","07:00","16:00","6,5","60",
"25.03.11","5","110018","24","101","PM/Mod/Meetings","","0","Wochenaufgaben AES. Weekly timesheet report, department meeting.","","","1,5","0",
