"31.01.11","1","100023","0","910","Urlaub","","0","Holiday. Time off","07:00","16:00","8","60",
"01.02.11","2","100334","1047","181","Fehlerbes. vor Ausl. (Bugzilla)","","0","5041: Alt-BR: Airbag (Übernahme 9x6): ODX Bugfixing. Fixing ODX jobs for ABR project","07:00","16:00","4","60",
"01.02.11","2","100334","1158","181","Fehlerbes. vor Ausl. (Bugzilla)","","0","3041: Alt-BR: PSD: ODX Bugfixing. Fixing incorrect services","","","3,25","0",
"01.02.11","2","100334","1232","101","PM/Mod/Meetings","","0","8501: Alt-BR: allg. Projekttätigkeit C1.3/ae14. ABR project progress meeting","","","0,75","0",
"02.02.11","3","100334","1232","101","PM/Mod/Meetings","","0","8501: Alt-BR: allg. Projekttätigkeit C1.3/ae14. Reading ECU documentation while connection with server was down","07:00","16:00","1,5","60",
"02.02.11","3","100334","0","120","Codierung","","100","Alt-BR: Analog Signal: ODX Bedat. Creating ABR_AnalogSignals ECU, adding it to VEC and adding services to it","","","2","0",
"02.02.11","3","100334","1158","181","Fehlerbes. vor Ausl. (Bugzilla)","","0","3041: Alt-BR: PSD: ODX Bugfixing. Fixing incorrect services","","","2,3","0",
"02.02.11","3","100334","1315","120","Codierung","","100","5021: Alt-BR: Alarm: ODX Bedat Jobs. Fixing and testing Read DTC job","","","2,2","0",
"03.02.11","4","110018","31","101","PM/Mod/Meetings","","0","Wochenaufgaben AES. Common project tasks, meetings and completing timesheets","07:00","16:00","1,5","60",
"03.02.11","4","100334","896","181","Fehlerbes. vor Ausl. (Bugzilla)","","100","3001: Alt-BR: Motronic: ODX Bugfixing. From: s61: Working on DME M00 EnvData Job","","","6,5","0",
"04.02.11","5","100023","0","910","Urlaub","","0","Holiday. Time off","07:00","16:00","8","60",
