DATE;NAME;START;END;LUNCH;1;2;3;4;5;6;7;8;9;10;11;12;13;14;15;16;17;18;19;20;21;22;23;24;
01.06.11;Brendan van Zyl;07:00:00;16:00:00;60;100540-0;100540-0;100540-0;100540-0;100540-0;100540-0;100540-0;100540-0;
01.06.11;Nico Claassen;07:00:00;16:00:00;60;110025-0;110025-0;110018-27;110018-27;110018-27;110018-27;110018-27;110018-27;
01.06.11;Graham Meyer;07:00:00;16:00:00;60;110117-230;110117-230;110117-230;110117-230;110117-230;110117-230;110117-228;110117-228;
01.06.11;Thando Katywa;07:00:00;16:00:00;60;110036-188;110036-188;110036-188;110036-188;110036-188;110036-188;110036-188;110036-188;
01.06.11;Ludumo Sankobe;07:00:00;16:00:00;60;100540-68;100540-68;100540-68;100540-68;100540-68;100540-68;100540-68;100540-68;
01.06.11;Paul Helliwell;07:00:00;16:00:00;60;100369-1677;100369-1677;100369-1677;100369-1677;100369-1677;100369-1677;100369-1677;100369-1677;
01.06.11;Ntombenkosi Maldaki;07:00:00;16:00:00;60;110025-0;110025-0;110025-0;110025-0;110025-0;110025-0;110025-0;110025-0;
01.06.11;Mark Britten;07:00:00;16:00:00;60;110018-369 / 110025-369;110025-369;110025-369;110025-369;110025-369;110025-369;110025-369;110025-369;
01.06.11;Wesley Saunders;07:00:00;16:00:00;60;110025-403;110025-403;110025-403;110025-403;110025-403;110025-403;110025-403;110025-403;
01.06.11;Francois Sayster;07:00:00;16:00:00;60;110025-371;110025-371;110025-371;110025-371;110025-371;110025-371;110025-371;110025-371;
01.06.11;Odwa Dyantyi;07:00:00;16:00:00;60;110025-392;110025-392;110025-392;110025-392;110025-392;110025-392;110025-392;110025-392;
01.06.11;Sesetu Mtukulu;07:00:00;16:00:00;60;110025-373;110025-373;110025-373;110025-373;110025-373;110025-373;110025-373;110025-373;
01.06.11;Mario Jansen van Vuuren;07:00:00;16:00:00;60;110036-189;110036-189;110036-189;110036-189;110036-189;110036-189;110036-189;110036-189;
02.06.11;Brendan van Zyl;07:00:00;16:00:00;60;100540-0;100540-0;100540-0;100540-0;100540-0;100540-0;100540-0;100540-0;
02.06.11;Nico Claassen;07:00:00;16:00:00;60;110025-0;110025-0;110018-28;110018-28;110018-27;110018-27;110018-27;110018-27;
02.06.11;Graham Meyer;07:00:00;16:00:00;60;110117-222;110117-222;110117-222;110117-223;110117-223;110117-223;110117-223;110117-223;
02.06.11;Thando Katywa;07:00:00;16:00:00;60;110036-188;110036-188;110036-188;110036-188;110036-188;110036-188;110036-188;110036-188;
02.06.11;Ludumo Sankobe;07:00:00;16:00:00;60;100540-68;100540-68;100540-68;100540-68;100540-68;100540-68;100540-68;100540-68;
02.06.11;Paul Helliwell;07:00:00;16:00:00;60;100369-1677;100369-1677;100369-1677;100369-1677;100369-1677;100369-1677;100369-1677;100369-1677;
02.06.11;Ntombenkosi Maldaki;07:00:00;16:00:00;60;110025-0;110025-0;110025-0;110025-0;110025-0;110025-0;110025-0;110025-0;
02.06.11;Mark Britten;07:00:00;16:00:00;60;110023-0;110023-0;110023-0;110023-0;110023-0;110023-0;110023-0;110023-0;
02.06.11;Wesley Saunders;07:00:00;16:00:00;60;110025-403;110025-403;110025-403;110025-403;110025-403;110025-403;110025-403;110025-403;
02.06.11;Francois Sayster;07:00:00;16:00:00;60;110025-371;110025-371;110025-371;110025-371;110025-371;110025-371;110025-371;110025-371;
02.06.11;Odwa Dyantyi;07:00:00;16:00:00;60;110025-392;110025-392;110025-392;110025-392;110025-392;110025-392;110025-392;110025-392;
02.06.11;Sesetu Mtukulu;07:00:00;16:00:00;60;110018-58;110018-58;110025-373;110025-373;110025-373;110025-373;110025-373;110025-373;
02.06.11;Mario Jansen van Vuuren;07:00:00;16:00:00;60;110036-189;110036-189;110036-189;110036-189;110036-189;110036-189;110036-189;110036-189;
03.06.11;Brendan van Zyl;07:00:00;16:00:00;60;110018-24;100540-0;100540-0;100540-0;100540-0;100540-0;100540-0;100540-0;
03.06.11;Nico Claassen;07:00:00;16:00:00;60;110025-0;110025-0;110025-0;110025-0;110018-26;110018-26;110018-27;110018-27;
03.06.11;Graham Meyer;07:00:00;16:00:00;60;110117-230;110117-230;110117-230;110117-230;110117-230;110117-230;110117-230;110117-230;
03.06.11;Thando Katywa;07:00:00;16:00:00;60;110036-188;110036-188;110036-188;110036-188;110036-188;110036-188;110036-188;110036-188;
03.06.11;Ludumo Sankobe;07:00:00;16:00:00;60;
03.06.11;Paul Helliwell;07:00:00;16:00:00;60;110018-33;110018-33;110018-33;110018-33;110018-33;110018-33;110018-33;110018-33;
03.06.11;Ntombenkosi Maldaki;07:00:00;16:00:00;60;110025-0;110025-0;110025-0;110025-0;110025-0;110025-0;110018-35;110018-35;
03.06.11;Mark Britten;07:00:00;16:00:00;60;110023-0;110023-0;110023-0;110023-0;110023-0;110023-0;110023-0;110023-0;
03.06.11;Wesley Saunders;07:00:00;16:00:00;60;110018-39;110018-39;110025-403;110025-403;110025-403;110025-403;110025-403;110025-403;
03.06.11;Francois Sayster;07:00:00;16:00:00;60;110025-371;110025-371;110025-371;110025-371;110025-371;110025-371;110018-40;110018-40;
03.06.11;Odwa Dyantyi;07:00:00;16:00:00;60;110023-0;110023-0;110023-0;110023-0;110023-0;110023-0;110023-0;110023-0;
03.06.11;Sesetu Mtukulu;07:00:00;16:00:00;60;110025-373;110025-373;110025-373;110025-373;110025-373;110025-373;110025-373;110025-373;
03.06.11;Mario Jansen van Vuuren;07:00:00;16:00:00;60;110036-189;110036-189;110036-189;110036-189;110036-189;110036-189;110036-189;110036-189;
04.06.11;Brendan van Zyl;
04.06.11;Nico Claassen;
04.06.11;Graham Meyer;
04.06.11;Thando Katywa;
04.06.11;Ludumo Sankobe;
04.06.11;Paul Helliwell;
04.06.11;Ntombenkosi Maldaki;
04.06.11;Mark Britten;
04.06.11;Wesley Saunders;
04.06.11;Francois Sayster;
04.06.11;Odwa Dyantyi;
04.06.11;Sesetu Mtukulu;
04.06.11;Mario Jansen van Vuuren;
05.06.11;Brendan van Zyl;
05.06.11;Nico Claassen;
05.06.11;Graham Meyer;
05.06.11;Thando Katywa;
05.06.11;Ludumo Sankobe;
05.06.11;Paul Helliwell;
05.06.11;Ntombenkosi Maldaki;
05.06.11;Mark Britten;
05.06.11;Wesley Saunders;
05.06.11;Francois Sayster;
05.06.11;Odwa Dyantyi;
05.06.11;Sesetu Mtukulu;
05.06.11;Mario Jansen van Vuuren;
06.06.11;Brendan van Zyl;07:00:00;16:00:00;60;100540-0;100540-0;100540-0;100540-0;100540-0;100540-0;100540-0;100540-0;
06.06.11;Nico Claassen;07:00:00;16:00:00;60;110025-451;110025-451;110025-450;110025-449;110025-448 / 110025-447;110025-446 / 110025-445;110018-27;110018-27;
06.06.11;Graham Meyer;07:00:00;16:00:00;60;110117-221;110117-221;110117-221;110117-221;110117-221;110117-221;110117-221;110117-221;
06.06.11;Thando Katywa;07:00:00;16:00:00;60;110036-188;110036-188;110036-188;110036-188;110036-188;110036-188;110036-188;110036-188;
06.06.11;Ludumo Sankobe;07:00:00;16:00:00;60;100540-68;100540-68;100540-68;100540-68;100540-68;100540-68;100540-68;100540-68;
06.06.11;Paul Helliwell;07:00:00;16:00:00;60;110018-33;110018-33;110018-33;110018-33;110018-33;110018-33;110018-33;110018-33;
06.06.11;Ntombenkosi Maldaki;07:00:00;16:00:00;60;110036-256;110036-256;110036-256;110036-256;110036-256;110025-0;110025-0;110025-0;
06.06.11;Mark Britten;07:00:00;16:00:00;60;110025-369;110025-369;110025-369;110025-369;110025-369;110025-369;110025-369;100540-87;
06.06.11;Wesley Saunders;07:00:00;16:00:00;60;110025-403;110025-403;110025-403;110025-403;110025-403;110025-403;110025-403;110025-403;
06.06.11;Francois Sayster;07:00:00;16:00:00;60;110025-371;110025-371;110025-371;110025-371;110025-371;110025-371;110025-371;110025-371;
06.06.11;Odwa Dyantyi;07:00:00;16:00:00;60;110025-392;110025-392;110025-392;110025-392;110025-392;110025-392;110025-392;110025-392;
06.06.11;Sesetu Mtukulu;
06.06.11;Mario Jansen van Vuuren;07:00:00;16:00:00;60;110036-189;110036-189;110036-189;110036-189;110036-189;110036-189;110036-189;110036-189;
07.06.11;Brendan van Zyl;07:00:00;16:00:00;60;100498-0;100498-0;100540-0;100540-0;100540-0;100540-0;100540-0;110101-95;
07.06.11;Nico Claassen;07:00:00;16:00:00;60;110025-451;110025-451;110025-450;110025-449;110025-448 / 110025-447;110025-446 / 110025-445;110018-27;110018-27;
07.06.11;Graham Meyer;07:00:00;16:00:00;60;110117-224;110117-224;110117-224;110117-224;110117-224;110117-224;110117-224;110117-224;
07.06.11;Thando Katywa;07:00:00;16:00:00;60;110117-269;110117-269;110117-269;110117-269;110117-270;110117-270;110117-270;110117-270;
07.06.11;Ludumo Sankobe;07:00:00;16:00:00;60;110025-391;110025-391;110025-391;110025-391;110025-391;110025-391;110025-391;110025-391;
07.06.11;Paul Helliwell;07:00:00;16:00:00;60;110025-452;110025-452;110025-452;110025-452;110025-452;110025-452;110025-452;110025-452;
07.06.11;Ntombenkosi Maldaki;07:00:00;16:00:00;60;110036-256;110036-256;110036-256;110036-256;110036-256;110025-0;110025-0;110025-0;
07.06.11;Mark Britten;07:00:00;16:00:00;60;110025-369;110025-369;110025-369;110025-369;110025-369;110025-369;110025-369;110025-369;
07.06.11;Wesley Saunders;07:00:00;16:00:00;60;110036-257;110036-257;110036-257;110036-257;110036-257;110036-257;110036-257;110036-257;
07.06.11;Francois Sayster;07:00:00;16:00:00;60;110025-371;110025-371;110025-371;110025-371;110025-371;110025-371;110025-371;110025-371;
07.06.11;Odwa Dyantyi;07:00:00;16:00:00;60;110025-392;110025-392;110025-392;110025-392;110025-392;110025-392;110025-392;110025-392;
07.06.11;Sesetu Mtukulu;
07.06.11;Mario Jansen van Vuuren;07:00:00;16:00:00;60;110036-189;110036-189;110036-189;110036-189;110036-189;110036-189;110036-189;110036-189;
08.06.11;Brendan van Zyl;07:00:00;16:00:00;60;100540-0;100540-0;100540-0;100540-0;100540-0;100540-0;100540-0;100540-0;
08.06.11;Nico Claassen;07:00:00;16:00:00;60;110018-27;110018-27;110018-27;110018-27;110018-27;110018-27;110018-27;110018-27;
08.06.11;Graham Meyer;07:00:00;16:00:00;60;110117-222;110117-222;110117-222;110117-222;110117-222;110117-222;110117-222;110117-222;
08.06.11;Thando Katywa;07:00:00;16:00:00;60;110117-270;110117-270;110117-270;110117-270;110117-270;110117-270;110117-270;110117-270;
08.06.11;Ludumo Sankobe;07:00:00;16:00:00;60;100334-1852;100334-1852;100334-1852;100334-1852;100334-1852;100334-1852;100334-1852;100334-1852;
08.06.11;Paul Helliwell;07:00:00;16:00:00;60;110025-368;110025-368;110025-368;110025-368;110025-368;110025-368;110025-368;110025-368;
08.06.11;Ntombenkosi Maldaki;07:00:00;16:00:00;60;110025-0;110025-0;110025-0;110025-0;110025-0;110025-0;110025-0;110025-0;
08.06.11;Mark Britten;07:00:00;16:00:00;60;110025-369;110025-369;110025-369;110025-369;110025-369;110025-369;110025-369;110025-369;
08.06.11;Wesley Saunders;07:00:00;16:00:00;60;110025-403;110025-403;110025-403;110025-403;110025-403;110025-403;110025-403;110025-403;
08.06.11;Francois Sayster;07:00:00;16:00:00;60;110025-371;110025-371;110025-371;110025-371;110025-371;110025-371;110025-371;110025-371;
08.06.11;Odwa Dyantyi;07:00:00;16:00:00;60;110025-392;110025-392;110025-392;110025-392;110025-392;110025-392;110025-392;110025-392;
08.06.11;Sesetu Mtukulu;
08.06.11;Mario Jansen van Vuuren;07:00:00;16:00:00;60;110036-189;110036-189;110036-189;110036-189;110036-189;110036-189;110036-189;110036-189;
09.06.11;Brendan van Zyl;07:00:00;16:00:00;60;110025-374 / 100540-0;100540-0;100540-0;100540-0;100540-0;100540-0;100540-0;100540-0;
09.06.11;Nico Claassen;07:00:00;16:00:00;60;110025-0;110018-27;110018-27;110018-27;110018-27;110018-27;110018-27;110018-27;
09.06.11;Graham Meyer;07:00:00;16:00:00;60;110117-223;110117-223;110117-223;110117-223;110117-223;110117-223;110117-223;110117-223;
09.06.11;Thando Katywa;07:00:00;16:00:00;60;110036-178;110036-178;110036-178;110036-178;110036-178;110036-178;110036-178;110036-178;
09.06.11;Ludumo Sankobe;07:00:00;16:00:00;60;100334-1852;100334-1852;100334-1852;100334-1852;100334-1852;100334-1852;100334-1852;100334-1852;
09.06.11;Paul Helliwell;07:00:00;16:00:00;60;110025-368;110025-368;110025-368;110025-368;110025-368;110025-368;110025-368;110025-368;
09.06.11;Ntombenkosi Maldaki;07:00:00;16:00:00;60;110025-0;110025-0;110025-0;110025-0;110025-0;110025-0;110025-0;110025-0;
09.06.11;Mark Britten;07:00:00;16:00:00;60;110025-369;110025-369;110025-369;110025-369;110025-369;110025-369;110025-369;110025-369;
09.06.11;Wesley Saunders;07:00:00;16:00:00;60;110025-403;110025-403;110025-403;110025-403;110025-403;110025-403;110025-403;110025-403;
09.06.11;Francois Sayster;07:00:00;16:00:00;60;110025-371;110025-371;110025-371;110025-371;110025-371;110025-371;110025-371;110025-371;
09.06.11;Odwa Dyantyi;07:00:00;16:00:00;60;110025-392;110025-392;110025-392;110025-392;110025-392;110025-392;110025-392;110025-392;
09.06.11;Sesetu Mtukulu;
09.06.11;Mario Jansen van Vuuren;07:00:00;16:00:00;60;110036-189;110036-189;110036-189;110036-189;110036-189;110036-189;110036-189;110036-189;
10.06.11;Brendan van Zyl;07:00:00;16:00:00;60;110018-24 / 110025-0;110025-0;110025-0;110025-0;110025-0;110025-0;110025-0;110025-0;
10.06.11;Nico Claassen;07:00:00;16:00:00;60;110023-0;110023-0;110023-0;110023-0;110023-0;110023-0;110023-0;110023-0;
10.06.11;Graham Meyer;07:00:00;16:00:00;60;110117-227;110117-227;110117-227;110117-227;110117-227;110117-227;110117-227;110117-227;
10.06.11;Thando Katywa;07:00:00;16:00:00;60;110036-178;110036-178;110036-178;110036-178;110036-178;110036-178;110036-178;110036-178;
10.06.11;Ludumo Sankobe;07:00:00;16:00:00;60;110025-185;110025-185;100540-123;100540-123;100540-123;100540-123;100540-123;100540-123;
10.06.11;Paul Helliwell;07:00:00;16:00:00;60;110018-33;110018-33;110018-33;110025-452;110025-452;110025-452;110025-452;110025-452 / 110018-34;
10.06.11;Ntombenkosi Maldaki;07:00:00;16:00:00;60;110025-0;110025-0;110025-0;110025-0;110025-0;110025-0;110025-0;110025-0;
10.06.11;Mark Britten;07:00:00;16:00:00;60;110036-255;110036-255;110036-255;110036-255;110036-255;110036-255;110018-37;110018-37;
10.06.11;Wesley Saunders;07:00:00;16:00:00;60;110018-39;110018-39;110025-403;110025-403;110025-403;110025-403;110025-403;110025-403;
10.06.11;Francois Sayster;07:00:00;16:00:00;60;110018-40;110018-40 / 110025-371;110025-371;110025-371;110025-371;110025-371;110025-371;110025-371;
10.06.11;Odwa Dyantyi;07:00:00;16:00:00;60;110025-392;110025-392;110025-392;110025-392;110025-392;110025-392;110025-392;110025-392;
10.06.11;Sesetu Mtukulu;
10.06.11;Mario Jansen van Vuuren;07:00:00;16:00:00;60;110036-189;110036-189;110036-189;110036-189;110036-189;110036-189;110036-189;110036-189;
11.06.11;Brendan van Zyl;
11.06.11;Nico Claassen;
11.06.11;Graham Meyer;
11.06.11;Thando Katywa;
11.06.11;Ludumo Sankobe;
11.06.11;Paul Helliwell;
11.06.11;Ntombenkosi Maldaki;
11.06.11;Mark Britten;
11.06.11;Wesley Saunders;
11.06.11;Francois Sayster;
11.06.11;Odwa Dyantyi;
11.06.11;Sesetu Mtukulu;
11.06.11;Mario Jansen van Vuuren;
12.06.11;Brendan van Zyl;
12.06.11;Nico Claassen;
12.06.11;Graham Meyer;
12.06.11;Thando Katywa;
12.06.11;Ludumo Sankobe;07:00:00;16:00:00;60;110025-391;110025-391;110025-391;110025-391;110025-391;110025-391;110025-391;110025-391;
12.06.11;Paul Helliwell;
12.06.11;Ntombenkosi Maldaki;
12.06.11;Mark Britten;
12.06.11;Wesley Saunders;
12.06.11;Francois Sayster;07:00:00;16:00:00;60;
12.06.11;Odwa Dyantyi;
12.06.11;Sesetu Mtukulu;
12.06.11;Mario Jansen van Vuuren;
13.06.11;Brendan van Zyl;07:00:00;16:00:00;60;110036-258;110036-258;110036-258;110036-258;110036-258;110036-258;110036-258;110036-258;
13.06.11;Nico Claassen;07:00:00;16:00:00;60;110025-451;110025-451;110025-450;110025-449;110025-448 / 110025-447;110025-446 / 110025-445;110018-27;110018-27;
13.06.11;Graham Meyer;07:00:00;16:00:00;60;110117-230;110117-230;110117-230;110117-230;110117-230;110117-230;110036-183;110036-183;
13.06.11;Thando Katywa;07:00:00;16:00:00;60;110036-178;110036-178;110036-178;110036-178;110036-178;110036-178;110036-178;110036-178;
13.06.11;Ludumo Sankobe;07:00:00;16:00:00;60;110025-391;110025-391;110025-391;110025-391;110025-391;110025-391;110025-391;110025-391;
13.06.11;Paul Helliwell;07:00:00;16:00:00;60;110025-368;110025-368;110025-368;110025-368;110025-368;110025-368;110025-368;110025-368;
13.06.11;Ntombenkosi Maldaki;07:00:00;16:00:00;60;110025-465;110025-465;110025-465;110025-465;110025-465;110025-465;110025-465;110025-465;
13.06.11;Mark Britten;
13.06.11;Wesley Saunders;07:00:00;16:00:00;60;110025-403;110025-403;110025-403;110025-403;110025-403;110025-403;110025-403;110025-403;
13.06.11;Francois Sayster;07:00:00;16:00:00;60;110025	-371;110025	-371;110025	-371;110025	-371;110025	-371;110025	-371;110025	-371;110025	-371;
13.06.11;Odwa Dyantyi;07:00:00;16:00:00;60;110025-392;110025-392;110025-392;110025-392;110025-392;110025-392;110025-392;110025-392;
13.06.11;Sesetu Mtukulu;
13.06.11;Mario Jansen van Vuuren;07:00:00;14:00:00;60;110036-189;110036-189;110036-189;110036-189;110036-189;110036-189;110023-0;110023-0;
14.06.11;Brendan van Zyl;07:00:00;16:00:00;60;110101-0;110101-0;110101-0;110101-0;110101-0;110101-0;110101-0;110101-0;
14.06.11;Nico Claassen;07:00:00;16:00:00;60;110018-27;110018-27;110018-27;110018-27;110018-27;110018-27;110018-27;110018-27;
14.06.11;Graham Meyer;07:00:00;16:00:00;60;110117-228;110117-228;110117-228;110117-228;110117-228;1100036-183;1100036-183;1100036-183;
14.06.11;Thando Katywa;07:00:00;16:00:00;60;110036-178;110036-178;110036-178;110036-178;110036-178;110036-178;110036-178;110036-178;
14.06.11;Ludumo Sankobe;07:00:00;16:00:00;60;110025-391;110025-391;110025-391;110025-391;110025-391;110025-391;110025-391;110025-391;
14.06.11;Paul Helliwell;07:00:00;16:00:00;60;110025-368;110025-368;110025-368;110025-368;110025-368;110025-368;110025-368;110025-368;
14.06.11;Ntombenkosi Maldaki;07:00:00;16:00:00;60;110025-465;110025-465;110025-465;110025-465;110025-465;110025-465;110025-465;110025-465;
14.06.11;Mark Britten;
14.06.11;Wesley Saunders;07:00:00;16:00:00;60;110025-403;110025-403;110025-403;110025-403;110025-403;110025-403;110025-403;110025-403;
14.06.11;Francois Sayster;07:00:00;16:00:00;60;110023-	0;110023-	0;110023-	0;110023-	0;110023-	0;110023-	0;110023-	0;110023-	0;
14.06.11;Odwa Dyantyi;07:00:00;16:00:00;60;110025-392;110025-392;110025-392;110025-392;110025-392;110025-392;110025-392;110025-392;
14.06.11;Sesetu Mtukulu;
14.06.11;Mario Jansen van Vuuren;07:00:00;16:00:00;60;110036-189;110036-189;110036-189;110036-189;110023-0;110023-0;110023-0;110023-0;
15.06.11;Brendan van Zyl;07:00:00;16:00:00;60;110101-0;110101-0;110101-0;110101-0;110101-0;110101-0;110101-0;110101-0;
15.06.11;Nico Claassen;07:00:00;16:00:00;60;110025-451;110025-451;110025-450;110025-449;110025-448 / 110025-446;110025-445 / 110018-27;110018-27;110018-27 / 110025-447;
15.06.11;Graham Meyer;07:00:00;16:00:00;60;110036-183;110036-183;110036-183;110036-183;110036-183;110036-183;110036-183;110117-228;
15.06.11;Thando Katywa;07:00:00;16:00:00;60;110036-178;110036-178;110036-178;110036-178;110036-178;110036-178;110036-178;110036-178;
15.06.11;Ludumo Sankobe;07:00:00;16:00:00;60;110036-254;110036-254;110036-254;110036-254;110036-254;110036-254;110036-254;110036-254;
15.06.11;Paul Helliwell;07:00:00;16:00:00;60;110025-368;110025-368;110025-368;110025-368;110025-368;110025-368;110025-368;110025-368;
15.06.11;Ntombenkosi Maldaki;07:00:00;16:00:00;60;110025-465;110025-465;110025-465;110025-465;110025-465;110025-465;110025-465;110025-465;
15.06.11;Mark Britten;
15.06.11;Wesley Saunders;07:00:00;16:00:00;60;110025-403;110025-403;110025-403;110025-403;110025-403;110025-403;110025-403;110025-403;
15.06.11;Francois Sayster;07:00:00;16:00:00;60;110023-	0;110023-	0;110023-	0;110023-	0;110023-	0;110023-	0;110023-	0;110023-	0;
15.06.11;Odwa Dyantyi;07:00:00;16:00:00;60;110025-392;110025-392;110025-392;110025-392;110025-392;110025-392;110025-392;110025-392;
15.06.11;Sesetu Mtukulu;
15.06.11;Mario Jansen van Vuuren;07:00:00;16:00:00;60;110023-0;110023-0;110023-0;110023-0;110023-0;110023-0;110023-0;110023-0;
16.06.11;Brendan van Zyl;07:00:00;16:00:00;60;2011-0;2011-0;2011-0;2011-0;2011-0;2011-0;2011-0;2011-0;
16.06.11;Nico Claassen;07:00:00;16:00:00;60;110023-0;110023-0;110023-0;110023-0;110023-0;110023-0;110023-0;110023-0;
16.06.11;Graham Meyer;07:00:00;16:00:00;60;2011-0;2011-0;2011-0;2011-0;2011-0;2011-0;2011-0;2011-0;
16.06.11;Thando Katywa;07:00:00;16:00:00;60;2011-S4;2011-S4;2011-S4;2011-S4;2011-S4;2011-S4;2011-S4;2011-S4;
16.06.11;Ludumo Sankobe;07:00:00;16:00:00;60;110023-0;110023-0;110023-0;110023-0;110023-0;110023-0;110023-0;110023-0;
16.06.11;Paul Helliwell;07:00:00;16:00:00;60;110023-0;110023-0;110023-0;110023-0;110023-0;110023-0;110023-0;110023-0;
16.06.11;Ntombenkosi Maldaki;07:00:00;16:00:00;60;110023-0;110023-0;110023-0;110023-0;110023-0;110023-0;110023-0;110023-0;
16.06.11;Mark Britten;
16.06.11;Wesley Saunders;07:00:00;16:00:00;60;2011-0;2011-0;2011-0;2011-0;2011-0;2011-0;2011-0;2011-0;
16.06.11;Francois Sayster;07:00:00;16:00:00;60;110023-0;110023-0;110023-0;110023-0;110023-0;110023-0;110023-0;110023-0;
16.06.11;Odwa Dyantyi;07:00:00;16:00:00;60;110023-0;110023-0;110023-0;110023-0;110023-0;110023-0;110023-0;110023-0;
16.06.11;Sesetu Mtukulu;
16.06.11;Mario Jansen van Vuuren;07:00:00;16:00:00;60;2011-S4;2011-S4;2011-S4;2011-S4;2011-S4;2011-S4;2011-S4;2011-S4;
17.06.11;Brendan van Zyl;07:00:00;16:00:00;60;110101-0;110101-0;110101-0;110101-0;110101-0;110101-0;110101-0;110101-0 / 110018-24;
17.06.11;Nico Claassen;07:00:00;16:00:00;60;110018-27;110018-27;110018-27;110018-27;110018-27;110018-27;110018-26;110018-26;
17.06.11;Graham Meyer;07:00:00;16:00:00;60;2011-0;2011-0;2011-0;2011-0;2011-0;2011-0;2011-0;2011-0;
17.06.11;Thando Katywa;07:00:00;16:00:00;60;2011-S4;2011-S4;2011-S4;2011-S4;2011-S4;2011-S4;2011-S4;2011-S4;
17.06.11;Ludumo Sankobe;07:00:00;16:00:00;60;110025-391;110025-391;110025-391;110025-391;110025-391;110025-391;110025-391;110025-391;
17.06.11;Paul Helliwell;07:00:00;16:00:00;60;110023-0;110023-0;110023-0;110023-0;110023-0;110023-0;110023-0;110023-0;
17.06.11;Ntombenkosi Maldaki;07:00:00;16:00:00;60;110023-0;110023-0;110023-0;110023-0;110023-0;110023-0;110023-0;110023-0;
17.06.11;Mark Britten;
17.06.11;Wesley Saunders;07:00:00;16:00:00;60;110018-39;110018-39;110025-403;110025-403;110025-403;110025-403;110025-403;110025-403;
17.06.11;Francois Sayster;07:00:00;16:00:00;60;110018-40;110018-40 / 110025-371;110025-371;110025-371;110025-371;110025-371;110025-371;110025-371;
17.06.11;Odwa Dyantyi;07:00:00;16:00:00;60;110025-392;110025-392;110025-392;110025-392;110025-392;110025-392;110025-392;110025-392;
17.06.11;Sesetu Mtukulu;
17.06.11;Mario Jansen van Vuuren;07:00:00;16:00:00;60;2011-S4;2011-S4;2011-S4;2011-S4;2011-S4;2011-S4;2011-S4;2011-S4;
18.06.11;Brendan van Zyl;
18.06.11;Nico Claassen;
18.06.11;Graham Meyer;
18.06.11;Thando Katywa;
18.06.11;Ludumo Sankobe;
18.06.11;Paul Helliwell;
18.06.11;Ntombenkosi Maldaki;
18.06.11;Mark Britten;
18.06.11;Wesley Saunders;
18.06.11;Francois Sayster;07:00:00;16:00:00;60;
18.06.11;Odwa Dyantyi;
18.06.11;Sesetu Mtukulu;
18.06.11;Mario Jansen van Vuuren;
19.06.11;Brendan van Zyl;
19.06.11;Nico Claassen;
19.06.11;Graham Meyer;
19.06.11;Thando Katywa;
19.06.11;Ludumo Sankobe;
19.06.11;Paul Helliwell;
19.06.11;Ntombenkosi Maldaki;
19.06.11;Mark Britten;
19.06.11;Wesley Saunders;
19.06.11;Francois Sayster;
19.06.11;Odwa Dyantyi;
19.06.11;Sesetu Mtukulu;
19.06.11;Mario Jansen van Vuuren;
20.06.11;Brendan van Zyl;07:00:00;16:00:00;60;110036-258;110036-258;110036-258;110036-258;110101-0;110101-0;110101-0;110101-0;
20.06.11;Nico Claassen;07:00:00;16:00:00;60;110025-440;110025-440;110025-426;110025-426;110025-426;110025-426;110025-426;110025-426;
20.06.11;Graham Meyer;07:00:00;16:00:00;60;110117-228;110117-228;110036-183;110036-183;110036-183;110036-183;110036-183;110036-183;
20.06.11;Thando Katywa;07:00:00;16:00:00;60;110036-178;110036-178;110036-178;110036-178;110036-178;110036-178;110036-178;110036-178;
20.06.11;Ludumo Sankobe;07:00:00;16:00:00;60;110025-0;110025-0;110025-0;110025-0;110025-0;110025-0;110025-0;110025-0;
20.06.11;Paul Helliwell;07:00:00;16:00:00;60;110025-368;110025-368;110025-368;110025-368;110025-368;110025-368;110025-368;110025-368;
20.06.11;Ntombenkosi Maldaki;07:00:00;16:00:00;60;110025-0;110025-0;110025-0;110025-0;110025-0;110025-0;110025-0;110025-0;
20.06.11;Mark Britten;
20.06.11;Wesley Saunders;07:00:00;16:00:00;60;110025-403;110025-403;110025-403;110025-403;110025-403;110025-403;110025-403;110025-403;
20.06.11;Francois Sayster;
20.06.11;Odwa Dyantyi;
20.06.11;Sesetu Mtukulu;
20.06.11;Mario Jansen van Vuuren;07:00:00;16:00:00;60;110117-220;110117-220;110117-220;110117-220;110117-220;110117-220;110117-220;110117-220;
21.06.11;Brendan van Zyl;07:00:00;16:00:00;60;110036-258;110036-258;110036-258;110036-258;110101-0;110101-0;110101-0;110101-0;
21.06.11;Nico Claassen;07:00:00;16:00:00;60;110025-434;110025-434;110025-433;110025-433;110025-432;110025-432 / 110025-441;110025-441;110025-441;
21.06.11;Graham Meyer;07:00:00;16:00:00;60;110117-229;110036-183;110036-183;110036-183;110036-183;110036-183;110036-183;110036-183;
21.06.11;Thando Katywa;07:00:00;16:00:00;60;110036-178;110036-178;110036-178;110036-178;110036-178;110036-178;110036-178;110036-178;
21.06.11;Ludumo Sankobe;07:00:00;16:00:00;60;110025-0;110025-0;110025-0;110025-0;110025-0;110025-0;110025-0;110025-0;
21.06.11;Paul Helliwell;07:00:00;16:00:00;60;110025-368;110025-368;110025-368;110025-368;110025-368;110025-368;110025-368;110025-368;
21.06.11;Ntombenkosi Maldaki;07:00:00;16:00:00;60;110025-0;110025-0;110025-0;110025-0;110025-0;110025-0;110025-0;110025-0;
21.06.11;Mark Britten;
21.06.11;Wesley Saunders;07:00:00;16:00:00;60;110023-0;110023-0;110023-0;110023-0;110023-0;110023-0;110023-0;110023-0;
21.06.11;Francois Sayster;
21.06.11;Odwa Dyantyi;
21.06.11;Sesetu Mtukulu;
21.06.11;Mario Jansen van Vuuren;07:00:00;16:00:00;60;110117-220;110117-220;110117-220;110117-220;110117-220;110117-220;110117-220;110117-245;
22.06.11;Brendan van Zyl;07:00:00;16:00:00;60;100540-0;100540-0;100540-0;100540-0;100540-0;100540-0;100540-0;100540-0;
22.06.11;Nico Claassen;07:00:00;16:00:00;60;110025-445;110025-445;110025-447;110025-436;110025-436;110025-435;110025-435;110018-27;
22.06.11;Graham Meyer;07:00:00;16:00:00;60;110036-183;110036-183;110036-183;110036-183;110036-183;110036-183;110036-183;110036-183;
22.06.11;Thando Katywa;07:00:00;16:00:00;60;110036-178;110036-178;110036-178;110036-178;110036-178;110036-178;110036-178;110036-178;
22.06.11;Ludumo Sankobe;07:00:00;16:00:00;60;110025-0;110025-0;110025-0;110025-0;110025-0;110025-0;110025-0;110025-0;
22.06.11;Paul Helliwell;07:00:00;16:00:00;60;110025-368;110025-368;110025-368;110025-368;110025-368;110025-368;110025-368;110025-368;
22.06.11;Ntombenkosi Maldaki;07:00:00;16:00:00;60;110025-0;110025-0;110025-0;110025-0;110025-0;110025-0;110025-0;110025-0;
22.06.11;Mark Britten;
22.06.11;Wesley Saunders;07:00:00;16:00:00;60;110036-257;110036-257;110036-257;110025-403;110025-403;110025-403;110025-403;110025-403;
22.06.11;Francois Sayster;
22.06.11;Odwa Dyantyi;
22.06.11;Sesetu Mtukulu;
22.06.11;Mario Jansen van Vuuren;07:00:00;16:00:00;60;110117-220;110117-220;110117-220;110117-220;110117-220;110117-220;110117-220;110117-220;
23.06.11;Brendan van Zyl;07:00:00;16:00:00;60;100540-0;100540-0;100540-0;100540-0;100540-0;100540-0;100540-0;100540-0;
23.06.11;Nico Claassen;07:00:00;16:00:00;60;110025-434;110025-434;110025-438;110025-438;110025-438;110025-438;110025-437;110025-437;
23.06.11;Graham Meyer;07:00:00;16:00:00;60;110036-183;110036-183;110036-183;110036-183;110036-183;110023-0;110023-0;110023-0;
23.06.11;Thando Katywa;07:00:00;16:00:00;60;110036-178;110036-178;110036-178;110036-178;110036-178;110036-178;110036-178;110036-178;
23.06.11;Ludumo Sankobe;07:00:00;16:00:00;60;110025-0;110025-0;110025-0;110025-0;110025-0;110025-0;110025-0;110025-0;
23.06.11;Paul Helliwell;07:00:00;16:00:00;60;110025-368;110025-368;110025-368;110025-368;110025-368;110025-368;110025-368;110025-368;
23.06.11;Ntombenkosi Maldaki;07:00:00;16:00:00;60;110025-0;110025-0;110025-0;110025-0;110025-0;110025-0;110025-0;110025-0;
23.06.11;Mark Britten;
23.06.11;Wesley Saunders;07:00:00;16:00:00;60;110036-257;110036-257;110036-257;110036-257;110036-257;110025-403;110025-403;110025-403;
23.06.11;Francois Sayster;
23.06.11;Odwa Dyantyi;
23.06.11;Sesetu Mtukulu;
23.06.11;Mario Jansen van Vuuren;07:00:00;16:00:00;60;110117-220;110117-220;110117-220;110036-189;110036-189;110036-189;110036-189;110036-189;
24.06.11;Brendan van Zyl;07:00:00;16:00:00;60;110018-24 / 100540-0;100540-0;100540-0;100540-0;100540-0 / 110101-0;110101-0;110101-0;110101-0;
24.06.11;Nico Claassen;07:00:00;16:00:00;60;110018-27;110018-27;110018-27;110018-27;110018-27;110018-27;110018-26;110018-26;
24.06.11;Graham Meyer;07:00:00;16:00:00;60;110036-183;110036-183;110036-183;110036-183;110036-183;110036-183;110036-183;110036-183;
24.06.11;Thando Katywa;07:00:00;16:00:00;60;110036-178;110036-178;110036-178;110036-178;110036-178;110036-178;110036-178;110036-178;
24.06.11;Ludumo Sankobe;07:00:00;16:00:00;60;110025-0;110025-0;110025-0;110025-0;110025-0;110025-0;110025-0;110025-0;
24.06.11;Paul Helliwell;07:00:00;16:00:00;60;110025-368;110025-368;110025-368;110025-368;110025-368;110025-368;110025-368;110025-368;
24.06.11;Ntombenkosi Maldaki;07:00:00;16:00:00;60;110018-35;110025-0;110025-0;110025-0;110025-0;110025-0;110025-0;110025-0;
24.06.11;Mark Britten;
24.06.11;Wesley Saunders;07:00:00;16:00:00;60;110036-257;110036-257;110036-257;110036-257;110036-257;110036-257;110036-257;110036-257;
24.06.11;Francois Sayster;
24.06.11;Odwa Dyantyi;
24.06.11;Sesetu Mtukulu;
24.06.11;Mario Jansen van Vuuren;07:00:00;16:00:00;60;110117-238;110117-238;110117-238;110117-238;110117-238;110117-238;110117-238;110117-238;
25.06.11;Brendan van Zyl;
25.06.11;Nico Claassen;
25.06.11;Graham Meyer;
25.06.11;Thando Katywa;
25.06.11;Ludumo Sankobe;
25.06.11;Paul Helliwell;
25.06.11;Ntombenkosi Maldaki;
25.06.11;Mark Britten;
25.06.11;Wesley Saunders;
25.06.11;Francois Sayster;
25.06.11;Odwa Dyantyi;
25.06.11;Sesetu Mtukulu;
25.06.11;Mario Jansen van Vuuren;
26.06.11;Brendan van Zyl;
26.06.11;Nico Claassen;
26.06.11;Graham Meyer;
26.06.11;Thando Katywa;
26.06.11;Ludumo Sankobe;
26.06.11;Paul Helliwell;
26.06.11;Ntombenkosi Maldaki;
26.06.11;Mark Britten;
26.06.11;Wesley Saunders;
26.06.11;Francois Sayster;
26.06.11;Odwa Dyantyi;
26.06.11;Sesetu Mtukulu;
26.06.11;Mario Jansen van Vuuren;
27.06.11;Brendan van Zyl;07:00:00;16:00:00;60;100540-0;100540-0;100540-0;100540-0;100540-0;100540-0;100540-0;100540-0;
27.06.11;Nico Claassen;07:00:00;16:00:00;60;110018-27;110018-27;110025-442;110025-442;110025-448;110025-448;110025-448;110025-448;
27.06.11;Graham Meyer;07:00:00;16:00:00;60;110036-183;110036-183;110036-183;110036-183;110036-183;110036-183;110036-183;110036-183;
27.06.11;Thando Katywa;07:00:00;16:00:00;60;110036-178;110036-178;110036-178;110036-178;110036-178;110036-178;110036-178;110036-178;
27.06.11;Ludumo Sankobe;07:00:00;16:00:00;60;110025-472;110025-472;110025-472;110025-472;110025-472;110025-472;110025-472;110025-472;
27.06.11;Paul Helliwell;07:00:00;16:00:00;60;110025-368;110025-368;110025-368;110025-368;110025-368;110025-368;110025-368;110025-368;
27.06.11;Ntombenkosi Maldaki;07:00:00;16:00:00;60;110025-383;110025-383;110025-383;110025-383;110025-383;110025-383;110025-383;110025-383;
27.06.11;Mark Britten;
27.06.11;Wesley Saunders;07:00:00;16:00:00;60;110036-257;110036-257;110036-257;110036-257;110036-257;110036-257;110036-257;110036-257;
27.06.11;Francois Sayster;
27.06.11;Odwa Dyantyi;
27.06.11;Sesetu Mtukulu;
27.06.11;Mario Jansen van Vuuren;07:00:00;16:00:00;60;110117-238;110117-238;110117-238;110036-189;110036-189;110036-189;110036-189;110036-189;
28.06.11;Brendan van Zyl;07:00:00;16:00:00;60;110036-258;110036-258;110101-0;110101-0;110101-0;100540-0;100540-0;100540-0;
28.06.11;Nico Claassen;07:00:00;16:00:00;60;110018-28;110018-28;110025-444;110025-444;110025-443;110025-443;110025-443;110025-443;
28.06.11;Graham Meyer;07:00:00;16:00:00;60;110036-183;110036-183;110036-183;110036-183;110036-183;110036-183;110036-183;110036-183;
28.06.11;Thando Katywa;07:00:00;16:00:00;60;110036-178;110036-178;110036-178;110036-178;110036-178;110036-178;110036-178;110036-178;
28.06.11;Ludumo Sankobe;07:00:00;16:00:00;60;110025-391;110025-391;110025-391;110025-391;110025-391;110025-391;110025-391;110025-391;
28.06.11;Paul Helliwell;07:00:00;16:00:00;60;110025-368;110025-368;110025-368;110025-368;110025-368;110025-368;110025-368;110025-368;
28.06.11;Ntombenkosi Maldaki;07:00:00;16:00:00;60;110025-383;110025-383;110025-383;110025-383;110025-383;110025-383;110025-383;110025-383;
28.06.11;Mark Britten;
28.06.11;Wesley Saunders;07:00:00;16:00:00;60;110036-257;110036-257;110036-257;110036-257;110036-257;110036-257;110036-257;110036-257;
28.06.11;Francois Sayster;
28.06.11;Odwa Dyantyi;
28.06.11;Sesetu Mtukulu;
28.06.11;Mario Jansen van Vuuren;07:00:00;16:00:00;60;110117-220;110117-220;110117-220;110117-220;110117-220;110117-220;110117-220;110117-220;
29.06.11;Brendan van Zyl;07:00:00;16:00:00;60;110018-24;110036-258;110036-258;110101-0;100540-0;100540-0;100540-0;100540-0;
29.06.11;Nico Claassen;07:00:00;16:00:00;60;110025-429;110025-429;110025-429;110025-429;110025-430;110025-430;110025-430;110025-430;
29.06.11;Graham Meyer;07:00:00;16:00:00;60;110036-183;110036-183;110036-183;110036-183;110036-183;110036-183;110036-183;110036-183;
29.06.11;Thando Katywa;07:00:00;16:00:00;60;110117-268;110117-268;110117-271;110117-271;110117-271;110117-271;110117-206;110117-206;
29.06.11;Ludumo Sankobe;07:00:00;16:00:00;60;110025-472;110025-472;110025-472;110025-472;110025-472;110025-472;110025-472;110025-472;
29.06.11;Paul Helliwell;07:00:00;16:00:00;60;110025-368;110025-368;110025-368;110025-368;110025-368;110025-368;110025-368;110025-368;
29.06.11;Ntombenkosi Maldaki;07:00:00;16:00:00;60;110025-465;110025-465;110025-465;110025-465;110025-465;110025-465;110025-465;110025-465;
29.06.11;Mark Britten;
29.06.11;Wesley Saunders;07:00:00;16:00:00;60;110036-257;110036-257;110036-257;110036-257;110036-257;110036-257;110036-257;110036-257;
29.06.11;Francois Sayster;
29.06.11;Odwa Dyantyi;
29.06.11;Sesetu Mtukulu;
29.06.11;Mario Jansen van Vuuren;07:00:00;16:00:00;60;110117-220;110117-220;110117-220;110117-220;110117-220;110117-220;110117-220;110117-220;
30.06.11;Brendan van Zyl;07:00:00;16:00:00;60;110036-258;110036-258;110036-258;110036-258;110036-258;110036-258;110036-258;110036-258;
30.06.11;Nico Claassen;07:00:00;16:00:00;60;110025-431;110025-431;110025-431;110025-431;110025-431;110025-431;110025-431;110025-431;
30.06.11;Graham Meyer;07:00:00;16:00:00;60;110036-183;110036-183;110036-183;110036-183;110036-183;110036-183;110036-183;110036-183;
30.06.11;Thando Katywa;07:00:00;16:00:00;60;110117-206;110117-206;110117-206 / 110117-205;110117-205;110117-205;110117-205 / 110117-207;110117-207;110117-207;
30.06.11;Ludumo Sankobe;07:00:00;16:00:00;60;110025-472;110025-472;110025-472;110025-472;110025-472;110025-472;110025-472;110025-472;
30.06.11;Paul Helliwell;07:00:00;16:00:00;60;110025-368;110025-368;110025-368;110025-368;110025-368;110025-368;110025-368;110025-368;
30.06.11;Ntombenkosi Maldaki;07:00:00;16:00:00;60;110025-465;110025-465;110025-465;110025-465;110025-465;110025-465;110025-465;110025-465;
30.06.11;Mark Britten;
30.06.11;Wesley Saunders;07:00:00;16:00:00;60;110025-403;110025-403;110025-403;110025-403;110025-403;110025-403;110025-403;110025-403;
30.06.11;Francois Sayster;
30.06.11;Odwa Dyantyi;07:00:00;16:00:00;60;
30.06.11;Sesetu Mtukulu;
30.06.11;Mario Jansen van Vuuren;07:00:00;16:00:00;60;110117-235;110117-235;110117-235;110117-235;110117-235;110117-235;110117-235;110117-235;