"28.02.11","1","100334","1030","140","Test","","100","5003: Alt-Br: Airbag: Verriegeln: Moduletest + bug-fixing. Booked on task of s46, task closed, task not completed originally: testing + bug-fixing","07:00","16:00","3","60",
"28.02.11","1","100334","912","102","Spez: LH/PH/Design","","0","3005: Alt-Br: Motronic: CO-Einstellung: PH. Booked on task of s53, PH creation.","","","5","0",
"01.03.11","2","100334","912","102","Spez: LH/PH/Design","","100","3005: Alt-Br: Motronic: CO-Einstellung: PH. Booked on task of s53, PH creation.","07:00","16:00","4","60",
"01.03.11","2","100334","915","120","Codierung","","100","3005: Alt-Br: Motronic: CO-Einstellung: Implementierung. Booked on task of s47, task already closed, updated impl after ODX for CO-Einstellung created.","","","3","0",
"01.03.11","2","100334","916","140","Test","","0","3005: Alt-Br: Motronic: CO-Einstellung: Modul test + bug-fixing. Booked on task of s53, testing vs simulation","","","1","0",
"02.03.11","3","100334","912","102","Spez: LH/PH/Design","","100","3005: Alt-Br: Motronic: CO-Einstellung: PH. Booked on task of s53, PH document updates after review","07:00","16:00","1,5","60",
"02.03.11","3","100334","916","140","Test","","100","3005: Alt-Br: Motronic: CO-Einstellung: Modul test + bug-fixing. Booked on task of s53, bug-fixing and testing","","","3,5","0",
"02.03.11","3","100334","984","104","Test-Spezifikation","","0","4004: Alt-Br: ABS5: Systempruefung: Testspec + erw. Sim. Booked on task of sd, fixes to testspec after review.","","","3","0",
"03.03.11","4","110018","24","101","PM/Mod/Meetings","","0","Wochenaufgaben AES. Staff meeting","07:00","16:00","0,25","60",
"03.03.11","4","100334","984","104","Test-Spezifikation","","100","4004: Alt-Br: ABS5: Systempruefung: Testspec + erw. Sim. Booked on task of sd, fixes to testspec after review.","","","4","0",
"03.03.11","4","100334","1111","140","Test","","0","6022: Alt-Br: Heizung: Stellglieder: Module test + bug-fixing. Booked on task of dk, task already closed, task not completed properly: CTS Testing + fixing.","","","3,75","0",
"04.03.11","5","110018","24","101","PM/Mod/Meetings","","0","Wochenaufgaben AES. Weekly timesheet report, department meeting.","07:00","16:00","1,5","60",
"04.03.11","5","100334","1111","140","Test","","100","6022: Alt-Br: Heizung: Stellglieder: Module test + bug-fixing. Booked on task of dk, task already closed, task not completed properly: CTS Testing + fixing.","","","6,5","0",
