"27.06.11","1","110018","27","101","PM/Mod/Meetings","","0","S4 Technical Support / Troubleshoot. Supporting colleagues","07:00","16:00","2","60",
"27.06.11","1","110025","442","170","Schulung","","100","P.Office: Statistics. Training","","","2","0",
"27.06.11","1","110025","448","170","Schulung","","100","Production: Basic Diagnostic. Training","","","4","0",
"28.06.11","2","110018","28","101","PM/Mod/Meetings","","0","S4 Administrative Tasks. Meetings","07:00","16:00","2","60",
"28.06.11","2","110025","444","170","Schulung","","100","P.Office: Release Monitor. Training","","","2","0",
"28.06.11","2","110025","443","170","Schulung","","100","P.Office: Sequences (including practical work). Training","","","4","0",
"29.06.11","3","110025","429","170","Schulung","","100","P.Automation: MSL Building Blocks. Training","07:00","16:00","4","60",
"29.06.11","3","110025","430","170","Schulung","","100","P.Automation: statistics. Training","","","4","0",
"30.06.11","4","110025","431","170","Schulung","","100","P.Automation: CTS's, Scripts, Building Blocks. Training","07:00","16:00","8","60",
"01.07.11","5","110018","26","101","PM/Mod/Meetings","","0","Wochenaufgaben AES. Timesheets + daily meetings","07:00","16:00","2","60",
"01.07.11","5","110018","27","101","PM/Mod/Meetings","","0","S4 Technical Support / Troubleshoot. Supporting colleagues","","","4","0",
"01.07.11","5","110025","427","170","Schulung","","100","P.Automation: Inst., Config.. Training","","","2","0",
