"18.07.11","1","110025","0","170","Schulung","","0","SWE: PTTD Extensions: get into subject. installation and getting into subject","07:00","16:00","8","60",
"19.07.11","2","110025","0","170","Schulung","","0","SWE: PTTD Extensions: get into subject. installation, workspace setup and getting into subject","07:00","16:00","8","60",
"20.07.11","3","110018","24","101","PM/Mod/Meetings","","0","Wochenaufgaben AES. SWE department meeting","07:00","16:00","1","60",
"20.07.11","3","110025","0","170","Schulung","","0","SWE: PTTD Extensions: get into subject. installation, workspace setup and getting into subject","","","7","0",
"21.07.11","4","110025","0","170","Schulung","","0","SWE: PTTD Extensions: get into subject. Workspace and database setup, bug-fix to get into subject","07:00","16:00","8","60",
"22.07.11","5","110018","24","101","PM/Mod/Meetings","","0","Wochenaufgaben AES. Weekly timesheet report.","07:00","16:00","0,5","60",
"22.07.11","5","110036","258","170","Schulung","","100","Production: get into subject, practice in production. Closure of task","","","0","0",
"22.07.11","5","110025","0","170","Schulung","","0","SWE: PTTD Extensions: get into subject. installation, workspace setup and getting into subject","","","7,5","0",
