"12.12.11","1","110618","83","181","Fehlerbes. vor Ausl. (Bugzilla)","","0","ESG/FiskerAS: VCM-KEY: Bugfixing after testing C3.6/pa10. Reworking VCM Key CTS from s58","07:00","16:00","8","60",
"13.12.11","2","110618","83","181","Fehlerbes. vor Ausl. (Bugzilla)","","0","ESG/FiskerAS: VCM-KEY: Bugfixing after testing C3.6/pa10. Reworking VCM Key CTS from s58","07:00","16:00","8","60",
"14.12.11","3","110618","83","181","Fehlerbes. vor Ausl. (Bugzilla)","","0","ESG/FiskerAS: VCM-KEY: Bugfixing after testing C3.6/pa10. Reworking VCM Key CTS from s58","07:00","16:00","8","60",
"15.12.11","4","110018","32","101","PM/Mod/Meetings","","0","Wochenaufgaben AES. Department Meeting and Doing Timesheets","07:00","16:00","2,5","60",
"15.12.11","4","110618","83","181","Fehlerbes. vor Ausl. (Bugzilla)","","0","ESG/FiskerAS: VCM-KEY: Bugfixing after testing C3.6/pa10. Reworking VCM Key CTS from s58","","","5,5","0",
"16.12.11","5","110023","0","910","Urlaub","","0","Holiday. Public Holiday","07:00","16:00","8","60",
