"11.04.11","1","110101","87","120","Codierung","","100","1014: OBD ScanTool: Mode3,4,7&A: Transfer CTS E4.1/pa11. OBD error memory: Manual take-over of PIDT OBD sequence for Ferrari DEIS.","07:00","16:00","6","60",
"11.04.11","1","110101","90","120","Codierung","","0","1015: OBD ScanTool: Mode5&6: Transfer CTS E6.1/pa11. OBD Monitoring:Manual take-over of PIDT OBD sequence for Ferrari DEIS.","","","2","0",
"12.04.11","2","110101","90","120","Codierung","","0","1015: OBD ScanTool: Mode5&6: Transfer CTS E6.1/pa11. OBD Monitoring:Manual take-over of PIDT OBD sequence for Ferrari DEIS.","07:00","16:00","8","60",
"13.04.11","3","110101","90","120","Codierung","","100","1015: OBD ScanTool: Mode5&6: Transfer CTS E6.1/pa11. OBD Monitoring + ECU overview:Manual take-over of PIDT OBD sequence for Ferrari DEIS.","07:00","16:00","4","60",
"13.04.11","3","110101","94","120","Codierung","","0","1016: OBD ScanTool: Mode9: Transfer CTS E7.1/pa11. OBD ECU Overview + Diag Overview: Manual take-over of PIDT OBD sequence for Ferrari DEIS.","","","4","0",
"14.04.11","4","110101","94","120","Codierung","","100","1016: OBD ScanTool: Mode9: Transfer CTS E7.1/pa11. OBD ECU Overview + Diag Overview: Manual take-over of PIDT OBD sequence for Ferrari DEIS.","07:00","16:00","4","60",
"14.04.11","4","110101","92","120","Codierung","","0","1015: OBD ScanTool: Mode5&6: Adopt CTS to Support Mode5 E6.3/pa11. OBD Monitoring:Manual take-over of PIDT OBD sequence for Ferrari DEIS.","","","4","0",
"15.04.11","5","110018","24","101","PM/Mod/Meetings","","0","Wochenaufgaben AES. Weekly timesheet report, department meeting.","07:00","16:00","1","60",
"15.04.11","5","110101","92","120","Codierung","","0","1015: OBD ScanTool: Mode5&6: Adopt CTS to Support Mode5 E6.3/pa11. Adopt CTS to support mode 5","","","3,5","0",
"15.04.11","5","110101","73","120","Codierung","","0","1010: OBD ScanTool: ODX data: Extend ODX Intregr. E1.1/pa11. Extend ODX data to support OBD sequence requirements.","","","3,5","0",
