"09.05.11","1","110117","158","120","Codierung","","100","CR109da2 Xml-Schema Impl. (from s43). Completed the Implementation of the Xml-Schema","08:00","16:30","8","30",
"10.05.11","2","110117","125","120","Codierung","","0","1002: Seq.: (CRO33hz2): Step Delay: Impl. (from s43). Created CTS and Screen for the Delay step","08:00","16:30","0","30",
"11.05.11","3","110117","125","120","Codierung","","0","1002: Seq.: (CRO33hz2): Step Delay: Impl. (from s43). worked on creating CTS and Screen for the Delay step","08:00","16:30","8","30",
"12.05.11","4","110117","118","120","Codierung","","0","CR109da2 Xml-Schema Impl. (from s43). Created JUnit tests for XmlBean wrappers","08:00","16:30","8","30",
"13.05.11","5","110117","158","120","Codierung","","0","CR109da2 Xml-Schema Impl. (from s43). Adjusting CT's that use the old Action plugin to use the new one","08:00","16:30","8","30",
