"17.01.11","1","100334","940","120","Codierung","","50","3010:Alt-BR:Motronic:Stellglieder: Implementierung. gesic Stellglieder implementation","07:00","16:00","8","60",
"18.01.11","2","100334","940","120","Codierung","","50","3010:Alt-BR:Motronic:Stellglieder: Implementierung. gesic Stellglieder implementation","07:00","16:00","8","60",
"19.01.11","3","100334","940","120","Codierung","","70","3010:Alt-BR:Motronic:Stellglieder: Implementierung. gesic Stellglieder implementation","07:00","16:00","8","60",
"20.01.11","4","100334","940","120","Codierung","","70","3010:Alt-BR:Motronic:Stellglieder: Implementierung. gesic Stellglieder implementation","07:00","16:00","8","60",
"21.01.11","5","100334","940","120","Codierung","","90","3010:Alt-BR:Motronic:Stellglieder: Implementierung. gesic Stellglieder implementation","07:00","16:00","8","60",
