"24.01.11","1","100334","891","120","Codierung","","60","3001: Alt-BR: Motronic: ODX PTTD Attr. Completed vtext assignment eviroment data and DTC","07:00","16:00","4","60",
"24.01.11","1","100334","891","120","Codierung","","70","3001: Alt-BR: Motronic: ODX PTTD Attr. Tested PTTD in PIDT","","","4","0",
"25.01.11","2","100334","891","120","Codierung","","70","3001: Alt-BR: Motronic: ODX PTTD Attr. Testing PTTD in PIDT","07:00","16:00","5","60",
"25.01.11","2","100023","0","910","Urlaub","","0","Holiday. Time-off","","","3","0",
"26.01.11","3","100334","895","181","Fehlerbes. vor Ausl. (Bugzilla)","","55","3001: Alt-BR: Motronic: ODX Bugfixing. Changed sid for active actuators and implemented Active_Actuator_SubVariant service.","07:00","16:00","4","60",
"26.01.11","3","100334","895","181","Fehlerbes. vor Ausl. (Bugzilla)","","65","3001: Alt-BR: Motronic: ODX Bugfixing. Changed the SID again for active actuator and tested","","","4","0",
"27.01.11","4","100334","895","181","Fehlerbes. vor Ausl. (Bugzilla)","","75","3001: Alt-BR: Motronic: ODX Bugfixing. Made changes to the actuator SID for DME","07:00","16:00","3","60",
"27.01.11","4","100334","895","181","Fehlerbes. vor Ausl. (Bugzilla)","","50","3001: Alt-BR: Motronic: ODX Bugfixing. Attempted to fix odx measurement value so that it displays in v-mode","","","4","0",
"28.01.11","5","100334","895","181","Fehlerbes. vor Ausl. (Bugzilla)","","75","3001: Alt-BR: Motronic: ODX Bugfixing. Attempted to fix odx measurement value to that it displays in v-mode","07:00","16:00","8","60",
