"26.12.11","1","110023","0","910","Urlaub","","0","Urlaub. Public Holiday","07:00","16:00","8","60",
"27.12.11","2","110023","0","910","Urlaub","","0","Urlaub. Public Holiday","07:00","16:00","8","60",
"28.12.11","3","110023","0","910","Urlaub","","0","Urlaub. Public Holiday","07:00","16:00","8","60",
"29.12.11","4","110023","0","910","Urlaub","","0","Urlaub. Holiday","07:00","16:00","8","60",
"30.12.11","5","110023","0","910","Urlaub","","0","Urlaub. Holiday","07:00","16:00","8","60",
