"29.08.11","1","110118","0","140","Test","","0","MCD 3.0: Implementierung. Ran some performance tests","07:00","16:00","2","60",
"29.08.11","1","110118","4","120","Codierung","","0","MCD 3.0: Implementierung. Investigated bug","","","6","0",
"30.08.11","2","110118","4","120","Codierung","","0","MCD 3.0: Implementierung. Created a working PIDT 11.1 that uses Kernel 3.0","07:00","16:00","8","60",
"31.08.11","3","110118","0","120","Codierung","","0","MCD 3.0: Implementierung. Investigated bug regarding ''Action <getResponseMessage> not allowed in job context.''","07:00","16:00","6,5","60",
"31.08.11","3","110118","0","201","PM/Mod/Meetings","","0","Meeting. Meeting","","","1","0",
"31.08.11","3","110118","0","120","Codierung","","0","Made requested changes. Reverted change made and created bug report","","","0,5","0",
"01.09.11","4","110118","0","120","Codierung","","0","MCD 3.0: Implementierung. Set up tool for investigating Kernel 3.0 speed and memory issues","07:00","16:00","8","60",
"02.09.11","5","110118","0","140","Test","","0","Investigate the spread of time it takes for FAP to execute with kernel 3. Use JProfilier to determine how much time is spent executing convenience methods","07:00","16:00","8","60",
