"26.09.11","1","09.00790","2788","140","Test","","100","2340: P.Autom: R5: P.Lib F5-16/19: VCI Buslogging Test. test VCI Buslogging testcases","07:00","16:00","2","60",
"26.09.11","1","09.00790","2787","120","Codierung","","100","2340: P.Autom: R5: P.Lib F5-16/19: VCI Buslogging Test. closing task","","","0","0",
"26.09.11","1","110025","383","170","Schulung","","0","Training: P.Automation. Training building blocks","","","6","0",
"27.09.11","2","110025","383","170","Schulung","","0","Training: P.Automation. Training building blocks, cts","07:00","16:00","8","60",
"28.09.11","3","110025","383","170","Schulung","","0","Training: P.Automation. Training building blocks, cts, scripts","07:00","16:00","8","60",
"29.09.11","4","110025","465","170","Schulung","","0","Training: P.Authoring / P.Office / P.Server. Training writing test P.Office sequences","07:00","16:00","8","60",
"30.09.11","5","110018","35","101","PM/Mod/Meetings","","0","Wochenaufgaben AES. Meetings and updating timesheets","07:00","16:00","2","60",
"30.09.11","5","110025","465","170","Schulung","","0","Training: P.Authoring / P.Office / P.Server. Training writing test P.Office sequences","","","6","0",
