"12.09.11","1","110036","387","170","Schulung","","0","Authoring Repository UI: bug 30777. Bug 30777","07:00","16:00","8","60",
"13.09.11","2","110036","387","170","Schulung","","0","Authoring.ODX: Bug 30777, 30110 /f2-anlrn. Bug fixing 30777, 30110","07:00","16:00","8","60",
"14.09.11","3","110036","387","170","Schulung","","100","Authoring UI: bug 30110, 29699. Bug 30110, 29699","07:00","16:00","8","60",
"15.09.11","4","110036","388","170","Schulung","","0","Authoring.ODX: Bugs 30110, 29699, 29892. Bugs 30110, 29699, 29892","07:00","16:00","8","60",
"16.09.11","5","110022","307","101","PM/Mod/Meetings","","0","Wochenaufgaben SDR 2011. Weekly timesheet report","07:00","16:00","0,5","60",
"16.09.11","5","110036","388","170","Schulung","","0","	Authoring.ODX: Bugs 30110, 29699, 29892. Bugs 30110, 29699, 29892","","","7,5","0",
