"02.05.11","1","110036","91","170","Schulung","","0","allg. Einarbeitung. Worked on Bug number 29682","08:00","16:30","8","30",
"03.05.11","2","110036","91","170","Schulung","","0","allg. Einarbeitung. Worked on Bug number 29682","08:00","16:30","8","30",
"04.05.11","3","110036","91","170","Schulung","","0","allg. Einarbeitung. Worked on XmlBeans, interfaces and implementations for Steps Automatic Action Sequencing","08:00","16:30","8","30",
"05.05.11","4","10036","91","170","Schulung","","0","allg. Einarbeitung. Worked on XmlBeans, interfaces and implementations for Steps Automatic Action Sequencing","08:00","16:30","8","30",
"06.05.11","5","10036","91","170","Schulung","","0","allg. Einarbeitung. Worked on XmlBeans, interfaces and implementations for Steps Automatic Action Sequencing","08:00","16:30","8","30",
