"14.11.11","1","110292","0","120","Codierung","","100","Worked on CR140da6: Optimize SG-Search from data collected by FAP.. Worked on CR140da6: Optimize SG-Search from data collected by FAP.","07:00","16:00","3","60",
"14.11.11","1","110292","194","120","Codierung","","100","1011: Anzeige Sequenzergebnis: Aktualisierung XML Schema (CR136my4). 1011: Anzeige Sequenzergebnis: Aktualisierung XML Schema (CR136my4)","","","5","0",
"15.11.11","2","110292","124","281","Fehlerbes. vor Auslieferung","","0","1001: Seq.: Bugfixing (CR130mp1) F3.2pa10. 1001: Seq.: Bugfixing (CR130mp1) F3.2pa10","07:00","16:00","3","60",
"15.11.11","2","110292","0","170","Schulung","","0","1007: DatentransferLoggingFAP: Getting into Subject. 1007: DatentransferLoggingFAP: Getting into Subject","","","5","0",
"16.11.11","3","110292","0","170","Schulung","","0","1007: DatentransferLoggingFAP: Getting into Subject. 1007: DatentransferLoggingFAP: Getting into Subject","07:00","16:00","7,5","60",
"16.11.11","3","110292","213","101","PM/Mod/Meetings","","0","8501: weekly tel. conference A1.5/pa10. 8501: weekly tel. conference A1.5/pa10","","","0,5","0",
"17.11.11","4","110023","0","910","Urlaub","","0","Holiday. Time-Off","07:00","16:00","8","60",
"18.11.11","5","110023","0","910","Urlaub","","0","Holiday. Time-Off","07:00","16:00","8","60",
