"17.10.11","1","110036","409","170","Schulung","","100","Einarbeitung Scripting Object und Editoren. Fisker authoring training","09:00","17:00","3","30",
"17.10.11","1","110036","410","170","Schulung","","0","Einarbeitung UI Concepts und Grundlagen Navigation. Fisker authoring training","","","4,5","0",
"18.10.11","2","110036","410","170","Schulung","","100","Einarbeitung UI Concepts und Grundlagen Navigation. Fisker authoring training","09:00","17:00","4","30",
"18.10.11","2","110018","48","120","Codierung","","0","FISKER: LIVE-DATA: Impl. B6.2/pa10. live data cts implementation, from s41","","","3,5","0",
"19.10.11","3","110018","48","120","Codierung","","0","FISKER: LIVE-DATA: Impl. B6.2/pa10. live data cts implementation, from s41","09:00","17:00","7,5","30",
"20.10.11","4","110018","36","120","Codierung","","0","FISKER: RECV-AS-BUILT: Impl.  B4.2/pa10. implementing as built bb, from kl","09:00","17:00","5,5","30",
"20.10.11","4","110018","48","120","Codierung","","0","FISKER: LIVE-DATA: Impl. B6.2/pa10. live data cts implementation, from s41","","","2","0",
"21.10.11","5","110018","35","101","PM/Mod/Meetings","","0","Wochenaufgaben AES. Updating timesheets","09:00","17:00","1,5","30",
"21.10.11","5","110018","36","120","Codierung","","0","FISKER: RECV-AS-BUILT: Impl.  B4.2/pa10. implementing as built bb, from kl","","","6","0",
