"06.06.11","1","110117","221","120","Codierung","","100","1002: Seq.: (CR033hz2): Hauptmodul: Ergebnis-Screen: Impl.. Implementing user selection screen","07:00","16:00","8","60",
"07.06.11","2","110117","224","120","Codierung","","100","1002: Seq.: (CR033hz2): Regelflashen: autom. Programmierung: Impl.. Adapting Flasing CTS","07:00","16:00","8","60",
"08.06.11","3","110117","222","120","Codierung","","100","1002: Seq.: (CR033hz2): Regelflashen: Attribut ''Optional'': Impl.. Implementing optional flashing step","07:00","16:00","8","60",
"09.06.11","4","110117","223","120","Codierung","","100","1002: Seq.: (CR033hz2): Regelflashen: Fehlerbehandlung: Impl.. Implementing error behaviour","07:00","16:00","8","60",
"10.06.11","5","110117","227","120","Codierung","","100","1002: Seq.: (CR033hz2): MCR-Codierung: autom. Codierung: Impl.. Adapting Coding CTS","07:00","16:00","8","60",
