"21.02.11","1","100334","1334","104","Test-Spezifikation","","80","4005: Alt-BR: ABS5: Stellglieder: Testspec + erw. Sim. Completing test cases for OK case for A01 variant","07:00","16:00","8","60",
"21.02.11","1","100334","1072","102","Spez: LH/PH/Design","","100","5024: Alt-BR: Alarm: Systemprüfung: PH. Closing task.","","","0","0",
"22.02.11","2","100334","1006","120","Codierung","","0","4022: Alt-BR: PDAS: Stellglieder: Implementierung. From mc. Beginning to implement sequence for PDAS actuators","07:00","16:00","2","60",
"22.02.11","2","100334","1334","104","Test-Spezifikation","","100","4005: Alt-BR: ABS5: Stellglieder: Testspec + erw. Sim. Creating error and configuration cases and renumbering test cases","","","6","0",
"23.02.11","3","100334","1006","120","Codierung","","100","4022: Alt-BR: PDAS: Stellglieder: Implementierung. From mc. Creating steps to check the initial state of the actuators, updating ODX and simultation.","07:00","16:00","8","60",
"24.02.11","4","100334","993","140","Test","","60","4005: Alt-BR: ABS5: Stellglieder: Modultest+Bugfixing. Testing OK case. Creating bugs 28617 and 28630 for subdescription texts","07:00","16:00","8","60",
"25.02.11","5","100334","955","102","Spez: LH/PH/Design","","100","3063: Alt-BR: Getr Tiptronic: Codierung: PH. Task cancelled","07:00","16:00","0","60",
"25.02.11","5","100334","956","104","Test-Spezifikation","","100","3063: Alt-BR: Getr Tiptronic: Codierung: Testspec + erw. Sim. Task cancelled","","","0","0",
"25.02.11","5","100334","993","140","Test","","100","4005: Alt-BR: ABS5: Stellglieder: Testspec + erw. Sim. Checking in results and testing error cases","","","7","0",
"25.02.11","5","110018","37","101","PM/Mod/Meetings","","0","Wochenaufgaben AES. Daily morning meetings and filling out timesheets","","","1","0",
