"22.08.11","1","110023","0","910","Urlaub","","0","Urlaub. Day Off","07:00","16:00","8","60",
"23.08.11","2","110018","28","101","PM/Mod/Meetings","","0","S4 Administrative Tasks. Interviews","07:00","16:00","4","60",
"23.08.11","2","110018","27","101","PM/Mod/Meetings","","0","S4 Technical Support / Troubleshoot. Supporting colleagues","","","3","0",
"23.08.11","2","110018","25","101","PM/Mod/Meetings","","0","S4/DSA Overall Tasks. Coldtstart all DT2 devices to latest level","","","1","0",
"24.08.11","3","110025","350","170","Schulung","","0","MCD-Kernel, PIDT, ECU Training. Preparation for MAN","07:00","16:00","2","60",
"24.08.11","3","110025","350","170","Schulung","","0","MCD-Kernel, PIDT, ECU Training. MAN Change Document analysis","","","1","0",
"24.08.11","3","110011","790","120","Codierung","","0","PG3: WDI-DataLogger. Create Datasheet Draft","","","2","0",
"24.08.11","3","110018","27","101","PM/Mod/Meetings","","0","S4 Technical Support / Troubleshoot. Supporting colleagues","","","3","0",
"25.08.11","4","110018","25","101","PM/Mod/Meetings","","0","S4/DSA Overall Tasks. PRODIS.OET Setup + Troubleshoot","07:00","16:00","1","60",
"25.08.11","4","110018","25","101","PM/Mod/Meetings","","0","S4/DSA Overall Tasks. MCD-Kernel 3 - Setup + Troubleshoot","","","7","0",
"26.08.11","5","110011","790","120","Codierung","","0","PG3: WDI-DataLogger. Test Cases","07:00","16:00","2","60",
"26.08.11","5","110018","26","101","PM/Mod/Meetings","","0","Wochenaufgaben AES. Timesheets + daily meetings","","","2","0",
"26.08.11","5","110018","27","101","PM/Mod/Meetings","","0","S4 Technical Support / Troubleshoot. Supporting colleagues","","","4","0",
