"15.08.11","1","110118","4","120","Codierung","","0","MCD 3.0: Implementierung. Worked on MCD 3.0","07:00","16:00","8","60",
"16.08.11","2","110118","4","120","Codierung","","0","MCD 3.0: Implementierung. Worked on MCD 3.0","07:00","16:00","8","60",
"17.08.11","3","110118","4","120","Codierung","","0","MCD 3.0: Implementierung. Worked on MCD 3.0","07:00","16:00","7","60",
"17.08.11","3","110118","0","201","PM/Mod/Meetings","","0","Meeting. Meeting","","","1","0",
"18.08.11","4","110118","4","120","Codierung","","0","MCD 3.0: Implementierung. Worked on MCD 3.0","07:00","16:00","8","60",
"19.08.11","5","110118","4","120","Codierung","","0","MCD 3.0: Implementierung. Performing performance tests for mcd 3.0 kernel","07:00","16:00","8","60",
