DATE;NAME;START;END;LUNCH;1;2;3;4;5;6;7;8;9;10;11;12;13;14;15;16;17;18;19;20;21;22;23;24;
01.04.11;Brendan van Zyl;07:00:00;16:00:00;60;110018-24;110018-24 / 110025-374;110025-374;110025-374;110025-374;110025-374;110025-374;100334-1119;
01.04.11;Mario Jansen van Vuuren;08:00:00;16:30:00;30;110036-91;110036-91;110036-91;110036-91;110036-91;110036-91;110036-91;110036-91;
01.04.11;Nico Claassen;07:00:00;16:00:00;60;100334-1193;100334-1193;100334-1193;110018-26;110025-363;110025-363;110025-363;110025-363;
01.04.11;Malcolm Vorster;07:00:00;16:00:00;60;100334-1186;100334-1186;100334-1186;100334-1186;100334-1186;100334-1186;110018-29;110018-29;
01.04.11;Graham Meyer;08:00:00;16:30:00;30;110036-89;110036-89;110036-89;110036-89;110036-89;110036-89;110036-89;110036-89;
01.04.11;Thando Katywa;08:00:00;16:30:00;30;110036-90;110036-90;110036-90;110036-90;110036-90;110036-90;110036-90;110036-90;
01.04.11;Ludumo Sankobe;07:00:00;16:00:00;60;110018-32;110018-32;100334-963;100334-963;100334-963;100334-963;100334-963;100334-963;
01.04.11;Paul Helliwell;
01.04.11;Ntombenkosi Maldaki;07:00:00;16:00:00;60;110025-0;110025-0;110025-0;110025-0;110025-0;110025-0;110025-0;110018-35;
01.04.11;Mark Britten;07:00:00;16:00:00;60;100334-965;100334-965;100334-965;110025-369;110025-369;110025-369;110025-369;110025-369;
01.04.11;Wesley Saunders;07:00:00;16:00:00;60;110018-39;110018-39 / 110025-187;110025-187;110025-187;110025-187;110025-187;110025-187;110025-187;
01.04.11;Francois Sayster;07:00:00;16:00:00;60;100334-1600;100334-1600;100334-1600;110018-40;110018-40 / 110025-371;110025-371;110025-371;110025-371;
01.04.11;Odwa Dyantyi;07:00:00;16:00:00;60;110025-372;110025-372;110025-372;110025-372;110025-372;110025-372;110025-372;110025-372;
01.04.11;Sesetu Mtukulu;07:00:00;16:00:00;60;100334-1610;100334-1610;100334-1610;100334-1610;100334-1214;100334-1214;100334-1214;100334-1214;
02.04.11;Brendan van Zyl;
02.04.11;Mario Jansen van Vuuren;
02.04.11;Nico Claassen;
02.04.11;Malcolm Vorster;
02.04.11;Graham Meyer;
02.04.11;Thando Katywa;
02.04.11;Ludumo Sankobe;
02.04.11;Paul Helliwell;
02.04.11;Ntombenkosi Maldaki;
02.04.11;Mark Britten;
02.04.11;Wesley Saunders;
02.04.11;Francois Sayster;
02.04.11;Odwa Dyantyi;
02.04.11;Sesetu Mtukulu;
03.04.11;Brendan van Zyl;
03.04.11;Mario Jansen van Vuuren;
03.04.11;Nico Claassen;
03.04.11;Malcolm Vorster;
03.04.11;Graham Meyer;
03.04.11;Thando Katywa;
03.04.11;Ludumo Sankobe;
03.04.11;Paul Helliwell;
03.04.11;Ntombenkosi Maldaki;
03.04.11;Mark Britten;
03.04.11;Wesley Saunders;
03.04.11;Francois Sayster;
03.04.11;Odwa Dyantyi;
03.04.11;Sesetu Mtukulu;
04.04.11;Brendan van Zyl;07:00:00;16:00:00;60;110101-76;110101-76;110101-76;110101-76;110101-76;110101-76;110101-76;110101-76;
04.04.11;Mario Jansen van Vuuren;08:00:00;16:30:00;30;110036-91;110036-91;110036-91;110036-91;110036-91;110036-91;110036-91;110036-91;
04.04.11;Nico Claassen;07:00:00;16:00:00;60;110018-27;110018-27;110018-27;110018-27;110018-27;110018-27;110018-27;110018-27;
04.04.11;Malcolm Vorster;07:00:00;16:00:00;60;110023-0;110023-0;110023-0;110023-0;110023-0;110023-0;110023-0;110023-0;
04.04.11;Graham Meyer;08:00:00;16:30:00;30;110036-89;110036-89;110036-89;110036-89;110036-89;110036-89;110036-89;110036-89;
04.04.11;Thando Katywa;08:00:00;16:30:00;30;110036-90;110036-90;110036-90;110036-90;110036-90;110036-90;110036-90;110036-90;
04.04.11;Ludumo Sankobe;07:00:00;16:00:00;60;100334-1214;100334-1214;100334-1214;100334-1214;100334-1214;100334-1214;100334-1214;100334-1214;
04.04.11;Paul Helliwell;07:00:00;16:00:00;60;110023-0;110023-0;110023-0;110023-0;100334-1686;100334-1686;100334-1686;100334-1686;
04.04.11;Ntombenkosi Maldaki;07:00:00;16:00:00;60;100334-9004;100334-9004;100334-9004;100334-9004;100334-9004;100334-9004;100334-9004;100334-9004;
04.04.11;Mark Britten;07:00:00;16:00:00;60;100334-880;100334-880;100334-880;100334-880;100334-880;100334-880;100334-880;100334-880;
04.04.11;Wesley Saunders;07:00:00;16:00:00;60;09.00790-2632;09.00790-2632;09.00790-2632;09.00790-2632;09.00790-2634;09.00790-2634;09.00790-2634;09.00790-2634;
04.04.11;Francois Sayster;07:00:00;16:00:00;60;100334-1600;100334-1600;110025-371;110025-371;110025-371;110025-371;110025-371;110025-371;
04.04.11;Odwa Dyantyi;07:00:00;16:00:00;60;110025-372;110025-372;110025-372;110025-372;110025-372;110025-372;110025-372;110025-372;
04.04.11;Sesetu Mtukulu;07:00:00;16:00:00;60;100334-1685;100334-1685;100334-1685;100334-1685;100334-1685;100334-1685;100334-1685;100334-1685;
05.04.11;Brendan van Zyl;07:00:00;16:00:00;60;110101-76;110101-76;110101-76;110101-76;110101-76;110101-76;110101-81;110101-81;
05.04.11;Mario Jansen van Vuuren;08:00:00;16:30:00;30;110036-91;110036-91;110036-91;110036-91;110036-91;110036-91;110036-91;110036-91;
05.04.11;Nico Claassen;07:00:00;16:00:00;60;100334-1639;100334-1639;100334-1639;100334-1639;110018-28;110018-28;110018-28;110018-27;
05.04.11;Malcolm Vorster;07:00:00;16:00:00;60;110023-0;110023-0;110023-0;110023-0;110023-0;110023-0;110023-0;110023-0;
05.04.11;Graham Meyer;08:00:00;16:30:00;30;110036-89;110036-89;110036-89;110036-89;110036-89;110036-89;110036-89;110036-89;
05.04.11;Thando Katywa;08:00:00;16:30:00;30;110036-90;110036-90;110036-90;110036-90;110036-90;110036-90;110036-90;110036-90;
05.04.11;Ludumo Sankobe;07:00:00;16:00:00;60;100334-963;100334-963;100334-963;100334-963;100334-963;100334-963;100334-963;100334-963;
05.04.11;Paul Helliwell;07:00:00;16:00:00;60;100334-1686;100334-1686;100334-1686;100334-1686;110023-0;110023-0;110023-0;110023-0;
05.04.11;Ntombenkosi Maldaki;07:00:00;16:00:00;60;110025-0;110025-0;110025-0;110025-0;110025-0;110023-0;110023-0;110023-0;
05.04.11;Mark Britten;07:00:00;16:00:00;60;100334-1179;100334-1179;100334-1179;100334-1179;100334-1179;100334-1179;100334-1642;100334-1642;
05.04.11;Wesley Saunders;07:00:00;16:00:00;60;09.00790-2634;09.00790-2634;09.00790-2634;09.00790-2634;09.00790-2634;09.00790-2634;09.00790-2634;09.00790-2634;
05.04.11;Francois Sayster;07:00:00;16:00:00;60;100334-1727;100334-1727;100334-1727;100334-1727;100334-1600;100334-1600;110025-371;110025-371;
05.04.11;Odwa Dyantyi;07:00:00;16:00:00;60;110025-372;110025-372;110025-372;110025-372;110025-372;110025-372;110025-372;110025-372;
05.04.11;Sesetu Mtukulu;07:00:00;16:00:00;60;100334-1685;100334-1685;100334-1685;100334-1685;110025-373;110025-373;110025-373;110025-373;
06.04.11;Brendan van Zyl;07:00:00;16:00:00;60;110101-81;110101-81;110101-81;110101-81;110101-81;110101-81;110101-81;110101-81;
06.04.11;Mario Jansen van Vuuren;08:00:00;16:30:00;30;110036-91;110036-91;110036-91;110036-91;110036-91;110036-91;110036-91;110036-91;
06.04.11;Nico Claassen;07:00:00;16:00:00;60;09.00790-2630;09.00790-2630;110018-27;110018-27;110018-27;110018-27;110018-27;110018-27;
06.04.11;Malcolm Vorster;07:00:00;16:00:00;60;110023-0;110023-0;110023-0;110023-0;110023-0;110023-0;110023-0;110023-0;
06.04.11;Graham Meyer;08:00:00;16:30:00;30;110036-89;110036-89;110036-89;110036-89;110036-89;110036-89;110036-89;110036-89;
06.04.11;Thando Katywa;08:00:00;16:30:00;30;110036-90;110036-90;110036-90;110036-90;110036-90;110036-90;110036-90;110036-90;
06.04.11;Ludumo Sankobe;07:00:00;16:00:00;60;100334-963;100334-963;100334-963;100334-963;100334-963;100334-963;100334-963;100334-963;
06.04.11;Paul Helliwell;07:00:00;16:00:00;60;100334-1654;100334-1654;100334-1654;100334-1608;100334-1361;100334-1361;100334-1361;100334-1361;
06.04.11;Ntombenkosi Maldaki;07:00:00;16:00:00;60;100334-9000;100334-9001;100334-9001;100334-9001;100334-9001;100334-9001;100334-9001;100334-9001;
06.04.11;Mark Britten;07:00:00;16:00:00;60;100334-1642;100334-1642;100334-1642;100334-1642;100334-9000;100334-9000;100334-9000;100334-9000;
06.04.11;Wesley Saunders;07:00:00;16:00:00;60;09.00790-2634;09.00790-2634;09.00790-2634;09.00790-2634;09.00790-2640;09.00790-2640;09.00790-2640;09.00790-2640;
06.04.11;Francois Sayster;07:00:00;16:00:00;60;100334-962;100334-962;100334-962;100334-962;100334-962;100334-962;100334-962;100334-962;
06.04.11;Odwa Dyantyi;07:00:00;16:00:00;60;110025-372;110025-372;110025-372;110025-372;110025-372;110025-372;110025-372;110025-372;
06.04.11;Sesetu Mtukulu;07:00:00;16:00:00;60;100334-1685;100334-1685;100334-1685;100334-1685;100334-1685;100334-1685;100334-1685;100334-1685;
07.04.11;Brendan van Zyl;07:00:00;16:00:00;60;110101-81;110101-81;110101-81;110101-81;110101-84;110101-84;110101-84;110101-84;
07.04.11;Mario Jansen van Vuuren;08:00:00;16:30:00;30;110036-91;110036-91;110036-91;110036-91;110036-91;110036-91;110036-91;110036-91;
07.04.11;Nico Claassen;07:00:00;16:00:00;60;09.00790-2628;09.00790-2628;09.00790-2628;09.00790-2628;09.00790-2630;09.00790-2630;09.00790-2630;09.00790-2630;
07.04.11;Malcolm Vorster;07:00:00;16:00:00;60;110023-0;110023-0;110023-0;110023-0;110023-0;110023-0;110023-0;110023-0;
07.04.11;Graham Meyer;08:00:00;16:30:00;30;110036-89;110036-89;110036-89;110036-89;110036-89;110036-89;110036-89;110036-89;
07.04.11;Thando Katywa;08:00:00;16:30:00;30;110036-90;110036-90;110036-90;110036-90;110036-90;110036-90;110036-90;110036-90;
07.04.11;Ludumo Sankobe;07:00:00;16:00:00;60;110025-185;110025-185;110025-185;110025-185;110025-185;110025-185;110025-185;110025-185;
07.04.11;Paul Helliwell;07:00:00;16:00:00;60;100334-861;100334-861;100334-861;100334-861;100334-1686;100334-1686;100334-1686;100334-1686;
07.04.11;Ntombenkosi Maldaki;07:00:00;16:00:00;60;100334-9002;100334-9003;100334-9003;100334-9003;100334-9003;110025-0;110025-0;110025-0;
07.04.11;Mark Britten;07:00:00;16:00:00;60;110025-369;110025-369;110025-369;110025-369;100334-1179;100334-1179;100334-1179;100334-1179;
07.04.11;Wesley Saunders;07:00:00;16:00:00;60;09.00790-2640;09.00790-2640;09.00790-2640;09.00790-2640;09.00790-2640;09.00790-2640;09.00790-2640;09.00790-2640;
07.04.11;Francois Sayster;07:00:00;16:00:00;60;110018-40;110018-40;110018-40;110018-40;110018-40;110018-40;110018-40;110018-40;
07.04.11;Odwa Dyantyi;07:00:00;16:00:00;60;09.00790-2641;09.00790-2641;09.00790-2641;09.00790-2641;09.00790-2641;09.00790-2641;09.00790-2641;09.00790-2641;
07.04.11;Sesetu Mtukulu;07:00:00;16:00:00;60;110025-373;110025-373;110025-373;110025-373;110025-373;110025-373;110025-373;110025-373;
08.04.11;Brendan van Zyl;07:00:00;16:00:00;60;110018-24;110018-24 / 110101-84;110101-84;110101-84;110101-84;110101-84 / 110101-87;110101-87;110101-87;
08.04.11;Mario Jansen van Vuuren;08:00:00;16:30:00;30;110036-91;110036-91;110036-91;110036-91;110036-91;110036-91;110036-91;110036-91;
08.04.11;Nico Claassen;07:00:00;16:00:00;60;110018-26;09.00790-2637;09.00790-2637;09.00790-2637;09.00790-2637 / 09.00790-2638;09.00790-2638;09.00790-2638;09.00790-2638;
08.04.11;Malcolm Vorster;07:00:00;16:00:00;60;110023-0;110023-0;110023-0;110023-0;110023-0;110023-0;110023-0;110023-0;
08.04.11;Graham Meyer;08:00:00;16:30:00;30;110036-89;110036-89;110036-89;110036-89;110036-89;110036-89;110036-89;110036-89;
08.04.11;Thando Katywa;08:00:00;16:30:00;30;110036-90;110036-90;110036-90;110036-90;110036-90;110036-90;110036-90;110036-90;
08.04.11;Ludumo Sankobe;07:00:00;16:00:00;60;110018-32;110018-32;110025-185;110025-185;110025-185;110025-185;110025-185;110025-185;
08.04.11;Paul Helliwell;07:00:00;16:00:00;60;100334-0;100334-0;100334-0;100334-0;100334-0;100334-0;100334-0;100334-0;
08.04.11;Ntombenkosi Maldaki;07:00:00;16:00:00;60;110018-35;110018-35 / 110025-0;110025-0;110025-0;110025-0;110025-0;110025-0;100334-9001;
08.04.11;Mark Britten;07:00:00;16:00:00;60;110025-369;110025-369;110025-369;110025-369;110025-369;110025-369;110025-369;110025-369;
08.04.11;Wesley Saunders;07:00:00;16:00:00;60;110018-39;110018-39 / 110025-187;110025-187;110025-187 / 100334-1603;100334-1603;100334-1603;100334-1603;100334-1603;
08.04.11;Francois Sayster;07:00:00;16:00:00;60;110018-40;110018-40 / 110025-371;110025-371;110025-371;110025-371;100334-1600;100334-1600;100334-1600;
08.04.11;Odwa Dyantyi;07:00:00;16:00:00;60;09.00790-2641;09.00790-2641;09.00790-2641;09.00790-2641;09.00790-2641;09.00790-2641;09.00790-2641;09.00790-2641;
08.04.11;Sesetu Mtukulu;07:00:00;16:00:00;60;110025-373;110025-373;110025-373;110025-373;110025-373;110025-373;110025-373;110025-373;
09.04.11;Brendan van Zyl;
09.04.11;Mario Jansen van Vuuren;
09.04.11;Nico Claassen;
09.04.11;Malcolm Vorster;
09.04.11;Graham Meyer;
09.04.11;Thando Katywa;
09.04.11;Ludumo Sankobe;
09.04.11;Paul Helliwell;
09.04.11;Ntombenkosi Maldaki;
09.04.11;Mark Britten;
09.04.11;Wesley Saunders;
09.04.11;Francois Sayster;
09.04.11;Odwa Dyantyi;
09.04.11;Sesetu Mtukulu;
10.04.11;Brendan van Zyl;
10.04.11;Mario Jansen van Vuuren;
10.04.11;Nico Claassen;07:00:00;16:00:00;60;
10.04.11;Malcolm Vorster;
10.04.11;Graham Meyer;
10.04.11;Thando Katywa;
10.04.11;Ludumo Sankobe;
10.04.11;Paul Helliwell;
10.04.11;Ntombenkosi Maldaki;
10.04.11;Mark Britten;
10.04.11;Wesley Saunders;
10.04.11;Francois Sayster;
10.04.11;Odwa Dyantyi;
10.04.11;Sesetu Mtukulu;
11.04.11;Brendan van Zyl;07:00:00;16:00:00;60;110101-87;110101-87;110101-87;110101-87;110101-87;110101-87;110101-90;110101-90;
11.04.11;Mario Jansen van Vuuren;08:00:00;16:30:00;30;110036-91;110036-91;110036-91;110036-91;110036-91;110036-91;110036-91;110036-91;
11.04.11;Nico Claassen;07:00:00;16:00:00;60;100334-879;100334-879;100334-879;110018-27;110018-27;110018-27;110018-27;110018-27;
11.04.11;Malcolm Vorster;07:00:00;16:00:00;60;110023-0;110023-0;110023-0;110023-0;110023-0;110023-0;110023-0;110023-0;
11.04.11;Graham Meyer;09:00:00;17:30:00;30;110036-89;110036-89;110036-89;110036-89;110036-89;110036-89;110036-89;110036-89;
11.04.11;Thando Katywa;08:00:00;16:30:00;30;110036-90;110036-90;110036-90;110036-90;110036-90;110036-90;110036-90;110036-90;
11.04.11;Ludumo Sankobe;07:00:00;16:00:00;60;100334-963;100334-963;100334-963;100334-963;100334-963;100334-963;100334-963;100334-963;
11.04.11;Paul Helliwell;07:00:00;16:00:00;60;100334-881;100334-881;100334-881;100334-1752;100334-1752;100334-1752;100334-1765;100334-1765;
11.04.11;Ntombenkosi Maldaki;07:00:00;16:00:00;60;100334-1769;100334-1769;100334-1769;100334-1769;100334-1769;100334-1769;100334-1769;100334-1769;
11.04.11;Mark Britten;07:00:00;16:00:00;60;100334-965;100334-965;100334-1179;100334-1179;100334-1179;100334-1179;110025-369;110025-369;
11.04.11;Wesley Saunders;07:00:00;16:00:00;60;100334-1603;100334-1603;100334-1603;100334-1603;100334-1603;100334-1603;100334-1603;100334-1603;
11.04.11;Francois Sayster;07:00:00;16:00:00;60;100334	-1719;100334	-1719;100334	-1719;100334	-1719;100334	-1719;100334	-1719;100334	-1719;100334	-1719;
11.04.11;Odwa Dyantyi;07:00:00;16:00:00;60;110025-0;110025-0;110025-0;110025-0;110025-0;110025-0;110025-0;110025-0;
11.04.11;Sesetu Mtukulu;07:00:00;16:00:00;60;100334-881;100334-881;100334-881;100334-881;100334-881;100334-881;100334-881;100334-881;
12.04.11;Brendan van Zyl;07:00:00;16:00:00;60;110101-90;110101-90;110101-90;110101-90;110101-90;110101-90;110101-90;110101-90;
12.04.11;Mario Jansen van Vuuren;08:00:00;16:30:00;30;110036-91;110036-91;110036-91;110036-91;110036-91;110036-91;110036-91;110036-91;
12.04.11;Nico Claassen;07:00:00;16:00:00;60;100023-0;100023-0;100023-0;100023-0;100023-0;100023-0;100023-0;100023-0;
12.04.11;Malcolm Vorster;07:00:00;16:00:00;60;110025-367;110025-367;110025-367;110025-367;110025-367;110025-367;110025-367;110025-367;
12.04.11;Graham Meyer;09:00:00;17:30:00;30;110036-89;110036-89;110036-89;110036-89;110036-89;110036-89;110036-89;110036-89;
12.04.11;Thando Katywa;08:00:00;16:30:00;30;110036-90;110036-90;110036-90;110036-90;110036-90;110036-90;110036-90;110036-90;
12.04.11;Ludumo Sankobe;07:00:00;16:00:00;60;100334-963;100334-963;100334-963;100334-963;100334-963;100334-963;100334-963;100334-963;
12.04.11;Paul Helliwell;07:00:00;16:00:00;60;100334-1767;100334-1767;100334-1767;100334-1767;110018-33;110018-33;110018-33;110018-33;
12.04.11;Ntombenkosi Maldaki;07:00:00;16:00:00;60;110025-383;110025-383;110025-383;110025-383;110025-383;110025-383;110025-383;110025-383;
12.04.11;Mark Britten;07:00:00;16:00:00;60;100334-854;100334-854;100334-854;100334-854;100334-854;100334-854;100334-854;100334-854;
12.04.11;Wesley Saunders;07:00:00;16:00:00;60;09.00790-2631;09.00790-2631;09.00790-2631;09.00790-2631;09.00790-2631;09.00790-2631;09.00790-2631;09.00790-2631;
12.04.11;Francois Sayster;07:00:00;16:00:00;60;100334-1602;100334-1602;100334-1602;100334-1602;100334-1602;100334-1602;100334-1602;100334-1602;
12.04.11;Odwa Dyantyi;07:00:00;16:00:00;60;110025-0;110025-0;110025-0;110025-0;110025-0;110025-0;110025-0;110025-0;
12.04.11;Sesetu Mtukulu;07:00:00;16:00:00;60;100334-881;100334-881;100334-881;100334-881;100334-881;100334-881;100334-881;100334-881;
13.04.11;Brendan van Zyl;07:00:00;16:00:00;60;110101-90;110101-90;110101-90;110101-90;110101-94;110101-94;110101-94;110101-94;
13.04.11;Mario Jansen van Vuuren;08:00:00;16:30:00;30;110036-91;110036-91;110036-91;110036-91;110036-91;110036-91;110036-91;110036-91;
13.04.11;Nico Claassen;07:00:00;16:00:00;60;100023-0;100023-0;100023-0;100023-0;100023-0;100023-0;100023-0;100023-0;
13.04.11;Malcolm Vorster;07:00:00;16:00:00;60;100334-807;100334-807;100334-807;100334-807;100334-807;100334-807;100334-807;100334-807;
13.04.11;Graham Meyer;09:00:00;17:30:00;30;110036-89;110036-89;110036-89;110036-89;110036-89;110036-89;110036-89;110036-89;
13.04.11;Thando Katywa;08:00:00;16:30:00;30;110036-90;110036-90;110036-90;110036-90;110036-90;110036-90;110036-90;110036-90;
13.04.11;Ludumo Sankobe;07:00:00;16:00:00;60;100334-1735;100334-1735;100334-1735;100334-1735;100334-1735;100334-1735;100334-1735;100334-1735;
13.04.11;Paul Helliwell;07:00:00;16:00:00;60;100334-1766;100334-1766;100334-1766;100334-1766;110018-33;110018-33;110018-33;110018-33;
13.04.11;Ntombenkosi Maldaki;07:00:00;16:00:00;60;100334-1769;100334-1769;100334-1769;100334-1769;100334-1769;100334-1769;100334-1769;100334-1769;
13.04.11;Mark Britten;07:00:00;16:00:00;60;100334-854;100334-854;100334-854;100334-854;100334-854;100334-1179;100334-1179;100334-1179;
13.04.11;Wesley Saunders;07:00:00;16:00:00;60;09.00790-2639;09.00790-2639;09.00790-2639;09.00790-2639;09.00790-2639;09.00790-2639;09.00790-2639;09.00790-2639;
13.04.11;Francois Sayster;07:00:00;16:00:00;60;100334-1147;100334-1147;100334-1147;100334-1147;100334-1147;100334-1147;100334-1147;100334-1147;
13.04.11;Odwa Dyantyi;07:00:00;16:00:00;60;110025-0;110025-0;110025-0;110025-0;110025-0;110025-0;110025-0;110025-0;
13.04.11;Sesetu Mtukulu;07:00:00;16:00:00;60;110025-0;110025-0;110025-0;110025-0;110025-0;110025-0;110025-0;100334-881;
14.04.11;Brendan van Zyl;07:00:00;16:00:00;60;110101-94;110101-94;110101-94;110101-94;110101-92;110101-92;110101-92;110101-92;
14.04.11;Mario Jansen van Vuuren;08:00:00;16:30:00;30;110036-91;110036-91;110036-91;110036-91;110036-91;110036-91;110036-91;110036-91;
14.04.11;Nico Claassen;07:00:00;16:00:00;60;100023-0;100023-0;100023-0;100023-0;100023-0;100023-0;100023-0;100023-0;
14.04.11;Malcolm Vorster;07:00:00;16:00:00;60;110018-29;110018-29;100334-807;100334-807;100334-807;100334-807;100334-807;100334-807;
14.04.11;Graham Meyer;08:00:00;16:30:00;30;110036-89;110036-89;110036-89;110036-89;110036-89;110036-89;110036-89;110036-89;
14.04.11;Thando Katywa;08:00:00;16:30:00;30;110036-90;110036-90;110036-90;110036-90;110036-90;110036-90;110036-90;110036-90;
14.04.11;Ludumo Sankobe;07:00:00;16:00:00;60;100334-1735;100334-1735;100334-1735;100334-1735;100334-1735;100334-1735;100334-1735;100334-1735;
14.04.11;Paul Helliwell;07:00:00;16:00:00;60;110018-33;110018-33;110018-33;110018-33;100334-140;100334-140;100334-140;100334-140;
14.04.11;Ntombenkosi Maldaki;07:00:00;16:00:00;60;100334-0;110023-0;110023-0;110023-0;110025-383;110025-383;110025-383;110025-383;
14.04.11;Mark Britten;07:00:00;16:00:00;60;100334-9001;100334-9001;100334-9001;100334-9001;100334-9001;100334-9001;110025-369;110025-369;
14.04.11;Wesley Saunders;07:00:00;16:00:00;60;110023-0;110023-0;110023-0;110023-0;110023-0;110023-0;110023-0;110023-0;
14.04.11;Francois Sayster;07:00:00;16:00:00;60;100334-1602;100334-1147;100334-1147;110025-371;110025-371;110025-371;110025-371;110025-371;
14.04.11;Odwa Dyantyi;07:00:00;16:00:00;60;110025-0;110025-0;110025-0;110025-0;110025-0;110025-0;110025-0;110025-0;
14.04.11;Sesetu Mtukulu;07:00:00;16:00:00;60;110023-0;110023-0;110023-0;110023-0;110023-0;110023-0;110023-0;110023-0;
15.04.11;Brendan van Zyl;07:00:00;16:00:00;60;110018-24;110101-92;110101-92;110101-92;110101-92 / 110101-73;110101-73;110101-73;110101-73;
15.04.11;Mario Jansen van Vuuren;08:00:00;16:30:00;30;110036-91;110036-91;110036-91;110036-91;110036-91;110036-91;110036-91;110036-91;
15.04.11;Nico Claassen;07:00:00;16:00:00;60;110018-28;110018-28;110018-26;110018-27;110018-27;110018-27;110018-27;110018-27;
15.04.11;Malcolm Vorster;07:00:00;16:00:00;60;110023-0;110023-0;110023-0;110023-0;110023-0;110023-0;110023-0;110023-0;
15.04.11;Graham Meyer;
15.04.11;Thando Katywa;08:00:00;16:30:00;30;110036-90;110036-90;110036-90;110036-90;110036-90;110036-90;110036-90;110036-90;
15.04.11;Ludumo Sankobe;07:00:00;16:00:00;60;100334-963;100334-963;100334-963;100334-963;100334-963;100334-963;100334-963;100334-963;
15.04.11;Paul Helliwell;07:00:00;16:00:00;60;100334-1766;100334-1766;100334-1766;100334-962;100334-962;100334-962;100334-962;100334-962;
15.04.11;Ntombenkosi Maldaki;07:00:00;16:00:00;60;110018-35;110018-35 / 110025-383;110025-383;110025-383;110025-383;110025-383;110025-383;110025-383;
15.04.11;Mark Britten;07:00:00;16:00:00;60;110018-37;100334-1146;100334-1146;100334-1146;100334-1146;100334-1146;100334-1146;100334-1146;
15.04.11;Wesley Saunders;07:00:00;16:00:00;60;110018-39;110018-39 / 100334-1169;100334-1169;100334-1169;100334-1169;100334-1169;100334-1169;100334-1169;
15.04.11;Francois Sayster;07:00:00;16:00:00;60;110018-40;110018-40 / 100334-1602;100334-1602 / 110025-371;110025-371;110025-371;110025-371;110025-371;110025-371;
15.04.11;Odwa Dyantyi;07:00:00;16:00:00;60;110025-0;110025-0;110025-0;110025-0;110025-0;110025-0;110025-0;110025-0;
15.04.11;Sesetu Mtukulu;07:00:00;16:00:00;60;110025-0;110025-0;110025-0;110025-0;110025-0;110025-0;110025-0;110025-0;
16.04.11;Brendan van Zyl;
16.04.11;Mario Jansen van Vuuren;
16.04.11;Nico Claassen;
16.04.11;Malcolm Vorster;
16.04.11;Graham Meyer;
16.04.11;Thando Katywa;
16.04.11;Ludumo Sankobe;
16.04.11;Paul Helliwell;
16.04.11;Ntombenkosi Maldaki;
16.04.11;Mark Britten;
16.04.11;Wesley Saunders;
16.04.11;Francois Sayster;
16.04.11;Odwa Dyantyi;
16.04.11;Sesetu Mtukulu;
17.04.11;Brendan van Zyl;
17.04.11;Mario Jansen van Vuuren;
17.04.11;Nico Claassen;
17.04.11;Malcolm Vorster;
17.04.11;Graham Meyer;
17.04.11;Thando Katywa;
17.04.11;Ludumo Sankobe;
17.04.11;Paul Helliwell;
17.04.11;Ntombenkosi Maldaki;
17.04.11;Mark Britten;
17.04.11;Wesley Saunders;
17.04.11;Francois Sayster;
17.04.11;Odwa Dyantyi;
17.04.11;Sesetu Mtukulu;
18.04.11;Brendan van Zyl;07:00:00;16:00:00;60;110023-862;110023-862;110023-862;110023-862;110023-862;110023-862;110023-862;110023-862;
18.04.11;Mario Jansen van Vuuren;08:00:00;16:30:00;30;110036-91;110036-91;110036-91;110036-91;110036-91;110036-91;110036-91;110036-91;
18.04.11;Nico Claassen;07:00:00;16:00:00;60;110025-0;110025-0;110025-0;110025-0;110025-0;110025-0;110025-0;110025-0;
18.04.11;Malcolm Vorster;
18.04.11;Graham Meyer;08:00:00;16:30:00;30;110036-89;110036-89;110036-89;110036-89;110036-89;110036-89;110036-89;110036-89;
18.04.11;Thando Katywa;08:00:00;16:30:00;30;110036-90;110036-90;110036-90;110036-90;110036-90;110036-90;110036-90;110036-90;
18.04.11;Ludumo Sankobe;07:00:00;16:00:00;60;110025-0;110025-0;110025-0;110025-0;110025-0;110025-0;110025-0;110025-0;
18.04.11;Paul Helliwell;07:00:00;16:00:00;60;110025-0;110025-0;110025-0;110025-0;110025-0;110025-0;110025-0;110025-0;
18.04.11;Ntombenkosi Maldaki;07:00:00;16:00:00;60;110025-383;110025-383;110025-383;110025-383;110025-383;110025-383;110025-383;110025-383;
18.04.11;Mark Britten;07:00:00;16:00:00;60;110025-369;110025-369;110025-369;110025-369;110025-369;110025-369;110025-369;110025-369;
18.04.11;Wesley Saunders;07:00:00;16:00:00;60;110025-0;110025-0;110277-29;110277-29;110277-29;110277-29;110277-29;110277-29;
18.04.11;Francois Sayster;07:00:00;16:00:00;60;110025-0;110025-0;110025-371;110025-371;110025-371;110025-371;110025-371;110025-371;
18.04.11;Odwa Dyantyi;07:00:00;16:00:00;60;110025-0;110025-0;110025-0;110025-0;110025-0;110025-0;110025-0;110025-0;
18.04.11;Sesetu Mtukulu;07:00:00;16:00:00;60;110025-0;110025-0;110025-0;110025-0;110025-0;110025-0;110025-0;110025-0;
19.04.11;Brendan van Zyl;07:00:00;16:00:00;60;110023-862;110023-862;110023-862;110023-862;110023-862;110023-862;110023-862;110023-862;
19.04.11;Mario Jansen van Vuuren;08:00:00;16:30:00;30;110036-91;110036-91;110036-91;110036-91;110036-91;110036-91;110036-91;110036-91;
19.04.11;Nico Claassen;07:00:00;16:00:00;60;110025-0;110025-0;110025-0;110025-0;110025-0;110025-0;110025-0;110025-0;
19.04.11;Malcolm Vorster;
19.04.11;Graham Meyer;08:00:00;16:30:00;30;110036-89;110036-89;110036-89;110036-89;110036-89;110036-89;110036-89;110036-89;
19.04.11;Thando Katywa;08:00:00;16:30:00;30;110036-90;110036-90;110036-90;110036-90;110036-90;110036-90;110036-90;110036-90;
19.04.11;Ludumo Sankobe;07:00:00;16:00:00;60;110025-0;110025-0;110025-0;110025-0;110025-0;110025-0;110025-0;110025-0;
19.04.11;Paul Helliwell;07:00:00;16:00:00;60;110025-0;110025-0;110025-0;110025-0;110025-0;110025-0;110025-0;110025-0;
19.04.11;Ntombenkosi Maldaki;07:00:00;16:00:00;60;110025-383;110025-383;110025-383;110025-383;110025-383;110025-383;110025-383;110025-383;
19.04.11;Mark Britten;07:00:00;16:00:00;60;100334-1208;110025-369;110025-369;110025-369;110025-369;110025-369;110025-369;110025-369;
19.04.11;Wesley Saunders;07:00:00;16:00:00;60;110023-0;110023-0;110023-0;110023-0;110023-0;110023-0;110023-0;110023-0;
19.04.11;Francois Sayster;07:00:00;16:00:00;60;110025-371;110025-371;110025-371;110025-371;110025-371;110025-371;110025-371;110025-371;
19.04.11;Odwa Dyantyi;07:00:00;16:00:00;60;110025-0;110025-0;110025-0;110025-0;110025-0;110025-0;110025-0;110025-0;
19.04.11;Sesetu Mtukulu;07:00:00;16:00:00;60;110025-0;110025-0;110025-0;110025-0;110025-0;110025-0;110025-0;110025-0;
20.04.11;Brendan van Zyl;07:00:00;16:00:00;60;110023-862;110023-862;110023-862;110023-862;110023-862;110023-862;110023-862;110023-862;
20.04.11;Mario Jansen van Vuuren;08:00:00;16:30:00;30;110036-91;110036-91;110036-91;110036-91;110036-91;110036-91;110036-91;110036-91;
20.04.11;Nico Claassen;07:00:00;16:00:00;60;110025-0;110025-0;110025-0;110025-0;110025-0;110025-0;110025-0;110025-0;
20.04.11;Malcolm Vorster;
20.04.11;Graham Meyer;08:00:00;16:30:00;30;110036-89;110036-89;110036-89;110036-89;110036-89;110036-89;110036-89;110036-89;
20.04.11;Thando Katywa;08:00:00;16:30:00;30;110036-90;110036-90;110036-90;110036-90;110036-90;110036-90;110036-90;110036-90;
20.04.11;Ludumo Sankobe;07:00:00;16:00:00;60;100334-1207;100334-1207;100334-1207;100334-1207;100334-1207;100334-1207;100334-1207;100334-1207;
20.04.11;Paul Helliwell;07:00:00;16:00:00;60;110025-0;110025-0;110025-0;110025-0;110025-0;110025-0;110025-0;110025-0;
20.04.11;Ntombenkosi Maldaki;07:00:00;16:00:00;60;100334-9000;100334-9001;100334-9001;100334-9001;100334-9001;110025-383;110025-383;110025-383;
20.04.11;Mark Britten;07:00:00;16:00:00;60;100334-1208;100334-1208;100334-1208;100334-1208;100334-1208;100334-1208;100334-1208;100334-1208;
20.04.11;Wesley Saunders;07:00:00;16:00:00;60;110277-29;110277-29;110277-29;110277-29;110277-29;110277-29;110277-29;110277-29;
20.04.11;Francois Sayster;07:00:00;16:00:00;60;110025-371;110025-371;110025-371;110025-371;110025-371;110025-371;110025-371;110025-371;
20.04.11;Odwa Dyantyi;07:00:00;16:00:00;60;110025-0;110025-0;110025-0;110025-0;110025-0;110025-0;110025-0;110025-0;
20.04.11;Sesetu Mtukulu;07:00:00;16:00:00;60;110025-0;110025-0;110025-0;110025-0;110025-0;110025-0;110025-0;110025-0;
21.04.11;Brendan van Zyl;07:00:00;16:00:00;60;110023-862;110023-862;110023-862;110023-862;110023-862;110023-862;110023-862;110023-862;
21.04.11;Mario Jansen van Vuuren;08:00:00;16:30:00;30;110036-91;110036-91;110036-91;110036-91;110036-91;110036-91;110036-91;110036-91;
21.04.11;Nico Claassen;07:00:00;16:00:00;60;110025-0;110025-0;110025-0;110025-0;110025-0;110025-0;110025-0;110025-0;
21.04.11;Malcolm Vorster;
21.04.11;Graham Meyer;08:00:00;16:30:00;30;110036-89;110036-89;110036-89;110036-89;110036-89;110036-89;110036-89;110036-89;
21.04.11;Thando Katywa;08:00:00;16:30:00;30;110036-90;110036-90;110036-90;110036-90;110036-90;110036-90;110036-90;110036-90;
21.04.11;Ludumo Sankobe;07:00:00;16:00:00;60;100334-1207;100334-1207;100334-1207;100334-1207;100334-1207;100334-1207;100334-1207;100334-1207;
21.04.11;Paul Helliwell;07:00:00;16:00:00;60;100025-0;100025-0;100025-0;100025-0;100025-0;100025-0;100025-0;100025-0;
21.04.11;Ntombenkosi Maldaki;07:00:00;16:00:00;60;110025-383;110025-383;110025-383;110025-383;110025-383;110025-383;110025-383;110025-383;
21.04.11;Mark Britten;07:00:00;16:00:00;60;100334-1208;100334-1208;100334-1208;100334-1208;100334-1208;110025-369;110025-369;110025-369;
21.04.11;Wesley Saunders;07:00:00;16:00:00;60;110277-29;110277-29;110277-29;110277-29;110277-29;110277-29;110277-29;110277-29;
21.04.11;Francois Sayster;07:00:00;16:00:00;60;100334-1210;100334-1210;100334-1210;100334-1210;100334-1210;110025-371;110025-371 / 110018-40;110018-40;
21.04.11;Odwa Dyantyi;07:00:00;16:00:00;60;110025-0;110025-0;110025-0;110025-0;110025-0;110025-0;110025-0;110025-0;
21.04.11;Sesetu Mtukulu;07:00:00;16:00:00;60;110025-0;110025-0;110025-0;110025-0;110025-0;110025-0;110025-0;110025-0;
22.04.11;Brendan van Zyl;07:00:00;16:00:00;60;110023-0;110023-0;110023-0;110023-0;110023-0;110023-0;110023-0;110023-0;
22.04.11;Mario Jansen van Vuuren;08:00:00;16:30:00;30;110023-0;110023-0;110023-0;110023-0;110023-0;110023-0;110023-0;110023-0;
22.04.11;Nico Claassen;07:00:00;16:00:00;60;110023-0;110023-0;110023-0;110023-0;110023-0;110023-0;110023-0;110023-0;
22.04.11;Malcolm Vorster;
22.04.11;Graham Meyer;08:00:00;16:00:00;0;110023-0;110023-0;110023-0;110023-0;110023-0;110023-0;110023-0;110023-0;
22.04.11;Thando Katywa;08:00:00;16:30:00;30;100023-0;100023-0;100023-0;100023-0;100023-0;100023-0;100023-0;100023-0;
22.04.11;Ludumo Sankobe;07:00:00;16:00:00;60;110023-0;110023-0;110023-0;110023-0;110023-0;110023-0;110023-0;110023-0;
22.04.11;Paul Helliwell;07:00:00;16:00:00;60;110023-0;110023-0;110023-0;110023-0;110023-0;110023-0;110023-0;110023-0;
22.04.11;Ntombenkosi Maldaki;07:00:00;16:00:00;60;110023-0;110023-0;110023-0;110023-0;110023-0;110023-0;110023-0;110023-0;
22.04.11;Mark Britten;07:00:00;16:00:00;60;110023-0;110023-0;110023-0;110023-0;110023-0;110023-0;110023-0;110023-0;
22.04.11;Wesley Saunders;07:00:00;16:00:00;60;110023-0;110023-0;110023-0;110023-0;110023-0;110023-0;110023-0;110023-0;
22.04.11;Francois Sayster;07:00:00;16:00:00;60;110023-0;110023-0;110023-0;110023-0;110023-0;110023-0;110023-0;110023-0;
22.04.11;Odwa Dyantyi;07:00:00;16:00:00;60;110023-0;110023-0;110023-0;110023-0;110023-0;110023-0;110023-0;110023-0;
22.04.11;Sesetu Mtukulu;07:00:00;16:00:00;60;110023-0;110023-0;110023-0;110023-0;110023-0;110023-0;110023-0;110023-0;
23.04.11;Brendan van Zyl;
23.04.11;Mario Jansen van Vuuren;
23.04.11;Nico Claassen;
23.04.11;Malcolm Vorster;
23.04.11;Graham Meyer;
23.04.11;Thando Katywa;
23.04.11;Ludumo Sankobe;
23.04.11;Paul Helliwell;
23.04.11;Ntombenkosi Maldaki;
23.04.11;Mark Britten;
23.04.11;Wesley Saunders;
23.04.11;Francois Sayster;
23.04.11;Odwa Dyantyi;
23.04.11;Sesetu Mtukulu;
24.04.11;Brendan van Zyl;
24.04.11;Mario Jansen van Vuuren;
24.04.11;Nico Claassen;
24.04.11;Malcolm Vorster;
24.04.11;Graham Meyer;
24.04.11;Thando Katywa;
24.04.11;Ludumo Sankobe;
24.04.11;Paul Helliwell;
24.04.11;Ntombenkosi Maldaki;
24.04.11;Mark Britten;
24.04.11;Wesley Saunders;
24.04.11;Francois Sayster;
24.04.11;Odwa Dyantyi;
24.04.11;Sesetu Mtukulu;
25.04.11;Brendan van Zyl;07:00:00;16:00:00;60;110023-0;110023-0;110023-0;110023-0;110023-0;110023-0;110023-0;110023-0;
25.04.11;Mario Jansen van Vuuren;08:00:00;16:30:00;30;110023-0;110023-0;110023-0;110023-0;110023-0;110023-0;110023-0;110023-0;
25.04.11;Nico Claassen;07:00:00;16:00:00;60;110023-0;110023-0;110023-0;110023-0;110023-0;110023-0;110023-0;110023-0;
25.04.11;Malcolm Vorster;
25.04.11;Graham Meyer;08:00:00;16:30:00;30;110023-0;110023-0;110023-0;110023-0;110023-0;110023-0;110023-0;110023-0;
25.04.11;Thando Katywa;08:00:00;16:30:00;30;100023-0;100023-0;100023-0;100023-0;100023-0;100023-0;100023-0;100023-0;
25.04.11;Ludumo Sankobe;
25.04.11;Paul Helliwell;07:00:00;16:00:00;60;
25.04.11;Ntombenkosi Maldaki;07:00:00;16:00:00;60;110023-0;110023-0;110023-0;110023-0;110023-0;110023-0;110023-0;110023-0;
25.04.11;Mark Britten;07:00:00;16:00:00;60;110023-0;110023-0;110023-0;110023-0;110023-0;110023-0;110023-0;110023-0;
25.04.11;Wesley Saunders;07:00:00;16:00:00;60;110023-0;110023-0;110023-0;110023-0;110023-0;110023-0;110023-0;110023-0;
25.04.11;Francois Sayster;07:00:00;16:00:00;60;110023-0;110023-0;110023-0;110023-0;110023-0;110023-0;110023-0;110023-0;
25.04.11;Odwa Dyantyi;07:00:00;16:00:00;60;110023-0;110023-0;110023-0;110023-0;110023-0;110023-0;110023-0;110023-0;
25.04.11;Sesetu Mtukulu;07:00:00;16:00:00;60;110023-0;110023-0;110023-0;110023-0;110023-0;110023-0;110023-0;110023-0;
26.04.11;Brendan van Zyl;07:00:00;16:00:00;60;110101-93;110101-93 / 110101-83;110101-83;110101-86;110101-86 / 110101-89;110101-89;110101-96;110101-96 / 110101-80;
26.04.11;Mario Jansen van Vuuren;08:00:00;16:30:00;30;110036-91;110036-91;110036-91;110036-91;110036-91;110036-91;110036-91;110036-91;
26.04.11;Nico Claassen;07:00:00;16:00:00;60;110023-0;110023-0;110023-0;110023-0;110023-0;110023-0;110023-0;110023-0;
26.04.11;Malcolm Vorster;
26.04.11;Graham Meyer;08:00:00;16:20:00;30;110036-89;110036-89;110036-89;110036-89;110036-89;110036-89;110036-89;110036-89;
26.04.11;Thando Katywa;08:00:00;16:30:00;30;110036-90;110036-90;110036-90;110036-90;110036-90;110036-90;110036-90;110036-90;
26.04.11;Ludumo Sankobe;
26.04.11;Paul Helliwell;07:00:00;16:00:00;60;110018-0;110018-0;110018-0;110018-0;110018-0;110018-0;110018-0;110018-0;
26.04.11;Ntombenkosi Maldaki;07:00:00;16:00:00;60;110023-0;110023-0;110023-0;110023-0;110023-0;110023-0;110023-0;110023-0;
26.04.11;Mark Britten;07:00:00;16:00:00;60;110023-0;110023-0;110023-0;110023-0;110023-0;110023-0;110023-0;110023-0;
26.04.11;Wesley Saunders;07:00:00;16:00:00;60;110023-0;110023-0;110023-0;110023-0;110023-0;110023-0;110023-0;110023-0;
26.04.11;Francois Sayster;07:00:00;16:00:00;60;110023-0;110023-0;110023-0;110023-0;110023-0;110023-0;110023-0;110023-0;
26.04.11;Odwa Dyantyi;07:00:00;16:00:00;60;110023-0;110023-0;110023-0;110023-0;110023-0;110023-0;110023-0;110023-0;
26.04.11;Sesetu Mtukulu;07:00:00;16:00:00;60;110023-0;110023-0;110023-0;110023-0;110023-0;110023-0;110023-0;110023-0;
27.04.11;Brendan van Zyl;07:00:00;16:00:00;60;110023-0;110023-0;110023-0;110023-0;110023-0;110023-0;110023-0;110023-0;
27.04.11;Mario Jansen van Vuuren;08:00:00;16:30:00;30;110036-91;110036-91;110036-91;110036-91;110036-91;110036-91;110036-91;110036-91;
27.04.11;Nico Claassen;07:00:00;16:00:00;60;110023-0;110023-0;110023-0;110023-0;110023-0;110023-0;110023-0;110023-0;
27.04.11;Malcolm Vorster;
27.04.11;Graham Meyer;08:00:00;16:30:00;30;110036-89;110036-89;110036-89;110036-89;110036-89;110036-89;110036-89;110036-89;
27.04.11;Thando Katywa;08:00:00;16:30:00;30;110036-90;110036-90;110036-90;110036-90;110036-90;110036-90;110036-90;110036-90;
27.04.11;Ludumo Sankobe;
27.04.11;Paul Helliwell;07:00:00;16:00:00;60;110036-158;110036-158;110036-158;110036-158;110036-158;110036-158;110036-158;110035-159;
27.04.11;Ntombenkosi Maldaki;07:00:00;16:00:00;60;110023-0;110023-0;110023-0;110023-0;110023-0;110023-0;110023-0;110023-0;
27.04.11;Mark Britten;07:00:00;16:00:00;60;2011-0;2011-0;2011-0;2011-0;2011-0;2011-0;2011-0;2011-0;
27.04.11;Wesley Saunders;07:00:00;16:00:00;60;2011-0;2011-0;2011-0;2011-0;2011-0;2011-0;2011-0;2011-0;
27.04.11;Francois Sayster;07:00:00;16:00:00;60;110023-0;110023-0;110023-0;110023-0;110023-0;110023-0;110023-0;110023-0;
27.04.11;Odwa Dyantyi;07:00:00;16:00:00;60;110023-0;110023-0;110023-0;110023-0;110023-0;110023-0;110023-0;110023-0;
27.04.11;Sesetu Mtukulu;07:00:00;16:00:00;60;110023-0;110023-0;110023-0;110023-0;110023-0;110023-0;110023-0;110023-0;
28.04.11;Brendan van Zyl;07:00:00;16:00:00;60;110101-93;110101-93 / 110101-83;110101-83;110101-86;110101-86 / 110101-89;110101-89;110101-96;110101-96 / 110101-80;
28.04.11;Mario Jansen van Vuuren;08:00:00;16:30:00;30;110036-91;110036-91;110036-91;110036-91;110036-91;110036-91;110036-91;110036-91;
28.04.11;Nico Claassen;07:00:00;16:00:00;60;110023-0;110023-0;110023-0;110023-0;110023-0;110023-0;110023-0;110023-0;
28.04.11;Malcolm Vorster;
28.04.11;Graham Meyer;08:00:00;16:30:00;30;110036-89;110036-89;110036-89;110036-89;110036-89;110036-89;110036-89;110036-89;
28.04.11;Thando Katywa;08:00:00;16:30:00;30;110036-90;110036-90;110036-90;110036-90;110036-90;110036-90;110036-90;110036-90;
28.04.11;Ludumo Sankobe;
28.04.11;Paul Helliwell;07:00:00;16:00:00;60;110036-159;110036-159;110036-159;110036-159;110036-159;110036-161;110036-161;110036-161;
28.04.11;Ntombenkosi Maldaki;07:00:00;16:00:00;60;110023-0;110023-0;110023-0;110023-0;110023-0;110023-0;110023-0;110023-0;
28.04.11;Mark Britten;07:00:00;16:00:00;60;110023-0;110023-0;110023-0;110023-0;110023-0;110023-0;110023-0;110023-0;
28.04.11;Wesley Saunders;07:00:00;16:00:00;60;110023-0;110023-0;110023-0;110023-0;110023-0;110023-0;110023-0;110023-0;
28.04.11;Francois Sayster;07:00:00;16:00:00;60;110023-0;110023-0;110023-0;110023-0;110023-0;110023-0;110023-0;110023-0;
28.04.11;Odwa Dyantyi;07:00:00;16:00:00;60;110025-0;110025-0;110025-0;110025-0;110025-0;110025-0;110025-0;110025-0;
28.04.11;Sesetu Mtukulu;07:00:00;16:00:00;60;110025-0;110025-0;110025-0;110025-0;110025-0;110025-0;110025-0;110025-0;
29.04.11;Brendan van Zyl;07:00:00;16:00:00;60;110018-24 / 110101-80;110101-80;110101-80;110101-80;110101-80;110101-80 / 110101-93;110101-83 / 110101-86;110101-89 / 110101-96;
29.04.11;Mario Jansen van Vuuren;08:00:00;16:30:00;30;110036-91;110036-91;110036-91;110036-91;110036-91;110036-91;110036-91;110036-91;
29.04.11;Nico Claassen;07:00:00;16:00:00;60;110023-0;110023-0;110023-0;110023-0;110023-0;110023-0;110023-0;110023-0;
29.04.11;Malcolm Vorster;
29.04.11;Graham Meyer;08:00:00;16:30:00;30;110036-89;110036-89;110036-89;110036-89;110036-89;110036-89;110036-89;110036-89;
29.04.11;Thando Katywa;08:00:00;16:30:00;30;110036-90;110036-90;110036-90;110036-90;110036-90;110036-90;110036-90;110036-90;
29.04.11;Ludumo Sankobe;
29.04.11;Paul Helliwell;07:00:00;16:00:00;60;110036-159;110036-159;110036-159;110036-159;110036-159;110036-159;110036-159;110036-159;
29.04.11;Ntombenkosi Maldaki;07:00:00;16:00:00;60;110023-0;110023-0;110023-0;110023-0;110023-0;110023-0;110023-0;110023-0;
29.04.11;Mark Britten;07:00:00;16:00:00;60;110023-0;110023-0;110023-0;110023-0;110023-0;110023-0;110023-0;110023-0;
29.04.11;Wesley Saunders;07:00:00;16:00:00;60;110023-0;110023-0;110023-0;110023-0;110023-0;110023-0;110023-0;110023-0;
29.04.11;Francois Sayster;
29.04.11;Odwa Dyantyi;07:00:00;16:00:00;60;110025-0;110025-0;110025-0;110025-0;110025-0;110025-0;110025-0;110025-0;
29.04.11;Sesetu Mtukulu;07:00:00;16:00:00;60;110025-0;110025-0;110025-0;110025-0;110025-0;110025-0;110025-0;110025-0;
30.04.11;Brendan van Zyl;
30.04.11;Mario Jansen van Vuuren;
30.04.11;Nico Claassen;
30.04.11;Malcolm Vorster;
30.04.11;Graham Meyer;
30.04.11;Thando Katywa;
30.04.11;Ludumo Sankobe;
30.04.11;Paul Helliwell;
30.04.11;Ntombenkosi Maldaki;
30.04.11;Mark Britten;
30.04.11;Wesley Saunders;
30.04.11;Francois Sayster;
30.04.11;Odwa Dyantyi;
30.04.11;Sesetu Mtukulu;