"16.05.11","1","110117","158","120","Codierung","","100","CR109da2 Xml-Schema Impl. (from s43). Finished Xml-Schema implementation","08:00","16:30","1","30",
"16.05.11","1","110117","125","120","Codierung","","0","1002: Seq.: (CRO33hz2): Step Delay: Impl. (from s43). Worked on delay step screen","","","7","0",
"17.05.11","2","110117","113","120","Codierung","","0","1002: Seq.: (CR033hz2): Step Screen: Impl.. Created CTS for the Screen Step","08:00","16:30","7","30",
"17.05.11","2","110117","125","120","Codierung","","100","1002: Seq.: (CR033hz2): Step Delay: Impl.. Completed Delay step CTS","","","1","0",
"18.05.11","3","110117","113","120","Codierung","","100","Porsche LUB, 1002: Seq.: (CR033hz2): Step Screen: Impl.. Completed the screen step","08:00","16:30","1","30",
"18.05.11","3","110117","114","120","Codierung","","100","1002: Seq.: (CR033hz2): Step Screen: Sub-Konfigfiles: Impl. Completed sub-config files implementation","","","4,5","0",
"18.05.11","3","110117","115","120","Codierung","","100","Porsche LUB, 1002: Seq.: (CR033hz2): Step Screen: Parsen: Impl.. Completed html file parsing","","","2,5","0",
"19.05.11","4","0","0","100","SOFTWARE-ENTWICKLUNG (SWE)","","0","Travelling. Travelling back to South Africa","07:00","16:00","8","60",
"20.05.11","5","0","0","100","SOFTWARE-ENTWICKLUNG (SWE)","","0","Travelling. Travelling back to South Africa","07:00","16:00","8","60",
