"18.04.11","1","110025","0","170","Schulung","","100","P.Automation Training. P.Automation Training","07:00","16:00","2","60",
"18.04.11","1","110025","0","170","Schulung","","0","P.Automation Get into subject. P.Automation Get into subject","","","6","0",
"19.04.11","2","110025","0","170","Schulung","","0","P.Automation Get into subject. P.Automation Get into subject","07:00","16:00","8","60",
"20.04.11","3","110025","0","170","Schulung","","0","P.Automation Get into subject. P.Automation Get into subject","07:00","16:00","8","60",
"21.04.11","4","100025","0","170","Schulung","","0","P.Automation Get into subject. P.Automation Get into subject","07:00","16:00","8","60",
"22.04.11","5","110023","0","910","Urlaub","","0","Holiday. Public Holiday","07:00","16:00","8","60",
