"13.06.11","1","110025","465","170","Schulung","","0","Training: P.Authoring / P.Office. Training: fiilling_dt2_mip_LibMain","07:00","16:00","8","60",
"14.06.11","2","110025","465","170","Schulung","","0","Training: P.Authoring / P.Office. P.Authoring training","07:00","16:00","8","60",
"15.06.11","3","110025","465","170","Schulung","","0","Training: P.Automation / P.Office. P.Authoring training","07:00","16:00","8","60",
"16.06.11","4","110023","0","910","Urlaub","","100","Holiday. Public holiday","07:00","16:00","8","60",
"17.06.11","5","110023","0","910","Urlaub","","100","Holiday. Time-Off","07:00","16:00","8","60",
