"13.06.11","1","110025","403","170","Schulung","","0","Training: P.Automation. Fixing XML IO Read test sequences","07:00","16:00","8","60",
"14.06.11","2","110025","403","170","Schulung","","0","Training: P.Automation. Fixing XML IO Read test sequences","07:00","16:00","8","60",
"15.06.11","3","110025","403","170","Schulung","","0","Training: P.Automation. Fixing XML IO Write test sequences","07:00","16:00","8","60",
"16.06.11","4","2011","0","910","Urlaub","","0","16.06.2011. Public Holiday","07:00","16:00","8","60",
"17.06.11","5","110018","39","101","PM/Mod/Meetings","","0","Wochenaufgaben AES. Meetings and Timesheets","07:00","16:00","2","60",
"17.06.11","5","110025","403","170","Schulung","","0","Training: P.Automation. Fixing XML IO test sequences","","","6","0",
