"14.02.11","1","09.00582","2873","182","Fehlerbes. nach Ausl. (Bugzilla)","","100","6226: Bugfixing: BF+Test 1.0.2: #28092,#28104. ''from s53'' was assisting with bug fixing of  9x6 ME7.8, ME7.8min,ME52( task has been closed)","07:00","16:00","8","60",
"15.02.11","2","100334","1140","140","Test","","100","3021: Alt-BR : LH ODX Test. I was testing the ODX and compiling the MOTR for all the DSN's","07:00","16:00","8","60",
"16.02.11","3","100334","1133","140","Test","","0","3081:Alt-BR: EZK: ODX Test. Testing ODX  for DSN E00","07:00","16:00","3,5","60",
"16.02.11","3","09.00582","2873","182","Fehlerbes. nach Ausl. (Bugzilla)","","100","6226: Bugfixing: BF+Test 1.0.2: #28092,#28104. ''from s53'' was assisting with bug fixing of  9x6 ME7.8, ME7.8min,ME52 ( task has been closed)","","","4,5","0",
"17.02.11","4","100334","1134","181","Fehlerbes. vor Ausl. (Bugzilla)","","0","3081:Alt-BR: EZK: ODX bugfixing. Changing  DTC implementation","07:00","16:00","8","60",
"18.02.11","5","100334","1134","181","Fehlerbes. vor Ausl. (Bugzilla)","","0","3081:Alt-BR: EZK: ODX bugfixing. Changing  DTC implementation","07:00","16:00","8","60",
