"03.01.11","1","100334","866","110","Engineering","","75","5020: Alt+BR: Alarm: ODX Analyse. Analysing coding, creating flow charts and logging videos","07:00","16:00","8","60",
"04.01.11","2","100334","866","110","Engineering","","80","5020: Alt+BR: Alarm: ODX Analyse. Analysing Coding and systempruefung","07:00","16:00","8","60",
"05.01.11","3","100334","866","110","Engineering","","80","5020: Alt+BR: Alarm: ODX Analyse. Coding Analysis","07:00","16:00","8","60",
"06.01.11","4","100334","866","110","Engineering","","80","5020: Alt+BR: Alarm: ODX Analyse. Capturing logs for all variants in all models for ALARM. Drawing flowcharts.","07:00","16:00","8","60",
"07.01.11","5","100334","866","110","Engineering","","90","5020: Alt+BR: Alarm: ODX Analyse. Finishing writing of coding and analysis of SystemPruefung","07:00","16:00","7,5","60",
"07.01.11","5","110018","37","101","PM/Mod/Meetings","","0","Wochenaufgaben AES. Filling out Timesheets and morning meetings","","","0,5","0",
