"08.08.11","1","2011","0","910","Urlaub","","0","08.08.-09.08.2011. Holiday","07:00","16:00","8","60",
"09.08.11","2","2011","0","910","Urlaub","","0","08.08.-09.08.2011. Holiday","07:00","16:00","8","60",
"10.08.11","3","110117","362","101","PM/Mod/Meetings","","0","8501: weekly telephone conference. Weekly telephone conference","07:00","16:00","0,75","60",
"10.08.11","3","110117","0","181","Fehlerbes. vor Ausl. (Bugzilla)","","0","PIDT SWE Bug Fixing. Working on bugzilla bugs 30924 & 30849","","","7,25","0",
"11.08.11","4","11017","1","140","Test","","0","PIDT SWE Bug testing. Testing bug fixes on bugs 29742 and 30944","07:00","16:00","7","60",
"11.08.11","4","110117","0","181","Fehlerbes. vor Ausl. (Bugzilla)","","0","PIDT SWE Bug Fixing. Working on bugzilla  bug 28933","","","1","0",
"12.08.11","5","110117","0","181","Fehlerbes. vor Ausl. (Bugzilla)","","0","PIDT SWE Bug Fixing. Working on bugzilla  bug 28933","07:00","16:00","8","60",
