"28.03.11","1","110025","363","170","Schulung","","0","P.Automation: get into subject. Getting into subject","07:00","16:00","8","60",
"29.03.11","2","110025","363","170","Schulung","","0","P.Automation: get into subject. Getting into subject","07:00","16:00","8","60",
"30.03.11","3","110025","363","170","Schulung","","0","P.Automation: get into subject. Training staff on Production system + P. Automation","07:00","16:00","4","60",
"30.03.11","3","110025","363","170","Schulung","","0","P.Automation: get into subject. Getting into subject","","","4","0",
"31.03.11","4","110018","28","101","PM/Mod/Meetings","","0","S4 Administrative Tasks. Misc. S4 admin tasks.","07:00","16:00","8","60",
"01.04.11","5","100334","1193","181","Fehlerbes. vor Ausl. (Bugzilla)","","100"," 4060: Alt-BR: ABS: Bugfixing zu Integrationstest. From mc | Investigating variant identification in PIWIS for GT1 ABS. Bug 29216","07:00","16:00","3","60",
"01.04.11","5","110018","26","101","PM/Mod/Meetings","","0","Wochenaufgaben AES. Timesheets + Weekly meetings","","","1","0",
"01.04.11","5","110025","363","170","Schulung","","0","P.Automation: get into subject. Setting up MFTD2x + JRTS","","","4","0",
