"27.02.12","1","110408","0","120","Codierung","","0","generic odx tester. Implementic MAN Generic tester","07:00","16:00","8","60",
"28.02.12","2","110408","0","120","Codierung","","0","generic odx tester. Implementic MAN Generic tester","07:00","16:00","8","60",
"29.02.12","3","110408","0","120","Codierung","","0","generic odx tester. Implementic MAN Generic tester","07:00","16:00","8","60",
"01.03.12","4","110408","0","120","Codierung","","0","generic odx tester. Implementic MAN Generic tester","07:00","16:00","8","60",
"02.03.12","5","120018","22","101","PM/Mod/Meetings","","0","S4/DSA overall. Department Meeting and Doing Timesheets","07:00","16:00","2","60",
"02.03.12","5","110408","0","120","Codierung","","0","generic odx tester. Implementic MAN Generic tester","","","6","0",
