"12.03.12","1","110408","329","182","Fehlerbes. nach Ausl. (Bugzilla)","","0","4210: Bugfixing. worked on bugs # 33613, 33815, 34351","07:00","16:00","8","60",
"13.03.12","2","110408","329","182","Fehlerbes. nach Ausl. (Bugzilla)","","0","4210: Bugfixing. worked on bugs #34349, 34350, 34351, 34352, 34353","07:00","16:00","8","60",
"14.03.12","3","120026","21","101","PM/Mod/Meetings","","0","QW 2012. MAN project meeting","07:00","16:00","0,5","60",
"14.03.12","3","110408","329","101","PM/Mod/Meetings","","0","4210: Bugfixing. worked on bugs #34452, 34453, 34454","","","7,5","0",
"15.03.12","4","110408","329","182","Fehlerbes. nach Ausl. (Bugzilla)","","0","4210: Bugfixing. worked on bugs #34509, 34456","07:00","16:00","8","60",
"16.03.12","5","120018","24","101","PM/Mod/Meetings","","0","S4/DSA overall tasks. Meetings and updating timesheets","07:00","16:00","1,5","60",
"16.03.12","5","120026","21","101","PM/Mod/Meetings","","0","QW 2012. 2.06 RC2 Update Meeting","","","2","0",
"16.03.12","5","120026","21","101","PM/Mod/Meetings","","0","QW 2012. Man Documentation - new Process Description","","","1,5","0",
"16.03.12","5","110408","329","182","Fehlerbes. nach Ausl. (Bugzilla)","","0","4210: Bugfixing. worked on bugs # 34455, 34457","","","3","0",
