"09.01.12","1","110292","266","182","Fehlerbes. nach Ausl. (Bugzilla)","","0","Bugfix 33185, 9999: PIDT 11.9.0. worked on bug 33185","07:00","16:00","4","60",
"09.01.12","1","110665","0","182","Fehlerbes. nach Ausl. (Bugzilla)","","0","Worked on bug 33726. Worked on bug 33726","","","4","0",
"10.01.12","2","110665","0","182","Fehlerbes. nach Ausl. (Bugzilla)","","100","Worked on bug 33726. Worked on bug 33726","07:00","16:00","4","60",
"10.01.12","2","110292","266","182","Fehlerbes. nach Ausl. (Bugzilla)","","0","Bugfix 33185, 9999: PIDT 11.9.0. Worked on bug 33185","","","4","0",
"11.01.12","3","110337","0","182","Fehlerbes. nach Ausl. (Bugzilla)","","0","Worked on bug 33638. Worked on bug 33638","07:00","16:00","8","60",
"12.01.12","4","110292","266","182","Fehlerbes. nach Ausl. (Bugzilla)","","100","Bugfix 33792, 9999: PIDT 11.9.0. Worked on bug 33792","07:00","16:00","5","60",
"12.01.12","4","110292","266","181","Fehlerbes. vor Ausl. (Bugzilla)","","100","Bugfix 33803, 9999: PIDT 11.9.0. Worked on bug 33803","","","3","0",
"13.01.12","5","110292","266","181","Fehlerbes. vor Ausl. (Bugzilla)","","100","Bugfix 33822, 9999: PIDT 11.9.0. Worked on bug 33822","07:00","16:00","2","60",
"13.01.12","5","110337","0","182","Fehlerbes. nach Ausl. (Bugzilla)","","100","Worked on bug 33638. Worked on bug 33638","","","3","0",
"13.01.12","5","110337","0","182","Fehlerbes. nach Ausl. (Bugzilla)","","0","Worked on bug 32579. Worked on bug 32579","","","3","0",
