"23.07.12","1","100769","0","104","Test-Spezifikation","","0","PIDT D3/Automation: Testlink cases. Drafting test-cases for PIDT-Automation imports.","07:00","16:00","4","60",
"23.07.12","1","100769","586","120","Codierung","","0","PIDT D3/Automation: D3AUT_E1 user import problem and data migration. E1 user import problem and data migration","","","4","0",
"24.07.12","2","100769","0","104","Test-Spezifikation","","0","PIDT D3/Automation: Testlink cases. Drafting test-cases for PIDT-Automation imports.","07:00","16:00","2","60",
"24.07.12","2","100769","586","120","Codierung","","0","PIDT D3/Automation: D3AUT_E1: janino fixing and checking in. E1 janino fixing and checking in","","","6","0",
"25.07.12","3","100769","586","120","Codierung","","100","PIDT D3/Automation: D3AUT_E1: data migration. Finalising E1 data migration and checkin, halted due to errors in P1-Authoring","07:00","16:00","8","60",
"26.07.12","4","100769","499","181","Fehlerbes. vor Ausl. (Bugzilla)","","0","1110: Autom. Exporter: Extend Authoring Export f. Autom.: Bugfixing. Bug 37080, handed over to gs and hm.","07:00","16:00","2","60",
"26.07.12","4","100769","499","181","Fehlerbes. vor Ausl. (Bugzilla)","","0","1110: Autom. Exporter: Extend Authoring Export f. Autom.: Bugfixing. Bugs 37077, 37078","","","6","0",
"27.07.12","5","120022","29","101","PM/Mod/Meetings","","0","Wochenaufgaben SWS 2012. Weekly timesheet report, meetings","07:00","16:00","1","60",
"27.07.12","5","120023","0","910","Urlaub","","0","Urlaub. Urlaub","","","2","0",
"27.07.12","5","100769","499","181","Fehlerbes. vor Ausl. (Bugzilla)","","0","1110: Autom. Exporter: Extend Authoring Export f. Autom.: Bugfixing. Bugs 37077, 37088, others?","","","5","0",
