"05.03.12","1","100369","6217","120","Codierung","","0","3122: LP54: Generische ODX Applikationen - Codierung. Trouble shooting (Audi ODX not working with sementic)","07:00","16:00","4","60",
"05.03.12","1","100369","6217","120","Codierung","","0","3122: LP54: Generische ODX Applikationen - Codierung. Trouble shooting MAN ODX not working in MCD2 Automation","","","4","0",
"06.03.12","2","100369","6217","120","Codierung","","0","3122: LP54: Generische ODX Applikationen - Codierung. Trouble shooting MAN ODX not working in MCD2 Automation","07:00","16:00","4","60",
"06.03.12","2","100369","6217","120","Codierung","","0","3122: LP54: Generische ODX Applikationen - Codierung. Uninstalled Automation and installed new MCD3 Automation and  configurations","","","4","0",
"07.03.12","3","100369","6217","120","Codierung","","0","3122: LP54: Generische ODX Applikationen - Codierung. Trouble shooting MAN ODX not working in Automation - VEC is not returned (null)","07:00","16:00","4","60",
"07.03.12","3","100369","6217","120","Codierung","","0","3122: LP54: Generische ODX Applikationen - Codierung. Uninstalled Automation and reinstalled new Automation and new JRTS 3 and configurations","","","2","0",
"07.03.12","3","100369","6217","120","Codierung","","0","3122: LP54: Generische ODX Applikationen - Codierung. Troble shooting Automation with new MCD3 ini files","","","2","0",
"08.03.12","4","100369","6217","120","Codierung","","0","3122: LP54: Generische ODX Applikationen - Codierung. Uninstalling and installing P.Automation MCD3 and configuring","07:00","16:00","2","60",
"08.03.12","4","100369","6217","120","Codierung","","0","3122: LP54: Generische ODX Applikationen - Codierung. Uninstalling and installing P.Automation MCD3 and configuring","","","2","0",
"08.03.12","4","100369","6217","120","Codierung","","0","3122: LP54: Generische ODX Applikationen - Codierung. Implementation of MAN Generic Tester - Executing service with sementic and getting part Number","","","2","0",
"08.03.12","4","100369","6217","120","Codierung","","0","3122: LP54: Generische ODX Applikationen - Codierung. Trouble shooting MAN ODX not working in Automation - VEC is not returned (null)","","","2","0",
"09.03.12","5","120018","22","101","PM/Mod/Meetings","","0","S4/DSA overall. Department Meeting and Doing","07:00","16:00","2","60",
"09.03.12","5","100369","6217","120","Codierung","","0","3122: LP54: Generische ODX Applikationen - Codierung. Implementing Identification for MAN Generic Tester CTS","","","3","0",
"09.03.12","5","100369","6217","120","Codierung","","0","3122: LP54: Generische ODX Applikationen - Codierung. Implementing DTC's CTS for MAN Generic Tester CTS","","","3","0",
