"13.08.12","1","100769","0","181","Fehlerbes. vor Ausl. (Bugzilla)","","0","Worked on bug 37293. Worked on bug 37293","07:00","16:00","1,5","60",
"13.08.12","1","100769","0","181","Fehlerbes. vor Ausl. (Bugzilla)","","0","Investigated bug 37325. Investigated bug 37325","","","1,5","0",
"13.08.12","1","100769","0","181","Fehlerbes. vor Ausl. (Bugzilla)","","0","Investigated bug 37320. Investigated bug 37320","","","2","0",
"13.08.12","1","100769","0","181","Fehlerbes. vor Ausl. (Bugzilla)","","0","Investigated bug 37301. Investigated bug 37301","","","3","0",
"14.08.12","2","100769","0","101","PM/Mod/Meetings","","0","PIDT Automation Merge Process Meeting. Meeting","07:00","16:00","1","60",
"14.08.12","2","100769","0","181","Fehlerbes. vor Ausl. (Bugzilla)","","0","Worked on bug 37295. Worked on bug 37295","","","1,5","0",
"14.08.12","2","100769","0","181","Fehlerbes. vor Ausl. (Bugzilla)","","0","Investigated bug 37301. Investigated bug 37301","","","5,5","0",
"15.08.12","3","100769","0","110","Engineering","","0","Downloading and setting up new PIDT Automation workspace. Downloading and setting up new PIDT Automation workspace","07:00","16:00","4","60",
"15.08.12","3","100769","0","181","Fehlerbes. vor Ausl. (Bugzilla)","","0","Worked on bug 37202. Worked on bug 37202","","","1","0",
"15.08.12","3","100769","0","181","Fehlerbes. vor Ausl. (Bugzilla)","","0","Investigated bug 37301. Investigated bug 37301","","","3","0",
"16.08.12","4","100769","0","110","Engineering","","0","Downloading and setting up new PIDT Automation workspace. Downloading and setting up new PIDT Automation workspace","07:00","16:00","2","60",
"16.08.12","4","100769","0","181","Fehlerbes. vor Ausl. (Bugzilla)","","0","Investigated bug 37301. Investigated bug 37301","","","6","0",
"17.08.12","5","100769","0","181","Fehlerbes. vor Ausl. (Bugzilla)","","0","Investigated bug 37301. Investigated bug 37301","07:00","16:00","3","60",
"17.08.12","5","100769","0","181","Fehlerbes. vor Ausl. (Bugzilla)","","0","Work on bug 37320. Work on bug 37320","","","2","0",
"17.08.12","5","100769","0","181","Fehlerbes. vor Ausl. (Bugzilla)","","0","Work on bugs 37326, 37325, 37324. Work on bugs 37326, 37325, 37324","","","1","0",
"17.08.12","5","100769","0","181","Fehlerbes. vor Ausl. (Bugzilla)","","0","Investigate bug 37304. Investigate bug 37304","","","2","0",
