"13.02.12","1","110665","61","120","Codierung","","100","1130: PIDT 12.0: CR148my4: Type series: Impl.. Closing finished task","07:00","16:00","0","60",
"13.02.12","1","110665","59","104","Test-Spezifikation","","100","1130: PIDT 12.0: CR148my4: Type series: Testspec. Working on test cases for feature","","","4","0",
"13.02.12","1","110665","60","120","Codierung","","100","1130: PIDT 12.0: CR148my4: Type series: Simulation generation. Closing finished task","","","0","0",
"13.02.12","1","110665","84","104","Test-Spezifikation","","100","1160: PIDT 12.0: CR148my1: Alternativ: Testspec. Closing finished task","","","0","0",
"13.02.12","1","110665","86","120","Codierung","","100","1160: PIDT 12.0: CR148my1: Alternativ: PH, get into & customer contact. Closing finished task","","","0","0",
"13.02.12","1","110665","87","120","Codierung","","100","1160: PIDT 12.0: CR148my1: Alternativ: Impl.. Closing finished task","","","0","0",
"13.02.12","1","110665","92","181","Fehlerbes. vor Ausl. (Bugzilla)","","0","1191: PIDT: 12.0: Bugfixing before CF. Working on Bug 34354","","","4","0",
"14.02.12","2","110665","92","181","Fehlerbes. vor Ausl. (Bugzilla)","","0","1191: PIDT: 12.0: Bugfixing before CF. Working on Bug 34365","07:00","16:00","2","60",
"14.02.12","2","110665","44","120","Codierung","","0","1110: PIDT 12.0: CR150my3: MCR: Impl.. Working on implementation of feature","","","6","0",
"15.02.12","3","110665","44","120","Codierung","","0","1110: PIDT 12.0: CR150my3: MCR: Impl.. Working on implementation of feature","07:00","16:00","8","60",
"16.02.12","4","110665","44","120","Codierung","","100","1110: PIDT 12.0: CR150my3: MCR: Impl.. Working on implementation of feature","07:00","16:00","2","60",
"16.02.12","4","110665","40","104","Test-Spezifikation","","0","1110: PIDT 12.0: CR150my3: MCR: Testspec. Working on test cases for the feature","","","6","0",
"17.02.12","5","120018","38","101","PM/Mod/Meetings","","0","Wochenaufgaben SWS. Weekly tele-conference meeting","07:00","16:00","0,75","60",
"17.02.12","5","110665","92","181","Fehlerbes. vor Ausl. (Bugzilla)","","0","1191: PIDT: 12.0: Bugfixing before CF. Working on Bug 34462","","","4","0",
"17.02.12","5","110665","40","104","Test-Spezifikation","","100","1110: PIDT 12.0: CR150my3: MCR: Testspec. Working on test cases for the feature","","","3,25","0",
