"12.11.12","1","120246","0","102","Spez: LH/PH/Design","","0","MIA Sequences - EGV Key Type Management PA and PH. PA implentation and PH","07:00","16:00","8","60",
"13.11.12","2","120246","0","102","Spez: LH/PH/Design","","0","MIA Sequences - EGV Key Type Management PA and PH. Creating PH","07:00","16:00","8","60",
"14.11.12","3","100498","0","182","Fehlerbes. nach Ausl. (Bugzilla)","","0","Bugfixing - Bug 38773. Bug analysis and fix","07:00","16:00","8","60",
"15.11.12","4","100498","2","182","Fehlerbes. nach Ausl. (Bugzilla)","","0","Bugfixing - Bug 39321. Bug analysis and fix","07:00","16:00","8","60",
"16.11.12","5","120246","0","102","Spez: LH/PH/Design","","0","MIA Sequences - EGV Key Type Management PA and PH. Update after review","07:00","16:00","3","60",
"16.11.12","5","100498","1","182","Fehlerbes. nach Ausl. (Bugzilla)","","0","Bugfixing - Bug 39321. Bug analysis and fix","","","4,5","0",
"16.11.12","5","120022","183","101","PM/Mod/Meetings","","0","Wochenaufgaben SWS. Timesheets","","","0,5","0",
