"11.06.12","1","100769","412","120","Codierung","","100","1130: TSEngine: Integration user action tracking B3.4/pa35. Implementation of extentions to TSEngine","07:00","16:00","8","60",
"12.06.12","2","120023","0","910","Urlaub","","0","Urlaub. Urlaub","07:00","16:00","3","60",
"12.06.12","2","120022","29","101","PM/Mod/Meetings","","0","Wochenaufgaben SWS 2012. Meeting","","","0,5","0",
"12.06.12","2","100769","480","120","Codierung","","0","1130: TSEngine Merge to Trunk. Task of (eb), merge changes from P1 to P1_DEV","","","4,5","0",
"13.06.12","3","120023","0","910","Urlaub","","0","Urlaub. Urlaub","07:00","16:00","4","60",
"13.06.12","3","100769","480","120","Codierung","","0","1130: TSEngine Merge to Trunk. Task of (eb), merge changes from P1 to P1_DEV","","","4","0",
"14.06.12","4","120022","29","101","PM/Mod/Meetings","","0","Wochenaufgaben SWS 2012. Meeting","07:00","16:00","0,5","60",
"14.06.12","4","100769","562","120","Codierung","","0","1110: Autom. Exporter: Merge to Trunk. Task of (le), merge changes from P1 to P1_DEV","","","6,5","0",
"14.06.12","4","120023","0","910","Urlaub","","0","Urlaub. Urlaub","","","1","0",
"15.06.12","5","120022","29","101","PM/Mod/Meetings","","0","Wochenaufgaben SWS 2012. Weekly timesheet report, telco meeting with (my)","07:00","16:00","1","60",
"15.06.12","5","100769","562","120","Codierung","","0","1110: Autom. Exporter: Merge to Trunk. Task of (le), merge changes from P1 to P1_DEV","","","7","0",
