"09.01.12","1","120023","0","910","Urlaub","","0","Urlaub. Holiday","07:00","16:00","8","60",
"10.01.12","2","120023","0","910","Urlaub","","0","Urlaub. Holiday","07:00","16:00","8","60",
"11.01.12","3","120023","0","910","Urlaub","","0","Urlaub. Holiday","07:00","16:00","8","60",
"12.01.12","4","120023","0","910","Urlaub","","0","Urlaub. Holiday","07:00","16:00","8","60",
"13.01.12","5","120023","0","910","Urlaub","","0","Urlaub. Holiday","07:00","16:00","8","60",
