"03.12.12","1","100769","850","120","Codierung","","0","1110: Merge Java source. Merging Authoring entities","07:00","16:00","8","60",
"04.12.12","2","100769","850","120","Codierung","","0","1110: Merge Java source. Merging Authoring entities","07:00","16:00","8","60",
"05.12.12","3","100769","850","120","Codierung","","0","1110: Merge Java source. Merging Authoring entities","07:00","16:00","8","60",
"06.12.12","4","100769","850","120","Codierung","","0","1110: Merge Java source. Setting up automation workspace with PIDT 12.5.3 merge feature","07:00","16:00","8","60",
"07.12.12","5","100769","850","120","Codierung","","0","1110: Merge Java source. Merging Authoring entities","07:00","16:00","7","60",
"07.12.12","5","120022","185","101","PM/Mod/Meetings","","0","Wochenaufgaben SWS. Meeting","","","1","0",
