"12.11.12","1","120222","49","181","Fehlerbes. vor Ausl. (Bugzilla)","","0","1090: Bugfixing nach CF. Working on  bugs: 39353, 38262","07:00","16:00","8","60",
"13.11.12","2","120222","49","181","Fehlerbes. vor Ausl. (Bugzilla)","","0","1090: Bugfixing nach CF. Working on bugs: 39353, 39383","07:00","16:00","8","60",
"14.11.12","3","120222","49","181","Fehlerbes. vor Ausl. (Bugzilla)","","0","1090: Bugfixing nach CF. Working on bugs: 39346, 39353, 39383","07:00","16:00","8","60",
"15.11.12","4","120222","49","181","Fehlerbes. vor Ausl. (Bugzilla)","","0","1090: Bugfixing nach CF. Working on bugs: 39387, 39398, 39396, 39364, 39379","07:00","16:00","8","60",
"16.11.12","5","120022","184","101","PM/Mod/Meetings","","0","Wochenaufgaben SWS. Weekly general tasks","07:00","16:00","1","60",
"16.11.12","5","120222","49","181","Fehlerbes. vor Ausl. (Bugzilla)","","0","1090: Bugfixing nach CF. Working on bugs: 39379","","","4,75","0",
"16.11.12","5","120222","0","140","Test","","0","PIDT 12.5.4 Testing. Performing PIDT 12.5.4 TouchEveryFeature tests","","","2,25","0",
