"26.03.12","1","120018","18","101","PM/Mod/Meetings","","0","S4 Administrative Tasks. Meeting with S4 Managment","07:00","16:00","0,5","60",
"26.03.12","1","09.00790","3945","120","Codierung","","0","6212: P.Autom. R6: *F33 Task Magr: Update: Activation CTSs F3.10/ae10. Working on release activation + semaphores","","","3","0",
"26.03.12","1","09.00790","3940","120","Codierung","","0","6212: P.Autom. R6: *F33 Task Magr: Update: Impl Release Update F3.5/ae10. Troubleshooting release process on JRTS","","","2,5","0",
"26.03.12","1","120018","19","101","PM/Mod/Meetings","","0","S4 Technical Support / Troubleshoot. Supporting Team Members","","","2","0",
"27.03.12","2","09.00790","3940","120","Codierung","","0","6212: P.Autom. R6: *F33 Task Magr: Update: Impl Release Update F3.5/ae10. Download + Install + Cold Start new JRTS","07:00","16:00","1","60",
"27.03.12","2","09.00790","3940","120","Codierung","","0","6212: P.Autom. R6: *F33 Task Magr: Update: Impl Release Update F3.5/ae10. Troubleshoot problems with release update.","","","3","0",
"27.03.12","2","120018","19","101","PM/Mod/Meetings","","0","S4 Technical Support / Troubleshoot. Supporting Team Members","","","4","0",
"28.03.12","3","09.00790","3940","120","Codierung","","0","6212: P.Autom. R6: *F33 Task Magr: Update: Impl Release Update F3.5/ae10. Troubleshooting release process on JRTS","07:00","16:00","6","60",
"28.03.12","3","120018","19","101","PM/Mod/Meetings","","0","S4 Technical Support / Troubleshoot. Supporting Team Members","","","2","0",
"29.03.12","4","09.00790","3940","120","Codierung","","0","6212: P.Autom. R6: *F33 Task Magr: Update: Impl Release Update F3.5/ae10. Troubleshooting release process on JRTS","07:00","16:00","4","60",
"29.03.12","4","09.00790","3941","120","Codierung","","0","6212: P.Autom. R6: *F33 Task Magr: Update: Impl ODX Update F3.6/ae10. Troubleshooting ODX release process on JRTS","","","3","0",
"29.03.12","4","120018","19","101","PM/Mod/Meetings","","0","S4 Technical Support / Troubleshoot. Supporting Team Members","","","1","0",
"30.03.12","5","09.00790","3940","120","Codierung","","0","6212: P.Autom. R6: *F33 Task Magr: Update: Impl Release Update F3.5/ae10. Troubleshoot problems with release update.","07:00","16:00","1","60",
"30.03.12","5","09.00790","3941","120","Codierung","","0","6212: P.Autom. R6: *F33 Task Magr: Update: Impl ODX Update F3.6/ae10. Implement msdf-release update into ODX update CTS","","","5","0",
"30.03.12","5","120018","21","101","PM/Mod/Meetings","","0","Management group AES. Timesheets + Dailty Meetings","","","1","0",
"30.03.12","5","120018","21","101","PM/Mod/Meetings","","0","Management group AES. Telco with hd","","","0,5","0",
"30.03.12","5","120018","57","101","PM/Mod/Meetings","","0","S4 HR management. Preparation for new staff member","","","0,5","0",
