"20.08.12","1","100769","499","181","Fehlerbes. vor Ausl. (Bugzilla)","","0","1110: Autom. Exporter: Extend Authoring Export f. Autom.: Bugfixing. Bugs 37355","07:00","16:00","8","60",
"21.08.12","2","100769","499","181","Fehlerbes. vor Ausl. (Bugzilla)","","100","1110: Autom. Exporter: Extend Authoring Export f. Autom.: Bugfixing. Bugs 37355","07:00","16:00","4","60",
"21.08.12","2","100769","0","110","Engineering","","0","SWE: PIDT-Automation: PIDT runtime: workspace. PIDT runtime: workspace setup","","","4","0",
"22.08.12","3","100769","0","110","Engineering","","100","SWE: PIDT-Automation: PIDT runtime setup. PIDT runtime workspace setup","07:00","16:00","3","60",
"22.08.12","3","100769","0","181","Fehlerbes. vor Ausl. (Bugzilla)","","0","SWE: PIDT-Automation: PIDT runtime bug-fixing. Bugs 37204, 37517, 37587, 37518","","","5","0",
"23.08.12","4","100769","0","181","Fehlerbes. vor Ausl. (Bugzilla)","","0","SWE: PIDT-Automation: PIDT runtime bug fixing. Bugs 37204, 37517, 37587, 37518","07:00","16:00","8","60",
"24.08.12","5","120022","29","101","PM/Mod/Meetings","","0","Wochenaufgaben SWS 2012. Weekly timesheet report, meetings","07:00","16:00","1,5","60",
"24.08.12","5","100769","0","181","Fehlerbes. vor Ausl. (Bugzilla)","","0","SWE: PIDT-Automation: PIDT runtime bug fixing. Bugs 37204, 37518","","","6,5","0",
