"23.07.12","1","110437","431","130","Installation + Konfiguration","","0","9999: Integrating NA tester to DSA sequences project in automation. Replacing Audi custom CTS with new generic plant config CTS","07:00","16:00","8","60",
"24.07.12","2","110437","431","130","Installation + Konfiguration","","0","9999: Integrating NA tester to DSA sequences project in automation. CTS and Screens modifications","07:00","16:00","8","60",
"25.07.12","3","120171","0","181","Fehlerbes. vor Ausl. (Bugzilla)","","0","BugFixing. Bug 37058,Bug 37001,Bug 37014,Bug 35656,Bug 36986","07:00","16:00","8","60",
"26.07.12","4","120171","0","181","Fehlerbes. vor Ausl. (Bugzilla)","","0","BugFixing. Importing of the ODX data into authoring","07:00","16:00","8","60",
"27.07.12","5","120171","0","181","Fehlerbes. vor Ausl. (Bugzilla)","","0","BugFixing. Importing of the ODX data into authoring","07:00","16:00","8","60",
