"25.06.12","1","120023","0","920","Krankheit","","0","Krankheit. Sick leave","07:00","16:00","8","60",
"26.06.12","2","100769","391","110","Engineering","","0","14b0: Review Migr.path: Find D3 to Auth 3.2 Comparison. Continue implementation and comparison of D3-D5 export","07:00","16:00","4","60",
"26.06.12","2","100769","0","110","Engineering","","0","SWE: PIDT/D3 automation project: VM and database setup. Finalise vmapp0a setup and database import","","","4","0",
"27.06.12","3","100769","391","110","Engineering","","0","14b0: Review Migr.path: Find D3 to Auth 3.2 Comparison. Continue implementation and comparison of D3-D5 export","07:00","16:00","8","60",
"28.06.12","4","100769","391","110","Engineering","","0","14b0: Review Migr.path: Find D3 to Auth 3.2 Comparison. Continue implementation and comparison of D3-D5 export","07:00","16:00","8","60",
"29.06.12","5","120022","29","101","PM/Mod/Meetings","","0","Wochenaufgaben SWS 2012. Weekly reports, meetings","07:00","16:00","1,5","60",
"29.06.12","5","100769","391","110","Engineering","","100","14b0: Review Migr.path: Find D3 to Auth 3.2 Comparison. Continue implementation and comparison of D3-D5 export","","","6,5","0",
