"05.03.12","1","110665","140","140","Test","","100","1130: PIDT 12.0: CR148my4: Test. CLOSE TASK","07:00","16:00","0","60",
"05.03.12","1","110665","43","120","Codierung","","0","1110: PIDT 12.0: CR150my3: MCR: Impl.. Refactoring mcr Building blocks into PIDT source","","","8","0",
"06.03.12","2","110665","43","120","Codierung","","0","1110: PIDT 12.0: CR150my3: MCR: Impl.. Refactoring mcr Building blocks into PIDT source","07:00","16:00","8","60",
"07.03.12","3","110665","43","120","Codierung","","0","1110: PIDT 12.0: CR150my3: MCR: Impl.. Refactoring mcr Building blocks into PIDT source","07:00","16:00","8","60",
"08.03.12","4","110665","43","120","Codierung","","0","1110: PIDT 12.0: CR150my3: MCR: Impl.. Refactoring mcr Building blocks into PIDT source - JavaDoc","07:00","16:00","8","60",
"09.03.12","5","120018","37","101","PM/Mod/Meetings","","0","Wochenaufgaben SWS. Weekly telco","07:00","16:00","0,5","60",
"09.03.12","5","120018","37","101","PM/Mod/Meetings","","0","Wochenaufgaben SWS. Timesheets","","","0,5","0",
"09.03.12","5","110665","43","120","Codierung","","0","1110: PIDT 12.0: CR150my3: MCR: Impl.. Initial CTS implimentation","","","7","0",
