"22.10.12","1","120222","0","182","Fehlerbes. nach Ausl. (Bugzilla)","","0","Worked on bug 37262. Investigating and fixing bug 37262","07:00","16:00","3","60",
"22.10.12","1","0","0","170","Schulung","","0","Training Marizanne with regards to PIDT, PIDT code and simulations. Training Marizanne with regards to PIDT, PIDT code and simulations","","","4","0",
"22.10.12","1","120222","34","120","Codierung","","0","1002: Varianten: Implem. / F1.6-F1.9 CR227my3. Fixing problems found in code review","","","1","0",
"23.10.12","2","120222","34","120","Codierung","","0","1002: Varianten: Implem. / F1.6-F1.9 CR227my3	. Fixing problems found in code review 2","07:00","16:00","8","60",
"24.10.12","3","120222","34","120","Codierung","","0","1002: Varianten: Implem. / F1.6-F1.9 CR227my3	. Fixing problems found in code review","07:00","16:00","7","60",
"24.10.12","3","120022","185","101","PM/Mod/Meetings","","0","Wochenaufgaben SWS. Meeting","","","1","0",
"25.10.12","4","120222","34","120","Codierung","","0","1002: Varianten: Implem. / F1.6-F1.9 CR227my3. Fixed code review problems","07:00","16:00","6","60",
"25.10.12","4","120222","0","182","Fehlerbes. nach Ausl. (Bugzilla)","","100","Worked on bug 38177. Worked on bug 38177","","","1","0",
"25.10.12","4","120222","0","182","Fehlerbes. nach Ausl. (Bugzilla)","","100","Worked on bug 37781. Worked on bug 37781","","","1","0",
"26.10.12","5","120222","0","182","Fehlerbes. nach Ausl. (Bugzilla)","","0","PIDT 12.8.0 bugfixing. PIDT 12.8.0 bugfixing","07:00","16:00","4","60",
"26.10.12","5","120023","0","910","Urlaub","","0","Holiday. Leave","","","4","0",
