DATE;NAME;PROJECT;ACTIVITY;DESCRIPTION;NORMAL HOURS;LUNCH HOURS;OVERTIME HOURS;
09.01.12;Brendan van Zyl;110036-0;182;SWE: Authoring.ODX bugs 30193, 29434. 30193, 29434;8;1;0;
09.01.12;Nico Claassen;120023-0;910;Urlaub. Holiday;8;1;0;
09.01.12;Thando Katywa;110665-0;182;Bugfixing 33252 aus Vorreleases. Working on bugzilla  bug 33252;4.00;1;0;
09.01.12;Thando Katywa;110665-1;182;Bugfixing 33516 aus Vorreleases. Working on bugzilla  bug 33516;4;0;0;
09.01.12;Wesley Saunders;120018-25;101;S4/DSA overall tasks. Getting set up in Germnay;7.50;0.5;0;
10.01.12;Brendan van Zyl;110036-0;182;SWE: Authoring.ODX bugs 29434, 32253, 33486. Bugs 29434, 32253, 33486;8;1;0;
10.01.12;Nico Claassen;120023-0;910;Urlaub. Holiday;8;1;0;
10.01.12;Thando Katywa;110665-2;182;Bugfixing 32726 aus Vorreleases. Working on bugzilla bug 32726;4.00;1;0;
10.01.12;Thando Katywa;110665-3;182;Bugfixing 33368 aus Vorreleases. Working on bugzilla bug 33368;4;0;0;
10.01.12;Wesley Saunders;120025-22;170;Training 2012. Documentation workthrough, understanding sessions;4.00;0.5;0;
10.01.12;Wesley Saunders;110408-186;120;3110: BaseLib: Stufe 3: INTA: Update. closing task;0.00;0;0;
10.01.12;Wesley Saunders;110408-190;120;3110: BaseLib: Stufe 3: SKG: Update. updating to baselib 2.5.03. closing task;1.60;0;0;
10.01.12;Wesley Saunders;110408-192;120;3110: BaseLib: Stufe 3: TBM: Update. (from s53) updating to baselib 2.5.03;1.90;0;0;
11.01.12;Brendan van Zyl;110036-0;182;SWE: Authoring.ODX bugs 29434, 32253. Bugs 29434, 32253;8;1;0;
11.01.12;Nico Claassen;120023-0;910;Urlaub. Holiday;8;1;0;
11.01.12;Thando Katywa;110665-2;182;Bugfixing 32726 aus Vorreleases. Working on bugzilla bug 32726;4.00;1;0;
11.01.12;Thando Katywa;110665-3;182;Bugfixing 33314 aus Vorreleases. Working on bugzilla bug 33314;2.00;0;0;
11.01.12;Thando Katywa;110665-4;182;Bugfixing 33256 aus Vorreleases. Working on bugzilla bug 33256;2;0;0;
11.01.12;Wesley Saunders;120018-25;101;S4/DSA overall tasks. DSA press conference;3.00;0.5;0;
11.01.12;Wesley Saunders;110408-192;120;3110: BaseLib: Stufe 3: TBM: Update. (from s53) updating to baselib 2.5.03;2.50;0;0;
11.01.12;Wesley Saunders;120025-22;170;Training 2012. Fixing ruleset in In2Soft and repairing odx;2.00;0;0;
12.01.12;Nico Claassen;120023-0;910;Urlaub. Holiday;8;1;0;