"26.03.12","1","100369","0","140","Test","","0","Integrationstests. Tested and Verifiying Authoring bugs(32158,33782,33356,28636,31070,31990,31783,27754,32254)","07:00","16:00","8","60",
"27.03.12","2","100369","0","140","Test","","0","Integrationstests. Tested and Verifiying Authoring bugs(31816,32311,29690,34962,30269,33356,34916,34842,34842,34608)","07:00","16:00","8","60",
"28.03.12","3","100369","0","140","Test","","0","Integrationstests. Tested and Verifiying Authoring bugs(34546,34152,31989,29434,33921,34762,33352,29410,32327,31294)","07:00","16:00","6","60",
"28.03.12","3","100369","0","140","Test","","0","Integrationstests. Downloading and Installing current version of Authoring","","","2","0",
"29.03.12","4","100369","0","140","Test","","0","Integrationstests. Tested and Verifiying Authoring bugs(33343,28299,28597,29521,31304,33339,34525,34929,35162,35100)","07:00","16:00","8","60",
"30.03.12","5","100369","0","140","Test","","0","Integrationstests. Tested and Verifiying Authoring bugs(35099,31864,35057,34937)","07:00","16:00","6","60",
"30.03.12","5","120018","22","101","PM/Mod/Meetings","","0","S4/DSA overall. Department Meeting and Doing Timesheet","","","2","0",
