"08.10.12","1","120023","0","910","Urlaub","","0","Urlaub. S4 Management Meeting","07:00","16:00","8","60",
"09.10.12","2","120023","0","910","Urlaub","","0","Urlaub. S4 Management Meeting","07:00","16:00","8","60",
"10.10.12","3","120253","24","120","Codierung","","0","ITS SG: Erstellung Ablauf Monitoring Engine F1.9/ae10. Implementation of evaluation of Monitors","07:00","16:00","5","60",
"10.10.12","3","120018","19","101","PM/Mod/Meetings","","0","S4 Technical Support / Troubleshoot. Supporting Team Members","","","3","0",
"11.10.12","4","120253","24","120","Codierung","","0","ITS SG: Erstellung Ablauf Monitoring Engine F1.9/ae10. Implementation of email and Vehicle Status","07:00","16:00","5","60",
"11.10.12","4","120018","57","101","PM/Mod/Meetings","","0","S4 HR management. Interviews for new staff members","","","2","0",
"11.10.12","4","120018","19","101","PM/Mod/Meetings","","0","S4 Technical Support / Troubleshoot. Supporting Team Members","","","1","0",
"12.10.12","5","120253","21","120","Codierung","","0","ITS SG: Erstellung Ablauf-Sampler F1.6/ae10. Corrections to the Signal VCI data reading from DtObject","07:00","16:00","3","60",
"12.10.12","5","120018","19","101","PM/Mod/Meetings","","0","S4 Technical Support / Troubleshoot. Supporting Team Members","","","3,5","0",
"12.10.12","5","120018","21","101","PM/Mod/Meetings","","0","Management group AES. Timesheets + Meetings","","","1,5","0",
