"26.11.12","1","100553","1677","181","Fehlerbes. vor Ausl. (Bugzilla)","","0","Bugfix Release MAN Migration ODX: Bearbeitung von Bugs. worked on bugs #39429, 39608, 39610, 39718","07:00","16:00","8","60",
"27.11.12","2","100553","1677","181","Fehlerbes. vor Ausl. (Bugzilla)","","0","Bugfix Release MAN Migration ODX: Bearbeitung von Bugs. worked on bugs #39610, 39718","07:00","16:00","8","60",
"28.11.12","3","100553","1677","181","Fehlerbes. vor Ausl. (Bugzilla)","","0","Bugfix Release MAN Migration ODX: Bearbeitung von Bugs. worked on bugs #39429, 39608","07:00","16:00","8","60",
"29.11.12","4","100498","289","182","Fehlerbes. nach Ausl. (Bugzilla)","","0","8080: P3 #38871 (normal) PCM2 Bose:5000: manuelle und automatische Audiotests brechen mit neg. Respo. bugfixing","07:00","16:00","6","60",
"29.11.12","4","100553","1677","181","Fehlerbes. vor Ausl. (Bugzilla)","","0","Bugfix Release MAN Migration ODX: Bearbeitung von Bugs. worked on bugs #39429, 39608","","","2","0",
"30.11.12","5","120018","24","101","PM/Mod/Meetings","","0","S4/DSA overall tasks. Meetings and updating timesheets","07:00","16:00","2","60",
