"15.10.12","1","100769","0","181","Fehlerbes. vor Ausl. (Bugzilla)","","0","SWE: PIDT.Automation. Setting up workspace","07:00","16:00","8","60",
"16.10.12","2","100769","0","181","Fehlerbes. vor Ausl. (Bugzilla)","","0","SWE: PIDT.Automation. Setting up workspace","07:00","16:00","8","60",
"17.10.12","3","100769","0","181","Fehlerbes. vor Ausl. (Bugzilla)","","0","SWE: PIDT.Automation. Setting up workspace","07:00","16:00","6","60",
"17.10.12","3","100769","0","181","Fehlerbes. vor Ausl. (Bugzilla)","","0","SWE: PIDT.Automation. Bug 38699","","","2","0",
"18.10.12","4","100769","0","181","Fehlerbes. vor Ausl. (Bugzilla)","","0","SWE: PIDT.Automation. Bug 38699","07:00","16:00","8","60",
"19.10.12","5","100769","0","181","Fehlerbes. vor Ausl. (Bugzilla)","","0","SWE: PIDT.Automation. Bug 38699 (commit and test)","07:00","16:00","6,5","60",
"19.10.12","5","120022","0","101","PM/Mod/Meetings","","0","SWE. Meetings, admin","","","1,5","0",
