"10.12.12","1","120023","2067","910","Urlaub","","0","Urlaub. Urlaub","07:00","16:00","8","60",
"11.12.12","2","120023","2067","910","Urlaub","","0","Urlaub. Urlaub","07:00","16:00","8","60",
"12.12.12","3","120023","2067","910","Urlaub","","0","Urlaub. Urlaub","07:00","16:00","8","60",
"13.12.12","4","120023","2067","910","Urlaub","","0","Urlaub. Urlaub","07:00","16:00","8","60",
"14.12.12","5","120023","2067","910","Urlaub","","0","Urlaub. Urlaub","07:00","16:00","8","60",
