"23.07.12","1","120171","146","182","Fehlerbes. nach Ausl. (Bugzilla)","","0","4185: BaseLib: Stufe 1234: Bugfixing nach Auslieferung. worked on bugs #36868, 36867, 34493, 36947","07:00","16:00","8","60",
"24.07.12","2","120171","146","182","Fehlerbes. nach Ausl. (Bugzilla)","","0","4185: BaseLib: Stufe 1234: Bugfixing nach Auslieferung. worked on bugs #36871, 36870, 36972, 34873, 34875","07:00","16:00","8","60",
"25.07.12","3","120171","146","182","Fehlerbes. nach Ausl. (Bugzilla)","","0","4185: BaseLib: Stufe 1234: Bugfixing nach Auslieferung. worked on bugs #36835, 35195, 35473, 33236","07:00","16:00","8","60",
"26.07.12","4","120026","21","101","PM/Mod/Meetings","","0","QW 2012. downloading P.Authoring  and installing","07:00","16:00","4","60",
"26.07.12","4","120171","146","182","Fehlerbes. nach Ausl. (Bugzilla)","","0","4185: BaseLib: Stufe 1234: Bugfixing nach Auslieferung. import ECUs into authoring and checking data.","","","4","0",
"27.07.12","5","120018","21","101","PM/Mod/Meetings","","0","S4/DSA overall tasks. Meetings and updating timesheets","07:00","16:00","2","60",
"27.07.12","5","120171","146","182","Fehlerbes. nach Ausl. (Bugzilla)","","0","4185: BaseLib: Stufe 1234: Bugfixing nach Auslieferung. import ECUs into authoring and checking data.","","","6","0",
