"26.11.12","1","120559","104","130","Installation + Konfiguration","","0","PIDT OTX Ext.: Create Vehicle Platform. PIDT OTX Ext.: Create Vehicle Platform: Take over E1 and reconfigure","07:00","16:00","8","60",
"27.11.12","2","120036","0","170","Schulung","","0","Training. Training and assistance: s67","07:00","16:00","1","60",
"27.11.12","2","120559","104","130","Installation + Konfiguration","","0","PIDT OTX Ext.: Create Vehicle Platform. PIDT OTX Ext.: Create Vehicle Platform: Build VW37ODX and vehicle platform","","","7","0",
"28.11.12","3","120559","104","130","Installation + Konfiguration","","0","PIDT OTX Ext.: Create Vehicle Platform. PIDT OTX Ext.: Create Vehicle Platform: Test in PIDT and rebuild","07:00","16:00","7","60",
"28.11.12","3","120036","0","170","Schulung","","0","SWE: PIDT/D3 Automation. Training and assistance: s67","","","1","0",
"29.11.12","4","120559","104","130","Installation + Konfiguration","","100","PIDT OTX Ext.: Create Vehicle Platform. Rebuild platform and ODX runtime on PCPAG10 after failed upload","07:00","16:00","2","60",
"29.11.12","4","100769","0","120","Codierung","","0","SWE: PIDT/D3 Automation. Assistance with merges for PIDT 12.5.3","","","6","0",
"30.11.12","5","120022","29","101","PM/Mod/Meetings","","0","Wochenaufgaben SWS 2012. Weekly timesheet report, meetings","07:00","16:00","2,5","60",
"30.11.12","5","100769","0","120","Codierung","","100","SWE: PIDT/D3 Automation. Assistance with merges for PIDT 12.5.3","","","5,5","0",
