"30.01.12","1","120113","8","181","Fehlerbes. vor Ausl. (Bugzilla)","","0","DL for ESG/Fisker: Gen. Fisker Aftersales Bugfixing B1.3/ae10. EBCM-BRAKE : Update CTS to new spec.","07:00","16:00","8","60",
"31.01.12","2","120113","8","181","Fehlerbes. vor Ausl. (Bugzilla)","","0","From S53: DL for ESG/Fisker: Gen. Fisker Aftersales Bugfixing B1.3/ae10. Changes to DTC Reading","07:00","16:00","2","60",
"31.01.12","2","120113","8","181","Fehlerbes. vor Ausl. (Bugzilla)","","0","From S53: DL for ESG/Fisker: Gen. Fisker Aftersales Bugfixing B1.3/ae10. EBCM-BRAKE : Update CTS to new spec.","","","6","0",
"01.02.12","3","120018","18","101","PM/Mod/Meetings","","0","S4 Administrative Tasks. Monthly report + misc. tasks","07:00","16:00","4","60",
"01.02.12","3","120018","19","101","PM/Mod/Meetings","","0","S4 Technical Support / Troubleshoot. Supporting colleagues","","","4","0",
"02.02.12","4","100876","342","120","Codierung","","0","1530: HUA-MSL: Dynamische Felder: Erstellung u. Anpassung Bausteine F4.6/ae10. Changes to VXExecSingleEcuJobRef","07:00","16:00","6","60",
"02.02.12","4","120018","19","101","PM/Mod/Meetings","","0","S4 Technical Support / Troubleshoot. Supporting colleagues","","","2","0",
"03.02.12","5","120018","21","101","PM/Mod/Meetings","","0","Wochenaufgaben AES. Timesheets + daily meetings","07:00","16:00","2","60",
"03.02.12","5","100876","325","104","Test-Spezifikation","","100","1510: HUA-MSL: Live Wert Anzeige: Erstellung u. Anpassung Bausteine F2.5/ae10. Working on Intermediate results","","","6","0",
