"03.12.12","1","100769","0","120","Codierung","","0","Merging Authoring entities. Merging Authoring entities","07:00","16:00","8","60",
"04.12.12","2","100769","0","120","Codierung","","0","Merging Authoring entities. Merging Authoring entities","07:00","16:00","8","60",
"05.12.12","3","100769","0","120","Codierung","","0","Merging Authoring entities. Merging Authoring entities","07:00","16:00","8","60",
"06.12.12","4","100769","0","120","Codierung","","0","Merging Authoring entities. Merging Authoring entities","07:00","16:00","8","60",
"07.12.12","5","100769","0","120","Codierung","","0","Merging Authoring entities. Merging Authoring entities","07:00","16:00","8","60",
