"26.11.12","1","0","0","120","Codierung","","0","NCA Reports. NCA Gyor","07:00","16:00","8","60",
"27.11.12","2","0","0","120","Codierung","","0","NCA Reports. NCA Gyor","07:00","16:00","8","60",
"28.11.12","3","0","0","120","Codierung","","0","NCA Reports. NCA Gyor","07:00","16:00","8","60",
"29.11.12","4","0","0","120","Codierung","","0","NCA Reports. NCA Gyor","07:00","16:00","8","60",
"30.11.12","5","0","0","120","Codierung","","0","NCA Reports. NCA Gyor","07:00","15:30","7,5","60",
