"27.02.12","1","120100","127","182","Fehlerbes. nach Ausl. (Bugzilla)","","0","1543: Bugfixingpuffer (Vorrelease). Enabling simulation mode in DEIS - Bug 32017","07:00","16:00","8","60",
"28.02.12","2","120100","127","182","Fehlerbes. nach Ausl. (Bugzilla)","","0","1543: Bugfixingpuffer (Vorrelease). Enabling simulation mode in DEIS - Bug 32017","07:00","16:00","4","60",
"28.02.12","2","110665","96","181","Fehlerbes. vor Ausl. (Bugzilla)","","0","1191: PIDT: 12.0: Bugfixing after CF. Bug 34620, 34622","","","4","0",
"29.02.12","3","110665","96","181","Fehlerbes. vor Ausl. (Bugzilla)","","0","1191: PIDT: 12.0: Bugfixing after CF. Bug 34620, 34622","07:00","16:00","8","60",
"01.03.12","4","110665","96","181","Fehlerbes. vor Ausl. (Bugzilla)","","0","1191: PIDT: 12.0: Bugfixing after CF. Bug 34643","07:00","16:00","8","60",
"02.03.12","5","110665","96","181","Fehlerbes. vor Ausl. (Bugzilla)","","0","1191: PIDT: 12.0: Bugfixing after CF. Bug 34643","07:00","16:00","3","60",
"02.03.12","5","110665","96","181","Fehlerbes. vor Ausl. (Bugzilla)","","0","1191: PIDT: 12.0: Bugfixing after CF. Bugfixing","","","4","0",
"02.03.12","5","120018","37","101","PM/Mod/Meetings","","0","Wochenaufgaben SWS. Weekly telco","","","0,5","0",
"02.03.12","5","120018","37","101","PM/Mod/Meetings","","0","Wochenaufgaben SWS. Timesheets","","","0,5","0",
