"25.06.12","1","120246","37","110","Engineering","","0","9999: MIA S4. reworked service executions for sequences","07:00","16:00","4","60",
"25.06.12","1","120171","146","182","Fehlerbes. nach Ausl. (Bugzilla)","","0","4185: BaseLib: Stufe 1234: Bugfixing nach Auslieferung. worked on bugs #36451, 36452, 364448","","","4","0",
"26.06.12","2","120246","37","110","Engineering","","100","9999: MIA S4. reworked service executions for sequences","07:00","16:00","8","60",
"27.06.12","3","120171","146","182","Fehlerbes. nach Ausl. (Bugzilla)","","0","4185: BaseLib: Stufe 1234: Bugfixing nach Auslieferung. worked on bugs #36454, 36456, 33521","07:00","16:00","8","60",
"28.06.12","4","120171","146","182","Fehlerbes. nach Ausl. (Bugzilla)","","0","4185: BaseLib: Stufe 1234: Bugfixing nach Auslieferung. worked on bugs #33522, 33520, 33613","07:00","16:00","8","60",
"29.06.12","5","120018","24","101","PM/Mod/Meetings","","0","S4/DSA overall tasks. Meetings and updating timesheets","07:00","16:00","2","60",
"29.06.12","5","120171","146","182","Fehlerbes. nach Ausl. (Bugzilla)","","0","4185: BaseLib: Stufe 1234: Bugfixing nach Auslieferung. worked on bugs #35656, 36129","","","6","0",
