"26.11.12","1","120018","18","101","PM/Mod/Meetings","","0","S4 Administrative Tasks. Meeting with S4 Managment","07:00","16:00","2","60",
"26.11.12","1","120018","19","101","PM/Mod/Meetings","","0","S4 Technical Support / Troubleshoot. Supporting Team Members","","","4","0",
"26.11.12","1","120280","221","120","Codierung","","0","1120: EOL: PlantConfig: Qoros use F11.2, F11.3/ae11. Rework VehicleData handling","","","2","0",
"27.11.12","2","120280","221","120","Codierung","","0","1120: EOL: PlantConfig: Qoros use F11.2, F11.3/ae11. Implement ECU spcific VIN reading for VehicleData","07:00","16:00","4","60",
"27.11.12","2","120018","19","101","PM/Mod/Meetings","","0","S4 Technical Support / Troubleshoot. Supporting Team Members","","","4","0",
"28.11.12","3","120253","21","120","Codierung","","0","ITS SG: Erstellung Ablauf-Sampler F1.6/ae10. Implementing change for ShortState format","07:00","16:00","1,5","60",
"28.11.12","3","09.00790","4607","120","Codierung","","100","PRODIS.LIB R7: TestCases: Spezifizierung Masterframework F2.8/ae10. Closing task","","","0","0",
"28.11.12","3","120018","19","101","PM/Mod/Meetings","","0","S4 Technical Support / Troubleshoot. Setting up MFTD2X","","","2","0",
"28.11.12","3","120018","19","101","PM/Mod/Meetings","","0","S4 Technical Support / Troubleshoot. Supporting Team Members","","","4,5","0",
"29.11.12","4","120253","21","120","Codierung","","0","ITS SG: Erstellung Ablauf-Sampler F1.6/ae10. Fixes to ShortState generation + Signal Busy Loops","07:00","16:00","3","60",
"29.11.12","4","120253","24","120","Codierung","","0","ITS SG: Erstellung Ablauf Monitoring Engine F1.9/ae10. Fixes to logging for system.","","","3","0",
"29.11.12","4","120253","27","140","Test","","0","ITS SG: Gesamttest (Test gegen Simulation inkl. RTS) F1.12/ae10. Testing on WDI","","","2","0",
"30.11.12","5","120253","33","160","Dokumentation","","0","ITS SG: Techn. Dokumentation Howto G1.2/ae10. Chnages to documentation due to implementation","07:00","16:00","2","60",
"30.11.12","5","120253","22","140","Test","","0","ITS SG: Erstellung Ablauf-Sampler F1.7/ae10. Testing Function Monitors","","","1","0",
"30.11.12","5","120253","24","120","Codierung","","0","ITS SG: Erstellung Ablauf Monitoring Engine F1.9/ae10. Fixes to DTC handling","","","3","0",
"30.11.12","5","120018","21","101","PM/Mod/Meetings","","0","Management group AES. Timesheets + Meetings","","","2","0",
