"01.10.12","1","120036","889","170","Schulung","","0","Einarbeitung P.Authoring. Installation and setup","07:00","16:00","8","60",
"02.10.12","2","120246","0","102","Spez: LH/PH/Design","","0","MIA Sequences - EGV Configuration PH. Implementing PH","07:00","16:00","8","60",
"03.10.12","3","120036","889","170","Schulung","","0","Einarbeitung P.Authoring. Training","07:00","16:00","8","60",
"04.10.12","4","120246","0","102","Spez: LH/PH/Design","","0","MIA Sequences - EGV Configuration PH. Implementing PH - Update after review","07:00","16:00","4","60",
"04.10.12","4","100369","0","110","Engineering","","0","Spezifikation generischer Stellgliedtest. Getting into Subject","","","4","0",
"05.10.12","5","120022","183","101","PM/Mod/Meetings","","0","Wochenaufgaben SWS. Meeting and timesheeta","07:00","16:00","1","60",
"05.10.12","5","120036","889","170","Schulung","","0","Einarbeitung P.Authoring. Training","","","4","0",
"05.10.12","5","120246","1","102","Spez: LH/PH/Design","","0","MIA Sequences - Vehicle history data management PH. Implementing PH","","","3","0",
