"13.02.12","1","09.00790","3983","104","Test-Spezifikation","","0","P.Automation: VCIInterface Testcases. Rewoking SFTP elements and Testcases","07:00","16:00","5","60",
"13.02.12","1","120113","11","120","Codierung","","0","DL for ESG/Fisker: Gen.Fisker Aftersales Imp. C1.3/ae10. implementing script to read ECU identifications","","","3","0",
"14.02.12","2","09.00790","3983","104","Test-Spezifikation","","0","P.Automation: IniFiles Elements. Ini files testcases rework","07:00","16:00","3","60",
"14.02.12","2","120113","11","120","Codierung","","0","DL for ESG/Fisker: Gen.Fisker Aftersales Imp. C1.3/ae10. implementing script to read ECU identifications","","","5","0",
"15.02.12","3","120113","11","120","Codierung","","0","DL for ESG/Fisker: Gen.Fisker Aftersales Imp. C1.3/ae10. implementing script to read ECU identifications","07:00","16:00","7,5","60",
"15.02.12","3","120018","24","101","PM/Mod/Meetings","","0","S4/DSA overall tasks. Plant configuration meeting","","","0,5","0",
"16.02.12","4","120025","21","170","Schulung","","0","9999: Training: MAN-ODX Get into subject. received training from s58","07:00","16:00","7,5","60",
"16.02.12","4","120018","24","101","PM/Mod/Meetings","","0","S4/DSA overall tasks. MAN meeting","","","0,5","0",
"17.02.12","5","120018","24","101","PM/Mod/Meetings","","0","S4/DSA overall tasks. Meetings and updating timesheets","07:00","16:00","2","60",
"17.02.12","5","120025","21","170","Schulung","","0","9999: Training: MAN-ODX Get into subject. training by updating 40_MFR ecu","","","6","0",
