"26.03.12","1","110408","332","182","Fehlerbes. nach Ausl. (Bugzilla)","","0","5180: Bugfixing. worked on bugs # 33815, 33613, 34985","07:00","16:00","8","60",
"27.03.12","2","110408","332","182","Fehlerbes. nach Ausl. (Bugzilla)","","0","5180: Bugfixing. worked on bugs #35275, 35277, 35278","07:00","16:00","8","60",
"28.03.12","3","110408","332","182","Fehlerbes. nach Ausl. (Bugzilla)","","0","5180: Bugfixing. worked on bugs #35279, 35280, 35281","07:00","16:00","8","60",
"29.03.12","4","110408","332","182","Fehlerbes. nach Ausl. (Bugzilla)","","0","5180: Bugfixing. worked on bugs #35282, 34457, 34102","07:00","16:00","5","60",
"29.03.12","4","120018","24","101","PM/Mod/Meetings","","0","S4/DSA overall tasks. setting up PCs to import ECUs into P.Authoring and testing ODX","","","3","0",
"30.03.12","5","100369","6224","140","Test","","0","3122: LP54: Generische ODX Applikationen - Integrationstest. import ECUs into authoring and checking data.","07:00","16:00","5","60",
"30.03.12","5","120018","24","101","PM/Mod/Meetings","","0","S4/DSA overall tasks. Meetings and updating timesheets","","","2","0",
"30.03.12","5","120026","21","101","PM/Mod/Meetings","","0","QW 2012. MAN project meeting","","","1","0",
