"16.04.12","1","120112","0","182","Fehlerbes. nach Ausl. (Bugzilla)","","0","Worked on bug 33301. Worked on bug 33301","07:00","16:00","8","60",
"17.04.12","2","120018","39","101","PM/Mod/Meetings","","0","Wochenaufgaben SWS. Meeting regarding Coding CTS changes","07:00","16:00","2","60",
"17.04.12","2","120112","0","182","Fehlerbes. nach Ausl. (Bugzilla)","","0","Worked on bug 33301. Worked on bug 33301","","","6","0",
"18.04.12","3","120112","0","120","Codierung","","0","1005:CR150my3: Worked on object for providing a different view on the MCR option items. Worked on object for providing a different view on the MCR option items","07:00","16:00","4","60",
"18.04.12","3","120112","0","182","Fehlerbes. nach Ausl. (Bugzilla)","","0","Working on bug 33301. Working on bug 33301","","","4","0",
"19.04.12","4","120112","0","182","Fehlerbes. nach Ausl. (Bugzilla)","","0","Implemented solution for bug 33301. Implemented solution for bug 33301","07:00","16:00","4","60",
"19.04.12","4","120112","0","120","Codierung","","0","1005:CR150my3: Creating documentation for MCRDataWrapper. Creating documentation for MCRDataWrapper","","","4","0",
"20.04.12","5","120112","0","120","Codierung","","0","1005:CR150my3: Creating documentation for MCRDataWrapper. Creating documentation for MCRDataWrapper","07:00","16:00","2","60",
"20.04.12","5","120112","0","182","Fehlerbes. nach Ausl. (Bugzilla)","","0","Working on bug 35626. Working on bug 35626","","","5","0",
"20.04.12","5","120112","185","101","PM/Mod/Meetings","","0","Wochenaufgaben SWS. Meeting","","","1","0",
"20.04.12","5","120112","129","110","Engineering","","100","9999: Investigate FAP step handles when VCI doesn#t support ignition. closing task","","","0","0",
