"10.12.12","1","100553","1677","181","Fehlerbes. vor Ausl. (Bugzilla)","","0","Bugfix Release MAN Migration ODX: Bearbeitung von Bugs /Bl1200898. worked on bugs #39826","07:00","16:00","2","60",
"10.12.12","1","100369","0","120","Codierung","","0","SWE: Q-Absicherung. Reworking MIA actuators CTS","","","6","0",
"11.12.12","2","100369","0","120","Codierung","","0","SWE: Q-Absicherung. Reworking MIA actuators CTS","07:00","16:00","8","60",
"12.12.12","3","100553","1677","181","Fehlerbes. vor Ausl. (Bugzilla)","","0","Bugfix Release MAN Migration ODX: Bearbeitung von Bugs /Bl1200898. worked on bugs #39829, 39736","07:00","16:00","3","60",
"12.12.12","3","100369","0","120","Codierung","","0","SWE: Q-Absicherung. Reworking MIA actuators CTS","","","5","0",
"13.12.12","4","100553","1677","181","Fehlerbes. vor Ausl. (Bugzilla)","","0","Bugfix Release MAN Migration ODX: Bearbeitung von Bugs /Bl1200898. worked on bugs #39872, 39873, 39826, 39776","07:00","16:00","8","60",
"14.12.12","5","120018","24","101","PM/Mod/Meetings","","0","S4/DSA overall tasks. Meetings and updating timesheets","07:00","16:00","3","60",
"14.12.12","5","100369","0","120","Codierung","","0","SWE: Q-Absicherung. Reworking MIA actuators CTS","","","5","0",
