"30.04.12","1","100369","0","140","Test","","0","Integrationstests. Waiting for Hardware issues to be resolved.","07:00","16:00","5","60",
"30.04.12","1","100369","0","140","Test","","0","Integrationstests. Downloading new Authoring Deployment (RC7)","","","3","0",
"01.05.12","2","120023","0","910","Urlaub","","0","Holiday. Public Holiday","07:00","16:00","8","60",
"02.05.12","3","100369","0","140","Test","","0","Integrationstests. Installing and configuring new Authoring Deployment (3.4.7/RC7)","07:00","16:00","1","60",
"02.05.12","3","100369","0","140","Test","","0","Integrationstests. Testing  Testcases in Testlink: Propagation","","","2","0",
"02.05.12","3","100369","0","140","Test","","0","Integrationstests. Testing  Testcases in Testlink:  Fxx Acrolinx Integration","","","2","0",
"02.05.12","3","100369","0","140","Test","","0","Integrationstests. Testing  Testcases in Testlink: F106 workflow Interpreter","","","3","0",
"03.05.12","4","100369","0","140","Test","","0","Integrationstests. Testing TestCases in testlink: Work Flow Runtime","07:00","16:00","2","60",
"03.05.12","4","100369","0","140","Test","","0","Integrationstests. Testing TestCases in testlink: Debug - Integration","","","2","0",
"03.05.12","4","100369","0","140","Test","","0","Integrationstests. Installing and configuring MANCATS3, Having problems and getting help from Guido and Hiep","","","4","0",
"04.05.12","5","100369","0","140","Test","","0","Integrationstests. Testing TestCases in testlink","07:00","16:00","6","60",
"04.05.12","5","120018","22","101","PM/Mod/Meetings","","0","S4/DSA overall. Department Meeting and Doing","","","2","0",
