"05.11.12","1","0","0","170","Schulung","","0","SWE: Training. Going through training missed while sick","07:00","16:00","4","60",
"05.11.12","1","0","0","170","Schulung","","0","SWE: Training. Training with Werner","","","4","0",
"06.11.12","2","0","0","170","Schulung","","0","SWE: Training. Training with Mario on PIDT","07:00","16:00","1","60",
"06.11.12","2","0","0","170","Schulung","","0","SWE: Training. Going through training missed while sick","","","4","0",
"06.11.12","2","0","0","170","Schulung","","0","SWE: Training. Training with Werner","","","3","0",
"07.11.12","3","0","0","170","Schulung","","0","Training. Training with Werner","07:00","16:00","4","60",
"07.11.12","3","100769","0","181","Fehlerbes. vor Ausl. (Bugzilla)","","0","SWE: PIDT.Automation. String sorting 9x6","","","4","0",
"08.11.12","4","100769","0","181","Fehlerbes. vor Ausl. (Bugzilla)","","0","PIDT.Automation. String sorting 9x6","07:00","16:00","4","60",
"08.11.12","4","0","0","170","Schulung","","0","Training. Training with Werner","","","4","0",
"09.11.12","5","100769","0","181","Fehlerbes. vor Ausl. (Bugzilla)","","0","PIDT.Automation. String sorting 9x6","07:00","16:00","8","60",
