"10.12.12","1","120280","0","104","Test-Spezifikation","","0","QOROS Creating TestSpec (TesLink) and Test data. Created test specs and test data","07:00","16:00","8","60",
"11.12.12","2","120280","0","104","Test-Spezifikation","","0","QOROS Creating TestSpec (TesLink) and Test data. Created test specs and test data","07:00","16:00","8","60",
"12.12.12","3","120280","0","104","Test-Spezifikation","","0","QOROS Creating TestSpec (TesLink) and Test data. Created test specs and test data","07:00","16:00","8","60",
"13.12.12","4","120280","0","104","Test-Spezifikation","","0","QOROS Creating TestSpec (TesLink) and Test data. Created test specs and test data","07:00","16:00","8","60",
"14.12.12","5","120018","62","101","PM/Mod/Meetings","","0","S4/DSA overall tasks. Meetings and Timesheets","07:00","16:00","3","60",
"14.12.12","5","120010","166","120","Codierung","","100","9999: MTS3TS_Test_UDS_Identification_Cards.cts. Closing task","","","0","0",
"14.12.12","5","120280","0","104","Test-Spezifikation","","0","QOROS Creating TestSpec (TesLink) and Test data. Created test specs and test data","","","5","0",
