"21.05.12","1","120171","119","120","Codierung","","100","4120: BaseLib: Stufe 4b: ZH_D5W: Update. update ECU to 2.6.00 Final RC 4","07:00","16:00","4,8","60",
"21.05.12","1","120171","92","140","Test","","100","4110: BaseLib: Stufe 4a: HDS: Review/Bugfix	. ECU review","","","1,6","0",
"21.05.12","1","110408","332","182","Fehlerbes. nach Ausl. (Bugzilla)","","0","5180: Bugfixing. worked on bug #35192","","","1,6","0",
"22.05.12","2","120171","133","120","Codierung","","100","4120: BaseLib: Stufe 4b: TUER: Update. update ECU to 2.6.00 Final RC 4","07:00","16:00","3,2","60",
"22.05.12","2","120171","140","140","Test","","100","4120: BaseLib: Stufe 4b: ZBRO: Review/Bugfix. ECU review","","","3,2","0",
"22.05.12","2","120171","114","140","Test","","0","4120: BaseLib: Stufe 4b: AT20: Review/Bugfix. ECU review","","","0,9","0",
"22.05.12","2","120171","100","140","Test","","0","4110: BaseLib: Stufe 4a: DLS: Review/Bugfix. ECU review","","","0,7","0",
"23.05.12","3","120171","143","120","Codierung","","100","4130: BaseLib: Stufe 4c: RAS_EC: Update. update ECU to 2.6.00 Final RC 4","07:00","16:00","4,8","60",
"23.05.12","3","120171","124","140","Test","","100","4120: BaseLib: Stufe 4b: HYD: Review/Bugfix. ECU review","","","3,2","0",
"24.05.12","4","120171","81","120","Codierung","","100","4110: BaseLib: Stufe 4a: EBS: Update. update ECU to 2.6.00 Final RC 4","07:00","16:00","3,2","60",
"24.05.12","4","110408","332","182","Fehlerbes. nach Ausl. (Bugzilla)","","0","5180: Bugfixing. worked on bug #31559, 31560, 34532,34297, 35242","","","4,8","0",
"25.05.12","5","120171","64","120","Codierung","","100","3110: BaseLib: Stufe 3: MFR: Update. closing task","07:00","16:00","0","60",
"25.05.12","5","120171","76","120","Codierung","","100","3110: BaseLib: Stufe 3: TBM: Update. closing task","","","0","0",
"25.05.12","5","120018","24","101","PM/Mod/Meetings","","0","S4/DSA overall tasks. Meetings and updating timesheets","","","2,5","0",
"25.05.12","5","120171","130","140","Test","","100","4120: BaseLib: Stufe 4b: T50: Review/Bugfix. ECU review","","","3,2","0",
"25.05.12","5","120171","114","140","Test","","100","4120: BaseLib: Stufe 4b: AT20: Review/Bugfix. ECU review","","","2,3","0",
