"02.07.12","1","120025","0","170","Schulung","","0","Training :IDT Simulator. Setup and training of the use of the IDT Simulator","07:00","16:00","4","60",
"02.07.12","1","110437","81","140","Test","","0","(from s46)Rel2: IDT XML: Test Bausteine / Beispielablauf P.Automation F4.10/ae12. Changed TestFillResponseDisplay CTS talk to the IDT Simulator and Display response values","","","4","0",
"03.07.12","2","110437","81","140","Test","","0","(from s46)Rel2: IDT XML: Test Bausteine / Beispielablauf P.Automation F4.10/ae12. Changed TestFillResponseDisplay CTS  talk to the IDT Simulator and Display response values","07:00","16:00","8","60",
"04.07.12","3","110437","81","140","Test","","100","(from s46)Rel2: IDT XML: Test Bausteine / Beispielablauf P.Automation F4.10/ae12. Changed TestFillResponseDisplay CTS  talk to the IDT Simulator and Display response values","07:00","16:00","4","60",
"04.07.12","3","110437","320","120","Codierung","","0","(from s46)Rel2: IDT XML: Erst. Beispielablauf F4.8/ae12. Optimising TestFillResponseDisplay CTS","","","4","0",
"05.07.12","4","110437","320","120","Codierung","","0","(from s46)Rel2: IDT XML: Erst. Beispielablauf F4.8/ae12. Optimising TestFillResponseDisplay CTS","07:00","16:00","4","60",
"05.07.12","4","110437","320","120","Codierung","","100","(from s46)Rel2: IDT XML: Erst. Beispielablauf F4.8/ae12. Create CTS to do full  ABS test using the IDT","","","4","0",
"06.07.12","5","110437","79","120","Codierung","","0","(from s46)Rel2: IDT XML: Erst. Beispielablauf F4.8/ae12. Create CTS to do full  ABS test using the IDT","07:00","16:00","6","60",
"06.07.12","5","120018","0","101","PM/Mod/Meetings","","0","S4/DSA overall tasks. Meetings and Timesheet","","","2","0",
