"19.11.12","1","100498","309","182","Fehlerbes. nach Ausl. (Bugzilla)","","0","8080: P3 #39321 (critical) Kombi Gesamtwegstrecke Codieren, CTS. Bug analysis","07:00","16:00","8","60",
"20.11.12","2","100498","309","182","Fehlerbes. nach Ausl. (Bugzilla)","","0","8080: P3 #39321 (critical) Kombi Gesamtwegstrecke Codieren, CTS. Bug analysis","07:00","16:00","4","60",
"20.11.12","2","100498","314","182","Fehlerbes. nach Ausl. (Bugzilla)","","100","9999: #38773. Bugfixing","","","4","0",
"21.11.12","3","100498","309","182","Fehlerbes. nach Ausl. (Bugzilla)","","0","8080: P3 #39321 (critical) Kombi Gesamtwegstrecke Codieren, CTS. Bug analysis","07:00","16:00","4","60",
"21.11.12","3","120246","81","102","Spez: LH/PH/Design","","0","9999: MIA Sequences EGV Key Type Management PA and PH. Update after customer review","","","4","0",
"22.11.12","4","120246","81","102","Spez: LH/PH/Design","","0","9999: MIA Sequences EGV Key Type Management PA and PH. Update after customer review","07:00","16:00","8","60",
"23.11.12","5","120246","81","102","Spez: LH/PH/Design","","0","9999: MIA Sequences EGV Key Type Management PA and PH. Update after customer review","07:00","16:00","7","60",
"23.11.12","5","120022","183","101","PM/Mod/Meetings","","0","Wochenaufgaben SWS. Timesheets","","","1","0",
"23.11.12","5","09.00790","4602","120","Codierung","","100","PRODIS.LIB R7: TestCases: VCI/MTS3/MCDGenerisch TCs F2.3/ae10. CLOSE TASK","","","0","0",
"23.11.12","5","09.00790","4680","120","Codierung","","100","PRODIS.LIB R7: TestCases: Div. ext. HW (VNC, RFID, IDT, Scanner, MFTPort) F2.6/ae10. CLOSE TASK","","","0","0",
