"15.10.12","1","120246","73","101","PM/Mod/Meetings","","0","40: AGU: Handling VHDM + Parameter-Tables: PA. Creating PH","07:00","16:00","2","60",
"15.10.12","1","120246","72","101","PM/Mod/Meetings","","0","40: AGU: Ablauf #5: EGV Configuration: PA. Creating PH","","","6","0",
"16.10.12","2","120036","889","170","Schulung","","0","Einarbeitung P.Authoring. Training","07:00","16:00","8","60",
"17.10.12","3","120036","889","170","Schulung","","0","Einarbeitung P.Authoring. Training","07:00","16:00","8","60",
"18.10.12","4","120023","0","920","Krankheit","","0","Sick Leave. Sick Leave","07:00","16:00","8","60",
"19.10.12","5","100369","8148","120","Codierung","","0","RESERVIERUNG: 5100: Stellgliedtest: Impl.. Getting into Subject","07:00","16:00","7","60",
"19.10.12","5","120022","183","101","PM/Mod/Meetings","","0","Wochenaufgaben SWS. Timesheets","","","1","0",
