"20.08.12","1","120023","0","920","Krankheit","","0","Sick Leave. Sick Leave","07:00","16:00","8","60",
"21.08.12","2","120023","0","920","Krankheit","","0","Sick Leave. Sick Leave","07:00","16:00","8","60",
"22.08.12","3","120023","0","920","Krankheit","","0","Sick Leave. Sick Leave","07:00","16:00","5,5","60",
"23.08.12","4","120023","0","920","Krankheit","","0","Sick Leave. Sick Leave","07:00","16:00","8","60",
"24.08.12","5","120023","0","920","Krankheit","","0","Sick Leave. Sick Leave","07:00","16:00","8","60",
