"29.10.12","1","100498","243","182","Fehlerbes. nach Ausl. (Bugzilla)","","0","5082: 9x6: Gewährleistung 2012: Bugfixing. Having proplems with PIDT and Codierung CTS.","07:00","16:00","3","60",
"29.10.12","1","100498","243","182","Fehlerbes. nach Ausl. (Bugzilla)","","0","5082: 9x6: Gewährleistung 2012: Bugfixing. Bugfixing 9x6 Bugs from dk","","","5","0",
"30.10.12","2","100498","243","182","Fehlerbes. nach Ausl. (Bugzilla)","","0","5082: 9x6: Gewährleistung 2012: Bugfixing. Bugfixing 9x6 Bugs from dk","07:00","16:00","5","60",
"30.10.12","2","100369","0","140","Test","","0","9999: Integrationstests. Helping Colleague test bugs that need multiple users","","","3","0",
"31.10.12","3","120025","19","170","Schulung","","0","Training 2012. Java Training","07:00","16:00","3","60",
"31.10.12","3","100369","0","140","Test","","0","9999: Integrationstests. Helping Colleague test bugs that need multiple users","","","5","0",
"01.11.12","4","120025","19","170","Schulung","","0","Training 2012. Java Training","07:00","16:00","3","60",
"01.11.12","4","100498","243","182","Fehlerbes. nach Ausl. (Bugzilla)","","0","5082: 9x6: Gewährleistung 2012: Bugfixing. Bugfixing 9x6 Bugs from dk","","","5","0",
"02.11.12","5","120025","19","170","Schulung","","0","Training 2012. Java Training","07:00","16:00","3","60",
"02.11.12","5","120018","22","101","PM/Mod/Meetings","","0","S4/DSA overall. Department Meeting and Doing Timesheets","","","3","0",
"02.11.12","5","100498","243","182","Fehlerbes. nach Ausl. (Bugzilla)","","0","5082: 9x6: Gewährleistung 2012: Bugfixing. Bugfixing 9x6 Bugs from dk","","","2","0",
