"10.09.12","1","100769","719","181","Fehlerbes. vor Ausl. (Bugzilla)","","0","1691: Delivery: Bugfixing G1.1/pa35. Working on PIDT Automation bugs: 37963, 37855, 37716, 37898, 37928","07:00","16:00","8","60",
"11.09.12","2","100769","719","181","Fehlerbes. vor Ausl. (Bugzilla)","","0","1691: Delivery: Bugfixing G1.1/pa35. Working on Automation bugs: 37929, 37887 and incorrect ''instanceof'' code in generic repository","07:00","16:00","8","60",
"12.09.12","3","100769","719","181","Fehlerbes. vor Ausl. (Bugzilla)","","0","1691: Delivery: Bugfixing G1.1/pa35. Working on Automation bugs: 37887 and incorrect ''instanceof'' code in generic repository","07:00","16:00","8","60",
"13.09.12","4","100769","719","181","Fehlerbes. vor Ausl. (Bugzilla)","","0","1691: Delivery: Bugfixing G1.1/pa35. Working on Automation bugs: 37887, 37524","07:00","16:00","5","60",
"13.09.12","4","120112","305","181","Fehlerbes. vor Ausl. (Bugzilla)","","0","1090: Release 1 12.4: Bugfixing nach CF. Working on PIDT vehicle order bug","","","3","0",
"14.09.12","5","120022","184","101","PM/Mod/Meetings","","0","Wochenaufgaben SWS. Weekly tele-conference meeting","07:00","16:00","0,75","60",
"14.09.12","5","120112","305","181","Fehlerbes. vor Ausl. (Bugzilla)","","0","1090: Release 1 12.4: Bugfixing nach CF. Working on PIDT vehicle order bug","","","2,25","0",
"14.09.12","5","100769","719","181","Fehlerbes. vor Ausl. (Bugzilla)","","0","1691: Delivery: Bugfixing G1.1/pa35. Working on Automation bugs","","","5","0",
