"11.06.12","1","110437","0","920","Krankheit","","0","Audi Backround Check. Creating BackgroundCheckNetwork CTS","07:00","16:00","8","60",
"12.06.12","2","120023","0","910","Urlaub","","0","urlaub. urlaub","07:00","16:00","3","60",
"12.06.12","2","120025","19","170","Schulung","","0","Training 2012. Training NATester","","","1","0",
"12.06.12","2","120018","22","101","PM/Mod/Meetings","","0","S4/DSA overall tasks. Relocating to a new Machine(PC Installations)","","","4","0",
"13.06.12","3","120023","0","910","Urlaub","","0","Urlaub. Urlaub","07:00","16:00","4","60",
"13.06.12","3","120018","22","101","PM/Mod/Meetings","","0","S4/DSA overall tasks. Relocating to a new Machine(PC Installations)","","","4","0",
"14.06.12","4","120023","0","910","Urlaub","","0","Urlaub. Urlaub","07:00","16:00","1","60",
"14.06.12","4","110437","0","140","Test","","0","Testing BackgroundCheckNetwork CTS. Tesing BackgroundCheckNetwork CTS and having problems with release and VMWare","","","7","0",
"15.06.12","5","120018","22","101","PM/Mod/Meetings","","0","S4/DSA overall tasks. Department Meeting and Doing Timesheets","07:00","16:00","3","60",
"15.06.12","5","110437","0","140","Test","","0","Audi Backround Check. Tesing BackgroundCheckNetwork CTS","","","5","0",
