"12.11.12","1","100369","7462","140","Test","","0","3122: OBD Tool: Fehlerspeicher: Modultests gegen Simulation F11.4/ae10. Testing and bugfixing ODB tester sequence","07:00","16:00","8","60",
"13.11.12","2","100369","7470","140","Test","","0","3122: OBD Tool: Infotypes: Modultests gegen Simulation F12.4/ae10. Testing and bugfixing ODB tester sequence","07:00","16:00","8","60",
"14.11.12","3","100369","7462","140","Test","","0","3122: OBD Tool: Fehlerspeicher: Modultests gegen Simulation F11.4/ae10. Testing and bugfixing ODB tester sequence","07:00","16:00","8","60",
"15.11.12","4","100369","7454","140","Test","","0","3122: OBD Tool: Start-Screen: Modultests gegen Simulation F2.4/ae10. Testing and bugfixing ODB tester sequence","07:00","16:00","6","60",
"15.11.12","4","100369","0","140","Test","","0","Authoring Product test after CF Testing Authoring RC 3.6.8. Testing Authoring RC 3.6.8","","","2","0",
"16.11.12","5","120018","24","101","PM/Mod/Meetings","","0","S4/DSA overall tasks. Meetings and updating timesheets","07:00","16:00","2","60",
"16.11.12","5","100369","0","140","Test","","0","Authoring Product test after CF Testing Authoring RC 3.6.8. Testing Authoring RC 3.6.8","","","6","0",
