"12.03.12","1","120112","0","182","Fehlerbes. nach Ausl. (Bugzilla)","","0","PIDT: 12.4 Bugfixing before CF. Working on bugs 34854 & 34855","07:00","16:00","8","60",
"13.03.12","2","120112","0","182","Fehlerbes. nach Ausl. (Bugzilla)","","100","PIDT: 12.4 Bugfixing before CF. Working on bugs 34854 & 34855","07:00","16:00","7,25","60",
"13.03.12","2","120112","1","110","Engineering","","0","PIDT 12.4: CR150my2-162_AnpassbareMaxLinks: Getting into subject. Getting into subject of CR150my2-162_AnpassbareMaxLinks feature","","","0,75","0",
"14.03.12","3","120112","1","110","Engineering","","100","PIDT 12.4: CR150my2-162_AnpassbareMaxLinks: Getting into subject. Getting into subject of CR150my2-162_AnpassbareMaxLinks feature","07:00","16:00","1","60",
"14.03.12","3","120112","2","120","Codierung","","0","PIDT 12.4: CR150my2-162_AnpassbareMaxLinks: Implementation. Implementation of CR150my2-162_AnpassbareMaxLinks feature","","","7","0",
"15.03.12","4","120112","2","120","Codierung","","0","PIDT 12.4: CR150my2-162_AnpassbareMaxLinks: Implementation. Implementation of CR150my2-162_AnpassbareMaxLinks feature","07:00","16:00","8","60",
"16.03.12","5","120112","2","120","Codierung","","0","PIDT 12.4: CR150my2-162_AnpassbareMaxLinks: Implementation. Implementation of CR150my2-162_AnpassbareMaxLinks feature","07:00","16:00","7,25","60",
"16.03.12","5","120018","38","101","PM/Mod/Meetings","","0","Wochenaufgaben SWS. Weekly tele-conference meeting","","","0,75","0",
