"06.02.12","1","09.00790","0","104","Test-Spezifikation","","0","P.Automation: SFTP Testcases. Rewoking SFTP elements and Testcases","07:00","16:00","8","60",
"07.02.12","2","120113","11","120","Codierung","","0","DL for ESG/Fisker: Gen.Fisker Aftersales Imp. C1.3/ae10. Implementing simulations for EHPS and PDM","07:00","16:00","8","60",
"08.02.12","3","120113","11","120","Codierung","","0","DL for ESG/Fisker: Gen.Fisker Aftersales Imp. C1.3/ae10. implementing script to read ECU identifications","07:00","16:00","8","60",
"09.02.12","4","120113","11","120","Codierung","","0","DL for ESG/Fisker: Gen.Fisker Aftersales Imp. C1.3/ae10. implementing script to read ECU identifications","07:00","16:00","8","60",
"10.02.12","5","120018","24","101","PM/Mod/Meetings","","0","S4/DSA overall tasks. Meetings and updating timesheets","07:00","16:00","2","60",
"10.02.12","5","120113","11","120","Codierung","","0","DL for ESG/Fisker: Gen.Fisker Aftersales Imp. C1.3/ae10. implementing script to read ECU identifications","","","6","0",
