"30.04.12","1","120112","20","120","Codierung","","0","1005: CR150my3: Implementierung. Self review of implementation","07:00","16:00","8","60",
"01.05.12","2","120023","0","910","Urlaub","","0","Holiday. Public Holiday","07:00","16:00","8","60",
"02.05.12","3","120112","20","120","Codierung","","0","1005: CR150my3: Implementierung. Self review of implementation","07:00","16:00","8","60",
"03.05.12","4","120112","20","120","Codierung","","0","1005: CR150my3: Implementierung. Self review of implementation and rework","07:00","16:00","8","60",
"04.05.12","5","120112","20","120","Codierung","","0","1005: CR150my3: Implementierung. Self review of implementation and rework","07:00","16:00","7","60",
"04.05.12","5","120022","183","101","PM/Mod/Meetings","","0","Wochenaufgaben SWS. Weekly telco and Timesheets","","","1","0",
