"16.01.12","1","120113","0","120","Codierung","","0","FISKER: EBCM-BRAKE: Impl. C1.2/pa10. CTS implementation, rework brake pedal count and information CTS","07:00","16:00","8","60",
"17.01.12","2","120113","0","120","Codierung","","0","FISKER: EBCM-SAS-CALIB Impl. CTS implementation","07:00","16:00","8","60",
"18.01.12","3","120113","0","120","Codierung","","0","FISKER: EBCM-SAS-CALIB Impl. CTS implementation, created simulations to test  CTS","07:00","16:00","4","60",
"18.01.12","3","09.00790","3983","160","Dokumentation","","0","P.Automation: creating Test Cases for Ini_files. implemented test cases for iniEx library elements","","","4","0",
"19.01.12","4","09.00790","3983","160","Dokumentation","","0","P.Automation: creating Test Cases for Ini_files. implemented test cases for iniEx and iniFileGet library elements","07:00","16:00","8","60",
"20.01.12","5","09.00790","0","140","Test","","0","P.Automation: IniFiles Elements. Testing ini files test cases","07:00","16:00","6","60",
"20.01.12","5","120018","24","101","PM/Mod/Meetings","","0","S4/DSA overall tasks. Meetings and updating timesheets","","","2","0",
