"27.08.12","1","120025","19","170","Schulung","","0","Training 2012. Training Vector ODXStudio","07:00","16:00","8","60",
"28.08.12","2","120025","19","170","Schulung","","0","Training 2012. Training Vector ODXStudio","07:00","16:00","8","60",
"29.08.12","3","100369","0","104","Test-Spezifikation","","0","MAN Generic Tester. Updating reviewed Man Genirc Tester Specification","07:00","16:00","8","60",
"30.08.12","4","100369","0","104","Test-Spezifikation","","0","MAN Generic Tester. Updating reviewed Man Genirc Tester Specification","07:00","16:00","5","60",
"30.08.12","4","120018","22","101","PM/Mod/Meetings","","0","S4/DSA overall tasks. Department Meeting and Doing Timesheets","","","3","0",
"31.08.12","5","120023","0","910","Urlaub","","0","Holiday. Time-off","07:00","16:00","8","60",
