"28.05.12","1","110437","0","120","Codierung","","0","ReadIDTRequestMap BuildingBlock Implementation. Building Block creation","07:00","16:00","8","60",
"29.05.12","2","110437","0","120","Codierung","","0","ReadIDTResponseMap BuildingBlock Implementation. Building Block creation","07:00","16:00","8","60",
"30.05.12","3","110437","0","120","Codierung","","0","ReadIDTServiceMap BuildingBlock Implementation. Building Block creation","07:00","16:00","8","60",
"31.05.12","4","110437","0","120","Codierung","","0","ReadIDTRequestMap BuildingBlock Implementation. Testing","07:00","16:00","3","60",
"31.05.12","4","110437","0","120","Codierung","","0","ReadIDTResponseMap BuildingBlock Implementation. Testing","","","2","0",
"31.05.12","4","110437","0","120","Codierung","","0","ReadIDTServiceMap BuildingBlock Implementation. Testing","","","3","0",
"01.06.12","5","110437","0","120","Codierung","","0","ReadConfig Script Implementation. Script creation and testing","07:00","16:00","6","60",
"01.06.12","5","120018","62","101","PM/Mod/Meetings","","0","S4/DSA overall tasks. Meetings and Timesheets","","","2","0",
