"18.06.12","1","110437","0","120","Codierung","","0","Audi Background Check. Updating and Firing Events for Icon in BackgrountNetwork CTS","07:00","16:00","2","60",
"18.06.12","1","110437","0","120","Codierung","","0","Icon State. Implementing GetDynamicIconState Script","","","3","0",
"18.06.12","1","110437","0","120","Codierung","","0","Audi Background Check. Included SatusWlan CTS features in BackgroundChecNetwork CTS","","","3","0",
"19.06.12","2","110437","0","120","Codierung","","0","UserLogin. Updating UserLogin CTS with Icons","07:00","16:00","2","60",
"19.06.12","2","110437","0","120","Codierung","","0","UserLogin. Updated UserLogin CTS with New Screen and reworked new screen to suit CTS","","","3","0",
"19.06.12","2","110437","0","120","Codierung","","0","UserLogin. Updated UserLogin CTS with Events","","","3","0",
"20.06.12","3","100369","0","140","Test","","0","Integrationstests. Fixing Bugs 36181, 36181","07:00","16:00","6","60",
"20.06.12","3","110437","0","140","Test","","0","UserLogin. Testing changes made for UserLogin CTS","","","2","0",
"21.06.12","4","120025","19","170","Schulung","","0","Get into subject plant configurator. Getting into subject in Plant Configurator","07:00","16:00","6","60",
"21.06.12","4","110437","0","120","Codierung","","0","VehicleIDFromFile. Implementing VehicleIDFromFile CTS","","","2","0",
"22.06.12","5","120018","22","101","PM/Mod/Meetings","","0","S4/DSA overall tasks. Department Meeting and Doing Timesheets","07:00","16:00","3","60",
"22.06.12","5","110437","0","120","Codierung","","0","VehicleIDFromFile. Implementing VehicleIDFromFile CTS","","","5","0",
