"22.10.12","1","09.00790","4610","140","Test","","0","PRODIS.LIB R7: Tests: VCI/MTS3/MCD F3.2/ae10. Testing Testlink testcases -PRODIS.Automation","07:00","16:00","5","60",
"22.10.12","1","100369","7462","140","Test","","0","3122: OBD Tool: Fehlerspeicher: Modultests gegen Simulation F11.4/ae10. Testing and bugfixing ODB tester sequence","","","3","0",
"23.10.12","2","09.00790","4610","140","Test","","0","PRODIS.LIB R7: Tests: VCI/MTS3/MCD F3.2/ae10. TestLink bug verification","07:00","16:00","3","60",
"23.10.12","2","100369","7470","140","Test","","0","3122: OBD Tool: Infotypes: Modultests gegen Simulation F12.4/ae10. Testing and bugfixing ODB tester sequence","","","5","0",
"24.10.12","3","100369","7470","140","Test","","0","3122: OBD Tool: Infotypes: Modultests gegen Simulation F12.4/ae10. Testing and bugfixing ODB tester sequence","07:00","16:00","8","60",
"25.10.12","4","120018","24","101","PM/Mod/Meetings","","0","S4/DSA overall tasks. Meetings and updating timesheets","07:00","16:00","2","60",
"25.10.12","4","120026","21","101","PM/Mod/Meetings","","0","QW 2012. copying and installing PIDT 12","","","2","0",
"25.10.12","4","100498","227","182","Fehlerbes. nach Ausl. (Bugzilla)","","0","8080: P3 #38187 (normal) Kombi Tankabgleich, CTS. bugfixing","","","4","0",
"26.10.12","5","120023","0","910","Urlaub","","100","Time Off. Time Off","07:00","16:00","8","60",
