"02.07.12","1","120018","57","101","PM/Mod/Meetings","","0","S4 HR management. Interviews for new staff","07:00","16:00","3","60",
"02.07.12","1","120018","19","101","PM/Mod/Meetings","","0","S4 Technical Support / Troubleshoot. Supporting Team Members","","","3","0",
"02.07.12","1","110437","344","120","Codierung","","100","(from S64) Rel2: IDT XML: Bausteine IDT F4.6/ae12. Support S64 with IDT BB and test creation, IDT sim.","","","2","0",
"03.07.12","2","120018","19","101","PM/Mod/Meetings","","0","S4 Technical Support / Troubleshoot. Supporting Team Members","07:00","16:00","6","60",
"03.07.12","2","110437","172","101","PM/Mod/Meetings","","0","Rel 1/2 Meetings A1.5/ae11. Audi project discussions","","","2","0",
"04.07.12","3","110437","86","101","PM/Mod/Meetings","","0","Rel2: Nacharbeitstester: Bugfixing F5.4/ae11. Investigate and fix stability issues with update process.","07:00","16:00","7","60",
"04.07.12","3","120018","18","101","PM/Mod/Meetings","","0","S4 Administrative Tasks. Meeting with S4 Managment. Contract signings","","","1","0",
"05.07.12","4","110437","86","181","Fehlerbes. vor Ausl. (Bugzilla)","","100","Rel2: Nacharbeitstester: Bugfixing F5.4/ae11. Long term test and bugfix of update process + facades + dtm","07:00","16:00","4","60",
"05.07.12","4","120018","19","101","PM/Mod/Meetings","","0","S4 Technical Support / Troubleshoot. Supporting Team Members","","","4","0",
"06.07.12","5","120018","19","101","PM/Mod/Meetings","","0","S4 Technical Support / Troubleshoot. Supporting Team Members","07:00","16:00","3","60",
"06.07.12","5","110437","71","102","Spez: LH/PH/Design","","100","Rel2: Konfiguration: Handling spezif. F3.1/ae12. Changes to BackgroundTesterState","","","2,5","0",
"06.07.12","5","120018","21","101","PM/Mod/Meetings","","0","Management group AES. Timesheets + Meetings","","","2","0",
"06.07.12","5","120018","20","101","PM/Mod/Meetings","","0","S4/DSA overall tasks. Telco with my and SWE.","","","0,5","0",
