"19.11.12","1","120018","20","101","PM/Mod/Meetings","","0","S4/DSA overall tasks. Setup VMware ESXi, PRODIS.Server","07:00","16:00","8","60",
"20.11.12","2","120280","236","120","Codierung","","0","1121: EOL: Vehicle Data Processing: Rework F12.2/ae11. Rework VehcleData processing, VehicledataFromFile","07:00","16:00","3","60",
"20.11.12","2","120018","18","101","PM/Mod/Meetings","","0","S4 Administrative Tasks. Meeting with S4 Managment","","","1","0",
"20.11.12","2","120018","19","101","PM/Mod/Meetings","","0","S4 Technical Support / Troubleshoot. Supporting Team Members","","","4","0",
"21.11.12","3","120280","236","120","Codierung","","0","1121: EOL: Vehicle Data Processing: Rework F12.2/ae11. Reworking screens, VehicleDataFromECU","07:00","16:00","4","60",
"21.11.12","3","120018","19","101","PM/Mod/Meetings","","0","S4 Technical Support / Troubleshoot. Supporting Team Members","","","4","0",
"22.11.12","4","120280","236","120","Codierung","","0","1121: EOL: Vehicle Data Processing: Rework F12.2/ae11. Working on VehicleData CTS","07:00","16:00","5","60",
"22.11.12","4","120018","19","101","PM/Mod/Meetings","","0","S4 Technical Support / Troubleshoot. Supporting Team Members","","","3","0",
"23.11.12","5","120280","236","120","Codierung","","0","1121: EOL: Vehicle Data Processing: Rework F12.2/ae11. Work on Read VIN CTS's","07:00","16:00","2","60",
"23.11.12","5","120018","21","101","PM/Mod/Meetings","","0","Management group AES. Timesheets + Meetings","","","2","0",
"23.11.12","5","120018","19","101","PM/Mod/Meetings","","0","S4 Technical Support / Troubleshoot. Supporting Team Members","","","4","0",
