"15.10.12","1","120253","24","120","Codierung","","0","ITS SG: Erstellung Ablauf Monitoring Engine F1.9/ae10. Create simlulated email, add VIN number detection","07:00","16:00","6","60",
"15.10.12","1","120018","18","101","PM/Mod/Meetings","","0","S4 Administrative Tasks. S4 Management Meeting","","","1","0",
"15.10.12","1","120018","19","101","PM/Mod/Meetings","","0","S4 Technical Support / Troubleshoot. Supporting Team Members","","","1","0",
"16.10.12","2","120253","24","101","PM/Mod/Meetings","","0","ITS SG: Erstellung Ablauf Monitoring Engine F1.9/ae10. Fixes to VSOC short state creation","07:00","16:00","3","60",
"16.10.12","2","120018","19","101","PM/Mod/Meetings","","0","S4 Technical Support / Troubleshoot. Supporting Team Members","","","5","0",
"17.10.12","3","120018","19","101","PM/Mod/Meetings","","0","S4 Technical Support / Troubleshoot. Supporting Team Members","07:00","16:00","4","60",
"17.10.12","3","120018","57","101","PM/Mod/Meetings","","0","S4 HR management. Interviews for new employees","","","2,5","0",
"17.10.12","3","120253","21","120","Codierung","","0","ITS SG: Erstellung Ablauf-Sampler F1.6/ae10. Create simulations.","","","1,5","0",
"18.10.12","4","120018","19","101","PM/Mod/Meetings","","0","S4 Technical Support / Troubleshoot. Supporting Team Members","07:00","16:00","5","60",
"18.10.12","4","120253","25","140","Test","","0","ITS SG: Test Ablauf Monitoring Engine F1.10/ae10. Running tests vs. simulation","","","1","0",
"18.10.12","4","120253","24","120","Codierung","","0","ITS SG: Erstellung Ablauf Monitoring Engine F1.9/ae10. Fixes to UL LL ok/nok detection","","","2","0",
"19.10.12","5","120018","21","101","PM/Mod/Meetings","","0","Management group AES. Timesheets + Meetings","07:00","16:00","1,5","60",
"19.10.12","5","120018","19","101","PM/Mod/Meetings","","0","S4 Technical Support / Troubleshoot. Supporting Team Members","","","6,5","0",
