"23.07.12","1","120022","227","120","Codierung","","0","1101: CR227my5: JUnit Tests+Refactoring. Fixing implementation according to initial review","07:00","16:00","4","60",
"23.07.12","1","120022","0","104","Test-Spezifikation","","100","CR227my5-210_PRUndINummernFahrzeugauftrag: test specification. Adding test cases for feature and modifyng old test cases for feature","","","4","0",
"24.07.12","2"," 120112","94","181","Fehlerbes. vor Ausl. (Bugzilla)","","0","1090: Release 1 12.4: Bugfixing nach CF. Working on bugs 36961, 37017 & 37021","07:00","16:00","7","60",
"24.07.12","2","120112","1","104","Test-Spezifikation","","100","1016: CR210my6:AktionsstepAufrufCTS Test Specification. Fixing test cases","","","1","0",
"25.07.12","3","120112","94","181","Fehlerbes. vor Ausl. (Bugzilla)","","0","1090: Release 1 12.4: Bugfixing nach CF. Working on bugs 37035, 37038, 37023 & 37053","07:00","16:00","8","60",
"26.07.12","4","120112","94","181","Fehlerbes. vor Ausl. (Bugzilla)","","0","1090: Release 1 12.4: Bugfixing nach CF. Working on bugs 37072, 37089, 37073 & 37074","07:00","16:00","7","60",
"26.07.12","4","120112","2","181","Fehlerbes. vor Ausl. (Bugzilla)","","0","12.5: Bugfixing vor CF. Working on Bug 37073","","","1","0",
"27.07.12","5","120112","94","181","Fehlerbes. vor Ausl. (Bugzilla)","","0","1090: Release 1 12.4: Bugfixing nach CF. Working on PIDT 12.4.0 bugs","07:00","16:00","8","60",
