"02.07.12","1","110437","0","120","Codierung","","0","ReadPLCFGConfigProcessGroup BuildingBlock. Modified for new xml config files","07:00","16:00","2","60",
"02.07.12","1","110437","0","120","Codierung","","0","ReadPLCFGConfigProcessPlace BuildingBlock. Modified for new xml config files","","","2","0",
"02.07.12","1","120025","574","170","Schulung","","0","AudiExternalConfiguration. Getting into Subject","","","4","0",
"03.07.12","2","110437","0","120","Codierung","","0","ReadProcessConfig Script. Modified for new xml config files","07:00","16:00","2","60",
"03.07.12","2","110437","0","120","Codierung","","0","ReadAudiExternalConfiguration. Modified for new xml config files","","","2","0",
"03.07.12","2","110437","392","140","Test","","0","9999: TestCase CTS. ExternalConfiguration test","","","4","0",
"04.07.12","3","110437","0","120","Codierung","","0","Plant_konfig XML file. Modified encoding and update attributes","07:00","16:00","1,5","60",
"04.07.12","3","110437","0","120","Codierung","","0","Tester_konfig XML file. Modified for new xml config files","","","1,5","0",
"04.07.12","3","110437","0","120","Codierung","","0","BackgroundTesterState. added guards to read icon status and set initial buttons state","","","2,5","0",
"04.07.12","3","110437","392","140","Test","","0","9999: TestCase CTS. BackgroundTesterState testing","","","1,5","0",
"04.07.12","3","110437","0","120","Codierung","","0","GetVINFromSharedMemory Script Implementation. Script creation and testing","","","0,5","0",
"04.07.12","3","110437","0","120","Codierung","","0","ProcessIconEvents script. DTM check fix","","","0,5","0",
"05.07.12","4","110437","397","120","Codierung","","0","9999: Vehicle Data CTS etc.. Modified  VehicleIdentification CTS","07:00","16:00","3","60",
"05.07.12","4","110437","402","120","Codierung","","0","9999: SelectLocation_Candidate CTS, Screen etc. Modified SelectLocation CTS and SelectLocation_Candidate CTS","","","3","0",
"05.07.12","4","110437","0","120","Codierung","","0","ErrorHandler CTS. Modified ErrorHandler CTS","","","1","0",
"05.07.12","4","110437","0","120","Codierung","","0","UserLogin CTS. Modified UserLogin CTS","","","1","0",
"06.07.12","5","120018","62","101","PM/Mod/Meetings","","0","S4/DSA overall tasks. Meetings and Timesheets","07:00","16:00","2","60",
"06.07.12","5","110437","0","130","Installation + Konfiguration","","0","AudiWorkspace. Download and import to Automation","","","6","0",
