"06.08.12","1","100369","7445","120","Codierung","","0","3122: OBD Tool: ODX-Daten: Erst. bzw. Modifikation ODX-Daten F1.3/ae10. Fixing inheritance and creating VIT","07:00","16:00","8","60",
"07.08.12","2","100369","7445","120","Codierung","","0","3122: OBD Tool: ODX-Daten: Erst. bzw. Modifikation ODX-Daten F1.3/ae10. Implementing Vihecle Information","07:00","16:00","8","60",
"08.08.12","3","120018","22","101","PM/Mod/Meetings","","0","S4/DSA overall tasks. Department Meeting and Doing Timesheets","07:00","16:00","3","60",
"08.08.12","3","100369","7445","120","Codierung","","0","3122: OBD Tool: ODX-Daten: Erst. bzw. Modifikation ODX-Daten F1.3/ae10. Fixing build errors","","","5","0",
"09.08.12","4","120023","0","910","Urlaub","","0","Holiday. Holidat","07:00","16:00","8","60",
"10.08.12","5","120023","0","910","Urlaub","","0","Holiday. Time-off","07:00","16:00","8","60",
