"03.09.12","1","09.00790","4601","120","Codierung","","0","PRODIS.LIB R7: TestCases: Div. DatenHandling TCs F2.2/ae10. Creating and Testing New Test Cases","07:00","16:00","5","60",
"03.09.12","1","120025","738","170","Schulung","","0","Training 2012. File IO opperations","","","2","0",
"03.09.12","1","09.00790","4601","120","Codierung","","0","PRODIS.LIB R7: TestCases: Div. DatenHandling TCs F2.2/ae10. Rebiudling Work Space","","","1","0",
"04.09.12","2","09.00790","4601","120","Codierung","","0","PRODIS.LIB R7: TestCases: Div. DatenHandling TCs F2.2/ae10. Creating and Testing New Test Cases","07:00","16:00","6","60",
"04.09.12","2","120025","738","170","Schulung","","0","Training 2012. Various concepts","","","2","0",
"05.09.12","3","09.00790","4601","120","Codierung","","0","PRODIS.LIB R7: TestCases: Div. DatenHandling TCs F2.2/ae10. Creating and Testing New Test Cases","07:00","16:00","6","60",
"05.09.12","3","120025","738","170","Schulung","","0","Training 2012. Various concepts","","","2","0",
"06.09.12","4","120025","738","170","Schulung","","0","Training 2012. Various concepts","07:00","16:00","2","60",
"06.09.12","4","09.00790","4601","120","Codierung","","0","PRODIS.LIB R7: TestCases: Div. DatenHandling TCs F2.2/ae10. Creating and Testing New Test Cases","","","6","0",
"07.09.12","5","09.00790","4601","120","Codierung","","0","PRODIS.LIB R7: TestCases: Div. DatenHandling TCs F2.2/ae10. Rebiulding workspace, Code in calulation blocks disappeared numerous times,restart broke work space","07:00","16:00","2","60",
"07.09.12","5","09.00790","4601","120","Codierung","","100","PRODIS.LIB R7: TestCases: Div. DatenHandling TCs F2.2/ae10. Reworking testcases to conform to template.","","","2","0",
"07.09.12","5","120025","738","170","Schulung","","0","Training 2012. Various concepts","","","2","0",
"07.09.12","5","120018","68","101","PM/Mod/Meetings","","0","S4/DSA overall tasks. Meeting and TimeSheets","","","2","0",
