"06.02.12","1","110665","19","182","Fehlerbes. nach Ausl. (Bugzilla)","","100","Bugfixing #33301. Closing old task","07:00","16:00","0","60",
"06.02.12","1","110665","14","181","Fehlerbes. vor Ausl. (Bugzilla)","","100","Bugfixing #33796. Closing old task","","","0","0",
"06.02.12","1","110665","92","181","Fehlerbes. vor Ausl. (Bugzilla)","","0","1191: PIDT: 12.0: Bugfixing before CF. Working on bug 34205","","","3","0",
"06.02.12","1","110665","87","120","Codierung","","0","1160: PIDT 12.0: CR148my1: Alternativ: Impl.. Making implementation changes based on review points","","","3","0",
"06.02.12","1","110665","61","120","Codierung","","0","1130: PIDT 12.0: CR148my4: Type series: Impl.. Making implementation changes based on changes made to the specification","","","2","0",
"07.02.12","2","110665","59","104","Test-Spezifikation","","0","1130: PIDT 12.0: CR148my4: Type series: Testspec. Making changes based on changes made in the specification","07:00","16:00","2","60",
"07.02.12","2","110665","87","120","Codierung","","0","1160: PIDT 12.0: CR148my1: Alternativ: Impl.. Making implementation changes based on review points and Bug 33903","","","6","0",
"08.02.12","3","110665","44","120","Codierung","","0","1110: PIDT 12.0: CR150my3: MCR: Impl.. Updating PIDT source code and building blocks in CTS authoring for feature","07:00","16:00","8","60",
"09.02.12","4","110665","44","120","Codierung","","0","1110: PIDT 12.0: CR150my3: MCR: Impl.. Updating PIDT source code and building blocks in CTS authoring for feature","07:00","18:00","6","60",
"09.02.12","4","110665","61","120","Codierung","","0","1130: PIDT 12.0: CR148my4: Type series: Impl.. Making implementation changes based on review","","","2","0",
"09.02.12","4","110665","87","120","Codierung","","0","1160: PIDT 12.0: CR148my1: Alternativ: Impl.. Making implementation changes based on review","","","2","0",
"10.02.12","5","110665","44","120","Codierung","","0","1110: PIDT 12.0: CR150my3: MCR: Impl.. Updating PIDT source code and building blocks in CTS authoring for feature","07:00","16:00","5,25","60",
"10.02.12","5","110665","87","120","Codierung","","0","1160: PIDT 12.0: CR148my1: Alternativ: Impl.. Making implementation changes based on review","","","2","0",
"10.02.12","5","120018","38","101","PM/Mod/Meetings","","0","Wochenaufgaben SWS. Weekly tele-conference meeting","","","0,75","0",
