"21.05.12","1","120112","61","104","Test-Spezifikation","","0","1001: CR148my5: Testspezifikation. From s63: updating test spec for the property-switch requirement","07:00","16:00","1","60",
"21.05.12","1","120112","133","120","Codierung","","0","1008: CR210my3: Implementierung. Making implementation changes according to review","","","3","0",
"21.05.12","1","120112","164","120","Codierung","","0","1016: CR210my6:AktionsstepAufrufCTS. Implementing authoring entities for feature","","","4","0",
"22.05.12","2","120112","133","120","Codierung","","0","1008: CR210my3: Implementierung. Making implementation changes according to review","07:00","16:00","1","60",
"22.05.12","2","120022","184","101","PM/Mod/Meetings","","0","S4 Meeting. S4 Meeting","","","0,66","0",
"22.05.12","2","120112","164","120","Codierung","","0","1016: CR210my6:AktionsstepAufrufCTS. Implementing authoring entities for feature","","","6,34","0",
"23.05.12","3","120112","133","120","Codierung","","100","1008: CR210my3: Implementierung. Making implementation changes according to review","07:00","16:00","1","60",
"23.05.12","3","120112","0","104","Test-Spezifikation","","0","1016: CR210my6:AktionsstepAufrufCTS Test Specification. Working on test sequences and test cases for feature","","","7","0",
"24.05.12","4","120022","184","101","PM/Mod/Meetings","","0","S4 Meeting. S4 Meeting","07:00","16:00","0,5","60",
"24.05.12","4","120112","0","104","Test-Spezifikation","","0","1016: CR210my6:AktionsstepAufrufCTS Test Specification. Working on test cases for feature","","","5","0",
"24.05.12","4","120112","1","182","Fehlerbes. nach Ausl. (Bugzilla)","","0","PIDT: 12.4 Bugfixing before CF. Working on Bug 34051 and Bug 36094","","","2,5","0",
"25.05.12","5","120112","1","182","Fehlerbes. nach Ausl. (Bugzilla)","","0","PIDT: 12.4 Bugfixing before CF. Working on Bugs","07:00","16:00","4","60",
"25.05.12","5","120112","123","102","Spez: LH/PH/Design","","0","1080: Bugfixing: Source-Code Review. Reviewing and merging bug fixes","","","4","0",
