"15.10.12","1","120036","946","170","Schulung","","0","Get into subject MTS3 (P.Automation). Getting into MTSTS testcase Implementation","07:00","16:00","8","60",
"16.10.12","2","120036","946","170","Schulung","","0","Get into subject MTS3 (P.Automation). Getting into MTSTS testcase Implementation","07:00","16:00","8","60",
"17.10.12","3","120010","77","120","Codierung","","0","MTS3: mts3_adjust_imp(_def) F2.9/pa10. (from s65) Implemeted the CTS","07:00","16:00","8","60",
"18.10.12","4","120010","77","120","Codierung","","0","MTS3: mts3_adjust_imp(_def) F2.9/pa10. (from s65) Implemeted the CTS","07:00","16:00","8","60",
"19.10.12","5","120010","77","120","Codierung","","0","MTS3: mts3_adjust_imp(_def) F2.9/pa10. (from s65) Implemeted the CTS","07:00","16:00","8","60",
