"24.09.12","1","120023","0","910","Urlaub","","0","Holiday. Holiday","07:00","16:00","8","60",
"25.09.12","2","120036","0","170","Schulung","","0","SWE: PIDT-Automation. Workspace setup and getting into subject for PIDT.Automation","07:00","16:00","8","60",
"26.09.12","3","100769","0","181","Fehlerbes. vor Ausl. (Bugzilla)","","0","SWE: PIDT-Automation. Bug 38440 and 38441","07:00","16:00","8","60",
"27.09.12","4","100769","0","181","Fehlerbes. vor Ausl. (Bugzilla)","","0","SWE: PIDT-Automation. Bug 36641","07:00","16:00","8","60",
"28.09.12","5","120022","0","101","PM/Mod/Meetings","","0","Wochenaufgaben. Weekly report, meetings","07:00","16:00","1,5","60",
"28.09.12","5","100769","0","120","Codierung","","0","SWE: PIDT-Automation. Decision mode comparison","","","5,5","0",
"28.09.12","5","100769","0","181","Fehlerbes. vor Ausl. (Bugzilla)","","100","SWE: PIDT-Automation. Bug 36641","","","1","0",
