"05.11.12","1","100369","0","140","Test","","0","Authoring Product test after CF Testing Authoring RC 3.6.5. Testing Authoring RC 3.6.5","07:00","16:00","5","60",
"05.11.12","1","120036","961","170","Schulung","","0","Training S4 KW44/45. Training","","","3","0",
"06.11.12","2","120036","961","170","Schulung","","0","Training S4 KW44/45. Training","07:00","16:00","3","60",
"06.11.12","2","100369","0","140","Test","","0","Authoring Product test after CF Testing Authoring RC 3.6.5. Testing Authoring RC 3.6.5","","","5","0",
"07.11.12","3","100369","0","140","Test","","0","Authoring Product test after CF Testing Authoring RC 3.6.5. Testing Authoring RC 3.6.5","07:00","16:00","5","60",
"07.11.12","3","120036","961","170","Schulung","","0","Training S4 KW44/45. Training","","","3","0",
"08.11.12","4","120036","961","170","Schulung","","0","Training S4 KW44/45. Training","07:00","16:00","6","60",
"08.11.12","4","100369","0","140","Test","","0","Authoring Product test after CF Testing Authoring RC 3.6.5. Testing Authoring RC 3.6.5","","","2","0",
"09.11.12","5","100369","0","140","Test","","0","Authoring Product test after CF Testing Authoring RC 3.6.5. Testing Authoring RC 3.6.5","07:00","16:00","3","60",
"09.11.12","5","120036","961","170","Schulung","","0","Training S4 KW44/45. Training","","","5","0",
