"23.04.12","1","100369","6764","140","Test","","0","9999: Integrationstests. Downloading,Installing and configuring new Authoring Deployment (RC6)","07:00","16:00","4","60",
"23.04.12","1","100369","6764","140","Test","","0","9999: Integrationstests. Testing TestCases in testlink: F027 Translation Process","","","4","0",
"24.04.12","2","100369","6764","140","Test","","0","9999: Integrationstests. Testing TestCases in testlink: Fxx Acrolinx Integration and Bugs (35698,35699)","07:00","16:00","2","60",
"24.04.12","2","100369","6764","140","Test","","0","9999: Integrationstests. Testing TestCases in testlink: Metadata in Deliverable","","","2,5","0",
"24.04.12","2","100369","6764","140","Test","","0","9999: Integrationstests. Testing TestCases in testlink: Compression","","","2,5","0",
"24.04.12","2","100369","6764","140","Test","","0","9999: Integrationstests. Testing TestCases in testlink for bug 35719","","","1","0",
"25.04.12","3","100369","6764","140","Test","","0","9999: Integrationstests. Testing TestCases in testlink: Mav Names and Technical names","07:00","16:00","1","60",
"25.04.12","3","100369","6764","140","Test","","0","9999: Integrationstests. Testing TestCases in testlink: retesting for bug 35719,35677","","","1","0",
"25.04.12","3","100369","6764","140","Test","","0","9999: Integrationstests. Testing TestCases in testlink: String Resource export","","","2","0",
"25.04.12","3","100369","6764","140","Test","","0","9999: Integrationstests. Testing TestCases in testlink: Conflict detection","","","2","0",
"25.04.12","3","100369","6764","140","Test","","0","9999: Integrationstests. Testing TestCases in testlink: Propagation","","","2","0",
"26.04.12","4","120018","22","101","PM/Mod/Meetings","","0","S4/DSA overall. Department Meeting and Doing","07:00","16:00","2","60",
"26.04.12","4","100369","6764","140","Test","","0","9999: Integrationstests. Testing TestCases in testlink","","","6","0",
"27.04.12","5","120023","0","910","Urlaub","","0","Holiday	. Public Holiday","07:00","16:00","8","60",
