"14.05.12","1","120112","20","120","Codierung","","0","1005: CR150my3: Implementierung. Rework after review","07:00","16:00","5","60",
"14.05.12","1","120112","83","110","Engineering","","0","1010: CR210my5: Einlesen ins PH. Getting into Subject","","","3","0",
"15.05.12","2","120112","20","120","Codierung","","0","1005: CR150my3: Implementierung. Rework after review","07:00","16:00","5","60",
"15.05.12","2","120112","84","120","Codierung","","0","1010: CR210my5: Implementierung. Creating XSD","","","2,5","0",
"15.05.12","2","120022","183","101","PM/Mod/Meetings","","0","Wochenaufgaben SWS. Meeting","","","0,5","0",
"16.05.12","3","120112","20","120","Codierung","","0","1005: CR150my3: Implementierung. Rework after review","07:00","16:00","2","60",
"16.05.12","3","120112","84","120","Codierung","","0","1010: CR210my5: Implementierung. Implementing interfaces","","","6","0",
"17.05.12","4","120022","183","101","PM/Mod/Meetings","","0","Wochenaufgaben SWS. Weekly meeting","07:00","16:00","0,5","60",
"17.05.12","4","120112","84","120","Codierung","","0","1010: CR210my5: Implementierung. Implementing interfaces","","","7,5","0",
"18.05.12","5","120112","84","120","Codierung","","0","1010: CR210my5: Implementierung. Implementing interfaces","07:00","16:00","4,5","60",
"18.05.12","5","120022","183","101","PM/Mod/Meetings","","0","Wochenaufgaben SWS. Timesheets","","","0,5","0",
"18.05.12","5","120023","0","910","Urlaub","","0","Holiday. Time Off","","","3","0",
