"23.04.12","1","120112","137","120","Codierung","","0","1005: CR150my3: Implementierung. Working on Aumatic coding sequence scripts, building blocks and source code for MCR coding rework","07:00","16:00","8","60",
"24.04.12","2","120112","137","120","Codierung","","0","1005: CR150my3: Implementierung. Working on Aumatic coding sequence scripts, building blocks and source code for MCR coding rework","07:00","16:00","8","60",
"25.04.12","3","120112","137","120","Codierung","","0","005: CR150my3: Implementierung. Working on Aumatic coding sequence scripts, building blocks and source code for MCR coding rework","07:00","16:00","8","60",
"26.04.12","4","120018","38","101","PM/Mod/Meetings","","0","Wochenaufgaben SWS. Weekly tele-conference meeting","07:00","16:00","0,75","60",
"26.04.12","4","120112","123","102","Spez: LH/PH/Design","","0","1080: Bugfixing: Source-Code Review. Reviewing bug fixes","","","6","0",
"26.04.12","4","120112","133","120","Codierung","","0","1008: CR210my3: Implementierung. Fixing implementation according to spec changes","","","1,25","0",
"27.04.12","5","120023","0","910","Urlaub","","0","Holiday. Public Holiday.","07:00","16:00","8","60",
