"08.10.12","1","120023","0","910","Urlaub","","0","Holiday. Time off","07:00","16:00","8","60",
"09.10.12","2","120222","30","104","Test-Spezifikation","","0","1002: Varianten: Einlesen ins PH / CR227my3. Getting into subject of CR227my3-201_VariantenerkennungSubkomponenten feature","07:00","16:00","8","60",
"10.10.12","3","120222","30","104","Test-Spezifikation","","100","1002: Varianten: Einlesen ins PH / CR227my3. Getting into subject of CR227my3-201_VariantenerkennungSubkomponenten feature","07:00","16:00","4","60",
"10.10.12","3","120222","38","182","Fehlerbes. nach Ausl. (Bugzilla)","","0","1080: Bugfixing (Puffer). Working on PIDT 12.8.0 bug: 37696","","","2","0",
"10.10.12","3","120222","33","104","Test-Spezifikation","","0","1002: Varianten: Sim / CR227my3. Working on simulation for CR227my3-201_VariantenerkennungSubkomponenten feature","","","2","0",
"11.10.12","4","120222","33","104","Test-Spezifikation","","100","1002: Varianten: Sim / CR227my3. Working on simulation for CR227my3-201_VariantenerkennungSubkomponenten feature","07:00","16:00","2","60",
"11.10.12","4","120222","35","120","Codierung","","0","1002: Varianten: Implem. / F1.4-F1.6 CR227my3. Working on CR227my3-201_VariantenerkennungSubkomponenten feature","","","6","0",
"12.10.12","5","120022","184","101","PM/Mod/Meetings","","0","Wochenaufgaben SWS. Weekly tele-conference meeting","07:00","16:00","0,75","60",
"12.10.12","5","120222","35","120","Codierung","","0","1002: Varianten: Implem. / F1.4-F1.6 CR227my3. Working on simulation for CR227my3-201_VariantenerkennungSubkomponenten feature","","","7,25","0",
