"22.10.12","1","09.00790","4624","182","Fehlerbes. nach Ausl. (Bugzilla)","","0","PRODIS.LIB R7: Bugfixing Bausteine aus Vorreleases F4.1/ae10. (from sc)PlantConfig : MainUpdate - ForeGroundUpdate : Reworked and fixed bugs of update process.","07:00","16:00","8","60",
"23.10.12","2","09.00790","4624","182","Fehlerbes. nach Ausl. (Bugzilla)","","0","PRODIS.LIB R7: Bugfixing Bausteine aus Vorreleases F4.1/ae10. (from sc)PlantConfig : MainUpdate - ForeGroundUpdate : Reworked and fixed bugs of update process.","07:00","16:00","8","60",
"24.10.12","3","09.00790","4624","182","Fehlerbes. nach Ausl. (Bugzilla)","","100","PRODIS.LIB R7: Bugfixing Bausteine aus Vorreleases F4.1/ae10. (from sc)PlantConfig : MainUpdate - ForeGroundUpdate : Reworked and fixed bugs of update process.","07:00","16:00","8","60",
"25.10.12","4","120010","72","120","Codierung","","0","mts3_progtest F2.4/pa10. (from s65) Creating Test Cases for MTS3","07:00","16:00","8","60",
"26.10.12","5","120018","68","101","PM/Mod/Meetings","","0","S4/DSA overall tasks. Meeting and TimeSheets","07:00","16:00","1","60",
"26.10.12","5","120010","73","120","Codierung","","0","MTS3: mts3_isumtest F2.5/pa10. (from s65) Creating Test Cases for MTS3","","","7","0",
