"12.03.12","1","110337","0","120","Codierung","","0","Integrated new Kernel with PIDT11.1.0-Kernel 308. Integrated new Kernel with PIDT11.1.0-Kernel 308","07:00","16:00","2","60",
"12.03.12","1","120112","0","181","Fehlerbes. vor Ausl. (Bugzilla)","","0","Worked on bug 34803. Updated the GUI of PDXInstaller to fix PDX file name display problem","","","3","0",
"12.03.12","1","120112","0","120","Codierung","","0","Worked on bug 34804. Fixing PDXInstaller log file location bug","","","2,5","0",
"12.03.12","1","120018","39","101","PM/Mod/Meetings","","0","Wochenaufgaben SWS. Meeting","","","0,5","0",
"13.03.12","2","120112","0","182","Fehlerbes. nach Ausl. (Bugzilla)","","0","Tried to reproduce bug 34852. Tried to reproduce bug 34852","07:00","16:00","2,5","60",
"13.03.12","2","120112","0","182","Fehlerbes. nach Ausl. (Bugzilla)","","0","Worked on bug 34906. Worked on bug 34906","","","3,5","0",
"13.03.12","2","120112","0","182","Fehlerbes. nach Ausl. (Bugzilla)","","0","Worked on bug 33547. Worked on bug 33547","","","2","0",
"14.03.12","3","100769","0","101","PM/Mod/Meetings","","0","D3 to D5 Migration kick-off meeting. meeting","07:00","16:00","1,5","60",
"14.03.12","3","120112","0","120","Codierung","","0","Worked on CR210my1. Added code to include a new tag ''PT2GVERSION'' in the FAP file","","","5,5","0",
"14.03.12","3","120012","0","104","Test-Spezifikation","","0","Created test spec for CR210my1. Created test spec for new tag in FAP","","","1","0",
"15.03.12","4","120112","0","120","Codierung","","0","Worked on CR210my4. Added new line to ''Miscellaneous'' tab in config app","07:00","16:00","6,5","60",
"15.03.12","4","120112","0","104","Test-Spezifikation","","0","Created test spec for CR210my4. Created test spec for CR210my4","","","1,5","0",
"16.03.12","5","120112","0","120","Codierung","","0","Working on CR184my2 AlternativverbauInSequenzen. Worked on CR184my2","07:00","16:00","7","60",
"16.03.12","5","120018","39","101","PM/Mod/Meetings","","0","Wochenaufgaben SWS. Meeting","","","1","0",
