"09.01.12","1","110292","168","182","Fehlerbes. nach Ausl. (Bugzilla)","","0","1010: Bugfixing aus Vorreleases. Bug 33547","07:00","16:00","8","60",
"10.01.12","2","110292","168","182","Fehlerbes. nach Ausl. (Bugzilla)","","0","1010: Bugfixing aus Vorreleases. Bug 33285","07:00","16:00","8","60",
"11.01.12","3","120018","37","101","PM/Mod/Meetings","","0","Wochenaufgaben SWS. Admin Tasks","07:00","16:00","1","60",
"11.01.12","3","100498","181","182","Fehlerbes. nach Ausl. (Bugzilla)","","0","4282: E1: Bugfixing D1.1/ae21. Bugfixing - 32995","","","7","0",
"12.01.12","4","120018","37","101","PM/Mod/Meetings","","0","Wochenaufgaben SWS. Admin Tasks","07:00","16:00","1,5","60",
"12.01.12","4","100498","181","182","Fehlerbes. nach Ausl. (Bugzilla)","","0","4282: E1: Bugfixing D1.1/ae21. Bugfixing - 32995","","","3,5","0",
"12.01.12","4","110292","168","182","Fehlerbes. nach Ausl. (Bugzilla)","","0","1010: Bugfixing aus Vorreleases. Update testspec for bug 3344","","","3","0",
"13.01.12","5","120018","37","101","PM/Mod/Meetings","","0","Wochenaufgaben SWS. Weekly telco","07:00","16:00","0,5","60",
"13.01.12","5","110292","168","182","Fehlerbes. nach Ausl. (Bugzilla)","","0","1010: Bugfixing aus Vorreleases. Bugfixing","","","7,5","0",
