"24.09.12","1","120023","0","910","Urlaub","","0","Urlaub. Urlaub","07:00","16:00","8","60",
"25.09.12","2","100540","0","120","Codierung","","0","P.Automation-PlantConfig-MainUpdate-ForgroundUpdate-Icons. Worked on Main and forground update implementing  Activating without afd release","07:00","16:00","8","60",
"26.09.12","3","100540","0","120","Codierung","","0","P.Automation-PlantConfig-MainUpdate-ForgroundUpdate-Icons. Creating new icons and implementing into plantconfig to extract according to tester","07:00","16:00","8","60",
"27.09.12","4","100540","0","120","Codierung","","0","P.Automation-PlantConfig-MainUpdate-ForgroundUpdate-Icons. Removed work from mainupdate moved to foregroundupdate - activating msfd updates with no afd update","07:00","16:00","8","60",
"28.09.12","5","120018","68","101","PM/Mod/Meetings","","0","S4/DSA overall tasks. Meeting and TimeSheets","07:00","16:00","2","60",
"28.09.12","5","100540","0","120","Codierung","","0","P.Automation-PlantConfig-forgroundupdate. Implemented Progressbar for AFD update","","","2","0",
"28.09.12","5","120023","0","910","Urlaub","","0","Urlaub. 1/2 day leave","","","4","0",
