"26.11.12","1","100369","7476","120","Codierung","","0","3122: Gen. Tester: ECU: Implementierung F3.3/ae10. Debuging Generic Tester CTS's","07:00","16:00","3","60",
"26.11.12","1","100498","243","182","Fehlerbes. nach Ausl. (Bugzilla)","","0","5082: 9x6: Gewährleistung 2012: Bugfixing. Bugfixing 9x6 Bugs from dk","","","5","0",
"27.11.12","2","100498","243","182","Fehlerbes. nach Ausl. (Bugzilla)","","0","5082: 9x6: Gewährleistung 2012: Bugfixing. Bugfixing 9x6 Bugs from dk","07:00","16:00","3","60",
"27.11.12","2","100498","243","182","Fehlerbes. nach Ausl. (Bugzilla)","","0","5082: 9x6: Gewährleistung 2012: Bugfixing. OET Installation and having problems with OET Configuration","","","5","0",
"28.11.12","3","100498","243","182","Fehlerbes. nach Ausl. (Bugzilla)","","0","5082: 9x6: Gewährleistung 2012: Bugfixing. Installation of new OET and configurations problem","07:00","16:00","6","60",
"28.11.12","3","100369","7476","120","Codierung","","0","3122: Gen. Tester: ECU: Implementierung F3.3/ae10. Debuging Generic Tester CTS's","","","2","0",
"29.11.12","4","100369","7476","120","Codierung","","0","3122: Gen. Tester: ECU: Implementierung F3.3/ae10. Having problem with a Dubugger in Authoring","07:00","16:00","6","60",
"29.11.12","4","100369","7476","120","Codierung","","0","3122: Gen. Tester: ECU: Implementierung F3.3/ae10. Having problems with logical link building block.","","","2","0",
"30.11.12","5","120018","22","101","PM/Mod/Meetings","","0","S4/DSA overall. Department Meeting and Doing Timesheets","07:00","16:00","3","60",
"30.11.12","5","100369","7476","120","Codierung","","0","3122: Gen. Tester: ECU: Implementierung F3.3/ae10. Having problems with Authoring","","","5","0",
