"11.03.13","1","100769","0","120","Codierung","","0","Investigated OTX Procedure problem. Investigated OTX Procedure problem","07:00","16:00","3","60",
"11.03.13","1","100769","0","120","Codierung","","0","Worked on getting a working setup for OTX Procedure enhancement. Worked on getting a working setup for OTX Procedure enhancement","","","5","0",
"12.03.13","2","100769","0","120","Codierung","","0","Worked on investigating, implementing and testing the OTX Procedure enhancement. Worked on investigating, implementing and testing the OTX Procedure enhancement","07:00","16:00","8","60",
"13.03.13","3","100769","0","182","Fehlerbes. nach Ausl. (Bugzilla)","","0","Investigated problem with the PIDT 12.8.0P debugging feature. Investigated problem with the PIDT 12.8.0P debugging feature","07:00","16:00","7","60",
"13.03.13","3","100769","0","120","Codierung","","0","Worked on getting a working PIDT.Automation workspace. Worked on getting a working PIDT.Automation workspace","","","1","0",
"14.03.13","4","100769","0","120","Codierung","","0","Worked on getting a working PIDT.Automation workspace. Worked on getting a working PIDT.Automation workspace","07:00","16:00","8","60",
"15.03.13","5","100769","0","120","Codierung","","0","Worked on getting a working PIDT.Automation workspace. Worked on getting a working PIDT.Automation workspace","07:00","16:00","8","60",
