"30.09.13","1","120328","848	","120","Codierung","","0","20-1112: MTS Base Rework : Impl.. Rework of the BDNT Door and Cockpit Tests","07:00","16:00","8","60",
"01.10.13","2","120328","848","120","Codierung","","0","20-1112: MTS Base Rework : Impl.. Rework of the BDNT Door and Cockpit Tests","07:00","16:00","8","60",
"02.10.13","3","120328","848","120","Codierung","","0","20-1112: MTS Base Rework : Impl.. Rework of the BDNT Door and Cockpit Tests","07:00","16:00","8","60",
"03.10.13","4","120328","848","120","Codierung","","0","20-1112: MTS Base Rework : Impl.. Rework of the BDNT Door and Cockpit Tests","07:00","16:00","8","60",
"04.10.13","5","120328","848","120","Codierung","","0","20-1112: MTS Base Rework : Impl.. Rework of the BDNT Door and Cockpit Tests","07:00","16:00","8","60",
