"01.04.13","1","130023","0","910","Urlaub","","0","Public Holiday. Public Holiday","07:00","16:00","8","60",
"02.04.13","2","100769","998","140","Test","","0","2200: 13.0P Integrationstest APuC. 2200: 13.0P Integrationstest APuC","07:00","16:00","8","60",
"03.04.13","3","100769","998","140","Test","","0","2200: 13.0P Integrationstest APuC. 2200: 13.0P Integrationstest APuC","07:00","16:00","8","60",
"04.04.13","4","100769","998","140","Test","","0","2200: 13.0P Integrationstest APuC. 2200: 13.0P Integrationstest APuC","07:00","16:00","8","60",
"05.04.13","5","100769","998","140","Test","","0","2200: 13.0P Integrationstest APuC. 2200: 13.0P Integrationstest APuC","07:00","16:00","8","60",
