"24.06.13","1","120363","109","140","Test","","0","1091: MCD/PIDT: Regressionstests /eml. Testing PIDT","07:00","16:00","8","60",
"25.06.13","2","120363","109","140","Test","","0","1091: MCD/PIDT: Regressionstests /eml. Testing PIDT","07:00","16:00","8","60",
"26.06.13","3","120363","109","140","Test","","0","1091: MCD/PIDT: Regressionstests /eml. Testing PIDT","07:00","16:00","8","60",
"27.06.13","4","120363","109","140","Test","","0","1091: MCD/PIDT: Regressionstests /eml. Testing PIDT","07:00","16:00","8","60",
"28.06.13","5","130023","0","910","Urlaub","","0","Holiday. Time-off","07:00","16:00","3","60",
"28.06.13","5","130051","5","101","PM/Mod/Meetings","","0","S4/DSA overall tasks 2013. Department Meeting and Doing Timesheets","","","2","0",
"28.06.13","5","120363","109","140","Test","","0","1091: MCD/PIDT: Regressionstests /eml. Testing PIDT","","","3","0",
