"09.12.13","1","130550","0","181","Fehlerbes. vor Ausl. (Bugzilla)","","0","Bug Fixing. Bug Fixing","07:00","16:00","8","60",
"09.12.13","1","130867","3","182","Fehlerbes. nach Ausl. (Bugzilla)","","100","PIDT 14.0: Bug #45595. PIDT 14.0: Bug #45595","","","0","0",
"10.12.13","2","130023","0","920","Krankheit","","0","Sick leave. Sick leave","07:00","16:00","8","60",
"11.12.13","3","130867","0","120","Codierung","","0","PIDT-304 - CR348my6-258_VIN2ImAktionsscreen. PIDT-304 - CR348my6-258_VIN2ImAktionsscreen","07:00","16:00","8","60",
"12.12.13","4","130867","0","120","Codierung","","0","PIDT-304 - CR348my6-258_VIN2ImAktionsscreen. PIDT-304 - CR348my6-258_VIN2ImAktionsscreen","07:00","16:00","8","60",
"13.12.13","5","130051","38","101","PM/Mod/Meetings","","0","S4/DSA overall tasks 2013. S4/DSA overall tasks 2013","07:00","16:00","1,5","60",
"13.12.13","5","130550","0","181","Fehlerbes. vor Ausl. (Bugzilla)","","0","Bug Fixing. Bug Fixing","","","6,5","0",
