"02.12.13","1","130025","0","170","Schulung","","0","Self study. self study","07:00","16:00","8","60",
"03.12.13","2","130025","0","170","Schulung","","0","Self study. self study","07:00","16:00","8","60",
"04.12.13","3","130025","0","170","Schulung","","0","Self study. self study","07:00","16:00","8","60",
"05.12.13","4","130025","0","170","Schulung","","0","Self study. self study","07:00","16:00","8","60",
"06.12.13","5","130025","0","170","Schulung","","0","Self study. self study","07:00","16:00","3","60",
"06.12.13","5","100369","9019","182","Fehlerbes. nach Ausl. (Bugzilla)","","100","???: P3 #47465 (normal) Actuator view : all the buttons START,STOP,... appears insensitiv after a br. Enabled exit button when error occurs","","","3","0",
"06.12.13","5","130023","0","910","Urlaub","","0","Time - Off. Time - Off","","","2","0",
