"09.12.13","1","130025","0","170","Schulung","","0","Self study. self study","07:00","16:00","8","60",
"10.12.13","2","100369","9020","182","Fehlerbes. nach Ausl. (Bugzilla)","","100","???: P3 #47469 (major) Parametrization: by selecting a value in the column 'Value' (from pulldown me. fixed bug","07:00","16:00","3","60",
"10.12.13","2","130025","0","170","Schulung","","0","Self study. self study","","","5","0",
"11.12.13","3","100369","9018","182","Fehlerbes. nach Ausl. (Bugzilla)","","100","???: P3 #47464 (normal) Display of measured values will not be updated after a broken connection to. fixed bug","07:00","16:00","3","60",
"11.12.13","3","130025","0","170","Schulung","","0","Self study. self study","","","5","0",
"12.12.13","4","130025","0","170","Schulung","","0","Self study. self study","07:00","16:00","8","60",
"13.12.13","5","130025","0","170","Schulung","","0","Self study. self study","07:00","16:00","8","60",
