"15.07.13","1","120762","0","120","Codierung","","100","CuPLog: restructing plugin to make it available to datatypes plugin. restructing plugin to make it available to datatypes plugin","07:00","16:00","8","60",
"16.07.13","2","120762","130","120","Codierung","","0","20-1002: ZDCInteg.: Kundenwunschkodierung / CR310my1-186a. Implementing ZDC customer coding file creation","07:00","16:00","8","60",
"17.07.13","3","120762","130","120","Codierung","","0","20-1002: ZDCInteg.: Kundenwunschkodierung / CR310my1-186a. plementing ZDC customer coding file creation","07:00","16:00","8","60",
"18.07.13","4","120762","130","120","Codierung","","0","20-1002: ZDCInteg.: Kundenwunschkodierung / CR310my1-186a. Implementing ZDC customer coding file creation","07:00","16:00","8","60",
"19.07.13","5","130023","0","910","Urlaub","","0","Holiday. Time off","07:00","16:00","8","60",
