"16.09.13","1","120762","0","181","Fehlerbes. vor Ausl. (Bugzilla)","","50","Bug Fixing. Bug 44827","07:00","16:00","8","60",
"17.09.13","2","120762","0","181","Fehlerbes. vor Ausl. (Bugzilla)","","60","Bug Fixing. Bug 44827","07:00","16:00","8","60",
"18.09.13","3","120762","0","181","Fehlerbes. vor Ausl. (Bugzilla)","","70","Bug Fixing. Bug 44827","07:00","16:00","8","60",
"19.09.13","4","120762","0","181","Fehlerbes. vor Ausl. (Bugzilla)","","50","Bug Fixing. Bug 45594","07:00","16:00","4","60",
"19.09.13","4","120762","0","181","Fehlerbes. vor Ausl. (Bugzilla)","","70","Bug Fixing. Bug 44827","","","4","0",
"20.09.13","5","130051","39","101","PM/Mod/Meetings","","100","S4/DSA overall tasks 2013. Meeting","07:00","16:00","1","60",
"20.09.13","5","120762","0","181","Fehlerbes. vor Ausl. (Bugzilla)","","80","Bug Fixing. Bug 44827","","","3","0",
"20.09.13","5","120762","0","181","Fehlerbes. vor Ausl. (Bugzilla)","","80","Bug Fixing. Bug 45592","","","3","0",
"20.09.13","5","120762","0","181","Fehlerbes. vor Ausl. (Bugzilla)","","80","Bug Fixing. Bug 45594","","","1","0",
