"07.10.13","1","130550","168","120","Codierung","","0","CR315my1-73b: ParallelesFlashenEES:. Flash Task CTS erstellen F1.9/pa10","07:00","16:00","8","60",
"08.10.13","2","130550","168","120","Codierung","","0","CR315my1-73b: ParallelesFlashenEES.  Flash Task CTS erstellen F1.9/pa10","07:00","16:00","8","60",
"09.10.13","3","130550","168","120","Codierung","","0"," CR315my1-73b: ParallelesFlashenEES.  Flash Task CTS erstellen F1.9/pa10","07:00","16:00","8","60",
"10.10.13","4","130550","168","120","Codierung","","0","CR315my1-73b: ParallelesFlashenEES.  Flash Task CTS erstellen F1.9/pa10","07:00","16:00","6","60",
"10.10.13","4","130550","162","120","Codierung","","0","CR315my1-73b: ParallelesFlashenEES. Nachabstimmung Kundenwünsche F1.3/pa10","","","2","0",
"11.10.13","5","130051","37","101","PM/Mod/Meetings","","0","S4/DSA overall tasks 2013. Weekly general tasks","07:00","16:00","1,5","60",
"11.10.13","5","130550","168","120","Codierung","","0","CR315my1-73b: ParallelesFlashenEES. Flash Task CTS erstellen F1.9/pa10","","","5","0",
"11.10.13","5","130550","166","120","Codierung","","0","CR315my1-73b: ParallelesFlashenEES. Letzten Flashauftrag speichern und neu laden F1.7/pa10","","","1,5","0",
