"02.12.13","1","130753","22","140","Test","","0","PIDT mit Target Platform 3.8 testen /BI-Pos. 3. testing PIDT eclipse 3.8 target platform","07:00","16:00","8","60",
"03.12.13","2","130051","36","101","PM/Mod/Meetings","","0","S4/DSA Training 2013. Investigating PIDT and automation target platforms","07:00","16:00","8","60",
"04.12.13","3","130867","0","110","Engineering","","0","PIDT 14.0. setting up PIDT 14.0 development environment","07:00","16:00","8","60",
"05.12.13","4","130867","0","181","Fehlerbes. vor Ausl. (Bugzilla)","","0","PIDT 14.0.0 Bug fixing. Working on bug 47739","07:00","16:00","6","60",
"05.12.13","4","130867","0","181","Fehlerbes. vor Ausl. (Bugzilla)","","0","PIDT 14.0.0 Bug fixing. Investigating bug 47733","","","2","0",
"06.12.13","5","130867","0","181","Fehlerbes. vor Ausl. (Bugzilla)","","0","PIDT 14.0.0 Bug fixing. Investigating Bug 47733","07:00","16:00","2","60",
"06.12.13","5","130867","0","181","Fehlerbes. vor Ausl. (Bugzilla)","","0","PIDT 14.0.0 Bug fixing. Working on bug 47739","","","2","0",
"06.12.13","5","130051","37","101","PM/Mod/Meetings","","0","S4/DSA overall tasks 2013. General Weekly tasks","","","1,5","0",
"06.12.13","5","130051","36","101","PM/Mod/Meetings","","0","S4/DSA Training 2013. Learning about PIDT architecture","","","2,5","0",
