"08.04.13","1","120714","1","140","Test","","0","OTX Integration: Regression Tests on Trunk. Verifying bugs in polarion and bugzilla.","07:00","16:00","8","60",
"09.04.13","2","120714","1","140","Test","","0","OTX Integration: Regression Tests on Trunk. Verifying bugs in polarion and bugzilla.","07:00","16:00","8","60",
"10.04.13","3","120714","1","140","Test","","0","OTX Integration: Regression Tests on Trunk. Verifying bugs in polarion and bugzilla.","07:00","16:00","8","60",
"11.04.13","4","120714","1","140","Test","","0","OTX Integration: Regression Tests on Trunk. Verifying bugs in polarion and bugzilla.","07:00","16:00","8","60",
"12.04.13","5","120714","1","140","Test","","0","OTX Integration: Regression Tests on Trunk. Verifying bugs in polarion and bugzilla.","07:00","16:00","6","60",
"12.04.13","5","130051","5","101","PM/Mod/Meetings","","0","S4/DSA overall tasks 2013. Department Meeting and Doing Timesheets","","","2","0",
