"30.09.13","1","120363","0","140","Test","","0","1091: MCD/PIDT: Regressionstests /eml. Testing PIDT","07:00","16:00","8","60",
"01.10.13","2","120363","0","140","Test","","0","1091: MCD/PIDT: Regressionstests /eml. Testing PIDT","07:00","16:00","8","60",
"02.10.13","3","120363","0","140","Test","","0","1091: MCD/PIDT: Regressionstests /eml. Testing PIDT","07:00","16:00","8","60",
"03.10.13","4","120363","0","140","Test","","0","1091: MCD/PIDT: Regressionstests /eml. Testing PIDT","07:00","16:00","8","60",
"04.10.13","5","130023","0","920","Krankheit","","0","Holiday. Leave","07:00","16:00","8","60",
