"25.03.13","1","100369","8686","104","Test-Spezifikation","","0","4101: OBD/WWH: ODX-Daten: Simulationserstellung F2.7/ae10. Implementing simulations","07:00","16:00","8","60",
"26.03.13","2","100369","8697","140","Test","","0","4104: OBD/WWH: ODX-Sequ. Detect CTS: Modultest, Bugfix F6.1/ae10. (From s66) modifying the CTS to work with new protocol detection","07:00","16:00","8","60",
"27.03.13","3","100369","8749","140","Test","","100","9999: OBD/WWH: ODX-Sequ. MAN_MCIII MonitoringLIve cts.. Closing task","07:00","16:00","0","60",
"27.03.13","3","100369","8680","101","PM/Mod/Meetings","","100","4101: OBD/WWH: ODX-Daten: ECU u. Anforderungsanalyse F2.1/ae10. Closing task","","","0","0",
"27.03.13","3","100369","8681","101","PM/Mod/Meetings","","100","4101: OBD/WWH: ODX-Daten: Design Bedatung F2.2/ae10. Closing task","","","0","0",
"27.03.13","3","100369","8682","120","Codierung","","100","4101: OBD/WWH: ODX-Daten: ReadDataByIdentifier F2.3/ae10. Closing task","","","0","0",
"27.03.13","3","100369","8683","120","Codierung","","100","4101: OBD/WWH: ODX-Daten: ReadDTCInformation F2.4/ae10. Closing task","","","0","0",
"27.03.13","3","100369","8697","140","Test","","0","4104: OBD/WWH: ODX-Sequ. Detect CTS: Modultest, Bugfix F6.1/ae10. modifying the CTS to work with new protocol detection","","","1,5","0",
"27.03.13","3","120714","839","120","Codierung","","0","P.Authoring: lack of performance (waiting). (from s41) waiting for authoring","","","0,5","0",
"27.03.13","3","100369","8685","140","Test","","0","4101: OBD/WWH: ODX-Daten: Modultest und Bugfixing F2.6/ae10. Fixed TextTable out of bounds errors","","","2","0",
"27.03.13","3","100369","8687","140","Test","","0","4101: OBD/WWH: ODX-Daten: Test F2.8/ae10. obd odx further testing","","","4","0",
"28.03.13","4","130051","8","101","PM/Mod/Meetings","","0","S4/DSA overall tasks 2013. Meetings and Timesheets","07:00","16:00","1,5","60",
"28.03.13","4","130051","23","104","Test-Spezifikation","","0","S4/DSA Training 2013. Training on creating VEC in authoring, helping colleageus","","","4","0",
"28.03.13","4","100369","8685","140","Test","","0","4101: OBD/WWH: ODX-Daten: Modultest und Bugfixing F2.6/ae10. Fixed errors preventing detection of DataIdentifiers in Authoring","","","2,5","0",
"29.03.13","5","130023","0","910","Urlaub","","0","Holiday. Time-Off","07:00","16:00","8","60",
