"11.03.13","1","100369","8682","120","Codierung","","0","4101: OBD/WWH: ODX-Daten: ReadDataByIdentifier F2.3/ae10. Implementation of Structures and table rows","07:00","16:00","7","60",
"11.03.13","1","100369","8674","101","PM/Mod/Meetings","","0","8501: OBD/WWH: Meetings A1.4/ae10. Project update with Mario","","","1","0",
"12.03.13","2","100369","8682","120","Codierung","","0","4101: OBD/WWH: ODX-Daten: ReadDataByIdentifier F2.3/ae10. Implementation of Structures and table rows","07:00","16:00","8","60",
"13.03.13","3","100369","8682","120","Codierung","","0","4101: OBD/WWH: ODX-Daten: ReadDataByIdentifier F2.3/ae10. Implementation of Structures and table rows","07:00","16:00","8","60",
"14.03.13","4","100369","8686","104","Test-Spezifikation","","0","4101: OBD/WWH: ODX-Daten: Simulationserstellung F2.7/ae10. Simulations for ReadDTC and ReadDataIdent","07:00","16:00","4","60",
"14.03.13","4","100369","8683","120","Codierung","","0","4101: OBD/WWH: ODX-Daten: ReadDTCInformation F2.4/ae10. implementation subF 55 & 06","","","4","0",
"15.03.13","5","130051","8","101","PM/Mod/Meetings","","0","S4/DSA overall tasks 2013. Meetings and Timesheets","07:00","16:00","2","60",
"15.03.13","5","100369","8683","120","Codierung","","0","4101: OBD/WWH: ODX-Daten: ReadDTCInformation F2.4/ae10. Implenting new services","","","6","0",
