"26.08.13","1","120762","234","140","Test","","0","20-1090:Release 13.4: Regressiontests nach CF. Regression Tests","07:00","16:00","10","60",
"27.08.13","2","120600","1792","120","Codierung","","0","9999: P.Lib R9: Creating TestCases. Transferring Testcases from Automation 3.6.18 to Automation 3.4.14","07:00","16:00","8","60",
"28.08.13","3","120600","1792","120","Codierung","","0","9999: P.Lib R9: Creating TestCases. Transferring created TestCases from Automation 3.6.18 to 3.4.14 and uploading them to Testlink.","07:00","16:00","8","60",
"29.08.13","4","120600","0","120","Codierung","","0","9999: P.Lib R9: Testing and Fixing TestCases. Tested and fixed testcases in DSA_Library_Test_Trunk after importing it to Automation 3.4.14","07:00","16:00","8","60",
"30.08.13","5","120600","0","120","Codierung","","0","9999: P.Lib R9: Testing and Fixing TestCases. Tested and fixed testcases in DSA_Library_Test_Trunk after importing it to Automation 3.4.14.","07:00","16:00","8","60",
