"18.11.13","1","130023","0","910","Urlaub","","0","Holiday. Time off","07:00","16:00","8","60",
"19.11.13","2","130550","0","182","Fehlerbes. nach Ausl. (Bugzilla)","","0","Worked on bug 45451. Investigated and fixed problem","07:00","16:00","5","60",
"19.11.13","2","130550","0","181","Fehlerbes. vor Ausl. (Bugzilla)","","0","Investigated bug 47383. Investigated bug 47383","","","5","0",
"20.11.13","3","130550","0","181","Fehlerbes. vor Ausl. (Bugzilla)","","100","Worked on bug 47383. Worked on bug 47383","07:00","16:00","8","60",
"21.11.13","4","130550","0","181","Fehlerbes. vor Ausl. (Bugzilla)","","100","Investigated bug 47387. Investigated bug 47387","07:00","16:00","2,5","60",
"21.11.13","4","130550","0","181","Fehlerbes. vor Ausl. (Bugzilla)","","100","Worked on bug 47383. Worked on bug 47383","","","5,5","0",
"22.11.13","5","130051","13","101","PM/Mod/Meetings","","0","S4/DSA overall tasks 2013. Meetings and admin","07:00","16:00","1,5","60",
"22.11.13","5","130550","0","181","Fehlerbes. vor Ausl. (Bugzilla)","","100","Working on PIDT 13.8.0 bugs. Working on PIDT 13.8.0 bugs","","","6,5","0",
