"09.12.13","1","120759","168","102","Spez: LH/PH/Design","","0","23-1610: Flashjob: Feindesign MORS, MODG erstellen 3.0. From S41: Flashjob/CTS specifications","07:00","16:00","8","60",
"10.12.13","2","120759","168","102","Spez: LH/PH/Design","","0","23-1610: Flashjob: Feindesign MORS, MODG erstellen 3.0. From S41: Flashjob/CTS specifications","07:00","16:00","8","60",
"11.12.13","3","120759","168","102","Spez: LH/PH/Design","","100","23-1610: Flashjob: Feindesign MORS, MODG erstellen 3.0. From S41: Flashjob/CTS specifications","07:00","16:00","8","60",
"12.12.13","4","130703","17","120","Codierung","","0","10-9340: ISOBUS Autom.: SYIR /pa10. From hh:Test setup JRTS-MTS3B with Bokard for testing new JRTS+ISOBUS handling for krono delivery","07:00","16:00","4","60",
"12.12.13","4","120759","170","102","Spez: LH/PH/Design","","0","Anpassung Demo Testablauf: Feindesign MORS, MODG erstellen. Anpassung Demo Testablauf: Feindesign MORS, MODG erstellen","","","4","0",
"13.12.13","5","130051","10","101","PM/Mod/Meetings","","0","S4/DSA overall tasks 2013. Timesheets","07:00","16:00","0,5","60",
"13.12.13","5","120759","170","102","Spez: LH/PH/Design","","0","Anpassung Demo Testablauf: Feindesign MORS, MODG erstellen. Anpassung Demo Testablauf: Feindesign MORS, MODG erstellen","","","7,5","0",
"13.12.13","5","130127","61","181","Fehlerbes. vor Ausl. (Bugzilla)","","100","10-9340: ZBRO32: Bugfixing Integrtest F6.1/pa10. 10-9340: ZBRO32: Bugfixing Integrtest F6.1/pa10","","","0","0",
