"28.01.13","1","100369","7508","120","Codierung","","0","3122: Gen. Tester: Routinen: Implementierung F7.3/ae10. Implementing Man_Generic_Coding CTS","07:00","16:00","6,5","60",
"28.01.13","1","100369","7508","120","Codierung","","0","3122: Gen. Tester: Routinen: Implementierung F7.3/ae10. Waiting for Authoring","","","1,5","0",
"29.01.13","2","100369","7508","120","Codierung","","0","3122: Gen. Tester: Routinen: Implementierung F7.3/ae10. Implementing Man_Generic_Coding CTS","07:00","16:00","6,5","60",
"29.01.13","2","100369","7508","120","Codierung","","0","3122: Gen. Tester: Routinen: Implementierung F7.3/ae10. Waiting for Authoring","","","1,5","0",
"30.01.13","3","100369","7508","120","Codierung","","0","3122: Gen. Tester: Routinen: Implementierung F7.3/ae10. Implementing Man_Generic_Coding CTS","07:00","16:00","6,5","60",
"30.01.13","3","100369","7508","120","Codierung","","0","3122: Gen. Tester: Routinen: Implementierung F7.3/ae10. Waiting for Authoring","","","1,5","0",
"31.01.13","4","100369","7508","120","Codierung","","0","3122: Gen. Tester: Routinen: Implementierung F7.3/ae10	Updating Actuators. Updating Actuators CTS","07:00","16:00","6,5","60",
"31.01.13","4","100369","7508","120","Codierung","","0","3122: Gen. Tester: Routinen: Implementierung F7.3/ae10	Updating Actuators. Waiting for Authoring","","","1,5","0",
"01.02.13","5","100369","7508","120","Codierung","","0","3122: Gen. Tester: Routinen: Implementierung F7.3/ae10	Updating Actuators. Updating Actuators CTS","07:00","16:00","3,5","60",
"01.02.13","5","130051","5","101","PM/Mod/Meetings","","0","S4/DSA overall tasks 2013. Department Meeting and Doing Timesheets","","","3","0",
"01.02.13","5","100369","7508","120","Codierung","","0","3122: Gen. Tester: Routinen: Implementierung F7.3/ae10	Updating Actuators. Waiting for Authoring","","","1,5","0",
