"08.04.13","1","130023","0","920","Krankheit","","0","Krankheit. Sick Leave","07:00","16:00","8","60",
"09.04.13","2","100369","8688","102","Spez: LH/PH/Design","","100","4102: OBD/WWH: ODX-Sequ. Integr.: Spec F4.1/ae10. Addressed Open Issues","07:00","16:00","4","60",
"09.04.13","2","120714","1228","120","Codierung","","0","P.Authoring: lack of performance (waiting). P.Authoring: lack of performance (waiting)","","","0,5","0",
"09.04.13","2","130051","25","101","PM/Mod/Meetings","","0","S4/DSA Training 2013. Training new team memebers","","","1","0",
"09.04.13","2","100369","8698","120","Codierung","","0","4105: OBD/WWH: ODX-Sequ. Diagn.speicher: Impl F7.1/ae10. Implementing Testing and fixing bugs","","","2,5","0",
"10.04.13","3","120714","1228","120","Codierung","","0","P.Authoring: lack of performance (waiting). P.Authoring: lack of performance (waiting)","07:00","16:00","0,5","60",
"10.04.13","3","130051","25","101","PM/Mod/Meetings","","0","S4/DSA Training 2013. Training new team memebers","","","1","0",
"10.04.13","3","100369","8698","120","Codierung","","0","4105: OBD/WWH: ODX-Sequ. Diagn.speicher: Impl F7.1/ae10. Implementing Testing and fixing bugs","","","6,5","0",
"11.04.13","4","120714","1228","120","Codierung","","0","P.Authoring: lack of performance (waiting). P.Authoring: lack of performance (waiting)","07:00","16:00","0,5","60",
"11.04.13","4","130051","25","101","PM/Mod/Meetings","","0","S4/DSA Training 2013. Training new team memebers","","","1","0",
"11.04.13","4","100369","8698","120","Codierung","","0","4105: OBD/WWH: ODX-Sequ. Diagn.speicher: Impl F7.1/ae10. Implementing Testing and fixing bugs","","","6,5","0",
"12.04.13","5","100369","8673","101","PM/Mod/Meetings","","0","8501: OBD/WWH: Meetings A1.4/ae10. WWH-OBD","07:00","16:00","1","60",
"12.04.13","5","130051","10","101","PM/Mod/Meetings","","0","S4/DSA overall tasks 2013. Meetings and Timesheets","","","1","0",
"12.04.13","5","120714","1228","120","Codierung","","0","P.Authoring: lack of performance (waiting). P.Authoring: lack of performance (waiting)","","","0,5","0",
"12.04.13","5","130051","25","101","PM/Mod/Meetings","","0","S4/DSA Training 2013. Training new team memebers","","","1","0",
"12.04.13","5","100369","8688","102","Spez: LH/PH/Design","","100","4102: OBD/WWH: ODX-Sequ. Integr.: Spec F4.1/ae10. Added new section according to Daniel","","","4,5","0",
