"11.03.13","1","120714","0","140","Test","","0","PRODIS.Authoring Product test. Testing Testcases in Test Link Prodis Authoring","07:00","16:00","8","60",
"12.03.13","2","120714","0","140","Test","","0","PRODIS.Authoring Product test. Testing Testcases in Test Link Prodis Authoring","07:00","16:00","8","60",
"13.03.13","3","120714","0","140","Test","","0","PRODIS.Authoring Product test. Testing Testcases in Test Link Prodis Authoring","07:00","16:00","8","60",
"14.03.13","4","120714","0","140","Test","","0","PRODIS.Authoring Product test. Verifying bugs in polarion and bugzilla.","07:00","16:00","8","60",
"15.03.13","5","130051","5","101","PM/Mod/Meetings","","0","S4/DSA overall tasks 2013. Department Meeting and Doing Timesheets","07:00","16:00","2","60",
"15.03.13","5","120714","0","140","Test","","0","PRODIS.Authoring Product test. Verifying bugs in polarion and bugzilla.","","","6","0",
