"27.05.13","1","130425","2","120","Codierung","","100","Astronic Stellgliedtest Motor (#169, #175). Closing task","07:00","16:00","0","60",
"27.05.13","1","130425","15","120","Codierung","","100","Automatiktest Ventile (#210). PDU sim creation & sequence Testing","","","2","0",
"27.05.13","1","100369","8683","120","Codierung","","0","4101: OBD/WWH: ODX-Daten: ReadDTCInformation F2.4/ae10. (CLosed Task) Adding new subfunction 0x04","","","3","0",
"27.05.13","1","130425","25","120","Codierung","","0","DLS-Tester - Analysis of Code (#219). Getting Into DLS-Tester subject","","","3","0",
"28.05.13","2","130425","25","120","Codierung","","0","DLS-Tester - Analysis of Code (#219). Analysis of GRADE code","07:00","16:00","8","60",
"29.05.13","3","130425","25","120","Codierung","","0","DLS-Tester - Analysis of Code (#219). Analysis of possible implementation in Authoring","07:00","16:00","8","60",
"30.05.13","4","130425","25","120","Codierung","","0","DLS-Tester - Analysis of Code (#219). Testing services and Analysis of Proper sequences flow","07:00","16:00","8","60",
"31.05.13","5","130051","8","101","PM/Mod/Meetings","","0","S4/DSA overall tasks 2013. Meetings and timesheets","07:00","16:00","1","60",
"31.05.13","5","130475","26","120","Codierung","","0","DLS-Tester - Specification (#220). Drawing flowcharts","","","7","0",
