"08.07.13","1","120762","113","120","Codierung","","100","20-1001: CuPLog: Einbindung in autom. Codierung u. Programmierung inkl. PreDoc-GUI / CR307my2-218. Integrating feature into APUC","07:00","18:00","10","60",
"09.07.13","2","120762","113","120","Codierung","","100","20-1001: CuPLog: Einbindung in autom. Codierung u. Programmierung inkl. PreDoc-GUI / CR307my2-218. Integrating feature into APUC","07:00","18:00","10","60",
"10.07.13","3","120762","113","120","Codierung","","100","20-1001: CuPLog: Einbindung in autom. Codierung u. Programmierung inkl. PreDoc-GUI / CR307my2-218. Integrating feature into APUC","07:00","16:00","4","60",
"10.07.13","3","120762","41","102","Spez: LH/PH/Design","","0","10-1001: PIDT-Rel. 13.4: Testspec CR307my2-218_CuPLogging E1.9/pa10. Working on test cases for feature","","","4","0",
"11.07.13","4","120762","41","102","Spez: LH/PH/Design","","0","10-1001: PIDT-Rel. 13.4: Testspec CR307my2-218_CuPLogging E1.9/pa10. Working on test cases for feature","07:00","18:00","10","60",
"12.07.13","5","120762","41","102","Spez: LH/PH/Design","","100","10-1001: PIDT-Rel. 13.4: Testspec CR307my2-218_CuPLogging E1.9/pa10. Working on test cases for feature","07:00","16:00","2","60",
"12.07.13","5","130051","12","101","PM/Mod/Meetings","","0","S4/DSA overall tasks 2013. Weekly general tasks","","","1,5","0",
"12.07.13","5","120762","114","120","Codierung","","0","20-1001: CuPLog: Modultest implementieren / CR307my2-218. Wrking on JUnit tests for feature.","","","4,5","0",
