"19.08.13","1","120762","234","140","Test","","0","20-1090:Release 13.4: Regressiontests nach CF. Regression Tests","07:00","16:00","8","60",
"20.08.13","2","120762","234","140","Test","","0","20-1090:Release 13.4: Regressiontests nach CF. Regression Tests","07:00","16:00","8","60",
"21.08.13","3","120762","234","140","Test","","0","20-1090:Release 13.4: Regressiontests nach CF. Regression Tests","07:00","16:00","8","60",
"22.08.13","4","120762","234","140","Test","","0","20-1090:Release 13.4: Regressiontests nach CF. Regression Tests","07:00","16:00","4","60",
"22.08.13","4","120527","47","120","Codierung","","0","20-1191: Create DSA Project Template from BDNT WS :Implementation. Adding the Flash Framework to the CustomerWorkspaceTemplate, BDNT and Brilliance Projects.","","","4","0",
"23.08.13","5","120762","234","140","Test","","0","20-1090:Release 13.4: Regressiontests nach CF. Regression Tests","07:00","16:00","8","60",
