"11.11.13","1","130550","0","182","Fehlerbes. nach Ausl. (Bugzilla)","","0","PIDT: 13.8: Bugfixing nach CF. Working on PIDT 13.8 bugs: 46335, 45668, 47237","07:00","16:00","5","60",
"11.11.13","1","130550","1","140","Test","","0","PIDT 13.8 Regression Testing. Supporting PIDT 13.8.0 Testing","","","3","0",
"11.11.13","1","130550","117","102","Spez: LH/PH/Design","","100","10-1008: CR337my2-243_OnboardFAinKonfigSG: Define allowed configuration E1.2/pa30. Closing old task","","","0","0",
"11.11.13","1","130550","339","110","Engineering","","100","00-9999: Getting into subject: creating automation builds, setting up Automation build environment. Closing old task","","","0","0",
"12.11.13","2","130550","0","182","Fehlerbes. nach Ausl. (Bugzilla)","","0","PIDT: 13.8: Bugfixing nach CF. Working on PIDT 13.8 bugs: 47239","07:00","16:00","6,5","60",
"12.11.13","2","130550","1","140","Test","","0","PIDT 13.8 Regression Testing. Supporting PIDT 13.8.0 Testing","","","1,5","0",
"13.11.13","3","130550","1","140","Test","","0","PIDT 13.8 Regression Testing. Supporting PIDT 13.8.0 Testing","07:00","16:00","2","60",
"13.11.13","3","130550","0","182","Fehlerbes. nach Ausl. (Bugzilla)","","0","PIDT: 13.8: Bugfixing nach CF. Working on PIDT 13.8 bugs: 45668","","","3,5","0",
"13.11.13","3","130550","2","181","Fehlerbes. vor Ausl. (Bugzilla)","","0","PIDT: 13.8: Bugfixing nach CF. Working on PIDT 13.8 bugs: 47251 and flashpaket selection bug","","","2,5","0",
"14.11.13","4","130550","1","140","Test","","0","PIDT 13.8 Regression Testing. Supporting PIDT 13.8.0 Testing","07:00","16:00","2","60",
"14.11.13","4","130550","0","182","Fehlerbes. nach Ausl. (Bugzilla)","","0","PIDT: 13.8: Bugfixing nach CF. Working on PIDT 13.8 bugs: 47309, 45668","","","6","0",
"15.11.13","5","130550","0","182","Fehlerbes. nach Ausl. (Bugzilla)","","0","PIDT: 13.8: Bugfixing nach CF. Working on PIDT 13.8 bugs","07:00","16:00","4,5","60",
"15.11.13","5","130550","1","140","Test","","0","PIDT 13.8 Regression Testing. Supporting PIDT 13.8.0 Testing","","","2","0",
"15.11.13","5","130051","12","101","PM/Mod/Meetings","","0","S4/DSA overall tasks 2013. Weekly general tasks and S4 meeting","","","1,5","0",
