"11.02.13","1","100769","855","120","Codierung","","100","1120: Merge Changesets 1-3,5-8,10-35. 1120: Merge Changesets 1-3,5-8,10-35","07:00","16:00","0","60",
"11.02.13","1","100769","857","120","Codierung","","100","1120: Check and Update Release. 1120: Check and Update Release","","","0","0",
"11.02.13","1","100769","870","120","Codierung","","100","1300: Exchange Export to Automation. 1300: Exchange Export to Automation","","","0","0",
"11.02.13","1","100769","873","120","Codierung","","100","1320: Merge Entities. 1320: Merge Entities","","","0","0",
"11.02.13","1","100769","874","140","Test","","100","1400: Integrationstest. 1400: Integrationstest","","","0","0",
"11.02.13","1","100769","862","104","Test-Spezifikation","","100","1510: Testspec erweitern. 1510: Testspec erweitern","","","0","0",
"11.02.13","1","100769","0","120","Codierung","","0","SWE: PIDT-Automation. Workspace setup and getting into subject for PIDT.Automation","","","8","0",
"12.02.13","2","100769","0","120","Codierung","","0","SWE: PIDT-Automation. Workspace setup and getting into subject for PIDTruntime","07:00","16:00","5,5","60",
"12.02.13","2","130051","26","101","PM/Mod/Meetings","","0","Training. Assisted Thando on setting up his Automation workspace","","","2,5","0",
"13.02.13","3","100769","0","120","Codierung","","0","Setting up of Automation and PIDT runtime workspaces. Setting up of Automation and PIDT runtime workspaces","07:00","16:00","8","60",
"14.02.13","4","100769","0","120","Codierung","","0","Automation workspace setup. Automation workspace setup - attempt to remove errors","07:00","16:00","6","60",
"14.02.13","4","100769","0","120","Codierung","","100","Comparison of deliverables. Comparison of deliverables","","","2","0",
"15.02.13","5","130051","14","101","PM/Mod/Meetings","","0","Meetings / reports. Meetings / reports","07:00","16:00","1,5","60",
"15.02.13","5","100769","0","120","Codierung","","0","Finalising workspaces. Finalising workpaces","","","6,5","0",
