"13.05.13","1","120363","0","181","Fehlerbes. vor Ausl. (Bugzilla)","","0","Worked on Bug 42387. Worked on Bug 42387","07:00","16:00","8","60",
"14.05.13","2","120363","0","181","Fehlerbes. vor Ausl. (Bugzilla)","","0","Worked on Bug 42387. Worked on Bug 42387","07:00","16:00","8","60",
"15.05.13","3","120363","0","181","Fehlerbes. vor Ausl. (Bugzilla)","","0","Worked on Bug 42387. Worked on Bug 42387","07:00","16:00","8","60",
"16.05.13","4","120363","0","181","Fehlerbes. vor Ausl. (Bugzilla)","","0","Worked on Bug 42387. Worked on Bug 42387","07:00","16:00","8","60",
"17.05.13","5","120363","0","181","Fehlerbes. vor Ausl. (Bugzilla)","","0","Worked on Bug 42387. Worked on Bug 42387","07:00","16:00","6","60",
"17.05.13","5","130051","13","101","PM/Mod/Meetings","","0","S4/DSA overall tasks 2013. Meeting and admin","","","2","0",
