"21.01.13","1","130051","3","101","PM/Mod/Meetings","","0","S4 Technical Support / Troubleshoot 2013. Supporting Team Members","07:00","16:00","8","60",
"22.01.13","2","130051","3","101","PM/Mod/Meetings","","0","S4 Technical Support / Troubleshoot 2013. Supporting Team Members","07:00","16:00","7","60",
"22.01.13","2","130051","1","101","PM/Mod/Meetings","","0","S4 General Project Management. Interviews for new staff members","","","1","0",
"23.01.13","3","100369","7508","120","Codierung","","0","(from s46) 3122: Gen. Tester: Routinen: Implementierung F7.3/ae10. Assist s46 with implementation details","07:00","16:00","5","60",
"23.01.13","3","120600","589","120","Codierung","","0","(from s64) 9999: Product Test PRODIS.Automation Release 3.6 (Testing 3.6.1 MCD3, 3.6.3MC. Assist s64 with new MTS3B coldstart + JRTS update","","","3","0",
"24.01.13","4","100369","7508","120","Codierung","","0","(from s46) 3122: Gen. Tester: Routinen: Implementierung F7.3/ae10. Assist s46 with implementation details","07:00","16:00","5","60",
"24.01.13","4","130051","3","101","PM/Mod/Meetings","","0","S4 Technical Support / Troubleshoot 2013. Supporting Team Members","","","3","0",
"25.01.13","5","100369","7508","120","Codierung","","0","(from s46) 3122: Gen. Tester: Routinen: Implementierung F7.3/ae10. Assist s46 with implementation details","07:00","16:00","2","60",
"25.01.13","5","120280","239","181","Fehlerbes. vor Ausl. (Bugzilla)","","0","1121: EOL: Vehicle Data Processing: Bugfix Buffer F12.5/ae11. Working on SFD vehicle data concept for QOROS","","","2","0",
"25.01.13","5","130051","2","101","PM/Mod/Meetings","","0","Management group AES 2013. Timesheets + Meetings","","","1","0",
"25.01.13","5","130051","3","101","PM/Mod/Meetings","","0","S4 Technical Support / Troubleshoot 2013. Supporting Team Members","","","3","0",
