"21.10.13","1","130023","0","920","Krankheit","","0","Sick leave. Sick leave","07:00","16:00","8","60",
"22.10.13","2","130023","0","920","Krankheit","","0","Sick leave. Sick leave","07:00","16:00","8","60",
"23.10.13","3","130550","126","104","Test-Spezifikation","","100","0-1010: CR337my1-241_SW-Version in MCRRegeln: Testspezifikation E1.3/pa30. Fixing test spec based on review","07:00","16:00","4","60",
"23.10.13","3","130550","0","182","Fehlerbes. nach Ausl. (Bugzilla)","","0","PIDT: 13.8: Bugfixing before CF. Working on PIDT 13.8 bugs: 46859","","","4","0",
"24.10.13","4","130550","0","182","Fehlerbes. nach Ausl. (Bugzilla)","","0","PIDT: 13.8: Bugfixing before CF. Working on PIDT 13.8 bugs: 46860, 46861 & 46862","07:00","16:00","8","60",
"25.10.13","5","130051","12","101","PM/Mod/Meetings","","0","S4/DSA overall tasks 2013. Weekly general tasks","07:00","16:00","1","60",
"25.10.13","5","130550","0","182","Fehlerbes. nach Ausl. (Bugzilla)","","0","PIDT: 13.8: Bugfixing before CF. Working on PIDT 13.8 bugs","","","7","0",
