"16.09.13","1","130023","0","920","Krankheit","","0","Sick Leave. Sick Leave","07:00","16:00","6","60",
"16.09.13","1","130550","0","182","Fehlerbes. nach Ausl. (Bugzilla)","","0","Worked on bug 45451. Worked on bug 45451","","","2","0",
"17.09.13","2","130023","0","920","Krankheit","","0","Sick Leave. Sick Leave","07:00","16:00","8","60",
"18.09.13","3","130550","0","182","Fehlerbes. nach Ausl. (Bugzilla)","","100","Worked on bug 46099. Worked on bug 46099","07:00","16:00","5,5","60",
"18.09.13","3","130550","0","182","Fehlerbes. nach Ausl. (Bugzilla)","","0","Worked on bug 45451. Worked on bug 45451","","","2,5","0",
"19.09.13","4","130550","0","182","Fehlerbes. nach Ausl. (Bugzilla)","","0","Investigated bug 45857. Investigated bug 45857","07:00","16:00","5","60",
"19.09.13","4","130550","0","182","Fehlerbes. nach Ausl. (Bugzilla)","","0","Worked on bug 45451. Worked on bug 45451","","","2","0",
"19.09.13","4","130550","0","120","Codierung","","0","Merging new Kernel libs into PDX Installer. Merging new Kernel libs into PDX Installer","","","1","0",
"20.09.13","5","130550","0","120","Codierung","","100","Merging new Kernel libs into PDX Installer. Merging new Kernel libs into PDX Installer","07:00","16:00","1,5","60",
"20.09.13","5","130550","0","182","Fehlerbes. nach Ausl. (Bugzilla)","","0","Worked on bug 45857. Worked on bug 45857","","","3,5","0",
"20.09.13","5","130023","0","910","Urlaub","","0","Leave. Leave","","","3","0",
