"11.11.13","1","130550","353","140","Test","","0","10-9350: CETEM Tests. PIDT Testing","07:00","16:00","8","60",
"12.11.13","2","130056 ","306","120","Codierung","","0","1102: ASCS II: AP7: Rework existing appl.: VSoH F6.8/ae11. (task already closed) Working on Vehicle State of Health CTS in Authoring","07:00","16:00","8","60",
"13.11.13","3","130550","353","140","Test","","0","10-9350: CETEM Tests. PIDT Testing","07:00","16:00","8","60",
"14.11.13","4","130550","353","140","Test","","0","10-9350: CETEM Tests. PIDT Testing","07:00","16:00","8","60",
"15.11.13","5","130550","353","140","Test","","0","10-9350: CETEM Tests. PIDT Testing","07:00","16:00","8","60",
