"18.11.13","1","130127","37","120","Codierung","","100","10-1101: ZBRO32: ODX: Bugfixing F1.11/pa10. Bug 47409","07:00","16:00","4","60",
"18.11.13","1","130056","304","120","Codierung","","100","1102: ASCS II: AP7: Rework existing appl.: Acutators F6.6/ae11. Implement check for maximum duration of CPID show CPID-EntryMessage","","","4","0",
"18.11.13","1","130127","22","101","PM/Mod/Meetings","","100","00-9120: ZBRO32: Meetings A1.2/pa10. Closing","","","0","0",
"19.11.13","2","130051","8","101","PM/Mod/Meetings","","0","S4/DSA overall tasks 2013. Krone Project Introduction","07:00","16:00","1","60",
"19.11.13","2","130056","303","120","Codierung","","0","1102: ASCS II: AP7: Rework existing appl.: Faultmemory F6.5/ae11. Environmental Data","","","7","0",
"20.11.13","3","130056","303","120","Codierung","","0","1102: ASCS II: AP7: Rework existing appl.: Faultmemory F6.5/ae11. Trouble Shooter","07:00","16:00","8","60",
"21.11.13","4","130056","303","120","Codierung","","0","1102: ASCS II: AP7: Rework existing appl.: Faultmemory F6.5/ae11. Screens, Buttons,Columns, LL Pool,Minor Bugs","07:00","16:00","8","60",
"22.11.13","5","130051","8","101","PM/Mod/Meetings","","0","S4/DSA overall tasks 2013. S4 Meetings and timesheets","07:00","16:00","1","60",
"22.11.13","5","130056","303","120","Codierung","","100","1102: ASCS II: AP7: Rework existing appl.: Faultmemory F6.5/ae11. Screen headers,Environment Data to use parameter paths,trouble shooter cofigurations","","","7","0",
