"07.01.13","1","120559","109","102","Spez: LH/PH/Design","","0","9999: PIDT OTX Ext.:Design document. Working on PIDT OTX design document","07:00","16:00","8","60",
"08.01.13","2","120559","109","102","Spez: LH/PH/Design","","0","9999: PIDT OTX Ext.:Design document. Working on PIDT OTX design document","07:00","16:00","8","60",
"09.01.13","3","120559","109","102","Spez: LH/PH/Design","","0","9999: PIDT OTX Ext.:Design document. Working on PIDT OTX design document","07:00","16:00","8","60",
"10.01.13","4","120559","109","102","Spez: LH/PH/Design","","0","9999: PIDT OTX Ext.:Design document. Working on PIDT OTX design document","07:00","16:00","8","60",
"11.01.13","5","130051","12","101","PM/Mod/Meetings","","0","S4/DSA overall tasks 2013. Weekly general tasks","07:00","16:00","1","60",
"11.01.13","5","120559","109","102","Spez: LH/PH/Design","","0","9999: PIDT OTX Ext.:Design document. Working on PIDT OTX design document","","","7","0",
