"23.12.13","1","130023","0","910","Urlaub","","0","Urlaub. Urlaub","07:00","16:00","8","60",
"24.12.13","2","130023","0","910","Urlaub","","0","Urlaub. Urlaub","07:00","16:00","8","60",
"27.12.13","5","130023","0","910","Urlaub","","0","Urlaub. Urlaub","07:00","16:00","8","60",
