"25.02.13","1","100769","975","181","Fehlerbes. vor Ausl. (Bugzilla)","","0","Worked on bug 40990. Investigated bug 40990, no fix needed as fix was created after the release of the latest setup","07:00","16:00","4","60",
"25.02.13","1","100769","965","120","Codierung","","100","9999: Debugger P.Automation. Fixed issues pointed out in code review","","","4","0",
"26.02.13","2","100769","975","181","Fehlerbes. vor Ausl. (Bugzilla)","","0","Worked on bug 41010. Tried reproducing bug 41010, could not reproduce","07:00","16:00","3","60",
"26.02.13","2","100769","975","181","Fehlerbes. vor Ausl. (Bugzilla)","","0","Worked on bug 40992. Tried reproducing bug 40992, couldn't reproduce","","","3","0",
"26.02.13","2","100769","975","181","Fehlerbes. vor Ausl. (Bugzilla)","","0","Worked on bug 40860. Tried reproducing bug 40860, couldn't reproduce","","","2","0",
"27.02.13","3","100769","975","181","Fehlerbes. vor Ausl. (Bugzilla)","","0","Worked on bug 41083. Investigating cause of bug 41803","07:00","16:00","8","60",
"28.02.13","4","100769","975","181","Fehlerbes. vor Ausl. (Bugzilla)","","0","Worked on bug 41083. Compared D3 and Automation versions of the CTS's and tested bug in PIDT 12.8.0 D3","07:00","16:00","6","60",
"28.02.13","4","100769","975","181","Fehlerbes. vor Ausl. (Bugzilla)","","0","Worked on bug 40825. Helped Marizanne with bug","","","2","0",
"01.03.13","5","100769","975","181","Fehlerbes. vor Ausl. (Bugzilla)","","0","Worked on bug 41083. Testing this with PIDT Versions < 12.8.0 P and fixing problem","07:00","16:00","7","60",
"01.03.13","5","130051","13","101","PM/Mod/Meetings","","0","S4/DSA overall tasks 2013. Meeting","","","1","0",
"01.03.13","5","100769","965","120","Codierung","","100","9999: Debugger P.Automation. Closing task","","","0","0",
