"15.07.13","1","120363","109","140","Test","","0","1091: MCD/PIDT: Regressionstests /eml. Testing PIDT","07:00","16:00","8","60",
"16.07.13","2","130023","0","910","Urlaub","","0","Time-Off. Time-Off","07:00","16:00","8","60",
"17.07.13","3","130023","0","910","Urlaub","","0","Time-Off. Time-Off","07:00","16:00","8","60",
"18.07.13","4","120363","109","140","Test","","0","1091: MCD/PIDT: Regressionstests /eml. Testing PIDT","07:00","16:00","8","60",
"19.07.13","5","130051","5","101","PM/Mod/Meetings","","0","S4/DSA overall tasks 2013. Department Meeting and Doing Timesheets","07:00","16:00","2","60",
"19.07.13","5","120363","109","140","Test","","0","1091: MCD/PIDT: Regressionstests /eml. Testing PIDT","","","6","0",
