"02.12.13","1","130604","16","120","Codierung","","0","10-1000: NA: P CC: ODX Data: Use KD-Ref Ids. (from dr)10-1000: NA: P CC: ODX Data: Use KD-Ref Ids","07:00","16:00","2","60",
"02.12.13","1","130168","371","182","Fehlerbes. nach Ausl. (Bugzilla)","","0","Bugfixing bis Ende 2013 /BI-Pos. 13. bug 47645","","","4","0",
"02.12.13","1","130025","0","170","Schulung","","0","Self Study. Self Study","","","2","0",
"03.12.13","2","130168","371","182","Fehlerbes. nach Ausl. (Bugzilla)","","0","Bugfixing bis Ende 2013 /BI-Pos. 13. bugs 47674, 47675, 47677, 47678","07:00","16:00","4,5","60",
"03.12.13","2","130604","16","120","Codierung","","0","10-1000: NA: P CC: ODX Data: Use KD-Ref Ids. (from dr)10-1000: NA: P CC: ODX Data: Use KD-Ref Ids","","","3,5","0",
"04.12.13","3","130025","0","170","Schulung","","0","Self Study. self training","07:00","16:00","6","60",
"04.12.13","3","130168","371","182","Fehlerbes. nach Ausl. (Bugzilla)","","0","Bugfixing bis Ende 2013 /BI-Pos. 13. bug 47450","","","2","0",
"05.12.13","4","130025","0","170","Schulung","","0","Self Study. self training - zbro32 actuators","07:00","16:00","8","60",
"06.12.13","5","130051","7","101","PM/Mod/Meetings","","0","S4/DSA overall tasks 2013. Meeting and updating time sheets","07:00","16:00","1,5","60",
"06.12.13","5","130025","0","170","Schulung","","0","Self Study. self training","","","6,5","0",
