"25.03.13","1","100369","8688","102","Spez: LH/PH/Design","","0","4102: OBD/WWH: ODX-Sequ. Integr.: Spec F4.1/ae10. Creating Specs for OBD/WWH","07:00","16:00","8","60",
"26.03.13","2","100369","8688","102","Spez: LH/PH/Design","","0","4102: OBD/WWH: ODX-Sequ. Integr.: Spec F4.1/ae10. Creating and bugfixing Simulations","07:00","16:00","8","60",
"27.03.13","3","100369","8698","120","Codierung","","0","4105: OBD/WWH: ODX-Sequ. Diagn.speicher: Impl F7.1/ae10. Implementing Diagn.speicher CTS","07:00","16:00","6,5","60",
"27.03.13","3","120714","839","120","Codierung","","0","P.Authoring: lack of performance (waiting). From S41: Waiting for Authoring","","","0,5","0",
"27.03.13","3","130051","25","101","PM/Mod/Meetings","","0","S4/DSA Training 2013. Training new team memebers","","","1","0",
"28.03.13","4","100369","8698","120","Codierung","","0","4105: OBD/WWH: ODX-Sequ. Diagn.speicher: Impl F7.1/ae10. Implementing Diagn.speicher CTS","07:00","16:00","5,5","60",
"28.03.13","4","130051","10","101","PM/Mod/Meetings","","0","S4/DSA overall tasks 2013. Meeting and TimeSheets","","","1","0",
"28.03.13","4","120714","839","120","Codierung","","0","P.Authoring: lack of performance (waiting). From S41: Waiting for Authoring","","","0,5","0",
"28.03.13","4","130051","25","101","PM/Mod/Meetings","","0","S4/DSA Training 2013. Training new team memebers","","","1","0",
"28.03.13","4","120600","561","110","Engineering","","100","8102: P.Lib R8: Konfiguration TestFramework F2.5/ae10. Closing","","","0","0",
"29.03.13","5","130023","0","910","Urlaub","","0","Urlaub. Urlaub","07:00","16:00","8","60",
