"02.09.13","1","130127","35","120","Codierung","","0","10-1101: ZBRO32: ODX: Job: Monitoring/IOControl exe F1.8/pa10. (from s53) implementing Job","07:00","16:00","8","60",
"03.09.13","2","130127","35","120","Codierung","","0","10-1101: ZBRO32: ODX: Job: Monitoring/IOControl exe F1.8/pa10. (from s53) implementing Job","07:00","16:00","8","60",
"04.09.13","3","130127","35","120","Codierung","","0","10-1101: ZBRO32: ODX: Job: Monitoring/IOControl exe F1.8/pa10. (from s53) iimplementing response output","07:00","16:00","8","60",
"05.09.13","4","130127","35","120","Codierung","","0","10-1101: ZBRO32: ODX: Job: Monitoring/IOControl exe F1.8/pa10. (from s53) iimplementing response output","07:00","16:00","7","60",
"05.09.13","4","130127","22","101","PM/Mod/Meetings","","0","00-9120: ZBRO32: Meetings A1.2/pa10. meeting","","","1","0",
"06.09.13","5","130127","35","120","Codierung","","0","10-1101: ZBRO32: ODX: Job: Monitoring/IOControl exe F1.8/pa10. (from s53) implementing response output","07:00","16:00","4","60",
"06.09.13","5","130127","31","104","Test-Spezifikation","","0","10-1101: ZBRO32: ODX: Job: Monitoring/IOControl exe F1.8/pa10. PDU simulations for monitoring Job","","","4","0",
