"28.10.13","1","130550","321","181","Fehlerbes. vor Ausl. (Bugzilla)","","90","Bug Fixing. Bug 45594","07:00","16:00","4","60",
"28.10.13","1","130550","0","181","Fehlerbes. vor Ausl. (Bugzilla)","","50","Bug Fixing. Bug 46976","","","4","0",
"29.10.13","2","130550","0","181","Fehlerbes. vor Ausl. (Bugzilla)","","100","Bug Fixing. Bug 46976","07:00","16:00","4","60",
"29.10.13","2","130550","321","181","Fehlerbes. vor Ausl. (Bugzilla)","","90","Bug Fixing. Bug 45594","","","4","0",
"30.10.13","3","130550","321","181","Fehlerbes. vor Ausl. (Bugzilla)","","100","Bug Fixing. Bug 45594","07:00","16:00","8","60",
"31.10.13","4","130550","0","181","Fehlerbes. vor Ausl. (Bugzilla)","","90","Bug Fixing. Bug 45593","07:00","18:00","10","60",
"01.11.13","5","130550","0","181","Fehlerbes. vor Ausl. (Bugzilla)","","50","Bug Fixing. Bug 43619","07:00","16:00","8","60",
