"03.06.13","1","130425","23","120","Codierung","","0","Denox maximale Menge des Foerdermodulus(#152). Implemanting Denox maximale Menge des Foerdermodulus Sequence","07:00","16:00","3","60",
"03.06.13","1","120714","0","120","Codierung","","0","P.Authoring; lack of perfomance (waiting). waiting for authoring","","","1","0",
"04.06.13","2","130425","23","120","Codierung","","0","Denox maximale Menge des Foerdermodulus(#152). Testing sequence and simulations","07:00","16:00","1","60",
"05.06.13","3","130425","27","120","Codierung","","0","DLS-Tester - Implementation(#221). (from s64) Implemanting DLS-Tester Sequence","07:00","16:00","6","60",
"05.06.13","3","120714","0","120","Codierung","","0","P.Authoring; lack of perfomance (waiting). waiting for authoring","","","1","0",
"05.06.13","3","130425","22","120","Codierung","","0","Denox Ueberpruefung der Luifleitung(#150). (froms69) Implemanting Denox Ueberpruefung der Luifleitung Sequence","","","1","0",
"06.06.13","4","120714","0","120","Codierung","","0","P.Authoring; lack of perfomance (waiting). waiting for deliverable creation,deliverables downloading unsuccesfully with error 401,Server Reboot","07:00","16:00","4","60",
"06.06.13","4","130425","27","120","Codierung","","0","DLS-Tester - Implementation(#221). (from s64) Implemanting DLS-Tester Sequence","","","4","0",
"07.06.13","5","130425","27","120","Codierung","","0","DLS-Tester - Implementation(#221). (from s64) Implemanting DLS-Tester Sequence","07:00","16:00","7","60",
"07.06.13","5","120714","0","120","Codierung","","0","P.Authoring; lack of perfomance (waiting). waiting for authoring","","","1","0",
