"05.08.13","1","130051","3","101","PM/Mod/Meetings","","0","S4 Technical Support / Troubleshoot 2013. Supporting colleagues","07:00","16:00","8","60",
"06.08.13","2","130051","3","101","PM/Mod/Meetings","","0","S4 Technical Support / Troubleshoot 2013. Supporting colleagues","07:00","16:00","8","60",
"07.08.13","3","130051","3","101","PM/Mod/Meetings","","0","S4 Technical Support / Troubleshoot 2013. Supporting colleagues","07:00","16:00","8","60",
"08.08.13","4","120600","1151","110","Engineering","","0","40-2003: P.Lib R9: ECOS Bausteine: Spec F5.1/ae11. Started to create Polarion req.","07:00","16:00","0,5","60",
"08.08.13","4","130051","2","101","PM/Mod/Meetings","","0","Management group AES 2013. Timesheets + Meetings","","","1","0",
"08.08.13","4","130051","3","101","PM/Mod/Meetings","","0","S4 Technical Support / Troubleshoot 2013. Supporting colleagues","","","6,5","0",
"09.08.13","5","130023","0","910","Urlaub","","100","Urlaub. Public Holiday","07:00","16:00","8","60",
