"04.02.13","1","100369","7502","104","Test-Spezifikation","","0","3122: Gen. Tester: Messwerte: Integrationstestspec F6.5/ae10. Writing Generic Tester intergation testspec on testlink","07:00","16:00","2,5","60",
"04.02.13","1","100369","7486","104","Test-Spezifikation","","0","3122: Gen. Tester: Ids: Integrationstestspec F4.5/ae10. Writing intergation testspec on testlink","","","2,5","0",
"04.02.13","1","100369","7510","104","Test-Spezifikation","","0","3122: Gen. Tester: Routinen: Integrationstestspec F7.5/ae10. Writing Generic Tester intergation testspec on testlink - coding","","","3","0",
"05.02.13","2","100369","7510","104","Test-Spezifikation","","0","3122: Gen. Tester: Routinen: Integrationstestspec F7.5/ae10. Writing Generic Tester intergation testspec on testlink","07:00","16:00","8","60",
"06.02.13","3","100369","7510","104","Test-Spezifikation","","0","3122: Gen. Tester: Routinen: Integrationstestspec F7.5/ae10. Writing Generic Tester intergation testspec on testlink - IOControl","07:00","16:00","8","60",
"07.02.13","4","130017","0","181","Fehlerbes. vor Ausl. (Bugzilla)","","0","Bugfix Release MAN Migration ODX: Bearbeitung von Bugs. worked on bugs #40638, 40474, 40535, 40667, 40670","07:00","16:00","7","60",
"07.02.13","4","130051","21","101","PM/Mod/Meetings","","0","S4/DSA Training 2013. Simulations training with Ruben","","","1","0",
"08.02.13","5","130051","7","101","PM/Mod/Meetings","","0","S4/DSA overall tasks 2013. Meetings and updating timesheets","07:00","16:00","2","60",
"08.02.13","5","130017","0","181","Fehlerbes. vor Ausl. (Bugzilla)","","0","Bugfix Release MAN Migration ODX: Bearbeitung von Bugs. worked on bugs #40701, 40667, 40670","","","6","0",
