"01.04.13","1","130023","0","910","Urlaub","","0","Urlaub. Urlaub","07:00","16:00","8","60",
"02.04.13","2","100369","8698","120","Codierung","","0","4105: OBD/WWH: ODX-Sequ. Diagn.speicher: Impl F7.1/ae10. Implementing Diagn.speicher CTS","07:00","16:00","6,5","60",
"02.04.13","2","130051","25","101","PM/Mod/Meetings","","0","S4/DSA Training 2013. Training new team memeber","","","1","0",
"02.04.13","2","120714","1228","120","Codierung","","0","P.Authoring: lack of performance (waiting). Waiting for Authoring","","","0,5","0",
"03.04.13","3","120714","1228","120","Codierung","","0","P.Authoring: lack of performance (waiting). Waiting for Authoring","07:00","16:00","0,5","60",
"03.04.13","3","100369","8698","120","Codierung","","0","4105: OBD/WWH: ODX-Sequ. Diagn.speicher: Impl F7.1/ae10. Implementing Diagn.speicher CTS","","","6,5","0",
"03.04.13","3","130051","25","101","PM/Mod/Meetings","","0","S4/DSA Training 2013. Training new team memebers","","","1","0",
"04.04.13","4","130051","25","101","PM/Mod/Meetings","","0","S4/DSA Training 2013. Training new team memebers","07:00","16:00","1","60",
"04.04.13","4","100369","8698","120","Codierung","","0","4105: OBD/WWH: ODX-Sequ. Diagn.speicher: Impl F7.1/ae10. Implementing Diagn.speicher CTS","","","6,5","0",
"04.04.13","4","120714","1228","120","Codierung","","0","P.Authoring: lack of performance (waiting). Waiting for Authoring","","","0,5","0",
"05.04.13","5","130051","10","101","PM/Mod/Meetings","","0","S4/DSA overall tasks 2013. Meetings and Timesheets","07:00","16:00","1","60",
"05.04.13","5","130051","25","101","PM/Mod/Meetings","","0","S4/DSA Training 2013. Training new team memebers","","","1","0",
"05.04.13","5","120714","1228","120","Codierung","","0","P.Authoring: lack of performance (waiting). Waiting for Authoring","","","0,5","0",
"05.04.13","5","100369","8698","120","Codierung","","0","4105: OBD/WWH: ODX-Sequ. Diagn.speicher: Impl F7.1/ae10. Implementing Diagn.speicher CTS","","","5,5","0",
