"07.10.13","1","130056","302","120","Codierung","","0","1102: ASCS II: AP7: Rework existing appl.: Measurement F6.4/ae11. Testing and fixing found bugs","07:00","16:00","8","60",
"08.10.13","2","130056","302","120","Codierung","","0","1102: ASCS II: AP7: Rework existing appl.: Measurement F6.4/ae11. Adding zoom function for linegraph, editing enable toggle for buttons & fixing found bugs","07:00","16:00","8","60",
"09.10.13","3","130056","302","120","Codierung","","100","1102: ASCS II: AP7: Rework existing appl.: Measurement F6.4/ae11. Replacing button screen with local button bar","07:00","16:00","8","60",
"10.10.13","4","130051","8","101","PM/Mod/Meetings","","0","S4/DSA overall tasks 2013. Meetings and timesheets","07:00","16:00","0,5","60",
"10.10.13","4","130127","81","120","Codierung","","100","10-1101: ZBRO32: ODX: Job: Monitoring/IOControl exe F1.8/pa10. closing task","","","0","0",
"10.10.13","4","130127","37","120","Codierung","","100","10-1101: ZBRO32: ODX: Bugfixing F1.11/pa10. closing task","","","0","0",
"10.10.13","4","130127","34","120","Codierung","","100","10-1101: ZBRO32: ODX: Job: A2L upload/parsen F1.7/pa10. Closing task","","","0","0",
"10.10.13","4","130127","29","102","Spez: LH/PH/Design","","0","10-1101: ZBRO32: ODX: PH F1.2/pa10. Updating specification document for new changes in odx","","","7,5","0",
"11.10.13","5","130127","37","120","Codierung","","0","10-1101: ZBRO32: ODX: Bugfixing F1.11/pa10. modifying odx after epid name change","07:00","16:00","3","60",
"11.10.13","5","100369","8967","110","Engineering","","100","40: AGU: Error-Handlings in DSA-CTSse: PAPL. Estimation Introducing MAN Style Error-Handling","","","4","0",
"11.10.13","5","100369","0","181","Fehlerbes. vor Ausl. (Bugzilla)","","0"," Generic ODX Application. Bugs 44255,44253","","","1","0",
