"28.01.13","1","120600","0","140","Test","","0","Product Tests Release 3.6. Setting up workspace, downloading and building projects","07:00","16:00","3","60",
"28.01.13","1","120600","0","140","Test","","0","Product Tests Release 3.6. Testing testcases for Automation 3.6.4","","","5","0",
"29.01.13","2","120600","0","140","Test","","0","Product Tests Release 3.6. Setting up workspace for polarion bug verifying, downloading and building OTX projects","07:00","16:00","3","60",
"29.01.13","2","120600","0","140","Test","","0","Product Tests Release 3.6. Polarion bug verifying Automation 3.6.5","","","5","0",
"30.01.13","3","120600","0","140","Test","","0","Product Tests Release 3.6. Polarion bug verifying Automation 3.6.6","07:00","16:00","3","60",
"30.01.13","3","120600","0","140","Test","","0","Product Tests Release 3.6. Testlink, restesting failed and blocked testcases","","","5","0",
"31.01.13","4","120600","0","140","Test","","0","Product Tests Release 3.6. Testlink, restesting failed and blocked testcases","07:00","16:00","2","60",
"31.01.13","4","120600","0","140","Test","","0","Product Tests Release 3.6. Polarion, bug verifying Automation 3.6.6","","","6","0",
"01.02.13","5","120600","0","140","Test","","0","Product Tests Release 3.6. Polarion, bug verifying Atuomation 3.6.7","07:00","16:00","6","60",
"01.02.13","5","130051","9","101","PM/Mod/Meetings","","0","S4/DSA overall tasks 2013. Meetings and Timesheet","","","2","0",
