"15.07.13","1","130023","0","910","Urlaub","","0","Urlaub. Urlaub","07:00","16:00","1,25","60",
"15.07.13","1","100380","701","120","Codierung","","0","6708: CTS for TCM Flashing - Implementation. 6708: CTS for TCM Flashing - Implementation","","","4","0",
"15.07.13","1","100380","794","182","Fehlerbes. nach Ausl. (Bugzilla)","","0","9999: Bugfixing Rel4B. Bugfixing 43163","","","2,75","0",
"16.07.13","2","100380","699","104","Test-Spezifikation","","0","6708: CTS for TCM Flashing - Test Specification. Defining Test Spec","07:00","16:00","3","60",
"16.07.13","2","100380","701","120","Codierung","","0","6708: CTS for TCM Flashing - Implementation. 6708: CTS for TCM Flashing - Implementation","","","5","0",
"17.07.13","3","100380","794","182","Fehlerbes. nach Ausl. (Bugzilla)","","0","9999: Bugfixing Rel4B. Bugfixing 43163","07:00","16:00","2","60",
"17.07.13","3","100380","701","120","Codierung","","0","6708: CTS for TCM Flashing - Implementation. 6708: CTS for TCM Flashing - Implementation","","","3","0",
"17.07.13","3","100380","699","104","Test-Spezifikation","","0","6708: CTS for TCM Flashing - Test Specification. Defining Test Spec and use of TCM Flash scipt","","","2","0",
"17.07.13","3","130051","9","101","PM/Mod/Meetings","","0","S4/DSA overall tasks 2013. Meetings and Timesheet","","","1","0",
"17.07.13","3","130425","32","120","Codierung","","100","Trenddata (#222) /BI-Pos. 21. Closing Task","","","0","0",
"18.07.13","4","130023","0","920","Krankheit","","0","Krankeit. Sick","07:00","16:00","8","60",
"19.07.13","5","130023","0","920","Krankheit","","0","Krankeit. Sick","07:00","16:00","8","60",
