"25.02.13","1","120559","109","102","Spez: LH/PH/Design","","0","9999: PIDT OTX Ext.:Design document. Working on PIDT OTX design documents: fixing review issues","07:00","16:00","3","60",
"25.02.13","1","100769","969","181","Fehlerbes. vor Ausl. (Bugzilla)","","0","1620: Bugfixing PIDT Runtime. Working on Bug 40988","","","5","0",
"26.02.13","2","100769","969","181","Fehlerbes. vor Ausl. (Bugzilla)","","0","1620: Bugfixing PIDT Runtime. Working on Bugs 40988, 40846","07:00","16:00","8","60",
"27.02.13","3","100769","969","181","Fehlerbes. vor Ausl. (Bugzilla)","","0","1620: Bugfixing PIDT Runtime. Working on Bugs 40846, 41076, 40825","07:00","16:00","8","60",
"28.02.13","4","100769","969","181","Fehlerbes. vor Ausl. (Bugzilla)","","0","1620: Bugfixing PIDT Runtime. Working on Bugs 40846, 41076, 40825","07:00","16:00","8","60",
"01.03.13","5","130051","12","101","PM/Mod/Meetings","","0","S4/DSA overall tasks 2013. Weekly general tasks","07:00","16:00","1","60",
"01.03.13","5","100769","969","181","Fehlerbes. vor Ausl. (Bugzilla)","","0","1620: Bugfixing PIDT Runtime. Working bugs","","","7","0",
