"17.06.13","1","130023","0","910","Urlaub","","0","Holiday	. Public Holiday","07:00","16:00","8","60",
"18.06.13","2","120363","109","140","Test","","0","1091: MCD/PIDT: Regressionstests /eml. Testing PIDT","07:00","16:00","8","60",
"19.06.13","3","130023","0","920","Krankheit","","0","Sick Leave. Sick Leave","07:00","16:00","8","60",
"20.06.13","4","130023","0","920","Krankheit","","0","Sick Leave. Sick Leave","07:00","16:00","8","60",
"21.06.13","5","130051","5","101","PM/Mod/Meetings","","0","S4/DSA overall tasks 2013. Department Meeting and Doing Timesheets","07:00","16:00","3","60",
"21.06.13","5","120363","109","140","Test","","0","S4/DSA overall tasks 2013. Department Meeting and Doing Timesheets","","","5","0",
