"11.03.13","1","100769","1002","182","Fehlerbes. nach Ausl. (Bugzilla)","","0","2510: 13.0P Setup #37957. Working on bug","07:00","16:00","3","60",
"11.03.13","1","100769","0","110","Engineering","","0","PIDT 13.0P Merge. Working on geometry oid mapping error","","","5","0",
"12.03.13","2","120559","0","120","Codierung","","100","PIDT method implementations for OTX terms. PIDT method implementations for OTX terms","07:00","16:00","3","60",
"12.03.13","2","100769","0","182","Fehlerbes. nach Ausl. (Bugzilla)","","0","PIDT 13.0P Bugs. Workig on bugs 41076 & 40890","","","5","0",
"13.03.13","3","100769","995","120","Codierung","","100","2120: 13.0P Merge Automation Entities. From s67: assisting with CTS merge","07:00","16:00","1,5","60",
"13.03.13","3","100769","1002","182","Fehlerbes. nach Ausl. (Bugzilla)","","100","2510: 13.0P Setup #37957. Working on bug","","","2,5","0",
"13.03.13","3","120559","109","102","Spez: LH/PH/Design","","0","9999: PIDT OTX Ext.:Design document. Working on PIDT OTX design documents: fixing review issues","","","4","0",
"14.03.13","4","100769","1","110","Engineering","","0","PIDT Automation bug fixing getting into subject. Setting up PIDT Automation workspace and development environment","07:00","16:00","8","60",
"15.03.13","5","130051","12","101","PM/Mod/Meetings","","0","S4/DSA overall tasks 2013. Weekly general tasks","07:00","16:00","1","60",
"15.03.13","5","100769","2","182","Fehlerbes. nach Ausl. (Bugzilla)","","0","PIDT Automation bug. Fixing Automation bugs","","","7","0",
