"09.12.13","1","130867","0","120","Codierung","","0","CR348my5-257_UmsortierenVonSGsMitLeerenEintraegen. Work on DelegatingEventList changes","07:00","16:00","8","60",
"10.12.13","2","130867","0","182","Fehlerbes. nach Ausl. (Bugzilla)","","0","Investigated bug 44104. Investigated bug 44104","07:00","16:00","8","60",
"11.12.13","3","130867","0","120","Codierung","","100","CR348my5 UmsortierenVonSGsMitLeerenEintraegen. Investigating changing compareTo methods and effects thereof","07:00","16:00","8","60",
"12.12.13","4","130867","0","120","Codierung","","100","CR348my5 UmsortierenVonSGsMitLeerenEintraegen. Investigating how to use comparators to affect the column sorting","07:00","16:00","8","60",
"13.12.13","5","130051","13","101","PM/Mod/Meetings","","0","S4/DSA overall tasks 2013. Meetings and admin","07:00","16:00","1,5","60",
"13.12.13","5","130023","0","910","Urlaub","","0","Holiday. Time off","","","3","0",
"13.12.13","5","130867","0","120","Codierung","","0","CR348my5 UmsortierenVonSGsMitLeerenEintraegen. Create comparator for de.dsa.pidt.simplewidgets","","","3,5","0",
