"03.06.13","1","130051","3","101","PM/Mod/Meetings","","0","S4 Technical Support / Troubleshoot 2013. Supporting team members","07:00","16:00","8","60",
"04.06.13","2","130051","3","101","PM/Mod/Meetings","","0","S4 Technical Support / Troubleshoot 2013. Supporting team members","07:00","16:00","8","60",
"05.06.13","3","130051","3","101","PM/Mod/Meetings","","0","S4 Technical Support / Troubleshoot 2013. Supporting team members","07:00","16:00","8","60",
"06.06.13","4","100369","8675","101","PM/Mod/Meetings","","0","8501: OBD/WWH: Project Schedule A1.6/ae10. Weekly report","07:00","16:00","0,5","60",
"06.06.13","4","130051","3","101","PM/Mod/Meetings","","0","S4 Technical Support / Troubleshoot 2013. Supporting team members","","","7,5","0",
"07.06.13","5","130023","0","920","Krankheit","","100","Krankheit. Off sick","07:00","16:00","8","60",
