"28.10.13","1","130056","306","120","Codierung","","0","1102: ASCS II: AP7: Rework existing appl.: VSoH F6.8/ae11. (task already closed) Created Vehicle Sttate of Health Sequence in authoring","07:00","16:00","8","60",
"29.10.13","2","130056","306","120","Codierung","","0","1102: ASCS II: AP7: Rework existing appl.: VSoH F6.8/ae11. (task already closed) Created Vehicle Sttate of Health Sequence in authoring","07:00","16:00","8","60",
"30.10.13","3","130056","306","120","Codierung","","0","1102: ASCS II: AP7: Rework existing appl.: VSoH F6.8/ae11. (task already closed) Created Vehicle Sttate of Health Sequence in authoring","07:00","16:00","8","60",
"31.10.13","4","130023","0","910","Urlaub","","0","Urlaub. leave","07:00","16:00","3","60",
"31.10.13","4","130056 ","306","120","Codierung","","0","1102: ASCS II: AP7: Rework existing appl.: VSoH F6.8/ae11. (task already closed) Created Vehicle Sttate of Health Sequence in authoring","","","5","0",
"01.11.13","5","130056","306","120","Codierung","","0","1102: ASCS II: AP7: Rework existing appl.: VSoH F6.8/ae11. (task already closed) Created Vehicle Sttate of Health Sequence in authoring","07:00","16:00","8","60",
