"16.09.13","1","120762","180","140","Test","","0","20-1090: Release 13.4: Regressionstests nach CF. Verifying PIDT BUgs in Bugzilla","07:00","16:00","8","60",
"17.09.13","2","120762","1","140","Test","","0","20-1090: Release 13.4: Regressionstests nach CF. Verifying PIDT BUgs in Bugzilla","07:00","16:00","8","60",
"18.09.13","3","120762","180","140","Test","","0","20-1090: Release 13.4: Regressionstests nach CF. Verifying PIDT BUgs in Bugzilla","07:00","16:00","8","60",
"19.09.13","4","120363","0","140","Test","","0","1091: MCD/PIDT: Regressionstests /eml. Testing PIDT","07:00","16:00","8","60",
"20.09.13","5","120363","0","140","Test","","0","1091: MCD/PIDT: Regressionstests /eml. Testing PIDT","07:00","16:00","6","60",
"20.09.13","5","130051","5","101","PM/Mod/Meetings","","0","S4/DSA overall tasks 2013. Department Meeting and Doing Timesheets","","","2","0",
