"06.05.13","1","130023","0","910","Urlaub","","0","Holiday. Time off","07:00","16:00","8","60",
"07.05.13","2","120762","41","102","Spez: LH/PH/Design","","0","10-1001: PIDT-Rel. 13.4: Testspec CR307my2-218_CuPLogging E1.9/pa10. Working on test cases for feature","07:00","16:00","7","60",
"07.05.13","2","120363","109","140","Test","","100","1091: MCD/PIDT: Regressionstests /eml. From s46: assisting with test environment setup and testing","","","1","0",
"08.05.13","3","120762","41","102","Spez: LH/PH/Design","","100","10-1001: PIDT-Rel. 13.4: Testspec CR307my2-218_CuPLogging E1.9/pa10. Working on test cases for feature","07:00","18:00","4,6","60",
"08.05.13","3","120762","81","120","Codierung","","0","10-1001: PIDT-Rel. 13.4: Impl. CR307my2-218_CuPLogging E1.9/pa10. Working on implementation of feature","","","5,4","0",
"09.05.13","4","120762","81","120","Codierung","","0","10-1001: PIDT-Rel. 13.4: Impl. CR307my2-218_CuPLogging E1.9/pa10. Working on implementation of feature","07:00","17:00","9","60",
"10.05.13","5","130051","12","101","PM/Mod/Meetings","","0","S4/DSA overall tasks 2013. Weekly general tasks","07:00","16:00","0,5","60",
"10.05.13","5","120762","81","120","Codierung","","0","10-1001: PIDT-Rel. 13.4: Impl. CR307my2-218_CuPLogging E1.9/pa10. Working on implementation of feature","","","4,5","0",
"10.05.13","5","130023","0","910","Urlaub","","0","Holiday. Time off","","","3","0",
