"15.04.13","1","100553","0","182","Fehlerbes. nach Ausl. (Bugzilla)","","0","8080: P3 # 39736 ReadDataByLocalIdentParamValue Parameter Nebenabtriebe (LID 0xA3) falsch bedatet. bugfixing","07:00","16:00","3","60",
"15.04.13","1","130051","7","101","PM/Mod/Meetings","","0","S4/DSA overall tasks 2013. OBD MAN ODX Integration Meeting","","","0,5","0",
"15.04.13","1","100553","0","120","Codierung","","0","OBD MAN ODX Integration. OBD MAN ODX Integration","","","4,5","0",
"16.04.13","2","100553","0","120","Codierung","","0","OBD MAN ODX Integration. OBD MAN ODX Integration","07:00","16:00","8","60",
"17.04.13","3","100553","0","182","Fehlerbes. nach Ausl. (Bugzilla)","","0","MAN Bugs. Worked on bugs 41786 , BUG 41936 , BUG 41712 and BUG 41483","07:00","16:00","4","60",
"17.04.13","3","100553","0","182","Fehlerbes. nach Ausl. (Bugzilla)","","0","MAN Bugs. Worked on bugs#41593, 41294, 41295, 41296, 42192, 42193, 42194, 42195, 42196, 42197, 42198, 42199, 4","","","4","0",
"18.04.13","4","100553","0","120","Codierung","","0","OBD MAN ODX Integration. OBD MAN ODX Integration","07:00","16:00","8","60",
"19.04.13","5","130051","7","101","PM/Mod/Meetings","","0","S4/DSA overall tasks 2013. Meeting and updating time sheets","07:00","16:00","2","60",
"19.04.13","5","100553","0","182","Fehlerbes. nach Ausl. (Bugzilla)","","0","8080: Creation of MAN Delivery Milestone 3.0.5, 00_AllECUs. creation of MAN delivery for Milestone 3.0.5","","","6","0",
