"29.07.13","1","120762","0","120","Codierung","","0","CR123my1: Investigating problem where parallel flashing is not correctly flashing airbag ECU. Investigating problem where parallel flashing is not correctly flashing airbag ECU","07:00","16:00","8","60",
"30.07.13","2","120762","0","120","Codierung","","0","Investigating problem where parallel flashing is not correctly flashing airbag ECU. Investigating problem where parallel flashing is not correctly flashing airbag ECU","07:00","16:00","8","60",
"31.07.13","3","120762","221","102","Spez: LH/PH/Design","","100","9999: CR123my1: Fix test data and test spec. Correcting all airbag flash rules to flash base variant","07:00","16:00","5","60",
"31.07.13","3","130051","22","101","PM/Mod/Meetings","","0","S4/DSA Training 2013. Helped Francois and Clinton with bugfixing","","","3","0",
"01.08.13","4","120762","0","182","Fehlerbes. nach Ausl. (Bugzilla)","","0","Fixed bug 44586 and investigated bug 43619. Fixed bug 44586 and investigated bug 43619","07:00","16:00","4","60",
"01.08.13","4","120762","0","182","Fehlerbes. nach Ausl. (Bugzilla)","","0","Set up for and investigated bug 45000. Set up for and investigated bug 45000","","","4","0",
"02.08.13","5","120762","0","182","Fehlerbes. nach Ausl. (Bugzilla)","","0","Investigate and fix bug 45000. Investigate and fix bug 45000","07:00","16:00","6","60",
"02.08.13","5","130051","13","101","PM/Mod/Meetings","","0","S4/DSA overall tasks 2013. Meetings and admin","","","2","0",
"02.08.13","5","120762","150","102","Spez: LH/PH/Design","","100","20-1004: ParallelesFlashen: Simulationserstellung / CR123my1-073. Closing task","","","0","0",
"02.08.13","5","120762","159","120","Codierung","","100","20-1004: ParallelesFlashen: Scheduler als Instanzl / CR123my1-073. Closing task","","","0","0",
