"12.08.13","1","130051","3","101","PM/Mod/Meetings","","0","S4 Technical Support / Troubleshoot 2013. Supporting colleagues","07:00","16:00","8","60",
"13.08.13","2","130051","3","101","PM/Mod/Meetings","","0","S4 Technical Support / Troubleshoot 2013. Supporting colleagues","07:00","16:00","8","60",
"14.08.13","3","130127","25","101","PM/Mod/Meetings","","100","00-9120: ZBRO32: Get into subject A1.8/pa10. Getting into subject","07:00","16:00","2","60",
"14.08.13","3","120600","1151","110","Engineering","","0","40-2003: P.Lib R9: ECOS Bausteine: Spec F5.1/ae11. Updating Polarion specs","","","2","0",
"14.08.13","3","130051","3","101","PM/Mod/Meetings","","0","S4 Technical Support / Troubleshoot 2013. Supporting colleagues","","","4","0",
"15.08.13","4","130051","3","101","PM/Mod/Meetings","","0","S4 Technical Support / Troubleshoot 2013. Supporting colleagues","07:00","16:00","4","60",
"15.08.13","4","130127","33","120","Codierung","","0","(from s64) 10-1101: ZBRO32: ODX: ODX Bedatung F1.6/pa10 /BI-Pos. 4. jafto tool extensions fro ZBRO32","","","4","0",
"16.08.13","5","130127","33","120","Codierung","","0","(from s64) 10-1101: ZBRO32: ODX: ODX Bedatung F1.6/pa10 /BI-Pos. 4. jafto tool extensions fro ZBRO32","07:00","16:00","4","60",
"16.08.13","5","130051","2","101","PM/Mod/Meetings","","0","Management group AES 2013. Timesheets + Meetings","","","1","0",
"16.08.13","5","130051","3","101","PM/Mod/Meetings","","0","S4 Technical Support / Troubleshoot 2013. Supporting colleagues","","","3","0",
