"21.10.13","1","0","0","120","Codierung","","0","HLA. Matrixbeam benchtest","07:00","16:00","8","60",
"22.10.13","2","0","0","120","Codierung","","0","HLA. Matrixbeam benchtest","07:00","16:00","8","60",
"23.10.13","3","0","0","120","Codierung","","0","HLA Pilot. Matrixbeam","07:00","16:00","8","60",
"24.10.13","4","0","0","120","Codierung","","0","HLA Pilot. Matrixbeam","07:00","16:00","8","60",
"25.10.13","5","0","0","120","Codierung","","0","HLA Pilot. Matrixbeam","07:00","16:00","8","60",
