"11.02.13","1","120246","9999","101","PM/Mod/Meetings","","0","Waiting for Authoring. Waiting for Authoring","07:00","16:00","0,5","60",
"11.02.13","1","120246","109","120","Codierung","","0","MIA AS: History: Data Management Implementierung u. Modultests F2.7/ae10. Export/Import into MIA DB","","","3","0",
"11.02.13","1","120246","126","120","Codierung","","0","MIA AS: BMS: Implementierung u. Modultests F3.7/ae10. Implementing CTS","","","4,5","0",
"12.02.13","2","120246","109","120","Codierung","","0","MIA AS: History: Data Management Implementierung u. Modultests F2.7/ae10. Export/Import into MIA DB","07:00","16:00","3","60",
"12.02.13","2","120246","9999","101","PM/Mod/Meetings","","0","Waiting for Authoring. Waiting for Authoring","","","0,5","0",
"12.02.13","2","120246","126","120","Codierung","","0","MIA AS: BMS: Implementierung u. Modultests F3.7/ae10. Implementing CTS","","","4,5","0",
"13.02.13","3","120246","126","120","Codierung","","0","MIA AS: BMS: Implementierung u. Modultests F3.7/ae10. Implementing CTS","07:00","16:00","7,5","60",
"13.02.13","3","120246","9999","101","PM/Mod/Meetings","","0","Waiting for Authoring. Waiting for Authoring","","","0,5","0",
"14.02.13","4","120246","9999","101","PM/Mod/Meetings","","0","Waiting for Authoring. Waiting for Authoring","07:00","16:00","0,5","60",
"14.02.13","4","120246","134","120","Codierung","","0","MIA AS: BMS Table Update: Implementierung u. Modultests F4.7/ae10. Implementing CTS","","","7,5","0",
"15.02.13","5","120246","9999","101","PM/Mod/Meetings","","0","Waiting for Authoring. Waiting for Authoring","07:00","16:00","0,5","60",
"15.02.13","5","120246","134","120","Codierung","","0","MIA AS: BMS Table Update: Implementierung u. Modultests F4.7/ae10. Implementing CTS","","","3,5","0",
"15.02.13","5","120246","109","120","Codierung","","100","MIA AS: History: Data Management Implementierung u. Modultests F2.7/ae10. Import and TOC for MIA DB","","","3","0",
"15.02.13","5","130051","4","101","PM/Mod/Meetings","","0","S4/DSA overall tasks 2013. Timesheets","","","1","0",
