"29.07.13","1","120363","109","140","Test","","0","1091: MCD/PIDT: Regressionstests /eml. Testing PIDT","07:00","16:00","8","60",
"30.07.13","2","120363","109","140","Test","","0","1091: MCD/PIDT: Regressionstests /eml. Testing PIDT","07:00","16:00","8","60",
"31.07.13","3","120363","109","140","Test","","0","1091: MCD/PIDT: Regressionstests /eml. Testing PIDT","07:00","16:00","8","60",
"01.08.13","4","120363","109","140","Test","","0","1091: MCD/PIDT: Regressionstests /eml. Testing PIDT","07:00","16:00","8","60",
"02.08.13","5","130051","5","101","PM/Mod/Meetings","","0","S4/DSA overall tasks 2013. Department Meeting and Doing Timesheets","07:00","16:00","2","60",
"02.08.13","5","120762","116","140","Test","","0","20-1001: CuPLog: Integrationstests vor CF gegen Simulationen / CR307my2-218. Testing PIDT for CR307my2","","","6","0",
