"17.06.13","1","130051","0","910","Urlaub","","0","Urlaub. Urlaub","07:00","16:00","8","60",
"18.06.13","2","130051","1","920","Krankheit","","0","Krankheit. Sick","07:00","16:00","8","60",
"19.06.13","3","130051","2","920","Krankheit","","0","Krankheit. Sick","07:00","16:00","8","60",
"20.06.13","4","130425","32","120","Codierung","","0","Trenddata (#222) /BI-Pos. 21. Implementeing Trenddaten Interface","07:00","16:00","4","60",
"20.06.13","4","100380","625","181","Fehlerbes. vor Ausl. (Bugzilla)","","0","Qoros Bugfixing. Bugfixing","","","4","0",
"21.06.13","5","120714","1384","120","Codierung","","0","P.Authoring: lack of performance (waiting). P.Authoring: lack of performance (waiting)","07:00","16:00","1","60",
"21.06.13","5","130425","32","120","Codierung","","0","Trenddata (#222) /BI-Pos. 21. Implementing Trenddaten Interface","","","6,5","0",
"21.06.13","5","130051","9","101","PM/Mod/Meetings","","0","S4/DSA overall tasks 2013. Meetings and Timesheet","","","0,5","0",
