"12.08.13","1","120600","1793","120","Codierung","","0","9999: P.Lib R9: Creating TestCases. created testcases for ExhaustReadHC,  ExhaustReadCO,  ExhaustReadCO2 script","07:00","16:00","8","60",
"13.08.13","2","120600","1793","120","Codierung","","0","9999: P.Lib R9: Creating TestCases. created testcases for ExhaustReadCO script,  ExhaustExecuteValue building block,  ExhaustTestScreen,","07:00","16:00","8","60",
"14.08.13","3","130023","0","920","Krankheit","","0","Sick Leave. Sick Leave","07:00","16:00","8","60",
"15.08.13","4","120762","0","140","Test","","0","20-1090: Release 13.4: Regressionstests nach CF. Regression Tests","07:00","16:00","5","60",
"15.08.13","4","130051","0","101","PM/Mod/Meetings","","0","DSA training tasks 2013. Getting into subject PIDT Testing","","","3","0",
"16.08.13","5","120762","0","140","Test","","0","20-1090: Release 13.4: Regressionstests nach CF. Regression Tests","07:00","16:00","4","60",
"16.08.13","5","130023","0","910","Urlaub","","0","Holiday. Time off","","","4","0",
