"10.06.13","1","130425","32","120","Codierung","","0","Trenddata (#222) /BI-Pos. 21. Creating the Trenddaten interface","07:00","16:00","3,5","60",
"10.06.13","1","120714","1384","120","Codierung","","0","P.Authoring: lack of performance (waiting). Authoring Waiting, downloading and installing 3.8.20","","","1,5","0",
"10.06.13","1","130425","32","120","Codierung","","0","Trenddata (#222) /BI-Pos. 21. Getting into subject Trenddaten","","","3","0",
"11.06.13","2","130425","32","120","Codierung","","0","Trenddata (#222) /BI-Pos. 21. Creating Trenddaten interface","07:00","16:00","7,5","60",
"11.06.13","2","120714","1384","120","Codierung","","0","P.Authoring: lack of performance (waiting). Authroing Waiting","","","0,5","0",
"12.06.13","3","130425","32","120","Codierung","","0","Trenddata (#222) /BI-Pos. 21. Creating Trenddaten interface","07:00","16:00","7,5","60",
"12.06.13","3","120714","1384","120","Codierung","","0","P.Authoring: lack of performance (waiting). Authoring Waiting","","","0,5","0",
"13.06.13","4","130425","32","120","Codierung","","0","Trenddata (#222) /BI-Pos. 21. Creating Trenddaten interface","07:00","16:00","7,5","60",
"13.06.13","4","120714","1384","120","Codierung","","0","P.Authoring: lack of performance (waiting). Authoring Waiting","","","0,5","0",
"14.06.13","5","130425","32","120","Codierung","","0","Trenddata (#222) /BI-Pos. 21. Creating Trenddaten interface","07:00","16:00","7","60",
"14.06.13","5","120714","1384","120","Codierung","","0","P.Authoring: lack of performance (waiting). Authoring Waiting","","","0,5","0",
"14.06.13","5","130051","9","101","PM/Mod/Meetings","","0","S4/DSA overall tasks 2013. Meetings and Timesheet","","","0,5","0",
