"11.02.13","1","120760","71","182","Fehlerbes. nach Ausl. (Bugzilla)","","0","1080: Bugfixing (Puffer). Working on Bug 40695","07:00","16:00","4","60",
"11.02.13","1","120036","0","170","Schulung","","0","SWE: PIDT-Automation. Workspace setup and getting into subject for PIDT.Automation","","","4","0",
"12.02.13","2","120036","0","170","Schulung","","0","SWE: PIDT-Automation. Workspace setup and getting into subject for PIDT.Automation","07:00","16:00","5,5","60",
"12.02.13","2","130051","18","101","PM/Mod/Meetings","","0","S4/DSA Training 2013. Received training on using SDA plugin for and running Automation PIDT eclipse","","","2,5","0",
"13.02.13","3","120760","71","182","Fehlerbes. nach Ausl. (Bugzilla)","","0","1080: Bugfixing (Puffer). Working on Bugs 40740, 40742, 40755","07:00","16:00","8","60",
"14.02.13","4","120760","71","182","Fehlerbes. nach Ausl. (Bugzilla)","","0","1080: Bugfixing (Puffer). Working on Bugs 40755, 40711, 40771, 40674","07:00","16:00","8","60",
"15.02.13","5","130051","12","101","PM/Mod/Meetings","","0","S4/DSA overall tasks 2013. Weekly general tasks","07:00","16:00","1","60",
"15.02.13","5","120760","71","182","Fehlerbes. nach Ausl. (Bugzilla)","","0","1080: Bugfixing (Puffer). Working on Bugs","","","7","0",
