"16.12.13","1","120759","194","101","PM/Mod/Meetings","","0","23-9110: Flashabläufe: Meetings. 23-9110: Flashabläufe: Meetings","07:00","16:00","1","60",
"16.12.13","1","120759","177","120","Codierung","","0","23-1610: UDS/ISOBUS Flashjob HIS Ablauf Pre-/Main-/Post-Jobs. 23-1610: UDS/ISOBUS Flashjob HIS Ablauf Pre-/Main-/Post-Jobs","","","7","0",
"17.12.13","2","130056","335","102","Spez: LH/PH/Design","","0","1108: ASCS II: AP7a: new app.: Requirments F7.1/ae12. 1108: ASCS II: AP7a: new app.: Requirments F7.1/ae12","07:00","16:00","7","60",
"17.12.13","2","120759","194","101","PM/Mod/Meetings","","0","23-9110: Flashabläufe: Meetings. 23-9110: Flashabläufe: Meetings","","","1","0",
"18.12.13","3","130056","335","102","Spez: LH/PH/Design","","0","1108: ASCS II: AP7a: new app.: Requirments F7.1/ae12. 1108: ASCS II: AP7a: new app.: Requirments F7.1/ae12","07:00","16:00","5","60",
"18.12.13","3","120759","170","170","Schulung","","0","23-1610: Anpassung Demo Testablauf: Feindesign MORS, MODG erstellen. 23-1610: Anpassung Demo Testablauf: Feindesign MORS, MODG erstellen","","","2","0",
"18.12.13","3","120759","194","101","PM/Mod/Meetings","","0","23-9110: Flashabläufe: Meetings. 23-9110: Flashabläufe: Meetings","","","1","0",
"19.12.13","4","120759","170","102","Spez: LH/PH/Design","","0","23-1610: Anpassung Demo Testablauf: Feindesign MORS, MODG erstellen. 23-1610: Anpassung Demo Testablauf: Feindesign MORS, MODG erstellen","07:00","16:00","7","60",
"19.12.13","4","120759","194","101","PM/Mod/Meetings","","0","23-9110: Flashabläufe: Meetings. 23-9110: Flashabläufe: Meetings","","","1","0",
"20.12.13","5","120759","170","102","Spez: LH/PH/Design","","100","23-1610: Anpassung Demo Testablauf: Feindesign MORS, MODG erstellen. 23-1610: Anpassung Demo Testablauf: Feindesign MORS, MODG erstellen","07:00","16:00","3","60",
"20.12.13","5","130056","335","102","Spez: LH/PH/Design","","100","1108: ASCS II: AP7a: new app.: Requirments F7.1/ae12. 1108: ASCS II: AP7a: new app.: Requirments F7.1/ae12","","","1","0",
"20.12.13","5","120759","177","120","Codierung","","0","23-1610: UDS/ISOBUS Flashjob HIS Ablauf Pre-/Main-/Post-Jobs. 23-1610: UDS/ISOBUS Flashjob HIS Ablauf Pre-/Main-/Post-Jobs","","","4","0",
"20.12.13","5","120714","1929","182","Fehlerbes. nach Ausl. (Bugzilla)","","100","P.Authoring: problem analysis. P.Authoring: problem analysis","","","0","0",
