"21.10.13","1","130550","168","120","Codierung","","0","CR315my1-73b: ParallelesFlashenEES. Flash Task CTS erstellen F1.9/pa10","07:00","16:00","8","60",
"22.10.13","2","130550","168","120","Codierung","","0","CR315my1-73b: ParallelesFlashenEES. Flash Task CTS erstellen","07:00","16:00","4","60",
"22.10.13","2","130051","36","101","PM/Mod/Meetings","","0","S4/DSA Training 2013. Learning the structure and how to implement new CR315my1-73b: ParallelesFlashenEES eclipse plugins","","","4","0",
"23.10.13","3","130550","168","120","Codierung","","0","CR315my1-73b: ParallelesFlashenEES. Initialize Data set for Flash Task F1.10/pa20","07:00","16:00","4","60",
"23.10.13","3","130051","36","101","PM/Mod/Meetings","","0","S4/DSA Training 2013. Learning the structure and how to implement new CR315my1-73b: ParallelesFlashenEES eclipse plugins","","","4","0",
"24.10.13","4","130550","168","120","Codierung","","0","CR315my1-73b: ParallelesFlashenEES. Initialize Data set for Flash Task F1.10/pa20","07:00","16:00","2","60",
"24.10.13","4","130051","36","101","PM/Mod/Meetings","","0","S4/DSA Training 2013. Learning the structure and how to implement new CR315my1-73b: ParallelesFlashenEES eclipse plugins","","","3","0",
"24.10.13","4","130550","105","104","Test-Spezifikation","","0","10-1003: CR315my1-73b: ParallelesFlashenEES. Test Specification E1.3/pa10","","","3","0",
"25.10.13","5","130550","168","120","Codierung","","0","10-1003: CR315my1-73b: ParallelesFlashenEES. Flash Task CTS Bug fixing","07:00","16:00","7","60",
"25.10.13","5","130051","37","101","PM/Mod/Meetings","","0","S4/DSA overall tasks 2013. Weekly General Tasks","","","1","0",
