"05.08.13","1","120762","116","140","Test","","0","20-1001: CuPLog: Integrationstests vor CF gegen Simulationen / CR307my2-218. Testing new fictures for CR307my2-218 in PIDT","07:00","16:00","8","60",
"06.08.13","2","120600","1763","140","Test","","0","21-3811: OTX Produkttest. Testing OTX in PIDT Automation","07:00","16:00","8","60",
"07.08.13","3","120600","1763","140","Test","","0","21-3811: OTX Produkttest. Testing OTX in PIDT Automation","07:00","16:00","8","60",
"08.08.13","4","130051","5","101","PM/Mod/Meetings","","0","S4/DSA overall tasks 2013. Department Meeting and Doing Timesheets","07:00","16:00","2","60",
"08.08.13","4","120600","1763","140","Test","","0","21-3811: OTX Produkttest. Testing OTX in PIDT Automation","","","6","0",
"09.08.13","5","130023","0","910","Urlaub","","0","Holiday. Public Holiday","07:00","16:00","8","60",
