"05.11.12","1","100498","285","182","Fehlerbes. nach Ausl. (Bugzilla)","","0","8080: P3 #38509 (normal) Kombi Kilometerstand schreiben, CTS. Bugfixing","07:00","16:00","4","60",
"05.11.12","1","120036","957","170","Schulung","","0","Training S4 KW44/45. Training","","","4","0",
"06.11.12","2","100498","302","182","Fehlerbes. nach Ausl. (Bugzilla)","","0","8080: P2 #39188 (normal) PCM MMI Codierung, CTS. Bug analysis and fix","07:00","16:00","4","60",
"06.11.12","2","120036","957","170","Schulung","","0","Training S4 KW44/45. Training","","","4","0",
"07.11.12","3","100498","302","182","Fehlerbes. nach Ausl. (Bugzilla)","","0","8080: P2 #39188 (normal) PCM MMI Codierung, CTS. Bug analysis","07:00","16:00","4","60",
"07.11.12","3","120036","957","170","Schulung","","0","Training S4 KW44/45. Training","","","4","0",
"08.11.12","4","120036","957","170","Schulung","","0","Training S4 KW44/45. Training","07:00","16:00","4","60",
"08.11.12","4","120036","889","170","Schulung","","0","Einarbeitung P.Authoring. Training","","","4","0",
"09.11.12","5","120036","957","170","Schulung","","0","Training S4 KW44/45. Training","07:00","16:00","8","60",
