"04.11.13","1","130550","346","181","Fehlerbes. vor Ausl. (Bugzilla)","","0","PIDT 13.8: Bugfixing before CF. Bug 46939","07:00","16:00","8","60",
"05.11.13","2","130550","346","181","Fehlerbes. vor Ausl. (Bugzilla)","","90","PIDT 13.8: Bugfixing before CF. Bug 45593","07:00","16:00","8","60",
"06.11.13","3","130550","346","181","Fehlerbes. vor Ausl. (Bugzilla)","","100","PIDT 13.8: Bugfixing before CF. Bug 45593","07:00","16:00","2","60",
"06.11.13","3","130550","346","181","Fehlerbes. vor Ausl. (Bugzilla)","","100","PIDT 13.8: Bugfixing before CF. Bug 46313","","","3","0",
"06.11.13","3","130550","346","181","Fehlerbes. vor Ausl. (Bugzilla)","","100","PIDT 13.8: Bugfixing before CF. Bug 47189","","","3","0",
"07.11.13","4","130550","346","181","Fehlerbes. vor Ausl. (Bugzilla)","","0","PIDT 13.8: Bugfixing before CF. Bug 43308","07:00","16:00","8","60",
"08.11.13","5","130550","346","181","Fehlerbes. vor Ausl. (Bugzilla)","","0","PIDT 13.8: Bugfixing before CF. Bug 43308","07:00","16:00","5","60",
"08.11.13","5","130550","346","101","PM/Mod/Meetings","","100","S4/DSA overall tasks 2013. Meeting","","","3","0",
