"03.06.13","1","130425","20","120","Codierung","","0","Denox Erstinbetriebnahme (#148). CTS Implementation","07:00","16:00","7","60",
"03.06.13","1","120714","841","120","Codierung","","0","P.Authoring: lack of performance (waiting). wait for authoring - lack of performance","","","1","0",
"04.06.13","2","130425","17","120","Codierung","","0","CRT Analyse von Signalen (#162). task closed. Adding progress bar and fixing html tables","07:00","16:00","7,5","60",
"04.06.13","2","120714","841","120","Codierung","","0","P.Authoring: lack of performance (waiting). wait for authoring - lack of performance","","","0,5","0",
"05.06.13","3","120714","841","120","Codierung","","0","P.Authoring: lack of performance (waiting). wait for authoring - lack of performance, problems with deliverable creation( 401 error)","07:00","16:00","1,5","60",
"05.06.13","3","130168","6","182","Fehlerbes. nach Ausl. (Bugzilla)","","0","8080: #43389. Start Diagnostic Session Service(DC_DiagnSessiContr) has extra PA_Reser Attribute - bugfixing","","","1","0",
"05.06.13","3","130051","21","101","PM/Mod/Meetings","","0","S4/DSA Training 2013. training new staff","","","2","0",
"05.06.13","3","130425","20","120","Codierung","","0","Denox Erstinbetriebnahme (#148). CTS Implementation","","","3,5","0",
"06.06.13","4","120714","841","120","Codierung","","0","P.Authoring: lack of performance (waiting). wait for authoring - lack of performance - Deliverable problems","07:00","16:00","1,5","60",
"06.06.13","4","120714","841","120","Codierung","","0","P.Authoring: lack of performance (waiting). authoring down","","","0,5","0",
"06.06.13","4","130425","17","120","Codierung","","100","CRT Analyse von Signalen (#162). task closed. Adding progress bar and fixing html tables","","","2","0",
"06.06.13","4","130168","6","182","Fehlerbes. nach Ausl. (Bugzilla)","","0","8080: #43389. bugfixing","","","1","0",
"06.06.13","4","130425","20","120","Codierung","","0","Denox Erstinbetriebnahme (#148). CTS Implementation - missing service f2 05","","","3","0",
"07.06.13","5","120714","841","120","Codierung","","0","P.Authoring: lack of performance (waiting). wait for authoring - lack of performance","07:00","16:00","1","60",
"07.06.13","5","130425","0","120","Codierung","","0","Trandaten FFRPTM. CTS Implementation","","","3,5","0",
"07.06.13","5","130017","7","101","PM/Mod/Meetings","","0","S4/DSA overall tasks 2013. Meeting and updating time sheets","","","3,5","0",
