"21.01.13","1","130051","11","101","PM/Mod/Meetings","","0","Interview. Interview with candidate DSA developer","07:00","16:00","1","60",
"21.01.13","1","130051","15","101","PM/Mod/Meetings","","0","S4/DSA Training 2013. Preparation of training material for SVN and SDA Eclipse plugin","","","7","0",
"22.01.13","2","100769","0","120","Codierung","","100","Assistance to eb with 12.5.3 data. Assistance to eb with 12.5.3 data VEC","07:00","16:00","3","60",
"22.01.13","2","130051","15","101","PM/Mod/Meetings","","0","S4/DSA Training 2013. Preparation of training material for PRODIS.Authoring dev","","","5","0",
"23.01.13","3","130051","11","101","PM/Mod/Meetings","","0","S4/DSA Training 2013. Preparation of training material for PRODIS.Authoring dev","07:00","16:00","8","60",
"24.01.13","4","130051","15","101","PM/Mod/Meetings","","0","S4/DSA Training 2013. Preparation of training material for prodis.database.oracle tasks","07:00","16:00","8","60",
"25.01.13","5","130051","11","101","PM/Mod/Meetings","","0","S4/DSA overall tasks 2013. Weekly timesheet report, meetings","07:00","16:00","2","60",
"25.01.13","5","130051","15","101","PM/Mod/Meetings","","0","S4/DSA Training 2013. Preparation of training material for PRODIS.Automation dev","","","6","0",
