"18.02.13","1","100769","965","120","Codierung","","0","9999: Debugger P.Automation. Setting up a working PIDT Automation workspace","07:00","16:00","5","60",
"18.02.13","1","120760","0","181","Fehlerbes. vor Ausl. (Bugzilla)","","0","Fixed bug 40801. Fixed bug 40801","","","2","0",
"18.02.13","1","130051","13","101","PM/Mod/Meetings","","0","S4/DSA overall tasks 2013. Meeting","","","1","0",
"19.02.13","2","100769","965","120","Codierung","","0","9999: Debugger P.Automation. Setting up a working PIDT Automation workspace","07:00","16:00","8","60",
"20.02.13","3","100769","965","120","Codierung","","0","9999: Debugger P.Automation. Made changes in the maintenance CTS, tested changes, worked on getting a working G1 to run with PIDT","07:00","16:00","8","60",
"21.02.13","4","100769","965","120","Codierung","","0","9999: Debugger P.Automation. Investigated Debugger NPE's and stability issues","07:00","16:00","8","60",
"22.02.13","5","130051","13","101","PM/Mod/Meetings","","0","S4/DSA overall tasks 2013. Meeting and admin","07:00","16:00","1,5","60",
"22.02.13","5","100769","965","120","Codierung","","0","9999: Debugger P.Automation. Testing debugger without my changes to see where NPE's are coming from","","","6,5","0",
"22.02.13","5","100769","958","181","Fehlerbes. vor Ausl. (Bugzilla)","","100","1210: Bugfixing vor CF. Closing task","","","0","0",
"22.02.13","5","100769","872","120","Codierung","","100","1310: Merge Java source. Closing task","","","0","0",
