"19.08.13","1","130051","3","101","PM/Mod/Meetings","","0","S4 Technical Support / Troubleshoot 2013. Supporting colleagues","07:00","16:00","8","60",
"20.08.13","2","130127","19","101","PM/Mod/Meetings","","0","00-9120: ZBRO32: Meetings A1.2/pa10. ZBRO32 Kickoff Meeting","07:00","16:00","1","60",
"20.08.13","2","130127","18","101","PM/Mod/Meetings","","0","00-9120: ZBRO32: Mod A1.2/pa10. Supporting colleagues","","","2","0",
"20.08.13","2","130051","3","101","PM/Mod/Meetings","","0","S4 Technical Support / Troubleshoot 2013. Supporting colleagues","","","1","0",
"20.08.13","2","130127","33","120","Codierung","","0","10-1101: ZBRO32: ODX: ODX Bedatung F1.6/pa10 /BI-Pos. 4. Updating tooling (jafto)","","","4","0",
"20.08.13","2","130127","66","101","PM/Mod/Meetings","","100","10-1101: ZBRO32: ODX: ODX Bedatung F1.6/pa10 /BI-Pos. 4. Closing Task","","","0","0",
"21.08.13","3","130051","3","101","PM/Mod/Meetings","","0","S4 Technical Support / Troubleshoot 2013. Supporting colleagues","07:00","16:00","5","60",
"21.08.13","3","130127","33","120","Codierung","","0","10-1101: ZBRO32: ODX: ODX Bedatung F1.6/pa10 /BI-Pos. 4. Updating tooling (jafto)","","","3","0",
"22.08.13","4","130127","33","120","Codierung","","0","10-1101: ZBRO32: ODX: ODX Bedatung F1.6/pa10 /BI-Pos. 4. Updating tooling (jafto)","07:00","16:00","3","60",
"22.08.13","4","130051","3","101","PM/Mod/Meetings","","0","S4 Technical Support / Troubleshoot 2013. Supporting colleagues","","","5","0",
"23.08.13","5","130051","2","101","PM/Mod/Meetings","","0","Management group AES 2013. Timesheets + Meetings","07:00","16:00","1","60",
"23.08.13","5","130051","3","101","PM/Mod/Meetings","","0","S4 Technical Support / Troubleshoot 2013. Supporting colleagues","","","6","0",
"23.08.13","5","130127","33","120","Codierung","","0","10-1101: ZBRO32: ODX: ODX Bedatung F1.6/pa10 /BI-Pos. 4. Updating tooling","","","1","0",
