"14.10.13","1","130025","393","170","Schulung","","0","AE Coaching for S4. Training","07:00","16:00","8","60",
"15.10.13","2","130025","393","170","Schulung","","0"," AE Coaching for S4. Training","07:00","16:00","8","60",
"16.10.13","3","130025","393","170","Schulung","","0","AE Coaching for S4. Training","07:00","16:00","8","60",
"17.10.13","4","130025","393","170","Schulung","","0","AE Coaching for S4. Training","07:00","16:00","8","60",
"18.10.13","5","130025","393	","170","Schulung","","0","AE Coaching for S4. Training","07:00","16:00","8","60",
