"25.11.13","1","130025","0","170","Schulung","","0","Self Study. actuators training","07:00","16:00","4","60",
"25.11.13","1","130056","336","120","Codierung","","0","1108: ASCS II: AP7a: new app.: Environment data F7.2/ae12. (From s65) Implementing DTC environment data read","","","4","0",
"26.11.13","2","130025","0","170","Schulung","","0","Self Study. ZBRO32 actuators","07:00","16:00","4","60",
"26.11.13","2","130056","336","120","Codierung","","0","1108: ASCS II: AP7a: new app.: Environment data F7.2/ae12. (From s65) Implementing DTC environment data read","","","4","0",
"27.11.13","3","130025","0","170","Schulung","","0","Self Study. self stufy","07:00","16:00","4","60",
"27.11.13","3","130056","336","120","Codierung","","0","1108: ASCS II: AP7a: new app.: Environment data F7.2/ae12. (From s65) Implementing DTC environment data read","","","4","0",
"28.11.13","4","130056","336","120","Codierung","","0","1108: ASCS II: AP7a: new app.: Environment data F7.2/ae12. (From s65)environment data implementation","07:00","16:00","4","60",
"28.11.13","4","130025","0","170","Schulung","","0","Self study. self study","","","4","0",
"29.11.13","5","130056","336","120","Codierung","","0","1108: ASCS II: AP7a: new app.: Environment data F7.2/ae12. Environmental Data modification","07:00","16:00","4","60",
"29.11.13","5","130025","0","170","Schulung","","0","Self study. self study","","","4","0",
