"24.06.13","1","130425","31","120","Codierung","","0","DLS-Tester - Implementation. Implemanting DLS-Tester Sequence","07:00","16:00","1","60",
"24.06.13","1","120714","1950","120","Codierung","","0","P.Authoring; lack of perfomance (waiting). waiting for authoring,very slow to respond","","","2","0",
"25.06.13","2","130425","31","120","Codierung","","0","DLS-Tester - Implementation(#221). Implemanting DLS-Tester Sequence","07:00","16:00","2","60",
"25.06.13","2","120714","1950","120","Codierung","","0","P.Authoring; lack of perfomance (waiting). waiting for authoring","","","2","0",
