"11.11.13","1","130550","352","140","Test","","0","10-9350: CETEM Tests. PIDT Testing","07:00","16:00","8","60",
"11.11.13","1","120527","48","120","Codierung","","100","20-1111: Clone DSA Template Workspace : Impl.. closing the task.","","","0","0",
"12.11.13","2","130550","352","140","Test","","0","10-9350: CETEM Tests. PIDT Testing","07:00","16:00","8","60",
"13.11.13","3","130550","352","140","Test","","0","10-9350: CETEM Tests. PIDT Testing","07:00","16:00","8","60",
"14.11.13","4","130550","352","140","Test","","0","10-9350: CETEM Tests. PIDT Testing","07:00","16:00","8","60",
"15.11.13","5","130550","352","140","Test","","0","10-9350: CETEM Tests. PIDT Testing","07:00","16:00","8","60",
