"31.12.12","1","120023","2054","910","Urlaub","","0","Holiday 15.12.2012-03.01.2013. Holiday","07:00","16:00","8","60",
"01.01.13","2","120023","2054","910","Urlaub","","0","Holiday 15.12.2012-03.01.2013. Holiday","07:00","16:00","8","60",
"02.01.13","3","120023","2054","910","Urlaub","","0","Holiday 15.12.2012-03.01.2013. Holiday","07:00","16:00","8","60",
"03.01.13","4","120036","0","170","Schulung","","0","Training 2013. Training PIDT","07:00","16:00","6","60",
"03.01.13","4","100498","334","182","Fehlerbes. nach Ausl. (Bugzilla)","","0","5082: 9x6: Gewährleistung 2012: Bugfixing. Bugfixing Bug 39841","","","2","0",
"04.01.13","5","120018","0","101","PM/Mod/Meetings","","0","S4/DSA overall tasks. Meetings and Timesheet","07:00","16:00","1","60",
"04.01.13","5","100498","334","182","Fehlerbes. nach Ausl. (Bugzilla)","","0","5082: 9x6: Gewährleistung 2012: Bugfixing. Bugfixing Bug 39841","","","4","0",
"04.01.13","5","120036","0","170","Schulung","","0","Training 2013. Training PIDT","","","3","0",
