"24.06.13","1","130425","38","120","Codierung","","0","DICO Umrichter Identifikation (#227). Impementing the DICO Umrichter Identifikation sequence","07:00","16:00","7","60",
"24.06.13","1","120714","1975","120","Codierung","","0","P.Authoring; lack of performance (waiting). Waiting for authoring","","","1","0",
"25.06.13","2","130425","38","120","Codierung","","0","DICO Umrichter Identifikation (#227). Implementing the DICO Umrichter Identifikation sequence","07:00","16:00","6","60",
"25.06.13","2","120714","1975","120","Codierung","","0","P.Authoring; lack of performance (waiting). Waiting for authoring","","","2","0",
"26.06.13","3","120714","1975","120","Codierung","","0","P.Authoring; lack of performance (re-work of the DLS-Tester - Implementation #221). Re-work of the DLS-Tester - Implementation (#221)","07:00","16:00","7","60",
"26.06.13","3","130425","38","120","Codierung","","0","DICO Umrichter Identifikation (#227). Impementing the DICO Umrichter Identifikation sequence","","","1","0",
"27.06.13","4","120714","1975","120","Codierung","","0","P.Authoring; lack of performance (re-work of the DLS-Tester - Implementation #221). Re-work of the DLS-Tester - Implementation (#221)","07:00","16:00","8","60",
"28.06.13","5","120714","1975","120","Codierung","","0","P.Authoring; lack of performance (re-work of the DLS-Tester - Implementation #221). Re-work of the DLS-Tester - Implementation (#221)","07:00","16:00","8","60",
