"01.07.13","1","130425 ","37","120","Codierung","","0","DICO Autoparametrierung SIADIS ruecksetzen (#226). Implementing the DICO Autoparametrierung SIADIS ruecksetzen sequence","07:00","16:00","6","60",
"01.07.13","1","120714","1975","120","Codierung","","0","P.Authoring; lack of performance (waiting). Waiting for authoring","","","2","0",
"02.07.13","2","130425","36","120","Codierung","","0","UCM Autoparametrierung SIADIS ruecksetzen (#225). Implementing the UCM Autoparametrierung SIADIS ruecksetzen sequence","07:00","16:00","7","60",
"02.07.13","2","120714 ","1975","120","Codierung","","0","P.Authoring; lack of performance (waiting). Waiting for authoring","","","1","0",
"03.07.13","3","130023","0","910","Urlaub","","0","Urlaub. Urlaub","07:00","16:00","8","60",
"04.07.13","4","130425","21","120","Codierung","","0","Denox Adblue Dosiermengentest (#149). (from s65) Implementing the Denox Adblue Dosiermengentest  sequence","07:00","16:00","6","60",
"04.07.13","4","120714","1975","120","Codierung","","0","P.Authoring; lack of performance (waiting). Waiting for authoring","","","2","0",
"05.07.13","5","130425 ","21","120","Codierung","","0","Denox Adblue Dosiermengentest (#149). (from s65) Implementing the Denox Adblue Dosiermengentest  sequence","07:00","16:00","2","60",
"05.07.13","5","120714","1975","120","Codierung","","0","P.Authoring; lack of performance (waiting). Waiting for authoring (downloading and installing new authoring)","","","3","0",
"05.07.13","5","130425","36","120","Codierung","","0","UCM Autoparametrierung SIADIS ruecksetzen (#225). Implementing the UCM Autoparametrierung SIADIS ruecksetzen sequence","","","3","0",
