"25.03.13","1","120714","1","140","Test","","0","OTX Integration: Regression Tests on Trunk. Testing Testcases in Test Link Prodis Authoring","07:00","16:00","8","60",
"26.03.13","2","120714","1","140","Test","","0","OTX Integration: Regression Tests on Trunk. Testing Testcases in Test Link Prodis Authoring","07:00","16:00","8","60",
"27.03.13","3","120714","1","140","Test","","0","OTX Integration: Regression Tests on Trunk. Testing Testcases in Test Link Prodis Authoring","07:00","16:00","8","60",
"28.03.13","4","130051","5","101","PM/Mod/Meetings","","0","S4/DSA overall tasks 2013. Department Meeting and Doing Timesheets","07:00","16:00","3","60",
"28.03.13","4","120714","1","140","Test","","0","OTX Integration: Regression Tests on Trunk. Testing Testcases in Test Link Prodis Authoring","","","5","0",
"29.03.13","5","130023","0","910","Urlaub","","0","Holiday. Public Holiday","07:00","16:00","8","60",
