"18.02.13","1","100769","0","120","Codierung","","0","SWE: Workspace update. Automation workspace update and fix","07:00","16:00","1","60",
"18.02.13","1","100769","885","140","Test","","0","1620: Regressionstests PIDT Runtime. FAP tests and setup and troubleshooting of HSX","","","7","0",
"19.02.13","2","100769","0","120","Codierung","","0","PIDT workspace update. PIDT workspace update and testing","07:00","16:00","2","60",
"19.02.13","2","100769","885","140","Test","","0","1620: Regressionstests PIDT Runtime. 1620: Regressionstests PIDT Runtime: FAP","","","6","0",
"20.02.13","3","100769","885","140","Test","","0","1620: Regressionstests PIDT Runtime. HSX setup and troubleshooting","07:00","16:00","2","60",
"20.02.13","3","100769","888","181","Fehlerbes. vor Ausl. (Bugzilla)","","0","1620: Bugfixing PIDT Runtime. Bug 38441 (PIDT startup too long)","","","2","0",
"20.02.13","3","100769","888","181","Fehlerbes. vor Ausl. (Bugzilla)","","0","1620: Bugfixing PIDT Runtime. Setup and reproducing of Bug 40825","","","4","0",
"21.02.13","4","100769","888","181","Fehlerbes. vor Ausl. (Bugzilla)","","0","1620: Bugfixing PIDT Runtime. Reproducing of Bug 40825","07:00","16:00","3","60",
"21.02.13","4","100769","0","120","Codierung","","0","PIDT workspace update. PIDT workspace update and building","","","4","0",
"21.02.13","4","100769","885","140","Test","","0","1620: Regressionstests PIDT Runtime. 1620: Regressionstests PIDT Runtime","","","1","0",
"22.02.13","5","130051","14","101","PM/Mod/Meetings","","0","Meetings and reports. Meetings and reports","07:00","16:00","1","60",
"22.02.13","5","100769","888","181","Fehlerbes. vor Ausl. (Bugzilla)","","0","1620: Bugfixing PIDT Runtime. Bug 39996 - Getting into subject and reproduce","","","3","0",
"22.02.13","5","100769","888","181","Fehlerbes. vor Ausl. (Bugzilla)","","0","1620: Bugfixing PIDT Runtime. Bug 40825 - Reproduce","","","2","0",
"22.02.13","5","100769","885","140","Test","","0","1620: Regressionstests PIDT Runtime. 1620: Regressionstests PIDT Runtime","","","2","0",
