"23.09.13","1","130023","0","910","Urlaub","","0","Time Off. Time-Off","07:00","16:00","8","60",
"24.09.13","2","130023","1849","910","Urlaub","","0","Public Holiday 24.09.2013. Holiday","07:00","16:00","8","60",
"25.09.13","3","130127","22","101","PM/Mod/Meetings","","0","00-9120: ZBRO32: Meetings A1.2/pa10. zbro32 meeting","07:00","16:00","1","60",
"25.09.13","3","130127","36","120","Codierung","","0","10-1101: ZBRO32: ODX: Modultest F1.10/pa10. Testing and minor modifications","","","3","0",
"25.09.13","3","130127","37","120","Codierung","","0","10-1101: ZBRO32: ODX: Bugfixing F1.11/pa10. Changes after review","","","4","0",
"26.09.13","4","130127","0","920","Krankheit","","0","Time Off. Sick","07:00","16:00","8","60",
"27.09.13","5","130051","8","101","PM/Mod/Meetings","","0","S4/DSA overall tasks 2013. Meetings and timesheets","07:00","16:00","1","60",
"27.09.13","5","130127","37","120","Codierung","","0","10-1101: ZBRO32: ODX: Bugfixing F1.11/pa10. Changes after review","","","7","0",
