"07.04.14","1","130867","219","140","Test","","0","PIDT 14.1: Regressionstests. PIDT 14.1: Regressionstests","07:00","16:00","8","60",
"08.04.14","2","130867","223","181","Fehlerbes. vor Ausl. (Bugzilla)","","0","14.1: Bugfixing. Working on PIDT 14.1.0 bugs","07:00","16:00","8","60",
"09.04.14","3","130867","0","181","Fehlerbes. vor Ausl. (Bugzilla)","","0","PIDT 14.1: Bugfixing. Working on PIDT 14.1.0 bugs","07:00","16:00","8","60",
"10.04.14","4","130867","0","140","Test","","0","PIDT 14.1: Regressionstests. PIDT 14.1: Regressionstests","07:00","16:00","8","60",
"11.04.14","5","130867","0","140","Test","","0","PIDT 14.1: Regressionstests. PIDT 14.0.0 Regression Testing","07:00","16:00","8","60",
