"15.09.14","1","140111","143","181","Fehlerbes. vor Ausl. (Bugzilla)","","0","20-9340: PIDT 14.4_DiPAS: Bugfixing nach CF. Working on PIDT 14.4.0 Dipas bugs","07:00","16:00","8","60",
"16.09.14","2","140111","143","181","Fehlerbes. vor Ausl. (Bugzilla)","","0","20-9340: PIDT 14.4_DiPAS: Bugfixing nach CF. Working on PIDT 14.4.0 Dipas bugs","07:00","16:00","8","60",
"17.09.14","3","140111","143","181","Fehlerbes. vor Ausl. (Bugzilla)","","0","20-9340: PIDT 14.4_DiPAS: Bugfixing nach CF. Working on PIDT 14.4.0 Dipas bugs","07:00","16:00","8","60",
"18.09.14","4","140111","143","181","Fehlerbes. vor Ausl. (Bugzilla)","","0","20-9340: PIDT 14.4_DiPAS: Bugfixing nach CF. Working on PIDT 14.4.0 Dipas bugs","07:00","16:00","8","60",
"19.09.14","5","140111","143","181","Fehlerbes. vor Ausl. (Bugzilla)","","0","20-9340: PIDT 14.4_DiPAS: Bugfixing nach CF. Working on PIDT 14.4.0 Dipas bugs","07:00","16:00","6,5","60",
"19.09.14","5","140051","1","101","PM/Mod/Meetings","","0","S4/DSA overall tasks 2014. Weekly general tasks","","","1,5","0",
"19.09.14","5","140111","120","181","Fehlerbes. vor Ausl. (Bugzilla)","","0","20-1000: PIDT 14.4_DiPAS: Bugfixing vor CF. Closing old task","","","0","0",
