"03.03.14","1","130867","0","120","Codierung","","0","CR402my3-247_CuPRueckDoku. CR402my3-247_CuPRueckDoku","07:00","16:00","8","60",
"04.03.14","2","130867","0","120","Codierung","","0","CR402my3-247_CuPRueckDoku. CR402my3-247_CuPRueckDoku","07:00","16:00","8","60",
"05.03.14","3","130867","0","120","Codierung","","0","CR402my3-247_CuPRueckDoku. CR402my3-247_CuPRueckDoku","07:00","16:00","8","60",
"06.03.14","4","130867","0","120","Codierung","","0","CR402my3-247_CuPRueckDoku. CR402my3-247_CuPRueckDoku","07:00","16:00","8","60",
"07.03.14","5","130867","0","120","Codierung","","0","CR402my3-247_CuPRueckDoku. CR402my3-247_CuPRueckDoku","07:00","16:00","5","60",
"07.03.14","5","140051","5","101","PM/Mod/Meetings","","0","S4/DSA overall tasks 2014. S4/DSA overall tasks 2014","","","1,5","0",
"07.03.14","5","130867","0","120","Codierung","","0","CR402my1-261_DateiInterfaceGFS. CR402my1-261_DateiInterfaceGFS","","","1,5","0",
