"24.11.14","1","100369","9243","182","Fehlerbes. nach Ausl. (Bugzilla)","","100","8080: P1 #52381 (major) Parametrization : Can not write values,MAN Sequences. Closing","07:00","16:00","0","60",
"24.11.14","1","100369","9260","182","Fehlerbes. nach Ausl. (Bugzilla)","","100","8080: P3 #52148 (normal) All variants of FS are shown.,MAN Sequences. Bugfix","","","2","0",
"24.11.14","1","100369","9242","182","Fehlerbes. nach Ausl. (Bugzilla)","","100","8080: P3 #52184 (normal) Monitoring: Aufbau unterer Infozeile,MAN Sequences. Bugfix","","","4","0",
"24.11.14","1","100369","9169","182","Fehlerbes. nach Ausl. (Bugzilla)","","0","8080: P3 #51715 (enhancement) ComplexTable Search  entry should be kept after close - open of screen. (From s66)Bugfix","","","2","0",
"25.11.14","2","140051","33","170","Schulung","","0","Training 2014. Helping Colleague with ODX implimantation -  dynamin terminated field","07:00","16:00","3","60",
"25.11.14","2","100369","9243","182","Fehlerbes. nach Ausl. (Bugzilla)","","100","8080: P3 #53467 (normal) ZBRO32 A2L Job, does not re-read A2L file after sessions change,MAN Sequenc. Bugfix","","","5","0",
"26.11.14","3","130056","33","170","Schulung","","100","Training 2014. testing ascs bugs on 3.18.13","07:00","16:00","8","60",
"27.11.14","4","100369","9169","182","Fehlerbes. nach Ausl. (Bugzilla)","","100","8080: P3 #51715 (enhancement) ComplexTable Search  entry should be kept after close - open of screen. (from s66) testing and fixing parametrization filtering","07:00","16:00","8","60",
"28.11.14","5","140051","32","101","PM/Mod/Meetings","","0","Weekly tasks AES 2014. S4 Meetings and timesheets","07:00","16:00","1,5","60",
"28.11.14","5","130056","0","120","Codierung","","0","FEAT-4957 - Refactor Actuator Tests	. Actuator sequence modification","","","6,5","0",
