"25.08.14","1","130769","57","120","Codierung","","0","10-1003: Release 10: ECU HLI LT + HLI RT coding + test. Creating statistics and implementing changes in the CTS","07:00","16:00","8","60",
"26.08.14","2","130769","63","120","Codierung","","0","10-1020: Release 10: ECU SEAT D+P coding + test. Creating statistics and implementing changes in the CTS","07:00","16:00","8","60",
"27.08.14","3","140023","0","910","Urlaub","","0","Urlaub. Urlaub","07:00","16:00","8","60",
"28.08.14","4","140023","0","910","Urlaub","","0","Urlaub. Urlaub","07:00","16:00","8","60",
"29.08.14","5","130769","67","120","Codierung","","0","10-1013: Release 10: ECU OM651 coding + test. Creating statistics and implementing changes in the CTS","07:00","16:00","5","60",
"29.08.14","5","140023","0","910","Urlaub","","0","Urlaub. Urlaub","","","3","0",
