"06.10.14","1","130769","204","120","Codierung","","0","9999: Testing and Fixing Assembly Check according to GD1A  Inspection List. Testing and Fixing Assembly Check according to GD1A  Inspection List","07:00","16:00","8","60",
"07.10.14","2","130769","204","120","Codierung","","0","9999: Testing and Fixing Assembly Check according to GD1A  Inspection List. Testing and Fixing Assembly Check according to GD1A Inspection List","07:00","16:00","8","60",
"08.10.14","3","130769","204","120","Codierung","","0","9999: Testing and Fixing Assembly Check according to GD1A  Inspection List. Fixing Assembly Check Statistics","07:00","16:00","8","60",
"09.10.14","4","130769","204","120","Codierung","","0","9999: Testing and Fixing Assembly Check according to GD1A  Inspection List. Fixing Assembly Check Statistics and testing","07:00","16:00","7","60",
"09.10.14","4","130769","159","101","PM/Mod/Meetings","","0","Meeting, Telco. Meeting, Telco","","","1","0",
"10.10.14","5","130769","204","120","Codierung","","0","9999: Testing and Fixing Assembly Check according to GD1A  Inspection List. Assembly Check fixing and testing on car","07:00","16:00","5","60",
"10.10.14","5","140051","34","101","PM/Mod/Meetings","","0","Weekly tasks AES 2014. Meetings and Timesheet","","","1","0",
"10.10.14","5","130769","159","101","PM/Mod/Meetings","","0","Meeting, Telco. Meeting, Telco","","","0,5","0",
"10.10.14","5","130769","0","120","Codierung","","0","Editing Repair Config. Editing Repair Config","","","1,5","0",
