"23.06.14","1","140051","22","101","PM/Mod/Meetings","","0","General project management / Teamsupport AES 2014. General management, support","07:00","16:00","8","60",
"24.06.14","2","140051","23","101","PM/Mod/Meetings","","0","Training 2014. IDT tranining with s68,s69","07:00","16:00","1","60",
"24.06.14","2","140051","22","101","PM/Mod/Meetings","","0","General project management / Teamsupport AES 2014. General management, support","","","7","0",
"25.06.14","3","140051","21","101","PM/Mod/Meetings","","0","Management AES 2014. Translating Bugzilla trainining","07:00","16:00","2","60",
"25.06.14","3","130676","98","101","PM/Mod/Meetings","","0","50-9330: Erstellung Testpläne. Preparing documentation for release","","","2","0",
"25.06.14","3","140051","21","101","PM/Mod/Meetings","","0","Management AES 2014. Support team members","","","4","0",
"26.06.14","4","130676","98","101","PM/Mod/Meetings","","0","50-9330: Erstellung Testpläne. Preparing documentation for release","07:00","16:00","5","60",
"26.06.14","4","130676","99","101","PM/Mod/Meetings","","0","50-9330: Review Testpläne/Testcases. Review TP's","","","1","0",
"26.06.14","4","140051","21","101","PM/Mod/Meetings","","0","Management AES 2014. Support team members","","","2","0",
"27.06.14","5","130676","98","101","PM/Mod/Meetings","","0","50-9330: Erstellung Testpläne. Readying test documentation for delivery","07:00","16:00","0,5","60",
"27.06.14","5","140051","21","101","PM/Mod/Meetings","","0","Management AES 2014. Timesheets + Meetings, Support","","","2,5","0",
"27.06.14","5","140051","21","101","PM/Mod/Meetings","","0","Management AES 2014. Interview for new staff","","","1","0",
"27.06.14","5","140023","0","910","Urlaub","","0","Urlaub. Time off.","","","4","0",
"27.06.14","5","120759","394","182","Fehlerbes. nach Ausl. (Bugzilla)","","100","41-9010: Nabe-T2: Bugfixing Puffer. Closing task","","","0","0",
"27.06.14","5","120759","391","182","Fehlerbes. nach Ausl. (Bugzilla)","","100","24-9360: Flashabläufe-T2: Bugfixing (Puffer). Closing task","","","0","0",
