"24.03.14","1","140162","25","120","Codierung","","0","10-0501: Flashing recovery mode: CTS development. Implementing recovery mode functionality in Qoros CTSs","07:00","16:00","5","60",
"24.03.14","1","140162","20","120","Codierung","","0","10-0201: Display multiple measurements in linegraph. Implementing multiple measurements in CTS","","","3","0",
"25.03.14","2","120328","1128","181","Fehlerbes. vor Ausl. (Bugzilla)","","0","50-9340: Bugfixing Aftersales Rel 5. Bug fixing for Brilliance","07:00","16:00","5","60",
"25.03.14","2","120600","2566","120","Codierung","","0","00-3001: P.Lib R10: Test Cases: Fixing (. Fixing the testcases which failed to pass","","","3","0",
"26.03.14","3","130676","87","181","Fehlerbes. vor Ausl. (Bugzilla)","","0","50-1020: Bugfixing zu Integrationstest. Bug fixing for Nabenprufstand","07:00","16:00","4","60",
"26.03.14","3","140162","25","120","Codierung","","0","Flashing recovery mode: CTS development. Implementing recovery mode functionality in Qoros CTSs","","","4","0",
"27.03.14","4","120328","1127","181","Fehlerbes. vor Ausl. (Bugzilla)","","0","50-9340: Bugfixing Aftersales Rel 5. Bug fixing for BDNT","07:00","16:00","6","60",
"27.03.14","4","140162","20","120","Codierung","","0","10-0201: Display multiple measurements in linegraph. Implementing multiple measurements in CTS","","","1","0",
"27.03.14","4","120600","2566","120","Codierung","","0","00-3001: P.Lib R10: Test Cases: Fixing (. Fixing the testcases which failed to pass","","","1","0",
"28.03.14","5","140051","39","101","PM/Mod/Meetings","","0","Weekly tasks AES 2014. Timesheets","07:00","16:00","1","60",
"28.03.14","5","120600","2566","120","Codierung","","0","00-3001: P.Lib R10: Test Cases: Fixing (. Fixing the testcases which failed to pass","","","4","0",
"28.03.14","5","140162","25","120","Codierung","","0","10-0501: Flashing recovery mode: CTS development. Implementing recovery mode functionality in Qoros CTSs","","","3","0",
