"10.11.14","1","140023","0","910","Urlaub","","0","Urlaub. Annual leave","07:00","16:00","8","60",
"11.11.14","2","130769","81","181","Fehlerbes. vor Ausl. (Bugzilla)","","0","(from rj)10-9340: Release 10: Systemintegration+Test: Bugfixing zu Regressionstest. Reworking Generic Coding CTS and Statistics","07:00","16:00","5","60",
"11.11.14","2","130769","81","181","Fehlerbes. vor Ausl. (Bugzilla)","","0","(from rj)10-9340: Release 10: Systemintegration+Test: Bugfixing zu Regressionstest. Analysing bugs report","","","3","0",
"12.11.14","3","130769","81","181","Fehlerbes. vor Ausl. (Bugzilla)","","0","(from rj)10-9340: Release 10: Systemintegration+Test: Bugfixing zu Regressionstest. Reworking Generic Coding CTS and Statistics","07:00","16:00","8","60",
"13.11.14","4","130769","81","181","Fehlerbes. vor Ausl. (Bugzilla)","","0","(from rj)10-9340: Release 10: Systemintegration+Test: Bugfixing zu Regressionstest. Reworking Generic Coding CTS and Statistics","07:00","16:00","8","60",
"14.11.14","5","140051","34","101","PM/Mod/Meetings","","0","Weekly tasks AES 2014. Meetings and Timesheet","07:00","16:00","1","60",
"14.11.14","5","130769","81","181","Fehlerbes. vor Ausl. (Bugzilla)","","0","(from rj)10-9340: Release 10: Systemintegration+Test: Bugfixing zu Regressionstest. Reworking Generic COding CTS and Statistics","","","7","0",
