"06.10.14","1","140051","33","170","Schulung","","0","Training 2014. Krone IDT know how","07:00","16:00","6","60",
"06.10.14","1","120759","420","182","Fehlerbes. nach Ausl. (Bugzilla)","","0","9999: Nabenpruefstand Rework: Reworking Test Setup, Integrate IDT framework. ()From s41)Config file Optimise file config reading ","","","2","0",
"07.10.14","2","130056","435","185","Service, Telefon-Support","","0","ASCS II:Wartung und Pflege. Bugfix : 53333","07:00","16:00","3","60",
"07.10.14","2","140051","33","170","Schulung","","0","Training 2014. As-Build Data download/upload know how","","","5","0",
"08.10.14","3","120573","20","120","Codierung","","0","Linde Demo: ASCS extensions /EDA10. As-Build Data download and view","07:00","16:00","8","60",
"09.10.14","4","120573","20","120","Codierung","","0","Linde Demo: ASCS extensions /EDA10. Snapwhot replay, Manual Flash Sequence w. diff user rights","07:00","16:00","8","60",
"10.10.14","5","120573","20","120","Codierung","","0","Linde Demo: ASCS extensions /EDA10. Ticketing mechanism, flash production","07:00","16:00","6,5","60",
"10.10.14","5","140051","32","101","PM/Mod/Meetings","","0","Weekly tasks AES 2014. S4 Meetings and timesheets","","","1,5","0",
"10.10.14","5","140051","60","170","Schulung","","100","VW Factory visit. Closing Task","","","0","0",
"10.10.14","5","130056","431","130","Installation + Konfiguration","","100","1106: ASCS II: AP6: UnitTests: Setup / Testsequences F5.1/ae12. closing","","","0","0",
