"31.03.14","1","120600","2599","120","Codierung","","0","00-3001: P.Lib R10: Test Cases: Fixing (. Fixing the testcases in Prodis Lib","07:00","16:00","4,7","60",
"31.03.14","1","140162","69","120","Codierung","","100","10-0101: Display normal range (min/max) for measurement. Closing task","","","0","0",
"31.03.14","1","140162","25","120","Codierung","","0","10-0501: Flashing recovery mode: CTS development. Implementing recovery mode CTS for flashing","","","3,3","0",
"01.04.14","2","140162","25","120","Codierung","","0","10-0501: Flashing recovery mode: CTS development. Implementing recovery mode CTS for flashing","07:00","16:00","5,5","60",
"01.04.14","2","120600","2976","182","Fehlerbes. nach Ausl. (Bugzilla)","","0","8080: P3 #50068 (normal) Logging - Bausteine aus Anlagenkonfigurator erzeugen zu viel Logging,PlantC. (from ep) Fixing the logging in CTS, scripts and building blocks","","","2,5","0",
"02.04.14","3","120600","2560","110","Engineering","","0","00-1000: P.Lib R10: Polarion Adaption Documentation. Re ordering DSA_Library in Polarion to match Automation","07:00","16:00","1","60",
"02.04.14","3","140162","25","120","Codierung","","0","10-0501: Flashing recovery mode: CTS development. Implementing recovery mode CTS for flashing","","","7","0",
"03.04.14","4","120600","2560","110","Engineering","","0","00-1000: P.Lib R10: Polarion Adaption Documentation. Re ordering DSA_Library in Polarion to match Automation","07:00","16:00","8","60",
"04.04.14","5","120600","2560","110","Engineering","","0","00-1000: P.Lib R10: Polarion Adaption Documentation. Re ordering DSA_Library in Polarion to match Automation","07:00","16:00","7","60",
"04.04.14","5","140051","39","101","PM/Mod/Meetings","","0","Weekly tasks AES 2014. Timesheets","","","1","0",
