"25.08.14","1","130769","34","120","Codierung","","0","generic sequences DTC, setup workspace. Assembly Check implementation for FCW, TPM","07:00","16:00","4","60",
"25.08.14","1","140051","35","170","Schulung","","0","Training 2014. Training Colleagues in Statistics creation","","","4","0",
"26.08.14","2","130769","34","120","Codierung","","0","generic sequences DTC, setup workspace. Testing Assembly check","07:00","16:00","4","60",
"26.08.14","2","140023","0","920","Krankheit","","0","Krankheit. Sick","","","4","0",
"27.08.14","3","140023","0","920","Krankheit","","0","Krankheit. Krankheit","07:00","16:00","8","60",
"28.08.14","4","140023","0","920","Krankheit","","0","Krankheit. Krankheit","07:00","16:00","8","60",
"29.08.14","5","140023","0","910","Urlaub","","0","Urlaub. Time Off","07:00","16:00","3","60",
"29.08.14","5","130769","34","120","Codierung","","0","generic sequences DTC, setup workspace. Implementing EPS features and testing","","","5","0",
