"09.06.14","1","140111","98","120","Codierung","","0","20-1015: PIDT 14.4_DiPAS: CR413my1-279_Feedback: Implementierung. Working on source code implemtation","07:00","16:00","8","60",
"10.06.14","2","140111","98","120","Codierung","","0","20-1015: PIDT 14.4_DiPAS: CR413my1-279_Feedback: Implementierung. Implementing feedback input source code","07:00","16:00","8","60",
"11.06.14","3","140111","98","120","Codierung","","0","20-1015: PIDT 14.4_DiPAS: CR413my1-279_Feedback: Implementierung. Implementing feedback source code","07:00","16:00","8","60",
"12.06.14","4","140111","98","120","Codierung","","0","20-1015: PIDT 14.4_DiPAS: CR413my1-279_Feedback: Implementierung. Implementing feedback source code","07:00","16:00","8","60",
"13.06.14","5","140111","98","120","Codierung","","0","20-1015: PIDT 14.4_DiPAS: CR413my1-279_Feedback: Implementierung. Implementing feedback source code","07:00","16:00","6,5","60",
"13.06.14","5","140051","4","101","PM/Mod/Meetings","","0","S4/DSA overall tasks 2014. Weekly meetings and admin","","","1,5","0",
