"08.07.14","2","140111","98","120","Codierung","","0","20-1015: PIDT 14.4_DiPAS: CR413my1-279_Feedback: Implementierung. Implementation","07:00","16:00","8","60",
"09.07.14","3","140111","98","120","Codierung","","0","20-1015: PIDT 14.4_DiPAS: CR413my1-279_Feedback: Implementierung. Implementation","07:00","16:00","4","60",
"09.07.14","3","140111","173","120","Codierung","","0","10-1018: PIDT 14.4: CR227my2-203_PrePostScreensRoutinen: Implementierung. Implementation","","","4","0",
"10.07.14","4","140111","173","120","Codierung","","0","10-1018: PIDT 14.4: CR227my2-203_PrePostScreensRoutinen: Implementierung. Implementation","07:00","16:00","8","60",
"11.07.14","5","140111","173","120","Codierung","","0","10-1018: PIDT 14.4: CR227my2-203_PrePostScreensRoutinen: Implementierung. Implementation","07:00","16:00","6,5","60",
"11.07.14","5","140051","4","101","PM/Mod/Meetings","","0","S4/DSA overall tasks 2014. S4/DSA Weekly meetings and admin","","","1,5","0",
