"26.05.14","1","140023","0","920","Krankheit","","0","Sick Leave. Sick Leave","07:00","16:00","8","60",
"27.05.14","2","140023","0","920","Krankheit","","0","Sick Leave. Sick Leave","07:00","16:00","8","60",
"28.05.14","3","120600","2573","140","Test","","0","00-3002: P.Lib R10: Test execution of PlantConfigurator and CTSs. Creating testcases for the plant configurator elements in dsa sequences","07:00","16:00","8","60",
"29.05.14","4","120600","2573","140","Test","","0","00-3002: P.Lib R10: Test execution of PlantConfigurator and CTSs. Creating testcases for the plant configurator elements in dsa sequences","07:00","16:00","8","60",
"30.05.14","5","120600","2573","140","Test","","0","00-3002: P.Lib R10: Test execution of PlantConfigurator and CTSs. Creating testcases for the plant configurator elements in dsa sequences","07:00","16:00","7","60",
"30.05.14","5","140051","40","170","Schulung","","0","Training AES 2014. Timesheets","","","1","0",
