"06.10.14","1","100369","9205","182","Fehlerbes. nach Ausl. (Bugzilla)","","100","8080: P1 #52717 (major) Der Stellgliedtest der Airtronic bricht mit dem ''neuen Deli'' ab bevor man . 8080: P1 #52717 (major) Der Stellgliedtest der Airtronic bricht mit dem ''neuen Deli'' ab bevor man ","07:00","16:00","1","60",
"06.10.14","1","130769","160","101","PM/Mod/Meetings","","0","00-9120: Meeting, Telco - Analysing and helping Ralf with Nissan Flashing setup + odx + wts and test. 00-9120: Meeting, Telco - Analysing and helping Ralf with Nissan Flashing setup + odx + wts and test","","","3","0",
"06.10.14","1","140008","189","120","Codierung","","0","BaseLib um das Protokoll J1939 erweitert. BaseLib um das Protokoll J1939 erweitert","","","4","0",
"07.10.14","2","130769","160","101","PM/Mod/Meetings","","0","00-9120: Meeting, Telco - Analysing and helping Ralf with Nissan Flashing + odx + wts setup and test. 00-9120: Meeting, Telco - Analysing and helping Ralf with Nissan Flashing + odx + wts setup and test","07:00","16:00","3","60",
"07.10.14","2","140008","189","120","Codierung","","0","BaseLib um das Protokoll J1939 erweitert. BaseLib um das Protokoll J1939 erweitert","","","5","0",
"08.10.14","3","130769","0","120","Codierung","","0","ODX Converter ODX to JaftoExcel to Nice ODX. ODX Converter ODX to JaftoExcel to Nice ODX","07:00","16:00","7","60",
"08.10.14","3","100369","9160","182","Fehlerbes. nach Ausl. (Bugzilla)","","0","8080: P3 #50703 (normal) Die Ist-Anzeige zeigt keine Werte an,. Reopended - Analyzing new problem logs for Armand","","","1","0",
"09.10.14","4","130769","0","120","Codierung","","0","ODX Converter ODX to JaftoExcel to Nice ODX. ODX Converter ODX to JaftoExcel to Nice ODX","07:00","16:00","2","60",
"09.10.14","4","100369","9160","182","Fehlerbes. nach Ausl. (Bugzilla)","","0","8080: P3 #50703 (normal) Die Ist-Anzeige zeigt keine Werte an. Analyzing use case problem, creating deliverables, testing new use case making fix in CTS","","","6","0",
"10.10.14","5","100369","9160","182","Fehlerbes. nach Ausl. (Bugzilla)","","0","8080: P3 #50703 (normal) Die Ist-Anzeige zeigt keine Werte an,. 8080: P3 #50703 (normal) Die Ist-Anzeige zeigt keine Werte an,","07:00","16:00","8","60",
