"05.05.14","1","140111","11","181","Fehlerbes. vor Ausl. (Bugzilla)","","0","PIDT14.4: Bugfixing aus Vorrelease. Bug Fixing","07:00","16:00","8","60",
"06.05.14","2","140111","11","181","Fehlerbes. vor Ausl. (Bugzilla)","","0","PIDT14.4: Bugfixing aus Vorrelease. Bug Fixing","07:00","16:00","8","60",
"07.05.14","3","140023","1029","910","Urlaub","","100","Public Holiday 07.05.2014. Public Holiday 07.05.2014","07:00","16:00","8","60",
"08.05.14","4","140111","11","181","Fehlerbes. vor Ausl. (Bugzilla)","","0","PIDT14.4: Bugfixing aus Vorrelease. Bug Fixing","07:00","16:00","8","60",
"09.05.14","5","140111","11","181","Fehlerbes. vor Ausl. (Bugzilla)","","0","PIDT14.4: Bugfixing aus Vorrelease. Bug Fixing","07:00","16:00","7","60",
"09.05.14","5","140051","6","101","PM/Mod/Meetings","","0","S4/DSA overall tasks 2014. Meeting","","","1","0",
