"07.07.14","1","130056","420","182","Fehlerbes. nach Ausl. (Bugzilla)","","100","9999: Bugfixing. Bugfix : Bug 51849 - Missing translation in CollectFlashInfo","07:00","16:00","1","60",
"07.07.14","1","140051","37","170","Schulung","","0","Training 2014. Selfstudy odx-e","","","7","0",
"08.07.14","2","130056","340","102","Spez: LH/PH/Design","","0","1109: ASCS II: AP12: Automatic Coding: Spec F9.2/ae12. 1109: ASCS II: AP12: Automatic Coding: Spec F9.2/ae12","07:00","16:00","8","60",
"09.07.14","3","130056","340","102","Spez: LH/PH/Design","","0","1109: ASCS II: AP12: Automatic Coding: Spec F9.2/ae12. 1109: ASCS II: AP12: Automatic Coding: Spec F9.2/ae12","07:00","16:00","8","60",
"10.07.14","4","130056","340","102","Spez: LH/PH/Design","","0","1109: ASCS II: AP12: Automatic Coding: Spec F9.2/ae12. Creating CTS's","07:00","16:00","8","60",
"11.07.14","5","130056","340","102","Spez: LH/PH/Design","","0","1109: ASCS II: AP12: Automatic Coding: Spec F9.2/ae12. Creating CTS's","07:00","16:00","7","60",
"11.07.14","5","140051","36","101","PM/Mod/Meetings","","0"," Weekly tasks AES 2014. Meetings and Time Sheets","","","1","0",
