"03.11.14","1","140501","378","120","Codierung","","0","11-1007: PIDT 14.8: CR430my1-180_Datensatzdownload2: Implementierung. 11-1007: PIDT 14.8: CR430my1-180_Datensatzdownload2: Implementierung","07:00","16:00","8","60",
"04.11.14","2","140501","378","120","Codierung","","0","11-1007: PIDT 14.8: CR430my1-180_Datensatzdownload2: Implementierung. 11-1007: PIDT 14.8: CR430my1-180_Datensatzdownload2: Implementierung","07:00","16:00","8","60",
"05.11.14","3","140501","378","120","Codierung","","0","11-1007: PIDT 14.8: CR430my1-180_Datensatzdownload2: Implementierung. 11-1007: PIDT 14.8: CR430my1-180_Datensatzdownload2: Implementierung","07:00","16:00","8","60",
"06.11.14","4","140501","378","120","Codierung","","0","11-1007: PIDT 14.8: CR430my1-180_Datensatzdownload2: Implementierung. 11-1007: PIDT 14.8: CR430my1-180_Datensatzdownload2: Implementierung","07:00","16:00","8","60",
"07.11.14","5","140501","378","120","Codierung","","0","11-1007: PIDT 14.8: CR430my1-180_Datensatzdownload2: Implementierung. 11-1007: PIDT 14.8: CR430my1-180_Datensatzdownload2: Implementierung","07:00","16:00","6,5","60",
"07.11.14","5","140051","5","101","PM/Mod/Meetings","","0","S4/DSA overall tasks 2014. S4/DSA overall tasks 2014","","","1,5","0",
