"28.04.14","1","140023","495","910","Urlaub","","100","Public Holiday 28.04.2014. Time off","07:00","16:00","8","60",
"29.04.14","2","140023","1202","910","Urlaub","","0","Urlaub 29.04.-04.05.2014. Time off","07:00","16:00","8","60",
"30.04.14","3","140023","1202","910","Urlaub","","0","Urlaub 29.04.-04.05.2014. Time off","07:00","16:00","8","60",
"01.05.14","4","140023","0","910","Urlaub","","0","Holiday. Time off","07:00","16:00","8","60",
"02.05.14","5","140023","1202","910","Urlaub","","100","Urlaub 29.04.-04.05.2014. Time off","07:00","16:00","8","60",
