DATE;NAME;START;END;LUNCH;1;2;3;4;5;6;7;8;9;10;11;12;13;14;15;16;17;18;19;20;21;22;23;24;
01.04.14;Andre Esterhuyse;
01.04.14;Nico Claassen;07:00:00;16:00:00;60;130676-75;130056-381;130056-381;130056-381;140051-22;140051-22;140051-22;140051-22;
01.04.14;Thando Katywa;07:00:00;18:00:00;0;130867-0;130867-0;130867-0;130867-0;130867-0;130867-0;130867-0;130867-0;130867-0;130867-0;130867-0;
01.04.14;Paul Helliwell;
01.04.14;Ntombenkosi Yokwana;
01.04.14;Mario Jansen van Vuuren;07:00:00;16:00:00;60;140252-0;140252-0;140252-0;140252-0;140252-0;140252-0;140252-0;140252-0;140252-0;
01.04.14;Webster Ndlovu;07:00:00;16:00:00;60;130056-350;130056-350;130056-350;130056-350;130056-350;130056-350;130056-350;130056-350;
01.04.14;Ibrahim Arends;07:00:00;16:00:00;60;120714-1384;140162-19;100369-0;100369-0;100369-0;100369-0;100369-0;100369-0;
01.04.14;Francois van Vuuren;07:00:00;16:00:00;60;120759-347;120759-347;120759-347;120759-347;120759-347;120759-347;120759-347;120759-347;
01.04.14;Tafadzwa Mvindi;07:00:00;16:00:00;60;120759-313;120759-313;120759-313;120759-313;120759-313;120759-313;120759-313;120759-313;
01.04.14;Tashinga Chivasa;07:00:00;16:00:00;60;140162-25;140162-25;140162-25;140162-25;140162-25;140162-25 / 120600-2976;120600-2976;120600-2976;
01.04.14;Muya Mwansa;07:00:00;17:00:00;0;130867-0;130867-0;130867-0;130867-0;130867-0;130867-0;130867-0;130867-0;130867-0;130867-0;
01.04.14;Clinton Dewing;07:00:00;16:00:00;60;130867-0;130867-0;130867-0;130867-0;130867-0;130867-0;130867-0;130867-0;
01.04.14;FrancoisR Rossouw;07:00:00;17:30:00;0;140252-25;140252-25;140252-25;140252-25;140252-25;140252-25;140252-25;140252-25;140252-25;140252-25;140252-25;
01.04.14;Ian Osolo;
02.04.14;Andre Esterhuyse;
02.04.14;Nico Claassen;07:00:00;16:00:00;60;120714-853;120714-853;120714-853;120714-853;120714-853;120714-853;140051-22;140051-22;
02.04.14;Thando Katywa;07:00:00;16:00:00;60;130867-0;130867-0;130867-0;130867-0;130867-0;130867-0;130867-0;130867-0;
02.04.14;Paul Helliwell;
02.04.14;Ntombenkosi Yokwana;
02.04.14;Mario Jansen van Vuuren;07:00:00;16:00:00;60;140023-0;140023-0;140023-0;140023-0;140023-0;140023-0;140023-0;140023-0;
02.04.14;Webster Ndlovu;07:00:00;16:00:00;60;130056-350;130056-350;130056-350;130056-350;130056-350;130056-350;130056-350;130056-350;
02.04.14;Ibrahim Arends;07:00:00;16:00:00;60;140162-19;140162-19;140162-19;140162-19;140162-19;140162-19;140162-19;120714-1384;
02.04.14;Francois van Vuuren;07:00:00;16:00:00;60;120759-347;120759-347;120759-347;120759-347;120759-347;120759-347;120759-347;120759-347;
02.04.14;Tafadzwa Mvindi;07:00:00;16:00:00;60;120759-369;120759-369;120759-369;120759-369;120759-369;120759-369;120759-369;120759-369;
02.04.14;Tashinga Chivasa;07:00:00;16:00:00;60;120600-2560;140162-25;140162-25;140162-25;140162-25;140162-25;140162-25;140162-25;
02.04.14;Muya Mwansa;07:00:00;16:00:00;60;140023-0;140023-0;140023-0;140023-0;140023-0;140023-0;140023-0;140023-0;
02.04.14;Clinton Dewing;07:00:00;16:00:00;60;130867-0;130867-0;130867-0;130867-0;130867-0;130867-0;130867-0;130867-0;
02.04.14;FrancoisR Rossouw;07:00:00;16:00:00;60;140252-25;140252-25;140252-25;140252-25;140252-25;140252-25;140252-25;140252-25;
02.04.14;Ian Osolo;07:00:00;16:00:00;60;130867-9999;130867-9999;130867-9999;130867-9999;130867-9999;130867-9999;130867-9999;130867-9999;
03.04.14;Andre Esterhuyse;
03.04.14;Nico Claassen;07:00:00;16:00:00;60;130676-88;130676-88;130676-88;130676-89;130676-89;130676-89;130056-313;130056-313;
03.04.14;Thando Katywa;07:00:00;16:00:00;60;130867-0;130867-0;130867-0;130867-0;130867-0;130867-0;130867-0;130867-0;
03.04.14;Paul Helliwell;
03.04.14;Ntombenkosi Yokwana;
03.04.14;Mario Jansen van Vuuren;07:00:00;16:00:00;60;140023-0;140023-0;140023-0;140023-0;140023-0;140023-0;140023-0;140023-0;
03.04.14;Webster Ndlovu;07:00:00;16:00:00;60;130056-350;130056-350;130056-350;130056-350;130056-350;130056-350;130056-350;130056-350;
03.04.14;Ibrahim Arends;07:00:00;16:00:00;60;120714-1384;120714-1384;140162-19;140162-19;140162-19;140162-19;100369-0;100369-0;
03.04.14;Francois van Vuuren;07:00:00;16:00:00;60;130056-363;130056-363;130056-363;130056-363;130056-363;130056-363;130056-363;130056-363;
03.04.14;Tafadzwa Mvindi;07:00:00;16:00:00;60;120759-369;120759-369;120759-369;120759-369;120759-369;120759-369;120759-369 / 120600-2976;120600-2976;
03.04.14;Tashinga Chivasa;07:00:00;16:00:00;60;120600-2560;120600-2560;120600-2560;120600-2560;120600-2560;120600-2560;120600-2560;120600-2560;
03.04.14;Muya Mwansa;07:00:00;16:00:00;60;130867-0;130867-0;130867-0;130867-0;130867-0;130867-0;130867-0;130867-0;
03.04.14;Clinton Dewing;07:00:00;16:00:00;60;130867-0;130867-0;130867-0;130867-0;130867-0;130867-0;130867-0;130867-0;
03.04.14;FrancoisR Rossouw;07:00:00;16:00:00;60;140252-25;140252-25;140252-25;140252-25;140252-25;140252-25;140252-25 / 140252-25;140252-25;
03.04.14;Ian Osolo;07:00:00;16:00:00;60;130867-9999;130867-9999;130867-9999;130867-9999;130867-9999;130867-9999;130867-9999;130867-9999;
04.04.14;Andre Esterhuyse;
04.04.14;Nico Claassen;07:00:00;16:00:00;60;130056-313 / 130676-89;130056-313 / 130676-68;130676-68;130676-68;130676-68 / 140051-21;140051-21;140051-22;140051-22;
04.04.14;Thando Katywa;07:00:00;16:00:00;60;130867-0;130867-0;130867-0;130867-0;130867-0;130867-0;130867-0 / 140051-1;140051-1;
04.04.14;Paul Helliwell;
04.04.14;Ntombenkosi Yokwana;
04.04.14;Mario Jansen van Vuuren;07:00:00;16:00:00;60;140252-0;140252-0;140252-0;140252-0;140252-0;140252-0;140252-0;140252-0;
04.04.14;Webster Ndlovu;07:00:00;16:00:00;60;130056-350;130056-350;130056-350;130056-350;130056-350;130056-350;100369-9125;100369-9125;
04.04.14;Ibrahim Arends;07:00:00;16:00:00;60;140051-34;120714-0;120714-0;100369-0;100369-0;100369-0;100369-0 / 140023-0;140023-0;
04.04.14;Francois van Vuuren;07:00:00;16:00:00;60;120759-349;120759-349;120759-349;120759-349;120759-349;120759-349;120759-349;140051-36;
04.04.14;Tafadzwa Mvindi;07:00:00;16:00:00;60;120600-2570;120600-2570;120600-2570;120600-2570;120600-2578;120600-2578;120600-2578;120600-2578;
04.04.14;Tashinga Chivasa;07:00:00;16:00:00;60;120600-2560;120600-2560;120600-2560;120600-2560;120600-2560;120600-2560;120600-2560;140051-39;
04.04.14;Muya Mwansa;07:00:00;16:00:00;60;130867-219;130867-219;130867-219;130867-219;140051-4;140051-4 / 130867-0;130867-0;130867-0;
04.04.14;Clinton Dewing;07:00:00;16:00:00;60;130867-0;130867-0;130867-0;130867-0;130867-0;130867-0;130867-0 / 140051-5;140051-5;
04.04.14;FrancoisR Rossouw;07:00:00;16:00:00;60;140252-25;140252-25;140252-25;140252-25;140252-25;140252-25;140252-25;140051-6;
04.04.14;Ian Osolo;07:00:00;16:00:00;60;130867-9999;130867-9999;130867-9999;130867-9999;130867-9999;130867-9999;130867-9999;130867-9999;
05.04.14;Andre Esterhuyse;
05.04.14;Nico Claassen;
05.04.14;Thando Katywa;
05.04.14;Paul Helliwell;
05.04.14;Ntombenkosi Yokwana;
05.04.14;Mario Jansen van Vuuren;
05.04.14;Webster Ndlovu;
05.04.14;Ibrahim Arends;
05.04.14;Francois van Vuuren;
05.04.14;Tafadzwa Mvindi;
05.04.14;Tashinga Chivasa;
05.04.14;Muya Mwansa;
05.04.14;Clinton Dewing;
05.04.14;FrancoisR Rossouw;
05.04.14;Ian Osolo;
06.04.14;Andre Esterhuyse;
06.04.14;Nico Claassen;
06.04.14;Thando Katywa;
06.04.14;Paul Helliwell;
06.04.14;Ntombenkosi Yokwana;
06.04.14;Mario Jansen van Vuuren;
06.04.14;Webster Ndlovu;
06.04.14;Ibrahim Arends;
06.04.14;Francois van Vuuren;
06.04.14;Tafadzwa Mvindi;
06.04.14;Tashinga Chivasa;
06.04.14;Muya Mwansa;
06.04.14;Clinton Dewing;
06.04.14;FrancoisR Rossouw;
06.04.14;Ian Osolo;
07.04.14;Andre Esterhuyse;
07.04.14;Nico Claassen;07:00:00;16:00:00;60;140051-22;140051-22;140051-22;140051-22;140051-22;140051-22;140051-22;140051-22;
07.04.14;Thando Katywa;07:00:00;16:00:00;60;130867-0;130867-0;130867-0;130867-0;130867-0;130867-0;130867-0;130867-0;
07.04.14;Paul Helliwell;
07.04.14;Ntombenkosi Yokwana;
07.04.14;Mario Jansen van Vuuren;07:00:00;16:00:00;60;130867-0;130867-0;130867-0;130867-0;130867-0;130867-0;130867-0;130867-0;
07.04.14;Webster Ndlovu;07:00:00;16:00:00;60;120328-1006;120328-1006;120328-1006;120328-1006;120328-1006;120328-1006;120328-1006;120328-1006;
07.04.14;Ibrahim Arends;07:00:00;16:00:00;60;140162-20;140162-20;140162-20;100369-9144;100369-9144;100369-9144;100369-9144;120714-1384;
07.04.14;Francois van Vuuren;07:00:00;16:00:00;60;100369-9135;100369-9135;100369-9135;100369-9135;100369-9140;100369-9140;100369-9142;100369-9142;
07.04.14;Tafadzwa Mvindi;07:00:00;16:00:00;60;120600-2579;120600-2579;120600-2579;120600-2579;120600-2579;120600-2579;120600-2579;120600-2579;
07.04.14;Tashinga Chivasa;07:00:00;16:00:00;60;120600-2576;120600-2576;120600-2576;120600-2576;140162-25;140162-25;140162-25;140162-25;
07.04.14;Muya Mwansa;07:00:00;16:00:00;60;130867-219;130867-219;130867-219;130867-219;130867-219;130867-219;130867-219;130867-219;
07.04.14;Clinton Dewing;07:00:00;16:00:00;60;130867-0;130867-0;130867-0;130867-0;130867-0;130867-0;130867-0;130867-0;
07.04.14;FrancoisR Rossouw;07:00:00;16:00:00;60;130867-25;130867-25;130867-25;130867-25;130867-25;130867-25;130867-25;130867-25;
07.04.14;Ian Osolo;07:00:00;16:00:00;60;130867-9999;130867-9999;130867-9999;130867-9999;130867-9999;130867-9999;130867-9999;130867-9999;
08.04.14;Andre Esterhuyse;
08.04.14;Nico Claassen;07:00:00;16:00:00;60;120714-853;120714-853;140051-23;140051-23;140051-22;140051-22;140051-22;140051-22;
08.04.14;Thando Katywa;07:00:00;16:00:00;60;130867-0;130867-0;130867-0;130867-0;130867-0;130867-0;130867-0;130867-0;
08.04.14;Paul Helliwell;
08.04.14;Ntombenkosi Yokwana;
08.04.14;Mario Jansen van Vuuren;07:00:00;16:00:00;60;130867-0;130867-0;130867-0;130867-0;130867-0;130867-0;130867-0;130867-0;
08.04.14;Webster Ndlovu;07:00:00;16:00:00;60;120328-1006;120328-1006;120328-1006;120328-1006;120328-1006;120328-1006;120328-1006;120328-1006;
08.04.14;Ibrahim Arends;07:00:00;16:00:00;60;100369-9144;100369-9144;100369-9144;100369-9126;100369-9126;120714-1384;120714-1384;120714-1384;
08.04.14;Francois van Vuuren;07:00:00;16:00:00;60;100369-9143;100369-9143;100369-9143;100369-9143;100369-9143;100369-9143;100369-9141;100369-9141;
08.04.14;Tafadzwa Mvindi;07:00:00;16:00:00;60;140023-0;140023-0;140023-0;140023-0;140023-0;140023-0;140023-0;140023-0;
08.04.14;Tashinga Chivasa;07:00:00;16:00:00;60;120600-2576;120600-2576;120600-2576;120600-2576;140023-0;140023-0;140023-0;140023-0;
08.04.14;Muya Mwansa;07:00:00;16:00:00;60;130867-223;130867-223;130867-223;130867-223;130867-223;130867-223;130867-223;130867-223;
08.04.14;Clinton Dewing;07:00:00;16:00:00;60;130867-0;130867-0;130867-0;130867-0;130867-0;130867-0;130867-0;130867-0;
08.04.14;FrancoisR Rossouw;07:00:00;16:00:00;60;130867-25;130867-25;130867-25;130867-25;130867-25;130867-25;130867-25;130867-25;
08.04.14;Ian Osolo;07:00:00;16:00:00;60;130867-9999;130867-9999;130867-9999;130867-9999;130867-9999;130867-9999;130867-9999;130867-9999;
09.04.14;Andre Esterhuyse;
09.04.14;Nico Claassen;07:00:00;16:00:00;60;130676-68;130676-68;140051-22;140051-22;140051-22;140051-22;140051-22;140051-22;
09.04.14;Thando Katywa;07:00:00;16:00:00;60;130867-0;130867-0;130867-0;130867-0;130867-0;130867-0;130867-0;130867-0;
09.04.14;Paul Helliwell;
09.04.14;Ntombenkosi Yokwana;
09.04.14;Mario Jansen van Vuuren;07:00:00;16:00:00;60;140023-0;140023-0;130867-0;130867-0;130867-0;130867-0;130867-0;130867-0;
09.04.14;Webster Ndlovu;07:00:00;16:00:00;60;140023-0;140023-0;140023-0;140023-0;140023-0;140023-0;140023-0;140023-0;
09.04.14;Ibrahim Arends;07:00:00;16:00:00;60;140162-20;140162-20;100369-9126;100369-9126;100369-9126;120714-1384 / 120714-1384;120714-1384;120714-1384;
09.04.14;Francois van Vuuren;07:00:00;16:00:00;60;100369-9141;100369-9141;100369-9141;100369-9141;100369-9141;100369-9141;130056-352;130056-352;
09.04.14;Tafadzwa Mvindi;07:00:00;16:00:00;60;140023-0;140023-0;140023-0;140023-0;140023-0;140023-0;140023-0;140023-0;
09.04.14;Tashinga Chivasa;07:00:00;16:00:00;60;140023-0;140023-0;140023-0;140023-0;140023-0;140023-0;140023-0;140023-0;
09.04.14;Muya Mwansa;07:00:00;16:00:00;60;130867-0;130867-0;130867-0;130867-0;130867-0;130867-0;130867-0;130867-0;
09.04.14;Clinton Dewing;07:00:00;16:00:00;60;130867-0;130867-0;130867-0;130867-0;130867-0;130867-0;130867-0;130867-0;
09.04.14;FrancoisR Rossouw;07:00:00;16:00:00;60;130867-25;130867-25;130867-25;130867-25;130867-25;130867-25;130867-25;130867-25;
09.04.14;Ian Osolo;07:00:00;16:00:00;60;130867-9999;130867-9999;130867-9999;130867-9999;130867-9999;130867-9999;130867-9999;130867-9999;
10.04.14;Andre Esterhuyse;
10.04.14;Nico Claassen;07:00:00;16:00:00;60;130676-72;130676-72;130676-72;130676-72;140051-22;140051-22;140051-22;140051-22;
10.04.14;Thando Katywa;07:00:00;16:00:00;60;130867-0;130867-0;130867-0;130867-0;130867-0;130867-0;130867-0;130867-0;
10.04.14;Paul Helliwell;
10.04.14;Ntombenkosi Yokwana;
10.04.14;Mario Jansen van Vuuren;07:00:00;16:00:00;60;140252-0;140252-0;140252-0;140252-0;140252-0;140252-0;140252-0;140252-0;
10.04.14;Webster Ndlovu;07:00:00;16:00:00;60;100369-9145;100369-9145;100369-9145;120328-1007;120328-1007;120328-1007;120328-1007;120328-1007;
10.04.14;Ibrahim Arends;07:00:00;16:00:00;60;100369-9126;100369-9126;100369-9126;100369-9126 / 140162-20;140162-20;140162-20;140162-20;120714-1384;
10.04.14;Francois van Vuuren;07:00:00;16:00:00;60;100369-9120;100369-9120;100369-9120;100369-9120;100369-9120;100369-9120;100369-9120;130056-352;
10.04.14;Tafadzwa Mvindi;07:00:00;16:00:00;60;140023-0;140023-0;140023-0;140023-0;140023-0;140023-0;140023-0;140023-0;
10.04.14;Tashinga Chivasa;07:00:00;16:00:00;60;140023-0;140023-0;140023-0;140023-0;140023-0;140023-0;140023-0;140023-0;
10.04.14;Muya Mwansa;07:00:00;16:00:00;60;130867-0;130867-0;130867-0;130867-0;130867-0;130867-0;130867-0;130867-0;
10.04.14;Clinton Dewing;07:00:00;16:00:00;60;130867-0;130867-0;130867-0;130867-0;130867-0;130867-0;130867-0;130867-0;
10.04.14;FrancoisR Rossouw;07:00:00;16:00:00;60;140252-25;140252-25;140252-25;140252-25;140252-25;140252-25;140252-25;140252-25;
10.04.14;Ian Osolo;07:00:00;16:00:00;60;130867-9999;130867-9999;130867-9999;130867-9999;130867-9999;130867-9999;130867-9999;130867-9999;
11.04.14;Andre Esterhuyse;
11.04.14;Nico Claassen;07:00:00;16:00:00;60;140051-21;130676-72;130676-72;130676-72;140051-22;140051-22;140051-22;140051-22;
11.04.14;Thando Katywa;07:00:00;16:00:00;60;140051-1;140051-1 / 130867-0;130867-0;130867-0;130867-0;130867-0;130867-0;130867-0;
11.04.14;Paul Helliwell;
11.04.14;Ntombenkosi Yokwana;
11.04.14;Mario Jansen van Vuuren;07:00:00;16:00:00;60;Testing -0;Testing -0;Testing -0;Testing -0;Testing -0;Testing -0;Testing -0;Testing -0;
11.04.14;Webster Ndlovu;07:00:00;16:00:00;60;120328-120;120328-120;120328-120;120328-120;120328-120;120328-120;120328-120;140051-32;
11.04.14;Ibrahim Arends;07:00:00;16:00:00;60;140162-20;140162-20;140162-20;140162-20;140162-20;120714-1384;140051-34;140051-34;
11.04.14;Francois van Vuuren;07:00:00;16:00:00;60;140051-36;130056-352;130056-352;130056-352;130056-352;130056-352;130056-352;130056-352;
11.04.14;Tafadzwa Mvindi;07:00:00;16:00:00;60;120600-2570;120600-2570;120600-2570;120600-2570;120600-2570;120600-2579;120600-2579;120600-2579;
11.04.14;Tashinga Chivasa;07:00:00;16:00:00;60;140023-0;140023-0;140023-0;140023-0;140023-0;140023-0;140023-0;140023-0;
11.04.14;Muya Mwansa;07:00:00;16:00:00;60;130867-0;130867-0;130867-0;130867-0;130867-0;130867-0;130867-0;130867-0;
11.04.14;Clinton Dewing;07:00:00;16:00:00;60;130867-0;130867-0;130867-0;130867-0;130867-0;130867-0;130867-0 / 140051-5;140051-5;
11.04.14;FrancoisR Rossouw;07:00:00;16:00:00;60;140252-25;140252-25;140252-25;140252-25;140252-25;140252-25;140252-25;140051-6;
11.04.14;Ian Osolo;07:00:00;16:00:00;60;130867-9999;130867-9999;130867-9999;130867-9999;130867-9999;130867-9999;130867-9999;130867-9999;
12.04.14;Andre Esterhuyse;
12.04.14;Nico Claassen;
12.04.14;Thando Katywa;
12.04.14;Paul Helliwell;
12.04.14;Ntombenkosi Yokwana;
12.04.14;Mario Jansen van Vuuren;
12.04.14;Webster Ndlovu;
12.04.14;Ibrahim Arends;
12.04.14;Francois van Vuuren;
12.04.14;Tafadzwa Mvindi;
12.04.14;Tashinga Chivasa;
12.04.14;Muya Mwansa;
12.04.14;Clinton Dewing;
12.04.14;FrancoisR Rossouw;
12.04.14;Ian Osolo;
13.04.14;Andre Esterhuyse;
13.04.14;Nico Claassen;
13.04.14;Thando Katywa;
13.04.14;Paul Helliwell;
13.04.14;Ntombenkosi Yokwana;
13.04.14;Mario Jansen van Vuuren;
13.04.14;Webster Ndlovu;
13.04.14;Ibrahim Arends;
13.04.14;Francois van Vuuren;
13.04.14;Tafadzwa Mvindi;
13.04.14;Tashinga Chivasa;07:00:00;16:00:00;60;
13.04.14;Muya Mwansa;
13.04.14;Clinton Dewing;
13.04.14;FrancoisR Rossouw;
13.04.14;Ian Osolo;
14.04.14;Andre Esterhuyse;
14.04.14;Nico Claassen;07:00:00;16:00:00;60;130676-68;130676-68;130676-68;140051-22;140051-22;140051-22;140051-22;140051-22;
14.04.14;Thando Katywa;07:00:00;16:00:00;60;130867-0;130867-0;130867-0;130867-0;130867-0;130867-0;130867-0;130867-0;
14.04.14;Paul Helliwell;
14.04.14;Ntombenkosi Yokwana;
14.04.14;Mario Jansen van Vuuren;07:00:00;16:00:00;60;140252-0;140252-0;140252-0;140252-0;140252-0;140252-0;140252-0;140252-0;
14.04.14;Webster Ndlovu;07:00:00;16:00:00;60;120328-1007;120328-1007;120328-1007;120328-1007;120328-1007;120328-1007;120328-1007;120328-1007;
14.04.14;Ibrahim Arends;07:00:00;16:00:00;60;120527-599;140018-41;140018-41;120527-452;120527-452;120527-452;120527-452;120527-452;
14.04.14;Francois van Vuuren;07:00:00;16:00:00;60;130127-2786;130127-2786;130127-2786;130127-2786;130127-2786;130127-2786;130127-2786;130127-2786;
14.04.14;Tafadzwa Mvindi;07:00:00;16:00:00;60;120600-2587;120600-2587;120600-2587;120600-2587;120600-2587;120600-2587;120600-2587;120600-2587;
14.04.14;Tashinga Chivasa;07:00:00;16:00:00;60;120600-2571;120600-2571;120600-2571;120600-2571;120600-2571;120600-2571;120600-2571;120600-2571;
14.04.14;Muya Mwansa;07:00:00;16:00:00;60;130867-0;130867-0;130867-0;130867-0;130867-0;130867-0;130867-0;130867-0;
14.04.14;Clinton Dewing;07:00:00;16:00:00;60;130867-0;130867-0;130867-0;130867-0;130867-0;130867-0;130867-0;130867-0;
14.04.14;FrancoisR Rossouw;07:00:00;16:00:00;60;140252-25;140252-25;140252-25;140252-25;140252-25;140252-25;140252-25;140252-25;
14.04.14;Ian Osolo;
15.04.14;Andre Esterhuyse;
15.04.14;Nico Claassen;07:00:00;16:00:00;60;130676-68;130676-68;130676-68;140051-22;140051-22;140051-22;140051-22;140051-22;
15.04.14;Thando Katywa;07:00:00;16:00:00;60;140023-0;140023-0;130867-0;130867-0;130867-0;130867-0;130867-0;130867-0;
15.04.14;Paul Helliwell;
15.04.14;Ntombenkosi Yokwana;
15.04.14;Mario Jansen van Vuuren;07:00:00;16:00:00;60;140252-0;140252-0;140252-0;140252-0;140252-0;140252-0;140252-0;140252-0;
15.04.14;Webster Ndlovu;07:00:00;16:00:00;60;120328-1007;120328-1007;120328-1007;120328-1007;120328-1007;120328-1007;120328-1007;120328-1007;
15.04.14;Ibrahim Arends;07:00:00;16:00:00;60;140162-21;140162-21;140162-21;140162-21;120527-453;120527-453;120527-453;120527-453;
15.04.14;Francois van Vuuren;07:00:00;16:00:00;60;130127-2786;130127-2786;130127-2786;130127-2786;130127-2786;130127-2786;130127-2786;130127-2786;
15.04.14;Tafadzwa Mvindi;07:00:00;16:00:00;60;120600-2587;120600-2587;120600-2587;120600-2587;120600-2587;120600-2587;120600-2587;120600-2587;
15.04.14;Tashinga Chivasa;07:00:00;16:00:00;60;120600-2571;120600-2571;120600-2571;120600-2571;120600-2571;120600-2571;120600-2571;120600-2571;
15.04.14;Muya Mwansa;07:00:00;16:00:00;60;140023-1082;140023-1082;140023-1082;140023-1082;140023-1082;140023-1082;140023-1082;140023-1082;
15.04.14;Clinton Dewing;07:00:00;16:00:00;60;130867-0;130867-0;130867-0;130867-0;130867-0;130867-0;130867-0;130867-0;
15.04.14;FrancoisR Rossouw;07:00:00;16:00:00;60;140252-25;140252-25;140252-25;140252-25;140252-25;140252-25;140252-25;130867-0;
15.04.14;Ian Osolo;
16.04.14;Andre Esterhuyse;
16.04.14;Nico Claassen;07:00:00;16:00:00;60;140051-23 / 120600-2939;140051-21 / 130676-92;130676-92 / 140051-22;140051-22;140051-22;140051-22;140051-22;140051-22;
16.04.14;Thando Katywa;07:00:00;16:00:00;60;130867-0;130867-0;130867-0;130867-0;130867-0;130867-0;130867-0;130867-0;
16.04.14;Paul Helliwell;
16.04.14;Ntombenkosi Yokwana;
16.04.14;Mario Jansen van Vuuren;07:00:00;16:00:00;60;130867-0;130867-0;130867-0;130867-0;130867-0;130867-0;130867-0;140023-0;
16.04.14;Webster Ndlovu;07:00:00;16:00:00;60;130056-337;130056-337;130056-337;130056-337;130328-1007;130328-1007;130328-1007;130328-1007;
16.04.14;Ibrahim Arends;07:00:00;16:00:00;60;120527-453;120527-453;120527-453;120527-453;140051-35;140051-35;140051-35;140051-35;
16.04.14;Francois van Vuuren;07:00:00;16:00:00;60;100369-0;100369-0;100369-0;100369-0;100369-0;140051-37;140051-37;120714-1228;
16.04.14;Tafadzwa Mvindi;07:00:00;16:00:00;60;120600-2587;120600-2587;120600-2587;120600-2587;120600-2587;120600-2587;120600-2587 / 120600-2579;120600-2579 / 120600-2939;
16.04.14;Tashinga Chivasa;07:00:00;16:00:00;60;140162-25;140162-25;140162-25;140162-25;140162-25;140162-25;140162-25;140051-39;
16.04.14;Muya Mwansa;07:00:00;16:00:00;60;140023-1082;140023-1082;140023-1082;140023-1082;140023-1082;140023-1082;140023-1082;140023-1082;
16.04.14;Clinton Dewing;07:00:00;16:00:00;60;130867-0;130867-0;130867-0;130867-0;130867-0;130867-0;130867-0;130867-0;
16.04.14;FrancoisR Rossouw;07:00:00;16:00:00;60;130867-0;130867-0;130867-0;130867-0;130867-0;130867-0;140252-25;140252-25;
16.04.14;Ian Osolo;
17.04.14;Andre Esterhuyse;
17.04.14;Nico Claassen;07:00:00;16:00:00;60;140023-9999;140023-9999;140023-9999;140023-9999;140023-9999;140023-9999;140023-9999;140023-9999;
17.04.14;Thando Katywa;07:00:00;16:00:00;60;140023-0;140023-0;140023-0;140023-0;140023-0;140023-0;140023-0;140023-0;
17.04.14;Paul Helliwell;
17.04.14;Ntombenkosi Yokwana;
17.04.14;Mario Jansen van Vuuren;07:00:00;16:00:00;60;140023-0;140023-0;140023-0;140023-0;140023-0;140023-0;140023-0;140023-0;
17.04.14;Webster Ndlovu;07:00:00;16:00:00;60;140023-0;140023-0;140023-0;140023-0;140023-0;140023-0;140023-0;140023-0;
17.04.14;Ibrahim Arends;07:00:00;16:00:00;60;140162-21;140162-21;140162-21;140162-21;140162-21;140162-21;140051-35;140051-35;
17.04.14;Francois van Vuuren;07:00:00;16:00:00;60;100369-0;100369-0;100369-0;100369-0;100369-0;140051-36;140051-36;120714-1228;
17.04.14;Tafadzwa Mvindi;07:00:00;16:00:00;60;140023-0;140023-0;140023-0;140023-0;140023-0;140023-0;140023-0;140023-0;
17.04.14;Tashinga Chivasa;07:00:00;16:00:00;60;140023-0;140023-0;140023-0;140023-0;140023-0;140023-0;140023-0;140023-0;
17.04.14;Muya Mwansa;07:00:00;16:00:00;60;140023-1082;140023-1082;140023-1082;140023-1082;140023-1082;140023-1082;140023-1082;140023-1082;
17.04.14;Clinton Dewing;07:00:00;16:00:00;60;130867-0;130867-0;130867-0;130867-0;130867-0;130867-0;130867-0;130867-0;
17.04.14;FrancoisR Rossouw;07:00:00;16:00:00;60;140252-25;140252-25;140252-25;140252-25;140252-25;140252-25;140252-25;140252-25;
17.04.14;Ian Osolo;
18.04.14;Andre Esterhuyse;
18.04.14;Nico Claassen;07:00:00;16:00:00;60;140023-9999;140023-9999;140023-9999;140023-9999;140023-9999;140023-9999;140023-9999;140023-9999;
18.04.14;Thando Katywa;07:00:00;16:00:00;60;140023-0;140023-0;140023-0;140023-0;140023-0;140023-0;140023-0;140023-0;
18.04.14;Paul Helliwell;
18.04.14;Ntombenkosi Yokwana;
18.04.14;Mario Jansen van Vuuren;07:00:00;16:00:00;60;140023-0;140023-0;140023-0;140023-0;140023-0;140023-0;140023-0;140023-0;
18.04.14;Webster Ndlovu;07:00:00;16:00:00;60;140023-0;140023-0;140023-0;140023-0;140023-0;140023-0;140023-0;140023-0;
18.04.14;Ibrahim Arends;07:00:00;16:00:00;60;120527-497;120527-497;120527-497;120527-497;120527-497;120527-497;120527-497;120527-497;
18.04.14;Francois van Vuuren;07:00:00;16:00:00;60;140023-0;140023-0;140023-0;140023-0;140023-0;140023-0;140023-0;140023-0;
18.04.14;Tafadzwa Mvindi;07:00:00;16:00:00;60;140023-0;140023-0;140023-0;140023-0;140023-0;140023-0;140023-0;140023-0;
18.04.14;Tashinga Chivasa;07:00:00;16:00:00;60;140023-0;140023-0;140023-0;140023-0;140023-0;140023-0;140023-0;140023-0;
18.04.14;Muya Mwansa;07:00:00;16:00:00;60;140023-0;140023-0;140023-0;140023-0;140023-0;140023-0;140023-0;140023-0;
18.04.14;Clinton Dewing;07:00:00;16:00:00;60;140023-0;140023-0;140023-0;140023-0;140023-0;140023-0;140023-0;140023-0;
18.04.14;FrancoisR Rossouw;07:00:00;16:00:00;60;140023-0;140023-0;140023-0;140023-0;140023-0;140023-0;140023-0;140023-0;
18.04.14;Ian Osolo;07:00:00;16:00:00;60;140023-0;140023-0;140023-0;140023-0;140023-0;140023-0;140023-0;140023-0;
19.04.14;Andre Esterhuyse;
19.04.14;Nico Claassen;
19.04.14;Thando Katywa;
19.04.14;Paul Helliwell;
19.04.14;Ntombenkosi Yokwana;
19.04.14;Mario Jansen van Vuuren;
19.04.14;Webster Ndlovu;
19.04.14;Ibrahim Arends;
19.04.14;Francois van Vuuren;
19.04.14;Tafadzwa Mvindi;
19.04.14;Tashinga Chivasa;
19.04.14;Muya Mwansa;
19.04.14;Clinton Dewing;
19.04.14;FrancoisR Rossouw;
19.04.14;Ian Osolo;
20.04.14;Andre Esterhuyse;
20.04.14;Nico Claassen;
20.04.14;Thando Katywa;
20.04.14;Paul Helliwell;
20.04.14;Ntombenkosi Yokwana;
20.04.14;Mario Jansen van Vuuren;
20.04.14;Webster Ndlovu;
20.04.14;Ibrahim Arends;
20.04.14;Francois van Vuuren;
20.04.14;Tafadzwa Mvindi;
20.04.14;Tashinga Chivasa;
20.04.14;Muya Mwansa;
20.04.14;Clinton Dewing;
20.04.14;FrancoisR Rossouw;
20.04.14;Ian Osolo;
21.04.14;Andre Esterhuyse;
21.04.14;Nico Claassen;07:00:00;16:00:00;60;140023-0;140023-0;140023-0;140023-0;140023-0;140023-0;140023-0;140023-0;
21.04.14;Thando Katywa;07:00:00;16:00:00;60;140023-0;140023-0;140023-0;140023-0;140023-0;140023-0;140023-0;140023-0;
21.04.14;Paul Helliwell;
21.04.14;Ntombenkosi Yokwana;
21.04.14;Mario Jansen van Vuuren;07:00:00;16:00:00;60;140023-0;140023-0;140023-0;140023-0;140023-0;140023-0;140023-0;140023-0;
21.04.14;Webster Ndlovu;07:00:00;16:00:00;60;140023-0;140023-0;140023-0;140023-0;140023-0;140023-0;140023-0;140023-0;
21.04.14;Ibrahim Arends;07:00:00;16:00:00;60;120527-0;120527-0;120527-0;120527-0;120527-0;120527-0;120527-0;120527-0;
21.04.14;Francois van Vuuren;07:00:00;16:00:00;60;
21.04.14;Tafadzwa Mvindi;07:00:00;16:00:00;60;140023-0;140023-0;140023-0;140023-0;140023-0;140023-0;140023-0;140023-0;
21.04.14;Tashinga Chivasa;07:00:00;16:00:00;60;140023-0;140023-0;140023-0;140023-0;140023-0;140023-0;140023-0;140023-0;
21.04.14;Muya Mwansa;07:00:00;16:00:00;60;140023-0;140023-0;140023-0;140023-0;140023-0;140023-0;140023-0;140023-0;
21.04.14;Clinton Dewing;07:00:00;16:00:00;60;140023-0;140023-0;140023-0;140023-0;140023-0;140023-0;140023-0;140023-0;
21.04.14;FrancoisR Rossouw;07:00:00;16:00:00;60;140023-0;140023-0;140023-0;140023-0;140023-0;140023-0;140023-0;140023-0;
21.04.14;Ian Osolo;
22.04.14;Andre Esterhuyse;
22.04.14;Nico Claassen;07:00:00;16:00:00;60;140051-23;140051-23;140051-22;140051-22;140051-22;140051-22;140051-22;140051-22;
22.04.14;Thando Katywa;07:00:00;16:00:00;60;140111-0;140111-0;140111-0;140111-0;140111-0;140111-0;140111-0;140111-0;
22.04.14;Paul Helliwell;
22.04.14;Ntombenkosi Yokwana;
22.04.14;Mario Jansen van Vuuren;07:00:00;16:00:00;60;140111-0;140111-0;140111-0;140111-0;140111-0;140111-0;140111-0;140111-0;
22.04.14;Webster Ndlovu;07:00:00;16:00:00;60;130056-0;130056-0;130056-0;130056-0;130056-0;130056-0;130056-0;130056-0;
22.04.14;Ibrahim Arends;07:00:00;16:00:00;60;120527-0;120527-0;120527-0;120527-0;120527-0;120527-0;120527-0;120527-0;
22.04.14;Francois van Vuuren;07:00:00;16:00:00;60;130127-2786;130127-2786;130127-2786;130127-2786;130127-2786;130127-2786;130127-2786;130127-2786;
22.04.14;Tafadzwa Mvindi;07:00:00;16:00:00;60;120600-2587;120600-2587;120600-2587;120600-2587;120600-2587;120600-2570;120600-2570;120600-2570;
22.04.14;Tashinga Chivasa;07:00:00;16:00:00;60;140162-25;140162-25;140162-25;140162-25;140162-25;140162-25;140162-25;140162-25;
22.04.14;Muya Mwansa;07:00:00;16:00:00;60;140023-1107;140023-1107;140023-1107;140023-1107;140023-1107;140023-1107;140023-1107;140023-1107;
22.04.14;Clinton Dewing;07:00:00;16:00:00;60;130753-0;130753-0;130753-0;130753-0;130753-0;130753-0;130753-0;130753-0;
22.04.14;FrancoisR Rossouw;07:00:00;16:00:00;60;140111-0;140111-0;140111-0;140111-0;140111-0;140111-0;140111-0;140111-0;
22.04.14;Ian Osolo;
23.04.14;Andre Esterhuyse;
23.04.14;Nico Claassen;07:00:00;16:00:00;60;130676-71;130676-71;130676-71;140051-21;140051-21;140051-21;140051-22;140051-22;
23.04.14;Thando Katywa;07:00:00;16:00:00;60;140111-0;140111-0;140111-0;140111-0;140111-0;140111-0;140111-0;140111-0;
23.04.14;Paul Helliwell;
23.04.14;Ntombenkosi Yokwana;
23.04.14;Mario Jansen van Vuuren;07:00:00;16:00:00;60;140111-0;140111-0;140111-0;140111-0;140111-0;140111-0;140111-0;140111-0;
23.04.14;Webster Ndlovu;07:00:00;16:00:00;60;130056-0;130056-0;130056-0;130056-0;130056-0;130056-0;130056-0;130056-0;
23.04.14;Ibrahim Arends;07:00:00;16:00:00;60;120527-0;120527-0;120527-0;120527-0;120527-0;120527-0;120527-0;120527-0;
23.04.14;Francois van Vuuren;07:00:00;16:00:00;60;130127-2786;130127-2786;130127-2786;130127-2786;130127-2786;130127-2786;130127-2786;130127-2786;
23.04.14;Tafadzwa Mvindi;07:00:00;16:00:00;60;120600-2587;120600-2587;120600-2587;120600-2587;120600-2587;120600-2939;120600-2939;120600-2939;
23.04.14;Tashinga Chivasa;07:00:00;16:00:00;60;120600-2560;120600-2560;120600-2560;120600-2560;120600-2571;120600-2571;120600-2571;120600-2571;
23.04.14;Muya Mwansa;07:00:00;16:00:00;60;140111-0;140111-0;140111-0;140111-0;140111-0;140111-0;140111-0;140111-0;
23.04.14;Clinton Dewing;07:00:00;16:00:00;60;130753-0;130753-0;130753-0;130753-0;130753-0;130753-0;130753-0;130753-0;
23.04.14;FrancoisR Rossouw;07:00:00;16:00:00;60;140111-0;140111-0;140111-0;140111-0;140111-0;140111-0;140111-0;140111-0;
23.04.14;Ian Osolo;
24.04.14;Andre Esterhuyse;
24.04.14;Nico Claassen;07:00:00;16:00:00;60;130676-71;130676-71;130676-71;130676-71;140051-22;140051-22;140051-22;140051-22;
24.04.14;Thando Katywa;07:00:00;16:00:00;60;140111-0;140111-0;140111-0;140111-0;140111-0;140111-0;140111-0;140111-0;
24.04.14;Paul Helliwell;
24.04.14;Ntombenkosi Yokwana;
24.04.14;Mario Jansen van Vuuren;07:00:00;16:00:00;60;140111-0;140111-0;140111-0;140111-0;140111-0;140111-0;140111-0;140111-0;
24.04.14;Webster Ndlovu;07:00:00;16:00:00;60;130056-0;130056-0;130056-0;130056-0;130056-0;130056-0;130056-0;130056-0;
24.04.14;Ibrahim Arends;07:00:00;16:00:00;60;120527-0;120527-0;120527-0;120527-0;120527-0;120527-0;120527-0;120527-0;
24.04.14;Francois van Vuuren;07:00:00;16:00:00;60;100369-9153;100369-9153;100369-9153;100369-9153;100369-9153 / 130127-2786;130127-2786;130127-2786;130127-2786;
24.04.14;Tafadzwa Mvindi;07:00:00;16:00:00;60;120600-2587;120600-2587;120600-2587;120600-2587;120600-2587;120600-2587;120600-2587;140051-41;
24.04.14;Tashinga Chivasa;07:00:00;16:00:00;60;120600-2571;120600-2571;120600-2571;120600-2571;120600-2571;120600-2571;120600-2571;120600-2571;
24.04.14;Muya Mwansa;07:00:00;16:00:00;60;140111-0;140111-0;140111-0;140111-0;140111-0;140111-0;140111-0;140111-0;
24.04.14;Clinton Dewing;07:00:00;16:00:00;60;130867-0;130867-0;130867-0;130867-0;130867-0;130867-0;130867-0;130867-0;
24.04.14;FrancoisR Rossouw;07:00:00;16:00:00;60;140111-0;140111-0;140111-0;140111-0;140111-0;140111-0;140111-0;140111-0;
24.04.14;Ian Osolo;
25.04.14;Andre Esterhuyse;
25.04.14;Nico Claassen;07:00:00;16:00:00;60;140051-23;140051-23;140051-23;140051-22;140051-22;140051-22;140051-22;140051-21;
25.04.14;Thando Katywa;07:00:00;16:00:00;60;140051-1;140051-1 / 140111-0;140111-0;140111-0;140111-0;140111-0;140111-0;140111-0;
25.04.14;Paul Helliwell;
25.04.14;Ntombenkosi Yokwana;
25.04.14;Mario Jansen van Vuuren;07:00:00;16:00:00;60;140111-0;140111-0;140111-0;140111-0;140111-0;140111-0;140111-0 / 140051-2;140051-2;
25.04.14;Webster Ndlovu;07:00:00;16:00:00;60;130056-0;130056-0;130056-0;120759-354;120759-354;120759-354;120759-354;120759-354;
25.04.14;Ibrahim Arends;07:00:00;16:00:00;60;120527-599;120527-599;120527-599;120527-599;120527-599;120527-599;120527-599;120527-599;
25.04.14;Francois van Vuuren;07:00:00;16:00:00;60;140023-0;140023-0;140023-0;140023-0;130127-2786;130127-2786;130127-2786;140051-36;
25.04.14;Tafadzwa Mvindi;07:00:00;16:00:00;60;120600-2587;120600-2587;120600-2587;120600-2587;120600-2587;120600-2587;120600-2587;120600-2587;
25.04.14;Tashinga Chivasa;07:00:00;16:00:00;60;140162-20;140162-20;140162-20;140162-20;120600-2560;120600-2560;120600-2560;120600-2560;
25.04.14;Muya Mwansa;07:00:00;16:00:00;60;140111-0;140111-0;140111-0;140111-0;140111-0;140111-0;140111-0 / 140051-4;140051-4;
25.04.14;Clinton Dewing;07:00:00;16:00:00;60;140051-5;140051-5 / 130867-0;130867-0;130867-0;130867-0;130867-0;130867-0;130867-0;
25.04.14;FrancoisR Rossouw;07:00:00;16:00:00;60;140111-0;140111-0;140111-0;140111-0;140111-0;140111-0;140111-0;140051-6;
25.04.14;Ian Osolo;
26.04.14;Andre Esterhuyse;
26.04.14;Nico Claassen;
26.04.14;Thando Katywa;
26.04.14;Paul Helliwell;
26.04.14;Ntombenkosi Yokwana;
26.04.14;Mario Jansen van Vuuren;
26.04.14;Webster Ndlovu;
26.04.14;Ibrahim Arends;07:00:00;14:00:00;60;120527-599;120527-599;120527-599;120527-599;120527-599;120527-599;
26.04.14;Francois van Vuuren;
26.04.14;Tafadzwa Mvindi;
26.04.14;Tashinga Chivasa;
26.04.14;Muya Mwansa;
26.04.14;Clinton Dewing;
26.04.14;FrancoisR Rossouw;
26.04.14;Ian Osolo;
27.04.14;Andre Esterhuyse;
27.04.14;Nico Claassen;
27.04.14;Thando Katywa;
27.04.14;Paul Helliwell;
27.04.14;Ntombenkosi Yokwana;
27.04.14;Mario Jansen van Vuuren;
27.04.14;Webster Ndlovu;
27.04.14;Ibrahim Arends;
27.04.14;Francois van Vuuren;
27.04.14;Tafadzwa Mvindi;
27.04.14;Tashinga Chivasa;
27.04.14;Muya Mwansa;
27.04.14;Clinton Dewing;
27.04.14;FrancoisR Rossouw;
27.04.14;Ian Osolo;
28.04.14;Andre Esterhuyse;
28.04.14;Nico Claassen;07:00:00;16:00:00;60;140023-499;140023-499;140023-499;140023-499;140023-499;140023-499;140023-499;140023-499;
28.04.14;Thando Katywa;07:00:00;16:00:00;60;140023-494;140023-494;140023-494;140023-494;140023-494;140023-494;140023-494;140023-494;
28.04.14;Paul Helliwell;
28.04.14;Ntombenkosi Yokwana;
28.04.14;Mario Jansen van Vuuren;07:00:00;16:00:00;60;140023-495;140023-495;140023-495;140023-495;140023-495;140023-495;140023-495;140023-495;
28.04.14;Webster Ndlovu;07:00:00;16:00:00;60;140023-0;140023-0;140023-0;140023-0;140023-0;140023-0;140023-0;140023-0;
28.04.14;Ibrahim Arends;07:00:00;16:00:00;60;120527-0;120527-0;120527-0;120527-0;120527-0;120527-0;120527-0;120527-0;
28.04.14;Francois van Vuuren;07:00:00;16:00:00;60;140023-504;140023-504;140023-504;140023-504;140023-504;140023-504;140023-504;140023-504;
28.04.14;Tafadzwa Mvindi;07:00:00;16:00:00;60;140023-505;140023-505;140023-505;140023-505;140023-505;140023-505;140023-505;140023-505;
28.04.14;Tashinga Chivasa;07:00:00;16:00:00;60;140023-506;140023-506;140023-506;140023-506;140023-506;140023-506;140023-506;140023-506;
28.04.14;Muya Mwansa;07:00:00;16:00:00;60;140023-496;140023-496;140023-496;140023-496;140023-496;140023-496;140023-496;140023-496;
28.04.14;Clinton Dewing;07:00:00;16:00:00;60;140023-497;140023-497;140023-497;140023-497;140023-497;140023-497;140023-497;140023-497;
28.04.14;FrancoisR Rossouw;07:00:00;16:00:00;60;140023-498;140023-498;140023-498;140023-498;140023-498;140023-498;140023-498;140023-498;
28.04.14;Ian Osolo;
29.04.14;Andre Esterhuyse;
29.04.14;Nico Claassen;07:00:00;16:00:00;60;130676-142;130676-142;130676-142;130676-142;140051-23;140051-23;140051-22;140051-22;
29.04.14;Thando Katywa;07:00:00;16:00:00;60;140111-0;140111-0;140111-0;140111-0;140111-0;140111-0;140111-0;140111-0;
29.04.14;Paul Helliwell;
29.04.14;Ntombenkosi Yokwana;
29.04.14;Mario Jansen van Vuuren;07:00:00;16:00:00;60;140023-1202;140023-1202;140023-1202;140023-1202;140023-1202;140023-1202;140023-1202;140023-1202;
29.04.14;Webster Ndlovu;07:00:00;16:00:00;60;130056-0;130056-0;130056-0;130056-0;130056-0;130056-0;130056-0;130056-0;
29.04.14;Ibrahim Arends;07:00:00;16:00:00;60;120527-0;120527-0;120527-0;120527-0;120527-0;120527-0;120527-0;120527-0;
29.04.14;Francois van Vuuren;07:00:00;16:00:00;60;140023-493;140023-493;140023-493;140023-493;140023-493;140023-493;140023-493;140023-493;
29.04.14;Tafadzwa Mvindi;07:00:00;16:00:00;60;120600-2587;120600-2587;120600-2587;120600-2587;120600-2587;120600-2587;120600-2587;120600-2587;
29.04.14;Tashinga Chivasa;07:00:00;16:00:00;60;120600-2577;120600-2577;120600-2577;120600-2577;120600-2577;120600-2577;120600-2577;120600-2577;
29.04.14;Muya Mwansa;07:00:00;16:00:00;60;140111-10;140111-10;140111-10;140111-10;140111-10;140111-10;140111-10;140111-10;
29.04.14;Clinton Dewing;07:00:00;16:00:00;60;140023-0;140023-0;140023-0;140023-0;140023-0;140023-0;140023-0;140023-0;
29.04.14;FrancoisR Rossouw;07:00:00;16:00:00;60;140111-11;140111-11;140111-11;140111-11;140111-11;140111-11;140111-11;140111-11;
29.04.14;Ian Osolo;
30.04.14;Andre Esterhuyse;
30.04.14;Nico Claassen;07:00:00;16:00:00;60;140051-21 / 130676-92;130676-92;130676-92 / 130056-381;130056-381;140051-22;140051-22;140051-22;140051-22;
30.04.14;Thando Katywa;07:00:00;16:00:00;60;140111-0;140111-0;140111-0;140111-0;140111-0;140111-0;140111-0;140111-0;
30.04.14;Paul Helliwell;
30.04.14;Ntombenkosi Yokwana;
30.04.14;Mario Jansen van Vuuren;07:00:00;16:00:00;60;140023-1202;140023-1202;140023-1202;140023-1202;140023-1202;140023-1202;140023-1202;140023-1202;
30.04.14;Webster Ndlovu;07:00:00;16:00:00;60;130056-0;130056-0;130056-0;130056-0;130056-0;130056-0;130056-0;130056-0;
30.04.14;Ibrahim Arends;07:00:00;16:00:00;60;120527-0;120527-0;120527-0;120527-0;120527-0;120527-0;140023-0;140023-0;
30.04.14;Francois van Vuuren;07:00:00;16:00:00;60;140023-493;140023-493;140023-493;140023-493;140023-493;140023-493;140023-493;140023-493;
30.04.14;Tafadzwa Mvindi;07:00:00;16:00:00;60;130676-73;130676-73;130676-73;130676-73;130676-73;130676-71;130676-71;130676-71;
30.04.14;Tashinga Chivasa;07:00:00;16:00:00;60;120600-2577;120600-2577;120600-2577;120600-2577;120600-2577;120600-2577;120600-2577;120600-2577;
30.04.14;Muya Mwansa;07:00:00;16:00:00;60;140111-10;140111-10;140111-10;140111-10;140111-10;140111-10;140111-10;140111-10;
30.04.14;Clinton Dewing;07:00:00;16:00:00;60;140023-0;140023-0;140023-0;140023-0;140023-0;140023-0;140023-0;140023-0;
30.04.14;FrancoisR Rossouw;07:00:00;16:00:00;60;140111-11;140111-11;140111-11;140111-11;140111-11;140111-11;140111-11;140111-11;
30.04.14;Ian Osolo;