"22.09.14","1","140501","0","102","Spez: LH/PH/Design","","0","9999: Creating work breakdown structure for 14.8.0/14.8.0DiPAS features. Creating WBS for Datensatz download and APuCOnDemand","07:00","16:00","8","60",
"23.09.14","2","140501","0","102","Spez: LH/PH/Design","","0","9999: Creating work breakdown structure for 14.8.0/14.8.0DiPAS features. Creating WBS for Datensatz download and APuCOnDemand","07:00","16:00","8","60",
"24.09.14","3","140023","0","910","Urlaub","","0","Holiday. Time off","07:00","16:00","8","60",
"25.09.14","4","140111","149","181","Fehlerbes. vor Ausl. (Bugzilla)","","0","20-9340: PIDT 14.4_DiPAS: Bugfixing nach CF. Worked on bug 52990","07:00","16:00","7","60",
"25.09.14","4","140023","0","910","Urlaub","","0","Holiday. Time off","","","1","0",
"26.09.14","5","140051","2","101","PM/Mod/Meetings","","0","S4/DSA overall tasks 2014. Meetings and admin","07:00","16:00","1,5","60",
"26.09.14","5","140501","0","110","Engineering","","0","Getting into subject for Daten. 11-1007: PIDT 14.8: CR430my1-180_Datensatzdownload2: Implementierung","","","5,5","0",
"26.09.14","5","140023","0","910","Urlaub","","0","Holiday. Time off","","","1","0",
