"31.03.14","1","140051","22","101","PM/Mod/Meetings","","0","General project management / Teamsupport AES 2014. General organization / support","07:00","16:00","8","60",
"01.04.14","2","130676","75","102","Spez: LH/PH/Design","","0","50-1010: Demo Datenhandling SAP Kopplung Pflichtenheft. Started with demonstration CTS","07:00","16:00","1","60",
"01.04.14","2","130056","381","101","PM/Mod/Meetings","","0","8501: ASCS II: TPL, Mod. A1.2/ae11. Review of work done in ASCSII Harmonization","","","3","0",
"01.04.14","2","140051","22","101","PM/Mod/Meetings","","0","General project management / Teamsupport AES 2014. General organization / support","","","4","0",
"02.04.14","3","120714","853","182","Fehlerbes. nach Ausl. (Bugzilla)","","0","P.Authoring problem analysis. PRODIS.Automation Statistics issues","07:00","16:00","6","60",
"02.04.14","3","140051","22","101","PM/Mod/Meetings","","0","General project management / Teamsupport AES 2014. General organization / support","","","2","0",
"03.04.14","4","130676","88","130","Installation + Konfiguration","","0","50-9360: Release 50: Setup erstellen. Release preparation","07:00","16:00","3","60",
"03.04.14","4","130676","89","160","Dokumentation","","0","50-9360: Release 50: Releasenotes / TB erstellen. Creating release documentation","","","3","0",
"03.04.14","4","130056","313","101","PM/Mod/Meetings","","0","8501: ASCSII: Releasemanagement A2.4/ae20. Creating release documentation","","","2","0",
"04.04.14","5","130056","313","101","PM/Mod/Meetings","","0","8501: ASCSII: Releasemanagement A2.4/ae20. Release meeting","07:00","16:00","0,5","60",
"04.04.14","5","130676","89","101","PM/Mod/Meetings","","0","50-9360: Release 50: Releasenotes / TB erstellen. Release meeting: Nabenpruefstand","","","0,5","0",
"04.04.14","5","130056","313","101","PM/Mod/Meetings","","0","50-9360: Release 50: Releasenotes / TB erstellen. Release meeting: Flashing","","","0,5","0",
"04.04.14","5","130676","68","102","Spez: LH/PH/Design","","0","50-1010: Demo Datenhandling SAP Kopplung Pflichtenheft. Demo CTS for SAP data handling","","","3","0",
"04.04.14","5","140051","21","101","PM/Mod/Meetings","","0","Management AES 2014. Timesheets + Meetings","","","1,5","0",
"04.04.14","5","140051","22","101","PM/Mod/Meetings","","0","General project management / Teamsupport AES 2014. General organization / support","","","2","0",
