"05.05.14","1","140051","30","101","PM/Mod/Meetings","","0","Weekly tasks AES 2014. General admin, emails","07:00","16:00","7","60",
"05.05.14","1","140051","31","170","Schulung","","0","Training 2014. Training with s41 on admin","","","1","0",
"06.05.14","2","120328","1007","120","Codierung","","100","A0_1033: Flash Job. (from s64) bug 50812","07:00","16:00","8","60",
"07.05.14","3","140023","1033","910","Urlaub","","100","Public Holiday 07.05.2014. Public holiday","07:00","16:00","8","60",
"08.05.14","4","130604","76","120","Codierung","","0","20-1001: Anfassung ODX-Daten. (from df)20-1001: Anfassung ODX-Daten","07:00","16:00","3","60",
"08.05.14","4","130056","390","120","Codierung","","0","15-1113: ASCS II: AP17: GUI Update Expert Flashing F14.1/ae20. (from s64) 15-1113: ASCS II: AP17: GUI Update Expert Flashing F14.1/ae20","","","5","0",
"09.05.14","5","140051","30","101","PM/Mod/Meetings","","0","Weekly tasks AES 2014. Meetings and updating timesheets","07:00","16:00","1,5","60",
"09.05.14","5","130604","16","120","Codierung","","0","20-1001: Anfassung ODX-Daten. (from df)20-1001: Anfassung ODX-Daten","","","1,5","0",
"09.05.14","5","130056","390","120","Codierung","","0","15-1113: ASCS II: AP17: GUI Update Expert Flashing F14.1/ae20. (from s64) 15-1113: ASCS II: AP17: GUI Update Expert Flashing F14.1/ae20","","","3","0",
"09.05.14","5","120328","1106","120","Codierung","","0","A0_1033: Implement Security Acces Job. (from s64) bug 50812","","","2","0",
