"28.07.14","1","140023","0","910","Urlaub","","0","Time - Off. Time Off","07:00","16:00","4","60",
"28.07.14","1","100369","9151","182","Fehlerbes. nach Ausl. (Bugzilla)","","100","8080: P3 #50525 (major) Parameter schreiben Funktioniert nicht.,MAN Sequences. closing","","","0","0",
"28.07.14","1","130056","421","120","Codierung","","0","15-1112: ASCS II: AP16: Generic ODX: Measurements (Available/Selection Dialog). Correct error handling and test with all ASCS ECUs, tested with Fisker ODX, Investigate error Nissan","","","4","0",
"29.07.14","2","130056","374","120","Codierung","","0","15-1112: ASCS II: AP16: Generic ODX: DTCs/with Env-Data. fill config xml adn test for all ascs protocols. changed environmental data display to more generic ","07:00","16:00","6","60",
"29.07.14","2","130769","0","140","Test","","0","Securrity Access Jobs . Nissan ODX security access jobs test and note errors","","","2","0",
"30.07.14","3","100369","9173","182","Fehlerbes. nach Ausl. (Bugzilla)","","100","8080: Bugfixing. closing task","07:00","16:00","0","60",
"30.07.14","3","140051","33","170","Schulung","","0","Training 2014. Helping  colleague with VW ecu work in MAN authoring actuators","","","4","0",
"30.07.14","3","120759","154","182","Fehlerbes. nach Ausl. (Bugzilla)","","100","24-9360: Flashabläufe-T2: Bugfixing (Puffer). Closing Task","","","0","0",
"30.07.14","3","130769","0","120","Codierung","","0","generic sequences SEATTD166, SeatD166,DFMR166,OXX security. Testing on DCT ECU","","","4","0",
"31.07.14","4","140023","0","910","Urlaub","","0","Time - Off. Time Off","07:00","16:00","4","60",
"31.07.14","4","140051","33","170","Schulung","","0","Training 2014. Helping  colleague with VW ecu work in MAN authoring actuators","","","4","0",
"01.08.14","5","140051","32","101","PM/Mod/Meetings","","0","Weekly tasks AES 2014. meatings and timesheets","07:00","16:00","1,5","60",
"01.08.14","5","140051","33","170","Schulung","","0","Training 2014. new Synthetic CPids concept","","","6,5","0",
