"13.01.14","1","130056","355","120","Codierung","","0","1108: ASCS II: AP7a: new app.: Flashing Advanced / ext. config. F7.4/ae12. 1108: ASCS II: AP7a: new app.: Flashing Advanced / ext. config. F7.4/ae12","07:00","16:00","8","60",
"14.01.14","2","120759","174","120","Codierung","","0","23-1610: UDS/ISOBUS Flashjob ODX 2.2.0 Handling ergänzen. 23-1610: UDS/ISOBUS Flashjob ODX 2.2.0 Handling ergänzen","07:00","16:00","4","60",
"14.01.14","2","120759","176","120","Codierung","","0","23-1610: UDS/ISOBUS Flashjob Latebound Handling. 23-1610: UDS/ISOBUS Flashjob Latebound Handling","","","4","0",
"15.01.14","3","120759","176","120","Codierung","","0","23-1610: UDS/ISOBUS Flashjob Latebound Handling. 23-1610: UDS/ISOBUS Flashjob Latebound Handling","07:00","16:00","8","60",
"16.01.14","4","120759","175","120","Codierung","","0","23-1610: UDS/ISOBUS Flashjob Abbruchmöglichkeit ergänzen	. 23-1610: UDS/ISOBUS Flashjob Abbruchmöglichkeit ergänzen	","07:00","16:00","8","60",
"17.01.14","5","120759","175","120","Codierung","","0","23-1610: UDS/ISOBUS Flashjob Abbruchmöglichkeit ergänzen	. 23-1610: UDS/ISOBUS Flashjob Abbruchmöglichkeit ergänzen	","07:00","16:00","7","60",
"17.01.14","5","140051","36","101","PM/Mod/Meetings","","0","Weekly tasks AES 2014. Meetings and Time Sheets","","","1","0",
"17.01.14","5","100369","9012","182","Fehlerbes. nach Ausl. (Bugzilla)","","100","P3 #45601 (normal) Identifications/Fault memory not displaying correctly with Teradyne VCI, DSA Ablä. P3 #45601 (normal) Identifications/Fault memory not displaying correctly with Teradyne VCI, DSA Ablä","","","0","0",
"17.01.14","5","100369","9013","182","Fehlerbes. nach Ausl. (Bugzilla)","","100","P3 #46908 (enhancement) OBD - Anzeige der VIN notwendig, DSA Abläufe: OBD Tester. P3 #46908 (enhancement) OBD - Anzeige der VIN notwendig, DSA Abläufe: OBD Tester","","","0","0",
