"09.06.14","1","130676","149","140","Test","","100","51-1010: Demo Flashablauferweiterung Rückmeldedaten: Integrationstest. 51-1010: Demo Flashablauferweiterung Rückmeldedaten: Integrationstest","07:00","16:00","0,8","60",
"09.06.14","1","130676","150","181","Fehlerbes. vor Ausl. (Bugzilla)","","100","51-1010: Demo Flashablauferweiterung Rückmeldedaten: Bugfixing zum Integrationstest. 51-1010: Demo Flashablau0ferweiterung Rückmeldedaten: Bugfixing zum Integrationstest","","","3,2","0",
"09.06.14","1","130676","159","140","Test","","100","51-1030: Demoablauf Konfiguration schreiben: Integrationstest. 51-1030: Demoablauf Konfiguration schreiben: Integrationstest","","","0,8","0",
"09.06.14","1","130676","160","181","Fehlerbes. vor Ausl. (Bugzilla)","","100","51-1030: Demoablauf Konfiguration schreiben: Bugfixing zum Integrationstest. 51-1030: Demoablauf Konfiguration schreiben: Bugfixing zum Integrationstest","","","3,2","0",
"10.06.14","2","130676","87","181","Fehlerbes. vor Ausl. (Bugzilla)","","0","from s69: 50-1020: Bugfixing zu Integrationstest. Bugfixing/testing Krone sequences","07:00","16:00","6","60",
"10.06.14","2","140051","37","170","Schulung","","0","Training 2014. Assisitng fellow team members","","","2","0",
"11.06.14","3","130676","87","181","Fehlerbes. vor Ausl. (Bugzilla)","","0","From s69 50-1020: Bugfixing zu Integrationstest. Bugfixing/testing Krone sequences","07:00","16:00","6","60",
"11.06.14","3","140051","37","170","Schulung","","0","Training 2014. Assisitng fellow team members","","","2","0",
"12.06.14","4","130676","87","181","Fehlerbes. vor Ausl. (Bugzilla)","","0","From s69: 50-1020: Bugfixing zu Integrationstest. Bugfixing/testing Krone sequences","07:00","16:00","6","60",
"12.06.14","4","140051","37","170","Schulung","","0","Training 2014. Training 2014","","","2","0",
"13.06.14","5","130676","68","102","Spez: LH/PH/Design","","0","From S41 50-1010: Demo Datenhandling SAP Kopplung Pflichtenheft. Creating Deo ticket CTS in krone repo cannot import fails","07:00","16:00","5","60",
"13.06.14","5","140051","37","170","Schulung","","0","Training 2014. Assisitng fellow team members","","","2","0",
"13.06.14","5","140051","36","101","PM/Mod/Meetings","","0"," Weekly tasks AES 2014. Meetings and Time Sheets","","","1","0",
