"16.06.14","1","140111","101","120","Codierung","","0","20-1016: PIDT 14.4_DiPAS: DoIP-Applikation: Implementierung. Worked on moving all files to folder structure and created SVN location","07:00","16:00","6,5","60",
"16.06.14","1","140051","8","170","Schulung","","0","S4/DSA Training 2014. SVN and Jenkins training","","","1,5","0",
"17.06.14","2","140111","101","120","Codierung","","0","20-1016: PIDT 14.4_DiPAS: DoIP-Applikation: Implementierung. Worked on ErrorHandler, Bat file, PIDT start command","07:00","16:00","8","60",
"18.06.14","3","140501","0","110","Engineering","","100","UI-requests AGU. Investigated current platform capabilities with regards to PAG requests","07:00","16:00","8","60",
"19.06.14","4","140023","0","910","Urlaub","","0","Holiday. Time off","07:00","16:00","8","60",
"20.06.14","5","140023","0","910","Urlaub","","0","Holiday. Time off","07:00","16:00","8","60",
