"29.09.14","1","140111","92","120","Codierung","","0","20-1013: PIDT 14.4_DiPAS: CR348my7-269_LoggingStruktur: Implementierung. 20-1013: PIDT 14.4_DiPAS: CR348my7-269_LoggingStruktur: Implementierung","07:00","16:00","8","60",
"30.09.14","2","140111","92","120","Codierung","","0","20-1013: PIDT 14.4_DiPAS: CR348my7-269_LoggingStruktur: Implementierung. 20-1013: PIDT 14.4_DiPAS: CR348my7-269_LoggingStruktur: Implementierung","07:00","16:00","8","60",
"01.10.14","3","140111","92","120","Codierung","","0","20-1013: PIDT 14.4_DiPAS: CR348my7-269_LoggingStruktur: Implementierung. 20-1013: PIDT 14.4_DiPAS: CR348my7-269_LoggingStruktur: Implementierung","07:00","16:00","8","60",
"02.10.14","4","140501","0","102","Spez: LH/PH/Design","","0","11-1007: PIDT 14.8: CR430my1-180_Datensatzdownload2. 11-1007: PIDT 14.8: CR430my1-180_Datensatzdownload2 GETTING INTO SUBJECT","07:00","16:00","7","60",
"02.10.14","4","140051","5","101","PM/Mod/Meetings","","0","S4/DSA overall tasks 2014. S4/DSA overall tasks 2014","","","1","0",
"03.10.14","5","140501","0","102","Spez: LH/PH/Design","","0","11-1007: PIDT 14.8: CR430my1-180_Datensatzdownload2. 11-1007: PIDT 14.8: CR430my1-180_Datensatzdownload2 GETTING INTO SUBJECT","07:00","16:00","8","60",
