"30.12.13","1","130023","0","910","Urlaub","","0","Urlaub. Time off","07:00","16:00","8","60",
"31.12.13","2","130023","0","910","Urlaub","","0","Urlaub. Time off","07:00","16:00","8","60",
"01.01.14","3","130023","0","910","Urlaub","","0","Urlaub. Public holiday","07:00","16:00","8","60",
"02.01.14","4","130023","0","910","Urlaub","","0","Urlaub. Time off","07:00","16:00","8","60",
"03.01.14","5","130023","0","910","Urlaub","","0","Urlaub. Time off","07:00","16:00","8","60",
