"10.03.14","1","130056","368","120","Codierung","","0","10-1111: ASCS II: AP15: Harmonization: Configurable Actuators F12.8/ae20. Harmonization in progress","07:00","16:00","5","60",
"10.03.14","1","140023","0","910","Urlaub","","0","Time - Off. Time Off","","","3","0",
"11.03.14","2","130056","365","120","Codierung","","100","10-1111: ASCS II: AP15: Harmonization: GFS F12.5/ae20. Harmonization in progress","07:00","16:00","2","60",
"11.03.14","2","130056","367","120","Codierung","","0","10-1111: ASCS II: AP15: Harmonization: Manual Actuators F12.7/ae20. Harmonization of identifications sequence","","","6","0",
"12.03.14","3","130056","366","120","Codierung","","100","10-1111: ASCS II: AP15: Harmonization: Measurement Read F12.6/ae20. Harmonization in progress","07:00","16:00","8","60",
"13.03.14","4","140051","33","170","Schulung","","0","Training 2014. Colleague assisting","07:00","16:00","4","60",
"13.03.14","4","120714","1083","182","Fehlerbes. nach Ausl. (Bugzilla)","","0"," P.Authoring: problem analysis. (From dr) Epid reading accuracy test","","","4","0",
"14.03.14","5","120714","1227","120","Codierung","","0","P.Authoring: lack of performance (waiting). waiting for authoring","07:00","16:00","1","60",
"14.03.14","5","140051","32","101","PM/Mod/Meetings","","0","Weekly tasks AES 2014. Meetings","","","1","0",
"14.03.14","5","120714","1083","182","Fehlerbes. nach Ausl. (Bugzilla)","","0","P.Authoring: problem analysis. Epid sequence","","","3","0",
"14.03.14","5","130056","368","120","Codierung","","100","10-1111: ASCS II: AP15: Harmonization: Configurable Actuators F12.8/ae20. Harmonization in progress","","","3","0",
