"29.09.14","1","130769","39","101","PM/Mod/Meetings","","0","PM/Mod/Meetings. Meeting on Nissan Q30 Project.","07:00","16:00","1","60",
"29.09.14","1","130769","187","181","Fehlerbes. vor Ausl. (Bugzilla)","","0","9999: Bugfixing. resolving open issues.","","","7","0",
"30.09.14","2","140023","0","920","Krankheit","","0","Sick Leave. Sick Leave","07:00","16:00","8","60",
"01.10.14","3","140051","38","101","PM/Mod/Meetings","","0","Weekly tasks AES 2014. VW Factory visit","07:00","16:00","8","60",
"03.10.14","5","130769","39","101","PM/Mod/Meetings","","0","PM/Mod/Meetings. waiting for Nissan Telco.","07:00","16:00","0,5","60",
"03.10.14","5","130769","187","181","Fehlerbes. vor Ausl. (Bugzilla)","","0","9999: Bugfixing. resolving open issues.","","","7,5","0",
