"26.05.14","1","100369","9160","182","Fehlerbes. nach Ausl. (Bugzilla)","","0","8080: P3 #50703 (normal) Die Ist-Anzeige zeigt keine Werte an,MAN Sequences. Downloadng intergration MCII install and Trying to reproduc with customer Simulation and analyzing.","07:00","16:00","7,5","60",
"26.05.14","1","14051","37","170","Schulung","","0","Training 2014. Assisitng fellow team members","","","0,5","0",
"27.05.14","2","100369","9160","182","Fehlerbes. nach Ausl. (Bugzilla)","","0","8080: P3 #50703 (normal) Die Ist-Anzeige zeigt keine Werte an,MAN Sequences. Analyzing and trying to reproduce bug, Descided that customer should retest from last bugfixing","07:00","16:00","4","60",
"28.05.14","3","103676","158","120","Codierung","","0","51-1030: Demoablauf Konfiguration schreiben implementieren. 51-1030: Demoablauf Konfiguration schreiben implementieren","07:00","16:00","8","60",
"29.05.14","4","130676","158","120","Codierung","","0","51-1030: Demoablauf Konfiguration schreiben implementieren. 51-1030: Demoablauf Konfiguration schreiben implementieren","07:00","16:00","4","60",
"29.05.14","4","130127","2786","120","Codierung","","0","20-2001: ODX Merge Prozess /BI-Pos 5. 20-2001: ODX Merge Prozess /BI-Pos 5","","","4","0",
"30.05.14","5","130676","158","120","Codierung","","0","51-1030: Demoablauf Konfiguration schreiben implementieren. 51-1030: Demoablauf Konfiguration schreiben implementieren","07:00","16:00","7","60",
"30.05.14","5","140051","36","101","PM/Mod/Meetings","","0","Weekly tasks AES 2014. Weekly tasks AES 2014","","","1","0",
