"17.03.14","1","130867","0","181","Fehlerbes. vor Ausl. (Bugzilla)","","0","PIDT 14.0.0 Bug fixing. Bug 49643","07:00","16:00","1","60",
"17.03.14","1","130867","0","181","Fehlerbes. vor Ausl. (Bugzilla)","","0","PIDT 14.0.0 Bug fixing. Bug 49410","","","7","0",
"18.03.14","2","130867","0","181","Fehlerbes. vor Ausl. (Bugzilla)","","0","PIDT 14.0.0 Bug fixing. Bug 49410","07:00","16:00","8","60",
"19.03.14","3","130867","0","140","Test","","0","PIDT 14.0.0 Regression Tests. Testing TouchEveryFeature and MSPRA","07:00","16:00","8","60",
"20.03.14","4","130867","0","181","Fehlerbes. vor Ausl. (Bugzilla)","","0","PIDT 14.0.0 Regression Tests. Regression Testing","07:00","16:00","8","60",
"21.03.14","5","140023","479","910","Urlaub","","0","Public Holiday 21.03.2014. Public Holiday 21.03.2014","07:00","16:00","8","60",
