"24.11.14","1","140501","0","140","Test","","0","10-1000:PIDT 14.8: (Linie) Regressionstest. PIDT 14.8: Regressionstests and support","07:00","16:00","8","60",
"25.11.14","2","140501","0","140","Test","","0","10-1000:PIDT 14.8: (Linie) Regressionstest. PIDT 14.8: Regressionstests and support","07:00","16:00","8","60",
"26.11.14","3","140501","0","140","Test","","0","10-1000:PIDT 14.8: (Linie) Regressionstest. PIDT 14.8: Regressionstests and support","07:00","16:00","3","60",
"26.11.14","3","140501","0","181","Fehlerbes. vor Ausl. (Bugzilla)","","0","PIDT 14.8 Bug fixing. Working on bugs #54539 and  #54364","","","2","0",
"26.11.14","3","140501","0","104","Test-Spezifikation","","0","20-1106: PIDT 14.8 DiPAS: CR421my2-292_Nutzungsstatistik: Testspec. Creating Test Spec","","","3","0",
"27.11.14","4","140501","337","120","Codierung","","0","20-1106: PIDT 14.8 DiPAS: CR421my2-292_Nutzungsstatistik: Implementierung. Integretion testing and fixing bugs","07:00","16:00","8","60",
"28.11.14","5","140501","337","120","Codierung","","0","20-1106: PIDT 14.8 DiPAS: CR421my2-292_Nutzungsstatistik: Implementierung. Integretion testing and fixing bugs","07:00","16:00","6,5","60",
"28.11.14","5","140051","4","101","PM/Mod/Meetings","","0","S4/DSA overall tasks 2014. S4/DSA Weekly meetings and admin","","","1,5","0",
