"24.02.14","1","120714","0","120","Codierung","","0","P.Authoring: Problem Analysis. DSA Servers anaccessable","07:00","16:00","3","60",
"24.02.14","1","120527","627","120","Codierung","","0","9999: GFS Troubleshooter. 9999: GFS Troubleshooter","","","3","0",
"24.02.14","1","120714","3664","181","Fehlerbes. vor Ausl. (Bugzilla)","","0","4490: Bugfixing vor CF: WTS 4.0. Bugfixing testing #48515 and #47839","","","2","0",
"25.02.14","2","120527","627","120","Codierung","","0","9999: GFS Troubleshooter. 9999: GFS Troubleshooter","07:00","16:00","4","60",
"25.02.14","2","120714","1384","120","Codierung","","0","P.Authoring: lack of performance (waiting). Waiting for Authoring","","","1","0",
"25.02.14","2","120328","0","120","Codierung","","0","AFS Calibration with cyl. AFS Calibration with cyl","","","2","0",
"25.02.14","2","140018","37","401","Travel","","0","Travel China for work on Brilliance KW7-KW10. Helping colleagues with Errors","","","1","0",
"26.02.14","3","120527","627","120","Codierung","","0","9999: GFS Troubleshooter. 9999: GFS Troubleshooter","07:00","16:00","6","60",
"26.02.14","3","140018","37","401","Travel","","0","Travel China for work on Brilliance KW7-KW10. Training with wlh in Automation","","","2","0",
"27.02.14","4","140051","35","170","Schulung","","0","Training 2014. Training 2014 ECOS","07:00","16:00","3","60",
"27.02.14","4","120328","0","120","Codierung","","0","ICP for ECOS. ICP for ECOS","","","3","0",
"27.02.14","4","140018","37","401","Travel","","0","Travel China for work on Brilliance KW7-KW10. Training with wlh in Automation","","","2","0",
"28.02.14","5","140051","34","101","PM/Mod/Meetings","","0","Weekly tasks AES 201. Meetings and Timesheet","07:00","16:00","1","60",
"28.02.14","5","120714","0","120","Codierung","","0","P.Authoring: Problem Analysis. Problem Analysis of oidstring nullpointer exception while remote debuggin with cyl","","","2","0",
"28.02.14","5","120328","0","120","Codierung","","0","ICP for ECOS. ICP for ECOS","","","2,5","0",
"28.02.14","5","140051","35","170","Schulung","","0","Training 2014. Training 2014 ECOS","","","2,5","0",
