"22.12.14","1","140023","2844","910","Urlaub","","0","Urlaub 22.12.-26.12.2014. Time off","07:00","16:00","8","60",
"23.12.14","2","140023","2844","910","Urlaub","","0","Urlaub 22.12.-26.12.2014. Time off","07:00","16:00","8","60",
"24.12.14","3","140023","2844","910","Urlaub","","0","Urlaub 22.12.-26.12.2014. Time off","07:00","16:00","8","60",
"25.12.14","4","140023","2844","910","Urlaub","","0","Urlaub 22.12.-26.12.2014. Time off","07:00","16:00","8","60",
"26.12.14","5","140023","2844","910","Urlaub","","0","Urlaub 22.12.-26.12.2014. Time off","07:00","16:00","8","60",
