"15.09.14","1","130769","188","181","Fehlerbes. vor Ausl. (Bugzilla)","","0","9999: Bugfixing. Bugfixing for Nissan CTS","07:00","16:00","8","60",
"16.09.14","2","140023","0","920","Krankheit","","0","Sick Leave. Sick Leave","07:00","16:00","8","60",
"17.09.14","3","130769","188","181","Fehlerbes. vor Ausl. (Bugzilla)","","0","9999: Bugfixing. Bugfixing for Nissan CTS","07:00","16:00","8","60",
"18.09.14","4","130769","188","181","Fehlerbes. vor Ausl. (Bugzilla)","","0","9999: Bugfixing. Bugfixing for Nissan CTS","07:00","16:00","8","60",
"19.09.14","5","130769","188","181","Fehlerbes. vor Ausl. (Bugzilla)","","0","9999: Bugfixing. Bugfixing for Nissan CTS","07:00","16:00","8","60",
