"07.07.14","1","140111","176","120","Codierung","","0","10-1019: PIDT 14.4: CR421my1-248d_CuPODXFOnDemand Implementierung. Integrating new ER Interpreter","07:00","16:00","9","60",
"08.07.14","2","140036","210","170","Schulung","","0","Convenience: Overall Structure: Interface, Kernel.../s63_anlrn. Convenience structure overview training","07:00","16:00","6","60",
"08.07.14","2","140111","176","120","Codierung","","0","10-1019: PIDT 14.4: CR421my1-248d_CuPODXFOnDemand Implementierung. Working on CuPODXFOnDemand","","","2","0",
"09.07.14","3","140036","210","170","Schulung","","0","Convenience: Overall Structure: Interface, Kernel.../s63_anlrn. Convenience training","07:00","16:00","6","60",
"09.07.14","3","140036","208","170","Schulung","","0","ODX Training: Services, DATA-Objects... /s63_anlrn. ODX Service training","","","2","0",
"10.07.14","4","140036","210","170","Schulung","","0","Convenience: Overall Structure: Interface, Kernel.../s63_anlrn. Convenience training and reading","07:00","16:00","6","60",
"10.07.14","4","140111","176","120","Codierung","","0","10-1019: PIDT 14.4: CR421my1-248d_CuPODXFOnDemand Implementierung. Integrating new ER Interpreter","","","2","0",
"11.07.14","5","140111","176","120","Codierung","","0","10-1019: PIDT 14.4: CR421my1-248d_CuPODXFOnDemand Implementierung. Investigate error in JNI layer","07:00","16:00","7","60",
"11.07.14","5","140051","2","101","PM/Mod/Meetings","","0","S4/DSA overall tasks 2014. Admin","","","1","0",
