"30.06.14","1","120527","785","110","Engineering","","0","56-5004: GFS: Impl+Test+Verifikation. 56-5004: GFS: Impl+Test+Verifikation","07:00","16:00","7","60",
"30.06.14","1","140051","35","101","PM/Mod/Meetings","","0","Training 2014. Bugzilla Training Nico","","","1","0",
"01.07.14","2","120527","785","110","Engineering","","0","56-5004: GFS: Impl+Test+Verifikation. 56-5004: GFS: Impl+Test+Verifikation","07:00","16:00","8","60",
"02.07.14","3","120527","785","110","Engineering","","0","56-5004: GFS: Impl+Test+Verifikation. 56-5004: GFS: Impl+Test+Verifikation","07:00","16:00","7","60",
"02.07.14","3","140051","34","101","PM/Mod/Meetings","","0","Weekly tasks AES 2014. Meetings and Timesheet","","","1","0",
"03.07.14","4","140023","0","910","Urlaub","","0","Urlaub. On Leave","07:00","16:00","8","60",
"04.07.14","5","140023","0","910","Urlaub","","0","Urlaub. On Leave","07:00","16:00","8","60",
