"01.09.14","1","140111","176","120","Codierung","","0","10-1019: PIDT 14.4: CR421my1-248d_CuPODXFOnDemand Implementierung. Working on CuPODXFOnDemand","07:00","16:00","8","60",
"02.09.14","2","140023","0","910","Urlaub","","0","Holiday. Time off","07:00","16:00","1","60",
"02.09.14","2","140111","176","120","Codierung","","0","10-1019: PIDT 14.4: CR421my1-248d_CuPODXFOnDemand Implementierung. Worked on CuPODXFOnDemand and merging code from dev to feature branch","","","7","0",
"03.09.14","3","140111","176","120","Codierung","","100","10-1019: PIDT 14.4: CR421my1-248d_CuPODXFOnDemand Implementierung. Attempting to upmerge from trunk to feature branch","07:00","16:00","4","60",
"03.09.14","3","140111","0","120","Codierung","","100","Worked on DoIPA review points. Worked on DoIPA review points","","","4","0",
"04.09.14","4","140111","175","104","Test-Spezifikation","","100","10-1019: PIDT 14.4: CR421my1-248d_CuPODXFOnDemand: MODG + Testspez.. Created test spec","07:00","16:00","8","60",
"05.09.14","5","140023","0","920","Krankheit","","0","Sick Leave. Sick Leave","07:00","16:00","8","60",
