"12.05.14","1","140023","0","910","Urlaub","","0","Time - Off. Time Off","07:00","16:00","8","60",
"13.05.14","2","130056","393","120","Codierung","","100","15-1113: ASCS II: AP17: GUI Update OBD Tester F14.4/ae20. closing","07:00","16:00","0","60",
"13.05.14","2","130056","394","120","Codierung","","100","15-1113: ASCS II: AP17: GUI Update ISOBus F14.5/ae20. Closing task","","","0","0",
"13.05.14","2","130056","350","185","Service, Telefon-Support","","100","ASCS II: Wartung und Pflege. Closing task","","","0","0",
"13.05.14","2","130056","0","130","Installation + Konfiguration","","0","ASCS Deployment Software Update. Waiting for server reboot","","","3","0",
"13.05.14","2","130056","391","120","Codierung","","0","15-1113: ASCS II: AP17: GUI Update Flash FrameworkF14.2/ae20. harmonization","","","5","0",
"14.05.14","3","130056","391","120","Codierung","","100","15-1113: ASCS II: AP17: GUI Update Flash FrameworkF14.2/ae20. harmonisation","07:00","16:00","3","60",
"14.05.14","3","140023","0","910","Urlaub","","0","Time - Off. Time Off","","","5","0",
"15.05.14","4","130056","396","140","Test","","0","15-1113: ASCS II: AP17: Test and Bugfix F14.7/ae20. Bug 50916, 50917, 50923","07:00","16:00","8","60",
"16.05.14","5","130056","396","140","Test","","0","15-1113: ASCS II: AP17: Test and Bugfix F14.7/ae20. FlashFramework Bug","07:00","16:00","7","60",
"16.05.14","5","140051","32","101","PM/Mod/Meetings","","0","Weekly tasks AES 2014. meatings and timesheets","","","1","0",
