"11.08.14","1","130769","69","120","Codierung","","0","10-1014: Release 10: ECU OM607 CEPC coding + test. creating sequence for OM607 engine ECUs.","07:00","16:00","8","60",
"12.08.14","2","130769","161","101","PM/Mod/Meetings","","0","PM/Mod/Meetings. Meeting on Nissan Q30 Project.","07:00","16:00","1","60",
"12.08.14","2","130769","67","120","Codierung","","0",": Release 10: ECU OM651 coding + test. (from s69)creating sequence for engine OM651 ECUs.","","","7","0",
"13.08.14","3","130769","55","120","Codierung","","0","10-1001: Release 10: ECU CBC coding + test. (from s69)creating sequence for CBC ECU.","07:00","16:00","4","60",
"13.08.14","3","130769","65","120","Codierung","","0","10-1011: Release 10: ECU M270 coding + test. creating sequence for MED40 ECU.","","","4","0",
"14.08.14","4","130769","55","120","Codierung","","0","10-1001: Release 10: ECU CBC coding + test. (from s69) ODX validation and Creating sequences for the CBC ECU.","07:00","16:00","8","60",
"15.08.14","5","140051","38","101","PM/Mod/Meetings","","0","Weekly tasks AES 2014. meeting on Nabenpruefstand","07:00","16:00","1","60",
"15.08.14","5","130769","55","120","Codierung","","0","10-1001: Release 10: ECU CBC coding + test. (from s69) Creating sequences for the CBC ECU.","","","7","0",
