"07.07.14","1","130769","0","120","Codierung","","0","Getting into Subject. Getting into Subject","07:00","16:00","8","60",
"08.07.14","2","130769","0","120","Codierung","","0","Setting up Workspace. Setting up Workspace","07:00","16:00","4","60",
"08.07.14","2","130769","0","120","Codierung","","0","Generic Sequences - DTC Sequences. Generic Sequences - DTC Sequences","","","4","0",
"09.07.14","3","130769","0","120","Codierung","","0","Generic Sequences - DTC Sequences. Generic Sequences - DTC Sequences","07:00","16:00","4","60",
"09.07.14","3","140051","35","170","Schulung","","0","Training 2014. Nissan - Training Statistics","","","4","0",
"10.07.14","4","130769","0","120","Codierung","","0","Generic Sequences - DTC Sequences. Generic Sequences - DTC Sequences","07:00","16:00","4","60",
"10.07.14","4","140051","35","170","Schulung","","0","Training 2014. Nissan - Training Statistics","","","4","0",
"11.07.14","5","140051","35","170","Schulung","","0","Training 2014. Nissan - Training Statistics","07:00","16:00","4","60",
"11.07.14","5","140051","34","101","PM/Mod/Meetings","","0","Weekly tasks AES 2014. Meetings and Timesheet","","","1","0",
"11.07.14","5","130769","0","120","Codierung","","0","Generic Sequences - DTC Sequences. Generic Sequences - DTC Sequences","","","3","0",
