"02.06.14","1","130676","156","102","Spez: LH/PH/Design","","100","51-1030: Dokumentation Demoablauf Konfiguration schreiben. 51-1030: Dokumentation Demoablauf Konfiguration schreiben","07:00","16:00","5","60",
"02.06.14","1","130676","159","140","Test","","0","51-1030: Demoablauf Konfiguration schreiben: Integrationstest. 51-1030: Demoablauf Konfiguration schreiben: Integrationstest","","","3","0",
"03.06.14","2","130676","160","181","Fehlerbes. vor Ausl. (Bugzilla)","","0","51-1030: Demoablauf Konfiguration schreiben: Bugfixing zum Integrationstest. 51-1030: Demoablauf Konfiguration schreiben: Bugfixing zum Integrationstest","07:00","16:00","5","60",
"03.06.14","2","12759","354","182","Fehlerbes. nach Ausl. (Bugzilla)","","0","From 64:24-9360: Flashabläufe-T2: Bugfixing (Puffer) 3. Trouble shooting Krone security access Issue","","","3","0",
"04.06.14","3","120759","354","182","Fehlerbes. nach Ausl. (Bugzilla)","","0","From 64:24-9360: Flashabläufe-T2: Bugfixing (Puffer) 5. Troubleshooting Krone flashing security access job issue","07:00","16:00","5","60",
"04.06.14","3","130676","149","140","Test","","0","51-1010: Demo Flashablauferweiterung Rückmeldedaten: Integrationstest. 51-1010: Demo Flashablauferweiterung Rückmeldedaten: Integrationstest","","","3","0",
"05.06.14","4","130676","150","181","Fehlerbes. vor Ausl. (Bugzilla)","","0","51-1010: Demo Flashablauferweiterung Rückmeldedaten: Bugfixing zum Integrationstest. 51-1010: Demo Flashablauferweiterung Rückmeldedaten: Bugfixing zum Integrationstest","07:00","16:00","5","60",
"05.06.14","4","130676","158","120","Codierung","","100","51-1030: Demoablauf Konfiguration schreiben implementieren. Changed Demo sequnce to work for the new Krone ODX","","","3","0",
"06.06.14","5","130676","146","102","Spez: LH/PH/Design","","100","51-1010: Dokumentation Funktion Demo Flashablauferweiterung Rückmeldedaten. 51-1010: Dokumentation Funktion Demo Flashablauferweiterung Rückmeldedaten","07:00","16:00","7","60",
"06.06.14","5","140051","36","101","PM/Mod/Meetings","","0","Weekly tasks AES 2014 1. Meetings and Time Sheets","","","1","0",
