"01.09.14","1","130769","66","120","Codierung","","0","10-1012: Release 10: ECU OM607 coding + test. bugfixing and fixing statistics for Engine OM607 ECU sequences.","07:00","16:00","8","60",
"02.09.14","2","140023","0","910","Urlaub","","0","Urlaub. leave","07:00","16:00","8","60",
"03.09.14","3","130769","70","120","Codierung","","0","10-1015: Release 10: ECU OM651 CEPC coding + test. bugfixing and fixing statistics for CEPC ECU sequences.","07:00","16:00","5","60",
"03.09.14","3","130769","62","120","Codierung","","0","10-1019: Release 10: ECU SCCM coding + test. (from s75) creating handler for sccm ecu.","","","3","0",
"04.09.14","4","130769","65","120","Codierung","","0","10-1011: Release 10: ECU M270 coding + test. Testing the new odx, validation of simulations with updated services and fixing resolved open issues","07:00","16:00","8","60",
"05.09.14","5","130769","69","120","Codierung","","0","10-1014: Release 10: ECU OM607 CEPC coding + test. Testing the new odx, validation of simulations with updated services and fixing resolved open issues","07:00","16:00","8","60",
