"01.12.14","1","140501","343","120","Codierung","","0","20-1107: PIDT 14.8 DiPAS: CR415my7-270_LoggingWatchdog: Implementierung. Implementierung","07:00","16:00","8","60",
"02.12.14","2","140501","343","120","Codierung","","0","20-1107: PIDT 14.8 DiPAS: CR415my7-270_LoggingWatchdog: Implementierung. Implementierung","07:00","16:00","8","60",
"03.12.14","3","140501","419","120","Codierung","","0","20-1103: PIDT 14.8 DiPAS: CR432da1-294_GUI_Lieferstufe1: Implementierung. Implementierung","07:00","16:00","4","60",
"03.12.14","3","140501","343","120","Codierung","","0","20-1107: PIDT 14.8 DiPAS: CR415my7-270_LoggingWatchdog: Implementierung. Implementierung","","","4","0",
"04.12.14","4","140501","419","120","Codierung","","0","20-1103: PIDT 14.8 DiPAS: CR432da1-294_GUI_Lieferstufe1: Implementierung. Implementierung","07:00","16:00","4","60",
"04.12.14","4","140501","343","120","Codierung","","0","20-1107: PIDT 14.8 DiPAS: CR415my7-270_LoggingWatchdog: Implementierung. Implementierung","","","4","0",
"05.12.14","5","140051","6","101","PM/Mod/Meetings","","0","S4/DSA overall tasks 2014. Meeting/Timesheets","07:00","16:00","1,5","60",
"05.12.14","5","140501","419","120","Codierung","","0","20-1103: PIDT 14.8 DiPAS: CR432da1-294_GUI_Lieferstufe1: Implementierung. Implementierung","","","3,5","0",
"05.12.14","5","140501","343","120","Codierung","","0","20-1107: PIDT 14.8 DiPAS: CR415my7-270_LoggingWatchdog: Implementierung. Implementierung","","","3","0",
