"17.11.14","1","130056","435","185","Service, Telefon-Support","","0","ASCS II:Wartung und Pflege. Authoring parametrization service import trouble shoot. Identifications write failure troubleshoot","07:00","16:00","8","60",
"18.11.14","2","130056","431","130","Installation + Konfiguration","","0","1106: ASCS II: AP6: UnitTests: Setup / Testsequences F5.1/ae12. Testcase execution, Modifications and update testilnk and simulations","07:00","16:00","8","60",
"19.11.14","3","130056","431","185","Service, Telefon-Support","","100","1106: ASCS II: AP6: UnitTests: Setup / Testsequences F5.1/ae12. Testcase execution, Modifications and update testilnk and simulations","07:00","16:00","8","60",
"20.11.14","4","140051","33","170","Schulung","","0","Training 2014. mancats3 download, installtion and config. setting up debug","07:00","16:00","2","60",
"20.11.14","4","100369","9244","182","Fehlerbes. nach Ausl. (Bugzilla)","","100","8080: P3 #51715 (enhancement) ComplexTable Search  entry should be kept after close - open of screen. investigating bug and fixing","","","6","0",
"21.11.14","5","140051","32","101","PM/Mod/Meetings","","0","Weekly tasks AES 2014. S4 Meetings and timesheets","07:00","16:00","1,5","60",
"21.11.14","5","100369","9243","182","Fehlerbes. nach Ausl. (Bugzilla)","","0","8080: P1 #52381 (major) Parametrization : Can not write values,MAN Sequences. Bugfix","","","4","0",
"21.11.14","5","100369","9244","182","Fehlerbes. nach Ausl. (Bugzilla)","","0","8080: P3 #51715 (enhancement) ComplexTable Search  entry should be kept after close - open of screen. Bugfix","","","2,5","0",
