"01.09.14","1","140023","0","910","Urlaub","","0","Urlaub. Urlaub","07:00","16:00","3","60",
"01.09.14","1","140111","92","120","Codierung","","0","20-1013: PIDT 14.4_DiPAS: CR348my7-269_LoggingStruktur: Implementierung. 20-1013: PIDT 14.4_DiPAS: CR348my7-269_LoggingStruktur: Implementierung","","","5","0",
"02.09.14","2","140111","92","120","Codierung","","0","20-1013: PIDT 14.4_DiPAS: CR348my7-269_LoggingStruktur: Implementierung. 20-1013: PIDT 14.4_DiPAS: CR348my7-269_LoggingStruktur: Implementierung","07:00","16:00","8","60",
"03.09.14","3","140111","92","120","Codierung","","0","20-1013: PIDT 14.4_DiPAS: CR348my7-269_LoggingStruktur: Implementierung. 20-1013: PIDT 14.4_DiPAS: CR348my7-269_LoggingStruktur: Implementierung","07:00","16:00","8","60",
"04.09.14","4","140111","92","120","Codierung","","0","20-1013: PIDT 14.4_DiPAS: CR348my7-269_LoggingStruktur: Implementierung. 20-1013: PIDT 14.4_DiPAS: CR348my7-269_LoggingStruktur: Implementierung","07:00","16:00","8","60",
"05.09.14","5","140111","92","120","Codierung","","0","20-1013: PIDT 14.4_DiPAS: CR348my7-269_LoggingStruktur: Implementierung. 20-1013: PIDT 14.4_DiPAS: CR348my7-269_LoggingStruktur: Implementierung","07:00","16:00","6,5","60",
"05.09.14","5","140051","5","101","PM/Mod/Meetings","","0","S4/DSA overall tasks 2014. S4/DSA overall tasks 2014","","","1,5","0",
