"14.04.14","1","120328","1007","120","Codierung","","0","A0_1033: Flash Job. Implementation and testing","07:00","16:00","8","60",
"15.04.14","2","120328","1007","120","Codierung","","0","A0_1033: Flash Job. Testing and minor changes","07:00","16:00","8","60",
"16.04.14","3","130056","337","120","Codierung","","0","1108: ASCS II: AP7a: new app.: As-Built/ As mantained F7.3/ae12. harmonization","07:00","16:00","4","60",
"16.04.14","3","130328","1007","120","Codierung","","0","A0_1033: Flash Job. code cleanup","","","4","0",
"17.04.14","4","140023","0","910","Urlaub","","0","Time - Off. Holiday","07:00","16:00","8","60",
"18.04.14","5","140023","0","910","Urlaub","","0","Time - Off. Holiday","07:00","16:00","8","60",
