"02.06.14","1","140111","95","120","Codierung","","50","20-1014: PIDT 14.4_DiPAS: CR415myA-273_FAPSortierungECU: Implementierung. Implementierung","07:00","16:00","8","60",
"03.06.14","2","140111","95","120","Codierung","","60","20-1014: PIDT 14.4_DiPAS: CR415myA-273_FAPSortierungECU: Implementierung. Implementierung","07:00","16:00","8","60",
"04.06.14","3","140111","95","120","Codierung","","65","20-1014: PIDT 14.4_DiPAS: CR415myA-273_FAPSortierungECU: Implementierung. Implementierung","07:00","16:00","8","60",
"05.06.14","4","140111","95","120","Codierung","","65","20-1014: PIDT 14.4_DiPAS: CR415myA-273_FAPSortierungECU: Implementierung. Implementierung","07:00","16:00","8","60",
"06.06.14","5","140111","95","120","Codierung","","65","20-1014: PIDT 14.4_DiPAS: CR415myA-273_FAPSortierungECU: Implementierung. Implementierung","07:00","16:00","7","60",
"06.06.14","5","140051","6","101","PM/Mod/Meetings","","0","S4/DSA overall tasks 2014. Meeting/Timesheets","","","1","0",
