"07.04.14","1","140162","20","120","Codierung","","0","(from s69)10-0201: Display multiple measurements in linegraph. 10-0201: Display multiple measurements in linegraph","07:00","16:00","3","60",
"07.04.14","1","100369","9144","182","Fehlerbes. nach Ausl. (Bugzilla)","","0","8080: P3 #49347 (normal) Monitoring: kontextsensitive Hilfeseite kann nicht angezeigt werden,MAN Seq. 8080: P3 #49347 (normal) Monitoring: kontextsensitive Hilfeseite kann nicht angezeigt werden,MAN Seq","","","4","0",
"07.04.14","1","120714","1384","120","Codierung","","0","P.Authoring: lack of performance (waiting). Waiting for Authoring","","","1","0",
"08.04.14","2","100369","9144","182","Fehlerbes. nach Ausl. (Bugzilla)","","0","8080: P3 #49347 (normal) Monitoring: kontextsensitive Hilfeseite kann nicht angezeigt werden,MAN Seq. 8080: P3 #49347 (normal) Monitoring: kontextsensitive Hilfeseite kann nicht angezeigt werden,MAN Seq","07:00","16:00","3","60",
"08.04.14","2","100369","9126","182","Fehlerbes. nach Ausl. (Bugzilla)","","0","8080: P3 #49452 (normal) Abtastrateanzeige bei Monitoringaufnahme fehlerhaft,MAN Sequences. 8080: P3 #49452 (normal) Abtastrateanzeige bei Monitoringaufnahme fehlerhaft,MAN Sequences","","","2","0",
"08.04.14","2","120714","1384","120","Codierung","","0","P.Authoring: lack of performance (waiting). Waiting for Authoring","","","1","0",
"08.04.14","2","120714","1384","120","Codierung","","0","Getting Authoring 3.16.7. Waiting for Authoring","","","2","0",
"09.04.14","3","140162","20","120","Codierung","","0","(from s69)10-0201: Display multiple measurements in linegraph. 10-0201: Display multiple measurements in linegraph","07:00","16:00","2","60",
"09.04.14","3","100369","9126","182","Fehlerbes. nach Ausl. (Bugzilla)","","0","8080: P3 #49452 (normal) Abtastrateanzeige bei Monitoringaufnahme fehlerhaft,MAN Sequences. 8080: P3 #49452 (normal) Abtastrateanzeige bei Monitoringaufnahme fehlerhaft,MAN Sequences","","","3","0",
"09.04.14","3","120714","1384","120","Codierung","","0","P.Authoring: lack of performance (waiting). Waiting for Authoring","","","0,5","0",
"09.04.14","3","120714","1384","120","Codierung","","0","Waiting for server app05a. Waiting for Authoring","","","2,5","0",
"10.04.14","4","100369","9126","182","Fehlerbes. nach Ausl. (Bugzilla)","","0","8080: P3 #49452 (normal) Abtastrateanzeige bei Monitoringaufnahme fehlerhaft,MAN Sequences. 8080: P3 #49452 (normal) Abtastrateanzeige bei Monitoringaufnahme fehlerhaft,MAN Sequences","07:00","16:00","3,5","60",
"10.04.14","4","140162","20","120","Codierung","","0","(from s69)10-0201: Display multiple measurements in linegraph. 10-0201: Display multiple measurements in linegraph","","","3,5","0",
"10.04.14","4","120714","1384","120","Codierung","","0","P.Authoring: lack of performance (waiting). Waiting for Authoring","","","1","0",
"11.04.14","5","140162","20","120","Codierung","","0","(from s69)10-0201: Display multiple measurements in linegraph. 10-0201: Display multiple measurements in linegraph","07:00","16:00","5","60",
"11.04.14","5","120714","1384","120","Codierung","","0","P.Authoring: lack of performance (waiting). Waiting for Authoring","","","1","0",
"11.04.14","5","140051","34","101","PM/Mod/Meetings","","0","Weekly tasks AES 201. Meetings and Timesheet","","","1","0",
"11.04.14","5","140051","34","101","PM/Mod/Meetings","","0","Weekly tasks AES 201. Preparing for China trip","","","1","0",
