"16.06.14","1","140023","517","910","Urlaub","","0","Public Holiday 16.06.2014. Public Holiday 16.06.2014","07:00","16:00","8","60",
"17.06.14","2","120527","785","110","Engineering","","0","56-5004: GFS: Impl+Test+Verifikation. 56-5004: GFS: Impl+Test+Verifikation","07:00","16:00","8","60",
"18.06.14","3","120527","785","110","Engineering","","0","56-5004: GFS: Impl+Test+Verifikation. 56-5004: GFS: Impl+Test+Verifikation","07:00","16:00","4","60",
"18.06.14","3","140023","0","910","Urlaub","","0","Urlaub. Urlaub","","","4","0",
"19.06.14","4","140023","0","910","Urlaub","","0","Urlaub. Urlaub","07:00","16:00","8","60",
"20.06.14","5","140023","0","910","Urlaub","","0","Urlaub. Urlaub","07:00","16:00","8","60",
