"27.10.14","1","140051","41","101","PM/Mod/Meetings","","0","Training AES 2014. Training on GDI","07:00","16:00","8","60",
"28.10.14","2","140051","41","101","PM/Mod/Meetings","","0","Training AES 2014. Training on GDI","07:00","16:00","8","60",
"29.10.14","3","140051","41","101","PM/Mod/Meetings","","0","Training AES 2014. Training on GDI","07:00","16:00","8","60",
"30.10.14","4","140051","41","101","PM/Mod/Meetings","","0","Training AES 2014. Training on GDI","07:00","16:00","8","60",
"31.10.14","5","140051","41","101","PM/Mod/Meetings","","0","Training AES 2014. Training on GDI","07:00","16:00","7","60",
"31.10.14","5","140051","38","101","PM/Mod/Meetings","","0","Weekly tasks AES 2014. S4 meetings and timesheets","","","1","0",
