"11.08.14","1","140111","92","120","Codierung","","0","20-1013: PIDT 14.4_DiPAS: CR348my7-269_LoggingStruktur: Implementierung. 20-1013: PIDT 14.4_DiPAS: CR348my7-269_LoggingStruktur: Implementierung","07:00","16:00","8","60",
"12.08.14","2","140111","16","182","Fehlerbes. nach Ausl. (Bugzilla)","","0","10-8080:PIDT14.4 Bugfixing aus Vorrelease. 10-8080:PIDT14.4 Bugfixing aus Vorrelease","07:00","16:00","8","60",
"13.08.14","3","140023","0","910","Urlaub","","0","Urlaub. Urlaub","07:00","16:00","8","60",
"14.08.14","4","140111","16","182","Fehlerbes. nach Ausl. (Bugzilla)","","0","10-8080:PIDT14.4 Bugfixing aus Vorrelease. 10-8080:PIDT14.4 Bugfixing aus Vorrelease","07:00","16:00","8","60",
"15.08.14","5","140051","5","101","PM/Mod/Meetings","","0","S4/DSA overall tasks 2014. S4/DSA overall tasks 2014","07:00","16:00","1,5","60",
"15.08.14","5","140111","141","181","Fehlerbes. vor Ausl. (Bugzilla)","","0","10-8080:PIDT14.4 Bugfixing aus Vorrelease. 10-8080:PIDT14.4 Bugfixing aus Vorrelease","","","6,5","0",
