"16.06.14","1","140023","513","910","Urlaub","","100","Urlaub. Public Holiday 16.06.2014","07:00","16:00","8","60",
"17.06.14","2","120759","394","182","Fehlerbes. nach Ausl. (Bugzilla)","","0","41-9010: Nabe-T2: Bugfixing Puffer. Support Malte at Krone","07:00","16:00","3","60",
"17.06.14","2","140051","21","101","PM/Mod/Meetings","","0","Management AES 2014. Support team members","","","5","0",
"18.06.14","3","120759","394","182","Fehlerbes. nach Ausl. (Bugzilla)","","0","41-9010: Nabe-T2: Bugfixing Puffer. Support Malte at Krone","07:00","16:00","2","60",
"18.06.14","3","140051","21","101","PM/Mod/Meetings","","0","Management AES 2014. General management, support","","","6","0",
"19.06.14","4","140051","21","101","PM/Mod/Meetings","","0","Management AES 2014. Support team members","07:00","16:00","8","60",
"20.06.14","5","130676","164","101","PM/Mod/Meetings","","0","51-9120: Technisches Projektmanagement, Moderation. Check + review for TP documentation with S68.","07:00","16:00","2","60",
"20.06.14","5","140051","23","101","PM/Mod/Meetings","","0","Training 2014. Training with s69: Plant Configurator","","","1","0",
"20.06.14","5","140051","21","101","PM/Mod/Meetings","","0","Management AES 2014. Timesheets + Meetings, Support","","","5","0",
