"17.11.14","1","140501","293","140","Test","","0","10-1000: PIDT 14.8 (Linie): Regressionstest. PIDT Testing","07:00","16:00","8","60",
"18.11.14","2","140023","0","920","Krankheit","","0","Sick Leave. Sick Leave","07:00","16:00","8","60",
"19.11.14","3","140501","293","140","Test","","0","10-1000: PIDT 14.8 (Linie): Regressionstest. PIDT Testing","07:00","16:00","8","60",
"20.11.14","4","140501","293","140","Test","","0","10-1000: PIDT 14.8 (Linie): Regressionstest	. PIDT Testing","07:00","16:00","8","60",
"21.11.14","5","140501","293","140","Test","","0","10-1000: PIDT 14.8 (Linie): Regressionstest	. PIDT Testing","07:00","16:00","8","60",
