"14.07.14","1","140051","35","170","Schulung","","0","Training 2014. Nissan - Training Statistics","07:00","16:00","4","60",
"14.07.14","1","130769","34","120","Codierung","","0","generic sequences DTC, setup workspace. Implementing READ DTCs and statistics","","","4","0",
"15.07.14","2","140051","35","170","Schulung","","0","Training 2014. Nissan - Training Statistics","07:00","16:00","2,5","60",
"15.07.14","2","130769","34","120","Codierung","","0","generic sequences DTC, setup workspace. Implementing SEAT coding and statistics","","","2,5","0",
"15.07.14","2","130769","0","130","Installation + Konfiguration","","0","Setting up testing virtual machine. Setting up testing virtual machine","","","3","0",
"16.07.14","3","140051","35","170","Schulung","","0","Training 2014. Nissan - Training Statistics","07:00","16:00","4","60",
"16.07.14","3","130769","34","120","Codierung","","0","generic sequences DTC, setup workspace. Implementing SEAT coding and statistics","","","4","0",
"17.07.14","4","130769","34","120","Codierung","","0","generic sequences DTC, setup workspace. Implementing SEAT coding and statistics","07:00","16:00","8","60",
"18.07.14","5","140023","0","910","Urlaub","","0","Urlaub. Urlaub","07:00","16:00","8","60",
