"14.04.14","1","140252","0","181","Fehlerbes. vor Ausl. (Bugzilla)","","0","Worked on PIDT 14.1.0 DLS 3 bugs. Worked on PIDT 14.1.0 DLS 3 bugs","07:00","16:00","8","60",
"15.04.14","2","140252","0","181","Fehlerbes. vor Ausl. (Bugzilla)","","0","Worked on PIDT 14.1.0 DLS 3 bugs. Worked on PIDT 14.1.0 DLS 3 bugs","07:00","16:00","8","60",
"16.04.14","3","130867","0","182","Fehlerbes. nach Ausl. (Bugzilla)","","0","Worked on PIDT 14.1.0 Dipas bugs. Worked on PIDT 14.1.0 Dipas bugs","07:00","16:00","7","60",
"16.04.14","3","140023","0","910","Urlaub","","0","Holiday. Time off","","","1","0",
"17.04.14","4","140023","0","910","Urlaub","","0","Holiday. Leave","07:00","16:00","8","60",
"18.04.14","5","140023","0","910","Urlaub","","0","Holiday. Time off","07:00","16:00","8","60",
