"25.08.14","1","140111","92","120","Codierung","","0","20-1013: PIDT 14.4_DiPAS: CR348my7-269_LoggingStruktur: Implementierung. 20-1013: PIDT 14.4_DiPAS: CR348my7-269_LoggingStruktur: Implementierung","07:00","16:00","4","60",
"25.08.14","1","140111","0","102","Spez: LH/PH/Design","","0","Creating work breakdown structure for 14.8.0/14.8.0DiPAS features. Creating work breakdown structure for 14.8.0/14.8.0DiPAS features","","","4","0",
"26.08.14","2","140023","0","920","Krankheit","","0","Urlaub. Off Sick","07:00","16:00","8","60",
"27.08.14","3","140111","92","120","Codierung","","0","20-1013: PIDT 14.4_DiPAS: CR348my7-269_LoggingStruktur: Implementierung. 20-1013: PIDT 14.4_DiPAS: CR348my7-269_LoggingStruktur: Implementierung","07:00","16:00","7","60",
"27.08.14","3","140051","5","101","PM/Mod/Meetings","","0","S4/DSA overall tasks 2014. S4/DSA overall tasks 2014","","","1","0",
"28.08.14","4","140111","92","120","Codierung","","0","20-1013: PIDT 14.4_DiPAS: CR348my7-269_LoggingStruktur: Implementierung. 20-1013: PIDT 14.4_DiPAS: CR348my7-269_LoggingStruktur: Implementierung","07:00","16:00","8","60",
"29.08.14","5","140111","92","120","Codierung","","0","20-1013: PIDT 14.4_DiPAS: CR348my7-269_LoggingStruktur: Implementierung. 20-1013: PIDT 14.4_DiPAS: CR348my7-269_LoggingStruktur: Implementierung","07:00","16:00","6,5","60",
"29.08.14","5","140051","5","101","PM/Mod/Meetings","","0","S4/DSA overall tasks 2014. S4/DSA overall tasks 2014","","","1,5","0",
