"21.04.14","1","140023","0","910","Urlaub","","100","Urlaub. Public Holiday 21.04.2014","07:00","16:00","8","60",
"22.04.14","2","140051","23","101","PM/Mod/Meetings","","0","Training 2014. Training of new employee on CTS creation","07:00","16:00","2","60",
"22.04.14","2","140051","22","101","PM/Mod/Meetings","","0","General project management / Teamsupport AES 2014. Supporting colleagues","","","6","0",
"23.04.14","3","130676","71","120","Codierung","","0","(from s68) 50-1010: BB zum Auslesen und Modifizieren der xml Dateien (AsMaintained). Creation of BB's and import into Authroing","07:00","16:00","3","60",
"23.04.14","3","140051","21","101","PM/Mod/Meetings","","0","Management AES 2014. Interviews","","","3","0",
"23.04.14","3","140051","22","101","PM/Mod/Meetings","","0","General project management / Teamsupport AES 2014. General organization / support","","","2","0",
"24.04.14","4","130676","71","120","Codierung","","0","(from s68) 50-1010: BB zum Auslesen und Modifizieren der xml Dateien (AsMaintained). Adding encrytion / decryption","07:00","16:00","4","60",
"24.04.14","4","140051","22","101","PM/Mod/Meetings","","0","General project management / Teamsupport AES 2014. General organization / support","","","4","0",
"25.04.14","5","140051","23","170","Schulung","","0","Training 2014. Training with new employees.","07:00","16:00","3","60",
"25.04.14","5","140051","22","101","PM/Mod/Meetings","","0","General project management / Teamsupport AES 2014. General organization / support","","","4","0",
"25.04.14","5","140051","21","101","PM/Mod/Meetings","","0","Management AES 2014. Timesheets + Meetings","","","1","0",
