"10.11.14","1","140501","378","120","Codierung","","0","11-1007: PIDT 14.8: CR430my1-180_Datensatzdownload2: Implementierung. 11-1007: PIDT 14.8: CR430my1-180_Datensatzdownload2: Implementierung","07:00","18:00","10","60",
"11.11.14","2","140501","378","120","Codierung","","0","11-1007: PIDT 14.8: CR430my1-180_Datensatzdownload2: Implementierung. 11-1007: PIDT 14.8: CR430my1-180_Datensatzdownload2: Implementierung","07:00","17:00","9","60",
"12.11.14","3","140501","378","120","Codierung","","0","11-1007: PIDT 14.8: CR430my1-180_Datensatzdownload2: Implementierung. 11-1007: PIDT 14.8: CR430my1-180_Datensatzdownload2: Implementierung","07:00","16:00","8","60",
"13.11.14","4","140501","378","120","Codierung","","0","11-1007: PIDT 14.8: CR430my1-180_Datensatzdownload2: Implementierung. 11-1007: PIDT 14.8: CR430my1-180_Datensatzdownload2: Implementierung","07:00","16:00","8","60",
"14.11.14","5","140023","0","910","Urlaub","","0","Urlaub. Urlaub","07:00","16:00","8","60",
