"17.02.14","1","130867","39","120","Codierung","","0","10-1016: PIDT 14.0: #240 CR351da2 ERInterpreter: Use ER Interpreter. Integrating ExecuteInstructionList CTS into ERI CTS","07:00","16:00","8","60",
"18.02.14","2","130867","39","120","Codierung","","0","10-1016: PIDT 14.0: #240 CR351da2 ERInterpreter: Use ER Interpreter. Integrating ExecuteInstructionList CTS into ERI CTS","07:00","16:00","6,5","60",
"18.02.14","2","140051","2","101","PM/Mod/Meetings","","0","S4/DSA overall tasks 2014. Meeting","","","1,5","0",
"19.02.14","3","130867","39","120","Codierung","","0","10-1016: PIDT 14.0: #240 CR351da2 ERInterpreter: Use ER Interpreter. Add ZDC-Like screen for ERI CTS","07:00","16:00","8","60",
"20.02.14","4","130867","39","120","Codierung","","0","10-1016: PIDT 14.0: #240 CR351da2 ERInterpreter: Use ER Interpreter. Add ZDC-Like screen for ERI CTS","07:00","16:00","4","60",
"20.02.14","4","130","39","120","Codierung","","0","10-1016: PIDT 14.0: #240 CR351da2 ERInterpreter: Use ER Interpreter. Adding ERI CTS to Programming CTS","","","4","0",
"21.02.14","5","130867","39","120","Codierung","","0","10-1016: PIDT 14.0: #240 CR351da2 ERInterpreter: Use ER Interpreter. Add ERI CTS to programming CTS","07:00","16:00","6,5","60",
"21.02.14","5","140051","2","101","PM/Mod/Meetings","","0","S4/DSA overall tasks 2014. Meetings and admin","","","1,5","0",
