"03.03.14","1","130867","39","120","Codierung","","100","10-1016: PIDT 14.0: #240 CR351da2 ERInterpreter: Use ER Interpreter. Completed ERI Integration","07:00","16:00","8","60",
"04.03.14","2","130867","0","181","Fehlerbes. vor Ausl. (Bugzilla)","","0","Worked on Bugs for Sorting Empty values to end of live table. Worked on Bugs for Sorting Empty values to end of live table","07:00","16:00","8","60",
"05.03.14","3","130867","0","120","Codierung","","0","Worked on shipping warning screen for redoc. Worked on shipping warning screen for redoc","07:00","16:00","3","60",
"05.03.14","3","130867","0","181","Fehlerbes. vor Ausl. (Bugzilla)","","0","Investigated bugs for CR348my5. Investigated bugs for CR348my5","","","5","0",
"06.03.14","4","130867","0","120","Codierung","","0","Worked on ERI Review points. Worked on ERI Integration review points","07:00","16:00","8","60",
"07.03.14","5","140023","0","920","Krankheit","","0","Sick Leave. Sick Leave","07:00","16:00","8","60",
