"17.03.14","1","130867","51","140","Test","","0","10-1000: Features: Integrationstest (COIR). PIDT Testing","07:00","16:00","8","60",
"18.03.14","2","130867","51","140","Test","","100","10-1000: Features: Integrationstest (COIR). PIDT Testing","07:00","16:00","2,5","60",
"18.03.14","2","130867","86","140","Test","","0","10-9340: PIDT 14.0: CETEM Regression tests. PIDT Testing Regression tests","","","5,5","0",
"19.03.14","3","140023","0","910","Urlaub","","0","Leave. Leave","07:00","16:00","8","60",
"20.03.14","4","130867","86","140","Test","","0","10-9340: PIDT 14.0: CETEM Regression tests. PIDT Testing Regression tests","07:00","16:00","8","60",
"21.03.14","5","140023","491","910","Urlaub","","0","Public Holiday 21.03.2014. Public holiday","07:00","16:00","8","60",
