"11.08.14","1","140051","22","101","PM/Mod/Meetings","","0","General project management / Teamsupport AES 2014. General management, support","07:00","16:00","8","60",
"12.08.14","2","140051","22","101","PM/Mod/Meetings","","0","General project management / Teamsupport AES 2014. General management, support","07:00","16:00","8","60",
"13.08.14","3","140023","0","920","Krankheit","","100","Krankheit. Off Sick","07:00","16:00","8","60",
"14.08.14","4","140051","22","101","PM/Mod/Meetings","","0","General project management / Teamsupport AES 2014. Support team members","07:00","16:00","8","60",
"15.08.14","5","140051","21","101","PM/Mod/Meetings","","0","Management AES 2014. Timesheets + Meetings","07:00","16:00","1,5","60",
"15.08.14","5","140051","22","101","PM/Mod/Meetings","","0","General project management / Teamsupport AES 2014. Support team members","","","6,5","0",
