"22.09.14","1","130769","161","101","PM/Mod/Meetings","","0","PM/Mod/Meetings. Meeting on Nissan Q30 Project.","07:00","16:00","2","60",
"22.09.14","1","130769","187","181","Fehlerbes. vor Ausl. (Bugzilla)","","0","9999: Bugfixing. fixing CBC ECU as per new requirements.","","","6","0",
"23.09.14","2","130769","161","101","PM/Mod/Meetings","","0","PM/Mod/Meetings. Meeting on Nissan Q30 Project.","07:00","16:00","1","60",
"23.09.14","2","130769","187","181","Fehlerbes. vor Ausl. (Bugzilla)","","0","9999: Bugfixing. fixing CBC ECU sequences as per new requirements.","","","7","0",
"24.09.14","3","140023","0","910","Urlaub","","0","Public Holiday 24.09.2014. public holiday","07:00","16:00","8","60",
"25.09.14","4","130769","70","120","Codierung","","0","10-1015: Release 10: ECU OM651 CEPC coding + test. resolving open issues.","07:00","16:00","4","60",
"25.09.14","4","130769","187","181","Fehlerbes. vor Ausl. (Bugzilla)","","0","9999: Bugfixing. resolving open issues.","","","4","0",
"26.09.14","5","130769","187","181","Fehlerbes. vor Ausl. (Bugzilla)","","0","9999: Bugfixing. resolving open issues.","07:00","16:00","8","60",
