"21.07.14","1","140111","173","120","Codierung","","0","10-1018: PIDT 14.4: CR227my2-203_PrePostScreensRoutinen: Implementierung. Implementation","07:00","16:00","8","60",
"22.07.14","2","140111","173","120","Codierung","","0","10-1018: PIDT 14.4: CR227my2-203_PrePostScreensRoutinen: Implementierung. JUnit test implementation","07:00","16:00","8","60",
"23.07.14","3","140111","173","120","Codierung","","0","10-1018: PIDT 14.4: CR227my2-203_PrePostScreensRoutinen: Implementierung. Implementing ESC waiting for post screen using IDynamic object","07:00","16:00","8","60",
"24.07.14","4","140111","98","120","Codierung","","0","20-1015: PIDT 14.4_DiPAS: CR413my1-279_Feedback: Implementierung. Updating implementation to work with updated xsd","07:00","16:00","8","60",
"25.07.14","5","140051","4","101","PM/Mod/Meetings","","0","S4/DSA overall tasks 2014. Weekly meetings and admin","07:00","16:00","1,5","60",
"25.07.14","5","140111","173","120","Codierung","","0","CR227my2-203_PrePostScreensRoutinen: Implementierung. Implementing ESC waiting for post screen using IDynamic object","","","6,5","0",
