"23.06.14","1","140111","98","120","Codierung","","0"," PIDT 14.4_DiPAS: CR413my1-279_Feedback: Implementierung. Implementing feedback dialog","07:00","16:00","8","60",
"24.06.14","2","140111","98","120","Codierung","","0","20-1015: PIDT 14.4_DiPAS: CR413my1-279_Feedback: Implementierung. integrating feedback implementaion","07:00","16:00","8","60",
"25.06.14","3","140111","0","110","Engineering","","0","10-1018: PIDT 14.4: CR227my2-203_PrePostScreensRoutinen: Getting into subject. Getting into subject","07:00","16:00","8","60",
"26.06.14","4","140111","172","104","Test-Spezifikation","","0","10-1018: PIDT 14.4: CR227my2-203_PrePostScreensRoutinen: MODG + Testspez.. Creating Test Spec","07:00","16:00","4","60",
"26.06.14","4","140111","173","120","Codierung","","0","10-1018: PIDT 14.4: CR227my2-203_PrePostScreensRoutinen: Implementierung. Implementation","","","4","0",
"27.06.14","5","140111","173","120","Codierung","","0","10-1018: PIDT 14.4: CR227my2-203_PrePostScreensRoutinen: Implementierung. Implementation","07:00","16:00","6,5","60",
"27.06.14","5","140051","4","101","PM/Mod/Meetings","","0","S4/DSA overall tasks 2014. S4/DSA Weekly meetings and admin","","","1,5","0",
