"21.04.14","1","140023","0","910","Urlaub","","0","Public Holiday 21.04.2014. public holiday","07:00","16:00","8","60",
"22.04.14","2","120600","2587","120","Codierung","","0","00-4003: P.Lib R10: Create DisplayParameter Library Set. testing testcases and creating them in testlink.","07:00","16:00","5","60",
"22.04.14","2","120600","2570","140","Test","","100","00-3002: P.Lib R10: Test execution of FTP_LogTransfer. Testing and fixing the Testcases.","","","3","0",
"23.04.14","3","120600","2587","120","Codierung","","0","00-4003: P.Lib R10: Create DisplayParameter Library Set. testing testcases and creating them in testlink.","07:00","16:00","5","60",
"23.04.14","3","120600","2939","120","Codierung","","100","00-3001: P.Lib R10: Test Cases: Fixing (. Testing and fixing Display ParameterTestcases.","","","3","0",
"24.04.14","4","120600","2587","120","Codierung","","0","00-4003: P.Lib R10: Create DisplayParameter Library Set. testing testcases and creating them in testlink.","07:00","16:00","7","60",
"24.04.14","4","140051","41","101","PM/Mod/Meetings","","0","Training AES 2014. Training a Colleague.","","","1","0",
"25.04.14","5","120600","2587","120","Codierung","","0","00-4003: P.Lib R10: Create DisplayParameter Library Set. testing testcases and creating them in testlink.","07:00","16:00","8","60",
"25.04.14","5","120600","3029","120","Codierung","","100","8080: P3 #50068 (normal) Logging - Bausteine aus Anlagenkonfigurator erzeugen zu viel Logging,PlantC. closing the task.","","","0","0",
