"11.08.14","1","130769","90","120","Codierung","","0","11-9200: Release 11: ECU DCT Flashjob. 11-9200: Release 11: ECU DCT Flashjob","07:00","16:00","8","60",
"12.08.14","2","130769","91","120","Codierung","","0","11-9200: Release 11: ECU ECM Flashjob. 11-9200: Release 11: ECU ECM Flashjob","07:00","16:00","8","60",
"13.08.14","3","130769","92","120","Codierung","","0","11-9200: Release 11: ECU Airbag Flashjob. 11-9200: Release 11: ECU Airbag Flashjob","07:00","16:00","8","60",
"14.08.14","4","130769","89","120","Codierung","","0","11-9200: Release 11: ECU SecurityAccess 3. 11-9200: Release 11: ECU SecurityAccess 3","07:00","16:00","2","60",
"14.08.14","4","140008","189","120","Codierung","","0","From hd: BaseLib um das Protokoll J1939 erweitert. From hd: BaseLib um das Protokoll J1939 erweitert","","","5,5","0",
"14.08.14","4","130769","160","101","PM/Mod/Meetings","","0","PM/Mod/Meetings. PM/Mod/Meetings Nissan meeting/flash probelm discussion","","","0,5","0",
"15.08.14","5","140051","36","101","PM/Mod/Meetings","","0","Weekly tasks AES 2014. Meetings and Time Sheets","07:00","16:00","1","60",
"15.08.14","5","140008","189","120","Codierung","","0","From hd: BaseLib um das Protokoll J1939 erweitert. From hd: BaseLib um das Protokoll J1939 erweitert","","","7","0",
