"20.10.14","1","140501","276","104","Test-Spezifikation","","0","11-1006: PIDT 14.8: CR434my3-295_SingleOptionItem: Testspec. Testspec","07:00","16:00","4","60",
"20.10.14","1","140501","343","120","Codierung","","0","20-1107: PIDT 14.8 DiPAS: CR415my7-270_LoggingWatchdog: Implementierung. Getting into subject","","","4","0",
"21.10.14","2","140023","0","920","Krankheit","","0","Krankheit. Krankheit","07:00","16:00","8","60",
"22.10.14","3","140501","343","120","Codierung","","0","20-1107: PIDT 14.8 DiPAS: CR415my7-270_LoggingWatchdog: Implementierung. Getting into subject","07:00","16:00","8","60",
"23.10.14","4","140501","343","120","Codierung","","0","20-1107: PIDT 14.8 DiPAS: CR415my7-270_LoggingWatchdog: Implementierung. Getting into subject","07:00","16:00","8","60",
"24.10.14","5","140051","6","101","PM/Mod/Meetings","","0","S4/DSA overall tasks 2014. Meeting/Timesheets","07:00","16:00","1,5","60",
"24.10.14","5","140501","343","120","Codierung","","0","20-1107: PIDT 14.8 DiPAS: CR415my7-270_LoggingWatchdog: Implementierung. Implementierung","","","6,5","0",
