"22.12.14","1","140023","2850","910","Urlaub","","0","Urlaub 22.12.-26.12.2014. Urlaub","07:00","16:00","8","60",
"22.12.14","1","140501","343","120","Codierung","","100","20-1107: PIDT 14.8 DiPAS: CR415my7-270_LoggingWatchdog: Implementierung. Implementierung","","","0","0",
"23.12.14","2","140023","2850","910","Urlaub","","0","Urlaub 22.12.-26.12.2014. Urlaub","07:00","16:00","8","60",
"24.12.14","3","140023","2850","910","Urlaub","","0","Urlaub 22.12.-26.12.2014. Urlaub","07:00","16:00","8","60",
"25.12.14","4","140023","2850","910","Urlaub","","0","Urlaub 22.12.-26.12.2014. Urlaub","07:00","16:00","8","60",
"26.12.14","5","140023","2850","910","Urlaub","","0","Urlaub 22.12.-26.12.2014. Urlaub","07:00","16:00","8","60",
