"15.09.14","1","120327","76","120","Codierung","","0","Production Demo: Impl. /pa20. Additional axamples for Production Demo","07:00","16:00","8","60",
"16.09.14","2","120327","76","120","Codierung","","0","Production Demo: Impl. /pa20. Additional axamples for Production Demo","07:00","16:00","4","60",
"16.09.14","2","140051","22","101","PM/Mod/Meetings","","0","General project management / Teamsupport AES 2014. General management, support","","","4","0",
"17.09.14","3","140051","23","170","Schulung","","0","Training 2014. Training new colleague on PRODIS.Automation basics","07:00","16:00","3","60",
"17.09.14","3","140070","111","181","Fehlerbes. vor Ausl. (Bugzilla)","","0","00-9340: P. Automation allg. Unterstützung Bugfixing. Investigating CTS saving issue with ODX Browser","","","3","0",
"17.09.14","3","140051","22","101","PM/Mod/Meetings","","0","General project management / Teamsupport AES 2014. General management, support","","","2","0",
"18.09.14","4","120759","9999","180","Fehlerbes. nach Auslieferung (SA)","","0","Krone: Nabenpruefstand Rework. Integrate IDT framework","07:00","16:00","8","60",
"19.09.14","5","140051","21","101","PM/Mod/Meetings","","0","Management AES 2014. Timesheets + Meetings","07:00","16:00","1","60",
"19.09.14","5","140051","22","101","PM/Mod/Meetings","","0","General project management / Teamsupport AES 2014. Meeting with S4 management","","","2","0",
"19.09.14","5","120759","9999","180","Fehlerbes. nach Auslieferung (SA)","","0","Krone: Nabenpruefstand Rework. Reworking Test Setup","","","5","0",
