"02.06.14","1","120527","732","110","Engineering","","0","75-5004: GFS: Impl+Test+Verifikation. 75-5004: GFS: Impl+Test+Verifikation","07:00","16:00","4","60",
"02.06.14","1","140051","35","170","Schulung","","0","Training 2014. Training and Suport for AEC","","","4","0",
"03.06.14","2","120527","732","110","Engineering","","0","75-5004: GFS: Impl+Test+Verifikation. 75-5004: GFS: Impl+Test+Verifikation","07:00","16:00","4","60",
"03.06.14","2","140051","35","170","Schulung","","0","Training 2014. Training and Suport for AEC","","","4","0",
"04.06.14","3","120527","732","110","Engineering","","0","75-5004: GFS: Impl+Test+Verifikation. 75-5004: GFS: Impl+Test+Verifikation","07:00","16:00","4","60",
"04.06.14","3","140051","35","170","Schulung","","0","Training 2014. Training and Suport for AEC","","","4","0",
"05.06.14","4","120527","732","110","Engineering","","0","75-5004: GFS: Impl+Test+Verifikation. 75-5004: GFS: Impl+Test+Verifikation","07:00","16:00","4","60",
"05.06.14","4","140051","35","170","Schulung","","0","Training 2014. Training and Suport for AEC","","","4","0",
"06.06.14","5","120527","732","110","Engineering","","0","75-5004: GFS: Impl+Test+Verifikation. 75-5004: GFS: Impl+Test+Verifikation","07:00","16:00","4","60",
"06.06.14","5","140051","35","170","Schulung","","0","Training 2014. Training and Suport for AEC","","","4","0",
