"22.12.14","1","140023","0","910","Urlaub","","0","Urlaub. leave","07:00","16:00","8","60",
"23.12.14","2","140023","0","910","Urlaub","","0","Urlaub. leave","07:00","16:00","8","60",
"24.12.14","3","140023","0","910","Urlaub","","0","Urlaub. leave","07:00","16:00","8","60",
"25.12.14","4","140023","0","910","Urlaub","","0","Urlaub. public holiday","07:00","16:00","8","60",
"26.12.14","5","140023","0","910","Urlaub","","0","Urlaub. public holiday","07:00","16:00","8","60",
