"11.08.14","1","130056","421","120","Codierung","","100","15-1112: ASCS II: AP16: Generic ODX: Measurements (Available/Selection Dialog). Minor after review changes","07:00","16:00","8","60",
"12.08.14","2","140574","2","120","Codierung","","0","GM Demo: Vehicle configuration example /EDA10. update vehicle config list","07:00","16:00","4","60",
"12.08.14","2","130056","350","185","Service, Telefon-Support","","100","ASCS II: Wartung und Pflege. (ReOpen)FlashFramework navigation fix","","","4","0",
"13.08.14","3","140574","5","120","Codierung","","0","GM Demo:  Environment data example /EDA10.  Edit env data on odx and sims and cts modification","07:00","16:00","8","60",
"14.08.14","4","140574","6","120","Codierung","","0","GM Demo:  Document linking demonstration /EDA10. html documents examples, dtc and epids","07:00","16:00","8","60",
"15.08.14","5","140051","32","101","PM/Mod/Meetings","","0"," Weekly tasks AES 2014. S4 Meetings and timesheets","07:00","16:00","1,5","60",
"15.08.14","5","140051","33","170","Schulung","","0","Training 2014. GFS SVG and HTML get into subject","","","5","0",
"15.08.14","5","140574","7","120","Codierung","","0","GM Demo:  Guided Setup procedure example /EDA10. Implement SVG guided repair","","","1,5","0",
