"03.11.14","1","140051","53","101","PM/Mod/Meetings","","0","Training AES 2014. Training PRODIS.Office Flashing","07:00","16:00","8","60",
"04.11.14","2","140051","53","101","PM/Mod/Meetings","","0","Training AES 2014. Training PRODIS.Office Flashing","07:00","16:00","8","60",
"05.11.14","3","140051","53","101","PM/Mod/Meetings","","0","Training AES 2014. Training PRODIS.Office Flashing","07:00","16:00","8","60",
"06.11.14","4","140051","53","101","PM/Mod/Meetings","","0","Training AES 2014. Training PRODIS.Authoring","07:00","16:00","6,5","60",
"06.11.14","4","140051","54","101","PM/Mod/Meetings","","0","Weekly tasks AES 2014. Weekly tasks AES 2014","","","1,5","0",
"07.11.14","5","140051","53","101","PM/Mod/Meetings","","0","Training AES 2014. Training PRODIS.Authoring","07:00","16:00","8","60",
