"27.10.14","1","140023","0","910","Urlaub","","0","Holiday. Time off","07:00","16:00","8","60",
"28.10.14","2","140501","283","120","Codierung","","0","11-1007: PIDT 14.8: CR430my1-180_Datensatzdownload2: Implementierung. Worked on Datensatzdownload2 Entities","07:00","16:00","8","60",
"29.10.14","3","140501","283","120","Codierung","","0","11-1007: PIDT 14.8: CR430my1-180_Datensatzdownload2: Implementierung. Worked on Datensatzdownload2 Entities","07:00","16:00","8","60",
"30.10.14","4","140501","265","120","Codierung","","0","10-1004: PIDT 14.8: CR431my1-297_APuCOnDemand: Implementierung. Merging trunk branch to feature dev branch","07:00","16:00","8","60",
"31.10.14","5","140501","265","120","Codierung","","100","10-1004: PIDT 14.8: CR431my1-297_APuCOnDemand: Implementierung. Merging APuCOnDemand Automation entities","07:00","16:00","6,5","60",
"31.10.14","5","140051","2","101","PM/Mod/Meetings","","0","S4/DSA overall tasks 2014. Meetings and admin","","","1,5","0",
