"29.09.14","1","130769","163","101","PM/Mod/Meetings","","0","Meeting/Telco. Meeting/Telco","07:00","16:00","1","60",
"29.09.14","1","130769","62","120","Codierung","","0","10-1019: Release 10: ECU SCCM coding + test. 10-1019: Release 10: ECU SCCM coding + test","","","3","0",
"29.09.14","1","140051","53","101","PM/Mod/Meetings","","0","Training Statistics. Training Statistics","","","4","0",
"30.09.14","2","140023","0","910","Urlaub","","0","Leave. Leave","07:00","16:00","8","60",
"01.10.14","3","140051","54","101","PM/Mod/Meetings","","0","Weekly tasks AES 2014. VW factory visit","07:00","16:00","8","60",
"02.10.14","4","130769","194","120","Codierung","","0","9999: ECU ORC (Nissan) coding + test. 9999: ECU ORC (Nissan) coding + test","07:00","16:00","8","60",
"03.10.14","5","140051","54","101","PM/Mod/Meetings","","0","Weekly tasks AES 2014. Weekly tasks AES 2014","07:00","16:00","1,5","60",
"03.10.14","5","130769","68","120","Codierung","","0","10-1005: Release 10: ECU DSI coding + test. 10-1005: Release 10: ECU DSI coding + test","","","4","0",
"03.10.14","5","140051","53","101","PM/Mod/Meetings","","0","Training Statistics. Training Statistics","","","2,5","0",
