"10.11.14","1","140023","0","910","Urlaub","","0","Time - Off. Time Off","07:00","16:00","8","60",
"11.11.14","2","140023","0","910","Urlaub","","0","Time - Off. Time Off","07:00","16:00","8","60",
"12.11.14","3","140023","0","910","Urlaub","","0","Time - Off. Time Off","07:00","16:00","8","60",
"13.11.14","4","120759","358","150","Inbetriebnahme","","0","Pleuel-T2: Backoffice Support. idt config file modification, cts adaptation, testing","07:00","16:00","3","60",
"13.11.14","4","130056","435","185","Service, Telefon-Support","","0","ASCS II: Wartung und Pflege. ECU Exchange modifications","","","5","0",
"14.11.14","5","140051","32","101","PM/Mod/Meetings","","0","Weekly tasks AES 2014. S4 Meetings and timesheets","07:00","16:00","1,5","60",
"14.11.14","5","130056","424","130","Installation + Konfiguration","","0","1106: ASCS II: AP6: UnitTests: Setup / Testsequences F5.1/ae12. (From s53) Testcases for ecu exchange and linde demo extensions in ascs","","","6,5","0",
