"29.12.14","1","140023","2842","910","Urlaub","","0","Urlaub 22.12.2014-09.01.2015. Urlaub 22.12.2014-09.01.2015","07:00","16:00","8","60",
"30.12.14","2","140023","2842","910","Urlaub","","0","Urlaub 22.12.2014-09.01.2015. Urlaub 22.12.2014-09.01.2015","07:00","16:00","8","60",
"31.12.14","3","140023","2842","910","Urlaub","","0","Urlaub 22.12.2014-09.01.2015. Urlaub 22.12.2014-09.01.2015","07:00","16:00","8","60",
"01.01.15","4","150023","0","910","Urlaub","","0","Public Holiday. Public Holiday","07:00","16:00","8","60",
"02.01.15","5","140023","2842","910","Urlaub","","0","Urlaub 22.12.2014-09.01.2015. Urlaub 22.12.2014-09.01.2015","07:00","16:00","8","60",
