"27.04.15","1","150023","0","910","Urlaub","","0","Time Off. Public Holiday","07:00","16:00","8","60",
"28.04.15","2","150051","7","170","Schulung","","0","Training AES 2015. MSFD Update cts test","07:00","16:00","3","60",
"28.04.15","2","150389","0","150","Inbetriebnahme","","0","CRR1 Flashing modifications. Changing job to ignore security checksum for ccr1","","","2","0",
"28.04.15","2","150103","41","182","Fehlerbes. nach Ausl. (Bugzilla)","","100","8080: P1 #57283 (major) Measurement values selection and Tooltips doesn't work properly for few CTSs. (reopening) Added missing string resources, fixed nullpoint on selection. testing","","","3","0",
"29.04.15","3","150051","15","170","Schulung","","0","Training AES 2015. Automation PDCS","07:00","16:00","8","60",
"30.04.15","4","150023","0","910","Urlaub","","0","Time Off. Time Off","07:00","16:00","8","60",
"01.05.15","5","150023","0","910","Urlaub","","0","Time Off. Public Holiday","07:00","16:00","8","60",
