"13.04.15","1","150051","17","170","Schulung","","0","Weekly tasks AES 2015. Traveling to Aachen","07:00","16:00","8","60",
"14.04.15","2","150051","17","170","Schulung","","0","Weekly tasks AES 2015. Traveling to Aachen","07:00","16:00","4","60",
"14.04.15","2","150051","9","170","Schulung","","0","Training AES 2015. Training in Aachen","","","4","0",
"15.04.15","3","150051","9","170","Schulung","","0","Training AES 2015. Training in Aacen","07:00","16:00","8","60",
"16.04.15","4","150051","9","170","Schulung","","0","Training AES 2015. Training in Aachen","07:00","16:00","8","60",
"17.04.15","5","150051","9","170","Schulung","","0","Training AES 2015. Training in Aachen","07:00","16:00","8","60",
