"16.03.15","1","140685","458","140","Test","","0","10-1000: PIDT 15.0 DiPAS: Regressionstest. PIDT Testing","07:00","16:00","8","60",
"17.03.15","2","150023","0","910","Urlaub","","0","Urlaub. Urlaub","07:00","16:00","8","60",
"18.03.15","3","140685","458","140","Test","","0","10-1000: PIDT 15.0 DiPAS: Regressionstest. PIDT Testing","07:00","16:00","8","60",
"19.03.15","4","140685","458","140","Test","","0","10-1000: PIDT 15.0 DiPAS: Regressionstest. PIDT Testing","07:00","16:00","8","60",
"20.03.15","5","140685","458","140","Test","","0","10-1000: PIDT 15.0 DiPAS: Regressionstest. PIDT Testing","07:00","16:00","6,5","60",
"20.03.15","5","150051","19","170","Schulung","","0","Weekly tasks AES 2015. Timesheets and meetings","","","1,5","0",
