"18.05.15","1","150164","48","120","Codierung","","0","10_FEAT-0101: ECU Handler Part 5. 10_FEAT-0101: ECU Handler Part 5","07:00","16:00","4","60",
"18.05.15","1","130056","0","140","Test","","0","Finding/Analysing/Reproducing/Posting Bug 57861. Finding/Analysing/Reproducing/Posting Bug 57861","","","4","0",
"19.05.15","2","150164","48","120","Codierung","","0","10_FEAT-0101: ECU Handler Part 5. 10_FEAT-0101: ECU Handler Part 5","07:00","16:00","1","60",
"19.05.15","2","150164","55","120","Codierung","","0","10_FEAT-0101: Additional Test Functions. 10_FEAT-0101: Additional Test Functions","","","3","0",
"19.05.15","2","130056","0","140","Test","","0","Finding/Analysing/Reproducing/Posting Bug 57861. Finding/Analysing/Reproducing/Posting Bug 57861","","","4","0",
"20.05.15","3","150164","48","120","Codierung","","0","10_FEAT-0101: ECU Handler Part 5. 10_FEAT-0101: ECU Handler Part 5","07:00","16:00","8","60",
"21.05.15","4","150164","48","120","Codierung","","0","10_FEAT-0101: ECU Handler Part 5. 10_FEAT-0101: ECU Handler Part 5","07:00","16:00","8","60",
"22.05.15","5","150164","48","120","Codierung","","0","10_FEAT-0101: ECU Handler Part 5. 10_FEAT-0101: ECU Handler Part 5","07:00","16:00","4","60",
"22.05.15","5","150051","17","170","Schulung","","0","Weekly tasks AES 2015. Timesheet + S4 event","","","4","0",
