"16.02.15","1","150121","468","182","Fehlerbes. nach Ausl. (Bugzilla)","","0","8080: P3 #52577 (normal) SGDOC: Values aus vehicle-definition werden nur bei Angabe einer ecu/protoc. Working on bug #52577","07:00","16:00","8","60",
"17.02.15","2","140501","455","120","Codierung","","0","20-1101: PIDT 14.8 DiPAS: CR435my1-293_Filter: Implementierung. Implementing invalid filters and alternative ECUs handling","07:00","16:00","8","60",
"18.02.15","3","150121","429","182","Fehlerbes. nach Ausl. (Bugzilla)","","0","10-1000: Bugfixing (Puffer). Investigating bug 55893","07:00","16:00","5","60",
"18.02.15","3","150121","468","182","Fehlerbes. nach Ausl. (Bugzilla)","","0","8080: P3 #52577 (normal) SGDOC: Values aus vehicle-definition werden nur bei Angabe einer ecu/protoc. Working on bug 40127","","","3","0",
"19.02.15","4","150121","429","182","Fehlerbes. nach Ausl. (Bugzilla)","","0","10-1000: Bugfixing (Puffer). Working on bug 55900","07:00","16:00","3","60",
"19.02.15","4","150121","429","182","Fehlerbes. nach Ausl. (Bugzilla)","","0","10-1000: Bugfixing (Puffer). bug 55311","","","2,5","0",
"19.02.15","4","150121","429","182","Fehlerbes. nach Ausl. (Bugzilla)","","0","10-1000: Bugfixing (Puffer). bug 55308","","","2,5","0",
"20.02.15","5","150051","26","101","PM/Mod/Meetings","","0","S4/DSA overall tasks 2015. S4/DSA weekly meetings and admin","07:00","16:00","1,5","60",
"20.02.15","5","150121","468","182","Fehlerbes. nach Ausl. (Bugzilla)","","0","8080: P3 #52577 (normal) SGDOC: Values aus vehicle-definition werden nur bei Angabe einer ecu/protoc. Working on bug #52577 ","","","2","0",
"20.02.15","5","140501","455","120","Codierung","","0","20-1101: PIDT 14.8 DiPAS: CR435my1-293_Filter: Implementierung. Closing task","","","0","0",
"20.02.15","5","150121","429","182","Fehlerbes. nach Ausl. (Bugzilla)","","0","10-1000: Bugfixing (Puffer). bug 55308","","","4,5","0",
