"20.04.15","1","150051","11","170","Schulung","","0","Training AES 2015. Training","07:00","16:00","8","60",
"21.04.15","2","150051","11","170","Schulung","","0","Training AES 2015. Training","07:00","16:00","8","60",
"22.04.15","3","150051","11","170","Schulung","","0","Training AES 2015. Training","07:00","16:00","8","60",
"23.04.15","4","150051","11","170","Schulung","","0","Training AES 2015. Training","07:00","16:00","8","60",
"24.04.15","5","150389","0","150","Inbetriebnahme","","0","Creating new requested Nissan CTS. Implementing Nissan CTS","07:00","16:00","8","60",
