"11.05.15","1","140080","88","120","Codierung","","0","140080 - PRODIS.Insight - Datastore JSData / Schema JSSchema. work in progress","07:00","16:00","8","60",
"12.05.15","2","140080","88","120","Codierung","","0","140080 - PRODIS.Insight - Datastore JSData / Schema JSSchema. work in progress","07:00","16:00","8","60",
"13.05.15","3","140080","88","120","Codierung","","0","140080 - PRODIS.Insight - Datastore JSData / Schema JSSchema. work in progress","07:00","16:00","8","60",
"14.05.15","4","140080","88","120","Codierung","","0","140080 - PRODIS.Insight - Datastore JSData / Schema JSSchema. work in progress","07:00","16:00","8","60",
"15.05.15","5","140080","88","120","Codierung","","100","140080 - PRODIS.Insight - Datastore JSData / Schema JSSchema. work in progress","07:00","16:00","8","60",
