"12.01.15","1","130056","0","120","Codierung","","0","PoC J1939 integration. PoC J1939 integration","07:00","16:00","8","60",
"13.01.15","2","150051","12","170","Schulung","","0","Training AES 2015. Training J1939 ODX","07:00","16:00","8","60",
"14.01.15","3","150051","12","170","Schulung","","0","Training AES 2015. Training J1939 ODX","07:00","16:00","8","60",
"15.01.15","4","130769","333","120","Codierung","","0","from s65: 12-1207: Release 12: Toaster CTS. Created SVG User Interface Screens for the Toaster","07:00","16:00","6,5","60",
"15.01.15","4","150051","20","170","Schulung","","0","Weekly tasks AES 2015. Timesheets and meetings","","","1,5","0",
"16.01.15","5","130056","482","120","Codierung","","0","from s64: 50_FEAT-4936: ASCS 1.8.0: Guided Diagnos. Rework: Test cases /eda50. from s64: 50_FEAT-4936: ASCS 1.8.0: Guided Diagnos. Rework: Test cases /eda50","07:00","16:00","8","60",
