"20.04.15","1","150051","24","101","PM/Mod/Meetings","","0","S4/DSA overall tasks 2015. S4/DSA overall tasks 2015","07:00","16:00","1","60",
"20.04.15","1","150343","44","120","Codierung","","0","10-1004: Implementierung PIDT 15.1: CR444fs1-302_AktionAnzeig. 10-1004: Implementierung PIDT 15.1: CR444fs1-302_AktionAnzeig","","","7","0",
"21.04.15","2","150343","44","120","Codierung","","0","10-1004: Implementierung PIDT 15.1: CR444fs1-302_AktionAnzeig. 10-1004: Implementierung PIDT 15.1: CR444fs1-302_AktionAnzeig","07:00","16:00","8","60",
"22.04.15","3","150343","44","120","Codierung","","0","10-1004: Implementierung PIDT 15.1: CR444fs1-302_AktionAnzeig. 10-1004: Implementierung PIDT 15.1: CR444fs1-302_AktionAnzeig","07:00","16:00","8","60",
"23.04.15","4","150343","44","120","Codierung","","0","10-1004: Implementierung PIDT 15.1: CR444fs1-302_AktionAnzeig. 10-1004: Implementierung PIDT 15.1: CR444fs1-302_AktionAnzeig","07:00","16:00","7","60",
"23.04.15","4","150051","24","101","PM/Mod/Meetings","","0","S4/DSA overall tasks 2015. S4/DSA overall tasks 2015","","","1","0",
"24.04.15","5","150051","24","101","PM/Mod/Meetings","","0","S4/DSA overall tasks 2015. S4/DSA overall tasks 2015","07:00","16:00","1,5","60",
"24.04.15","5","150343","44","120","Codierung","","0","10-1004: Implementierung PIDT 15.1: CR444fs1-302_AktionAnzeig. 10-1004: Implementierung PIDT 15.1: CR444fs1-302_AktionAnzeig","","","6,5","0",
