"16.02.15","1","140074","9999","120","Codierung","","0","10-1002: Coding. ECU Related sequences:Coding","07:00","16:00","5","60",
"16.02.15","1","150051","9","170","Schulung","","0","Training AES 2015. Traingin VW colleague in automation","","","3","0",
"17.02.15","2","140074","9999","120","Codierung","","0","10-1002: Coding. ECU Related sequences:Coding","07:00","16:00","5","60",
"17.02.15","2","150051","9","170","Schulung","","0","Training AES 2015. Traingin VW colleague in automation","","","3","0",
"18.02.15","3","140074","9999","120","Codierung","","0","10-1002: Coding. ECU Related sequences:Coding","07:00","16:00","5","60",
"18.02.15","3","150051","9","170","Schulung","","0","Training AES 2015. Traingin VW colleague in automation","","","3","0",
"19.02.15","4","150051","9","170","Schulung","","0","Training AES 2015. Traingin VW colleague in automation","07:00","16:00","2","60",
"19.02.15","4","130056","521","182","Fehlerbes. nach Ausl. (Bugzilla)","","0","P3 #47855 (normal) Make OBD Sequences more robust,WWH-OBD/OBD-II  Tester. P3 #47855 (normal) Make OBD Sequences more robust,WWH-OBD/OBD-II  Tester","","","6","0",
"20.02.15","5","130056","521","182","Fehlerbes. nach Ausl. (Bugzilla)","","0","P3 #47855 (normal) Make OBD Sequences more robust,WWH-OBD/OBD-II  Tester. P3 #47855 (normal) Make OBD Sequences more robust,WWH-OBD/OBD-II  Tester","07:00","16:00","7","60",
"20.02.15","5","150051","17","170","Schulung","","0"," Weekly tasks AES 2015. Meetings & Timesheets","","","1","0",
