"06.04.15","1","150023","0","910","Urlaub","","0","Public Holiday. Public Holiday","07:00","16:00","8","60",
"07.04.15","2","150121","0","181","Fehlerbes. vor Ausl. (Bugzilla)","","0","PIDT 14.8.4 bug-fixing.. Working on PIDT 14.8.4 bugs.","07:00","16:00","8","60",
"08.04.15","3","150121","0","181","Fehlerbes. vor Ausl. (Bugzilla)","","0","PIDT 14.8.4 bug-fixing.. Working on PIDT 14.8.4 bugs.","07:00","16:00","8","60",
"09.04.15","4","150343","0","182","Fehlerbes. nach Ausl. (Bugzilla)","","0","PIDT 15.0 bug-fixing.. Working on PIDT 15.0 bugs.","07:00","16:00","8","60",
"10.04.15","5","150051","23","101","PM/Mod/Meetings","","0","S4/DSA overall tasks 2015. General tasks and weekly meeting","07:00","16:00","1,5","60",
"10.04.15","5","150343","0","182","Fehlerbes. nach Ausl. (Bugzilla)","","0","PIDT 15.0 bug-fixing.. Working on PIDT 15.0 bugs.","","","6,5","0",
