"23.02.15","1","150121","418","120","Codierung","","0","10-1052: UnifyCuPLogSchema: Make generated of SGDoc optional. Review Fixes","07:00","16:00","4","60",
"23.02.15","1","140685","413","120","Codierung","","0","10-1001: PIDT 15.0 DiPAS: CR444fs3-307_GFS_IPC_Client: Implementierung. Implementierung","","","4","0",
"24.02.15","2","150121","418","120","Codierung","","0","10-1052: UnifyCuPLogSchema: Make generated of SGDoc optional. Review Fixes","07:00","16:00","6","60",
"24.02.15","2","140685","413","120","Codierung","","0","10-1001: PIDT 15.0 DiPAS: CR444fs3-307_GFS_IPC_Client: Implementierung. Implementierung","","","2","0",
"25.02.15","3","150121","418","120","Codierung","","0","10-1052: UnifyCuPLogSchema: Make generated of SGDoc optional. Review Fixes","07:00","16:00","4","60",
"25.02.15","3","150121","416","104","Test-Spezifikation","","0","10-1052: UnifyCuPLogSchema Testspec SWIS erstellen. Review Fixes","","","1","0",
"25.02.15","3","140685","413","120","Codierung","","0","10-1001: PIDT 15.0 DiPAS: CR444fs3-307_GFS_IPC_Client: Implementierung. Implementierung","","","3","0",
"26.02.15","4","150121","0","110","Engineering","","0","9999: PIDT 15.0.0 Setting up development environment. CR444fs3-307_GFS_IPC_Client setup","07:00","16:00","4","60",
"26.02.15","4","140685","413","120","Codierung","","0","10-1001: PIDT 15.0 DiPAS: CR444fs3-307_GFS_IPC_Client: Implementierung. Implementierung","","","4","0",
"27.02.15","5","140685","477","110","Engineering","","0","10-1000: PIDT 15.0 DiPAS: TaskBoard Creation. TaskBoard Creation","07:00","16:00","1","60",
"27.02.15","5","150051","25","101","PM/Mod/Meetings","","0","S4/DSA overall tasks 2015. Meeting/Timesheets","","","1,5","0",
"27.02.15","5","140685","413","120","Codierung","","0","10-1001: PIDT 15.0 DiPAS: CR444fs3-307_GFS_IPC_Client: Implementierung. Implementierung","","","5,5","0",
"27.02.15","5","150121","457","110","Engineering","","100","9999: PIDT 14.8.1 Setting up development environment. Closing task","","","0","0",
"27.02.15","5","150121","482","182","Fehlerbes. nach Ausl. (Bugzilla)","","100","9999: Bug #55670. Closing task","","","0","0",
