"19.01.15","1","150103","11","182","Fehlerbes. nach Ausl. (Bugzilla)","","100","8080: P3 #54939 (enhancement) CPID - Eingangsmeldung und Ausgangsmeldung (als Documente Reference) w. bugfix","07:00","16:00","8","60",
"20.01.15","2","150103","0","182","Fehlerbes. nach Ausl. (Bugzilla)","","100","8080: P3 #54938 (major)  Tooltipps fehlen beim Stellgliedtest,MAN Sequences. bugfix","07:00","16:00","1","60",
"20.01.15","2","150103","0","182","Fehlerbes. nach Ausl. (Bugzilla)","","100","8080: P3 #53467 (enhancement) ZBRO32 A2L Job, does not re-read A2L file after sessions change,MAN Se. bugfix","","","3","0",
"20.01.15","2","150103","0","182","Fehlerbes. nach Ausl. (Bugzilla)","","0","8080: P3 #54154 (normal) ECAM Stellgliedtest funktioniert nicht,MAN Sequences. bufix test","","","1","0",
"20.01.15","2","150103","16","182","Fehlerbes. nach Ausl. (Bugzilla)","","100","8080: P1 #52381 (major) Parametrization : Can not write values,MAN Sequences. bugfix","","","3","0",
"21.01.15","3","120527","979","120","Codierung","","0","63-4206: FlashJob Gateway. Modify preprogramming job","07:00","16:00","4","60",
"21.01.15","3","150103","16","182","Fehlerbes. nach Ausl. (Bugzilla)","","0","8080: P1 #52381 (major) Parametrization : Can not write values,MAN Sequences. bugfix","","","4","0",
"22.01.15","4","150103","16","182","Fehlerbes. nach Ausl. (Bugzilla)","","0","8080: P1 #52381 (major) Parametrization : Can not write values,MAN Sequences. bugfix","07:00","16:00","8","60",
"23.01.15","5","150051","15","101","PM/Mod/Meetings","","0","Weekly tasks AES 2015. S4 Meetings and timesheets","07:00","16:00","1","60",
"23.01.15","5","150103","16","182","Fehlerbes. nach Ausl. (Bugzilla)","","0","8080: P1 #52381 (major) Parametrization : Can not write values,MAN Sequences. bugfix","","","4","0",
"23.01.15","5","150051","7","170","Schulung","","0"," Training AES 2015. helping colleague with CPids and EPids","","","3","0",
