DATE;NAME;START;END;LUNCH;1;2;3;4;5;6;7;8;9;10;11;12;13;14;15;16;17;18;19;20;21;22;23;24;
08.10.15;Luthando Ntsekwa;07:00:00;16:00:00;60;
08.10.15;Charlene Ristow;
08.10.15;Ntombenkosi Yokwana;
08.10.15;Mario Jansen van Vuuren;
08.10.15;Webster Ndlovu;
08.10.15;Ibrahim Arends;
08.10.15;Francois van Vuuren;
08.10.15;Tafadzwa Mvindi;
08.10.15;Tashinga Chivasa;
08.10.15;Muya Mwansa;
08.10.15;Clinton Dewing;
08.10.15;FrancoisR Rossouw;
08.10.15;Gaetan Bricel Dzali Dzali;
08.10.15;Derek Hobden;