"27.04.15","1","150023","0","910","Urlaub","","0","Urlaub. Public holiday","07:00","16:00","8","60",
"28.04.15","2","150343","56","120","Codierung","","0","10-1005:Implementierung PIDT 15.1: CR516fs1-nnn_GFS-FA-Datei_Migr-BR. 10-1005:Implementierung PIDT 15.1: CR516fs1-nnn_GFS-FA-Datei_Migr-BR","07:00","16:00","8","60",
"29.04.15","3","150343","56","120","Codierung","","0","10-1005:Implementierung PIDT 15.1: CR516fs1-nnn_GFS-FA-Datei_Migr-BR. 10-1005:Implementierung PIDT 15.1: CR516fs1-nnn_GFS-FA-Datei_Migr-BR","07:00","16:00","8","60",
"30.04.15","4","150343","56","120","Codierung","","0","10-1005:Implementierung PIDT 15.1: CR516fs1-nnn_GFS-FA-Datei_Migr-BR. 10-1005:Implementierung PIDT 15.1: CR516fs1-nnn_GFS-FA-Datei_Migr-BR","07:00","16:00","8","60",
"01.05.15","5","150023","0","910","Urlaub","","0","Urlaub. Public holiday","07:00","16:00","8","60",
