"19.01.15","1","150051","25","101","PM/Mod/Meetings","","0","S4/DSA overall tasks 2015. PIDT 15.0.0 Meeting","07:00","16:00","4","60",
"19.01.15","1","140685","0","102","Spez: LH/PH/Design","","0","PIDT 15.0_DiPAS: Creating work breakdown structure.. Creating work breakdown structure.","","","4","0",
"20.01.15","2","140685","0","102","Spez: LH/PH/Design","","0","PIDT 15.0_DiPAS: Creating work breakdown structure.. Creating work breakdown structure","07:00","16:00","8","60",
"21.01.15","3","140501","375","181","Fehlerbes. vor Ausl. (Bugzilla)","","0","8080: P3 #52321 (normal) Der Bestätigungsdialog zum Stoppen des laufenden DataLoggers wird nur beim . Bug 52321","07:00","16:00","4","60",
"21.01.15","3","140685","0","102","Spez: LH/PH/Design","","0","PIDT 15.0_DiPAS: Creating work breakdown structure.. Creating work breakdown structure.","","","4","0",
"22.01.15","4","150051","25","101","PM/Mod/Meetings","","0","S4/DSA overall tasks 2015. PIDT 15.0.0 Meeting and timesheets","07:00","16:00","4,25","60",
"22.01.15","4","140685","0","102","Spez: LH/PH/Design","","0","PIDT 15.0_DiPAS: Pflichtenhefte. Work break-down structure.","","","3,75","0",
"23.01.15","5","150023","0","910","Urlaub","","0","Holiday. Time off","07:00","16:00","8","60",
