"15.12.14","1","140023","2846","910","Urlaub","","0","Urlaub 15.12.2014. Leave","07:00","16:00","8","60",
"16.12.14","2","140023","2871","910","Urlaub","","0","Public Holiday 15.12.14. Public Holiday","07:00","16:00","8","60",
"17.12.14","3","140501","337","120","Codierung","","100","20-1106: PIDT 14.8 DiPAS: CR421my2-292_Nutzungsstatistik: Implementierung. Re-implementing feature in CTSs affected by other entities","07:00","16:00","8","60",
"18.12.14","4","140501","337","120","Codierung","","0","20-1106: PIDT 14.8 DiPAS: CR421my2-292_Nutzungsstatistik: Implementierung. Fixing buggy behavior after integration","07:00","16:00","4","60",
"18.12.14","4","140501","455","120","Codierung","","0","20-1101: PIDT 14.8 DiPAS: CR435my1-293_Filter: Implementierung. Implementation","","","4","0",
"19.12.14","5","140051","4","101","PM/Mod/Meetings","","0","S4/DSA overall tasks 2014. S4/DSA Weekly meetings and admin","07:00","16:00","1,5","60",
"19.12.14","5","140501","337","120","Codierung","","0","20-1106: PIDT 14.8 DiPAS: CR421my2-292_Nutzungsstatistik: Implementierung. Fixing review issues","","","6,5","0",
