"06.04.15","1","150023","0","910","Urlaub","","0","Urlaub. Public Holiday","07:00","16:00","8","60",
"07.04.15","2","150051","10","170","Schulung","","0","Training AES 2015. Training.","07:00","16:00","8","60",
"08.04.15","3","150074","0","170","Schulung","","0","PDCS Training. Documenting functionality of library elements.","07:00","16:00","8","60",
"09.04.15","4","130056","0","120","Codierung","","0","ASCS: Erweiterung Testcases. Documenting and Creating Testcases for Library elements.","07:00","16:00","8","60",
"10.04.15","5","130056","0","120","Codierung","","0","ASCS: Erweiterung Testcases. Documenting and Creating Testcases for Library elements.","07:00","16:00","5","60",
"10.04.15","5","150051","10","170","Schulung","","0","Training AES 2015. Training","","","3","0",
