"16.03.15","1","140685","569","140","Test","","0","10-1000: PIDT 15.0 DiPAS: Regressionstest. Supported testing","07:00","16:00","4","60",
"16.03.15","1","140685","569","140","Test","","0","10-1000: PIDT 15.0 DiPAS: Regressionstest. Tested sheet KONTR","","","4","0",
"17.03.15","2","140685","569","140","Test","","0","10-1000: PIDT 15.0 DiPAS: Regressionstest. Supported testing","07:00","16:00","4","60",
"17.03.15","2","140685","569","140","Test","","0","10-1000: PIDT 15.0 DiPAS: Regressionstest. Tested sheet TouchEveryFeature","","","4","0",
"18.03.15","3","140685","569","140","Test","","0","10-1000: PIDT 15.0 DiPAS: Regressionstest. Tested sheet ARPRO","07:00","16:00","5","60",
"18.03.15","3","140685","569","140","Test","","0","10-1000: PIDT 15.0 DiPAS: Regressionstest. Tested sheet FZGWS","","","2","0",
"18.03.15","3","140685","569","140","Test","","0","10-1000: PIDT 15.0 DiPAS: Regressionstest. Tested Sheet VIEWMO","","","1","0",
"19.03.15","4","140685","569","140","Test","","100","10-1000: PIDT 15.0 DiPAS: Regressionstest. Tested sheets VIEMO - View Modus and BFILT - filter","07:00","16:00","4","60",
"19.03.15","4","140685","0","181","Fehlerbes. vor Ausl. (Bugzilla)","","0","Investigating PIDT 15.0.0 bugs. Investigated bugs 56422, 56297, 56326","","","6","0",
"20.03.15","5","140685","0","181","Fehlerbes. vor Ausl. (Bugzilla)","","0","Investigating bugs 56296, 56326, 56497. Investigating bugs 56296, 56326, 56497","07:00","16:00","4,5","60",
"20.03.15","5","150051","22","101","PM/Mod/Meetings","","0","S4/DSA overall tasks 2015. Meetings and admin","","","1,5","0",
"20.03.15","5","140685","0","110","Engineering","","0","Setting up the Actia VCI. Setting up the Actia VCI","","","2","0",
