"13.04.15","1","150074","23","170","Schulung","","0","PDCS Training (Week 15 - 20). Creating training slides for  Rollerbed. Creating training slides","07:00","16:00","8","60",
"14.04.15","2","150074","23","170","Schulung","","0","PDCS Training (Week 15 - 20). Creating training slides for IDT. Creating training slides","07:00","16:00","8","60",
"15.04.15","3","150074","23","170","Schulung","","0","PDCS Training (Week 15 - 20). Creating training slides for  Rollerbed. Creating training slides","07:00","16:00","8","60",
"16.04.15","4","150074","23","170","Schulung","","0","PDCS Training (Week 15 - 20). Creating training slides","07:00","16:00","7","60",
"16.04.15","4","150051","2","101","PM/Mod/Meetings","","0","Management AES 2015. Timesheets + Meetings","","","1","0",
"17.04.15","5","150023","0","910","Urlaub","","100","Urlaub. Day off","07:00","16:00","8","60",
