"16.03.15","1","150074","12","120","Codierung","","100","10-1001: PRODIS.PDCS: PrinterConfig /eda10 . 10-1001: PRODIS.PDCS: PrinterConfig /eda10 ","07:00","16:00","4","60",
"16.03.15","1","150023","0","910","Urlaub","","0","Urlaub. Urlaub","","","4","0",
"16.03.15","1","140073","6","120","Codierung","","100","xtension: ODX-Baselib with J1939 (Conversion of Annex J1939 Excel Sheet and Test) /BI-Pos. 1. Close","","","0","0",
"16.03.15","1","130769","375","120","Codierung","","100","9999: EXTRA: Change Flash ODX/Flash Sequence(cdg)/New Sec  Algorithm(esp)/Update Sec Key(dct) Close. Close","","","0","0",
"17.03.15","2","150051","9","170","Schulung","","0","Training AES 2015 . Traingin VW colleague in automation","07:00","16:00","3","60",
"17.03.15","2","130056","529","182","Fehlerbes. nach Ausl. (Bugzilla)","","0","8080: P3 #47856 (normal) File-Formats for DTC Overview and Identification/Monitoring/Status not corr. 8080: P3 #47856 (normal) File-Formats for DTC Overview and Identification/Monitoring/Status not corr","","","5","0",
"18.03.15","3","150051","9","170","Schulung","","0","Training AES 2015. Traingin VW colleague in automation","07:00","16:00","3","60",
"18.03.15","3","150074","14","120","Codierung","","0","10-1002:  PRODIS.PDCS: Assembly Check /eda10 . 10-1002:  PRODIS.PDCS: Assembly Check /eda10 ","","","5","0",
"19.03.15","4","150051","9","170","Schulung","","0","Training AES 2015. Traingin VW colleague in automation","07:00","16:00","3","60",
"19.03.15","4","150051","17","170","Schulung","","0","Weekly tasks AES 2015. Staff Meeting Other Office","","","1","0",
"19.03.15","4","130056","529","182","Fehlerbes. nach Ausl. (Bugzilla)","","0","8080: P3 #47856 (normal) File-Formats for DTC Overview and Identification/Monitoring/Status not corr. 8080: P3 #47856 (normal) File-Formats for DTC Overview and Identification/Monitoring/Status not corr","","","2","0",
"19.03.15","4","150074","14","120","Codierung","","0","10-1002:  PRODIS.PDCS: Assembly Check /eda10. 10-1002:  PRODIS.PDCS: Assembly Check /eda10","","","2","0",
"20.03.15","5","150051","17","170","Schulung","","0","Weekly tasks AES 2015. Meetings & Timesheets","07:00","16:00","1","60",
"20.03.15","5","130769","0","170","Schulung","","100","9999: EXTRA: ECU Name Changing - Flash Parallel Wrapper(dct_orc). 9999: EXTRA: ECU Name Changing - Flash Parallel Wrapper(dct_orc)","","","7","0",
