"15.12.14","1","140023","0","910","Urlaub","","0","Urlaub. Holiday","07:00","16:00","8","60",
"16.12.14","2","140023","0","910","Urlaub","","0","Urlaub. Public Holiday","07:00","16:00","8","60",
"17.12.14","3","140023","0","910","Urlaub","","0","Urlaub. Holiday","07:00","16:00","8","60",
"18.12.14","4","140023","0","910","Urlaub","","0","Urlaub. Holiday","07:00","16:00","8","60",
"19.12.14","5","140023","0","910","Urlaub","","0","Urlaub. Holiday","07:00","16:00","8","60",
