"05.01.15","1","140501","319","120","Codierung","","0","20-1103: PIDT 14.8 DiPAS: CR432da1-294_GUI_Lieferstufe1: Implementierung. Worked on spacing and alignment of project and version panel elements","07:00","16:00","8","60",
"06.01.15","2","140501","319","120","Codierung","","0","20-1103: PIDT 14.8 DiPAS: CR432da1-294_GUI_Lieferstufe1: Implementierung. Reworking spacing to match spec and worked on description and subdescription","07:00","16:00","8","60",
"07.01.15","3","150051","22","101","PM/Mod/Meetings","","0","S4/DSA overall tasks 2015. Meeting regarding GUI feature","07:00","16:00","1","60",
"07.01.15","3","140501","319","120","Codierung","","0","20-1103: PIDT 14.8 DiPAS: CR432da1-294_GUI_Lieferstufe1: Implementierung. Worked on getting fonts and correct spacing in version and panel bar","","","7","0",
"08.01.15","4","140501","319","120","Codierung","","0","20-1103: PIDT 14.8 DiPAS: CR432da1-294_GUI_Lieferstufe1: Implementierung. fixed problems found during demo","07:00","16:00","8","60",
"09.01.15","5","140501","319","120","Codierung","","0","20-1103: PIDT 14.8 DiPAS: CR432da1-294_GUI_Lieferstufe1: Implementierung. Working on function tabs","07:00","16:00","7","60",
"09.01.15","5","150051","22","101","PM/Mod/Meetings","","0","S4/DSA overall tasks 2015. Meetings and admin","","","1","0",
