"20.04.15","1","150389","0","140","Test","","0","Checking and testing diagnostics for CEPC MFA ECU. Checking and testing diagnostics for CEPC MFA ECU","07:00","16:00","5","60",
"20.04.15","1","150051","10","170","Schulung","","0","Training AES 2015. Training on AVM ECU configuration.","","","3","0",
"21.04.15","2","150389","0","140","Test","","0","Checking and testing diagnostics for CEPC MFA ECU. Checking and testing diagnostics for CEPC MFA ECU","07:00","16:00","4","60",
"21.04.15","2","150051","10","170","Schulung","","0","Training AES 2015. Working on the Nissan AVM ECU.","","","4","0",
"22.04.15","3","150051","10","170","Schulung","","0","Training AES 2015. Working on the Nissan AVM ECU.","07:00","16:00","8","60",
"23.04.15","4","150023","0","910","Urlaub","","0","Urlaub. leave","07:00","16:00","8","60",
"24.04.15","5","150051","18","170","Schulung","","0","Weekly tasks AES 2015. S4 Meetings and timesheets","07:00","16:00","1,5","60",
"24.04.15","5","150389","0","140","Test","","0","Checking and testing diagnostics for CRR ECU. Checking and testing diagnostics for CRR ECU","","","6,5","0",
