"09.02.15","1","130056","524","182","Fehlerbes. nach Ausl. (Bugzilla)","","0","from s64: 8080: P3 #52925 (normal) ECU BV_BAT_MAN,ASCS VEC/TOC/SN. from s64: 8080: P3 #52925 (normal) ECU BV_BAT_MAN,ASCS VEC/TOC/SN","07:00","16:00","4","60",
"09.02.15","1","150051","12","170","Schulung","","0","Training AES 2015. Training AES 2015","","","4","0",
"10.02.15","2","150051","12","170","Schulung","","0","Training AES 2015. Training AES 2015","07:00","16:00","8","60",
"11.02.15","3","150051","12","170","Schulung","","0","Training AES 2015. Training AES 2015","07:00","16:00","8","60",
"12.02.15","4","150051","12","170","Schulung","","0","Training AES 2015. Training AES 2015","07:00","16:00","8","60",
"13.02.15","5","150051","12","170","Schulung","","0","Training AES 2015. Training AES 2015","07:00","16:00","6,5","60",
"13.02.15","5","150051","20","170","Schulung","","0","Weekly tasks AES 2015. Meetings and Time sheets","","","1,5","0",
