"05.01.15","1","140501","419","120","Codierung","","0","20-1103: PIDT 14.8 DiPAS: CR432da1-294_GUI_Lieferstufe1: Implementierung. Implementierung","07:00","16:00","8","60",
"06.01.15","2","140501","419","120","Codierung","","0","20-1103: PIDT 14.8 DiPAS: CR432da1-294_GUI_Lieferstufe1: Implementierung. Implementierung","07:00","16:00","8","60",
"07.01.15","3","140501","419","120","Codierung","","0","20-1103: PIDT 14.8 DiPAS: CR432da1-294_GUI_Lieferstufe1: Implementierung. Implementierung","07:00","16:00","7","60",
"07.01.15","3","150051","25","101","PM/Mod/Meetings","","0","S4/DSA overall tasks 2015. Gui feature meeting","","","1","0",
"08.01.15","4","140501","419","120","Codierung","","0","20-1103: PIDT 14.8 DiPAS: CR432da1-294_GUI_Lieferstufe1: Implementierung. Implementierung","07:00","16:00","8","60",
"09.01.15","5","140501","419","120","Codierung","","0","20-1103: PIDT 14.8 DiPAS: CR432da1-294_GUI_Lieferstufe1: Implementierung. Implementierung","07:00","16:00","6,5","60",
"09.01.15","5","150051","25","101","PM/Mod/Meetings","","0","S4/DSA overall tasks 2015. Meeting/Timesheets","","","1,5","0",
