"20.04.15","1","150023","0","920","Krankheit","","0","Sick Leave. Sick Leave","07:00","16:00","8","60",
"21.04.15","2","150343","39","120","Codierung","","0","10-1004: Implementierung PIDT 15.1: CR444fs1-302_AktionAnzeig. implementation","07:00","16:00","8","60",
"22.04.15","3","150343","39","120","Codierung","","0","10-1004: Implementierung PIDT 15.1: CR444fs1-302_AktionAnzeig. implementation","07:00","16:00","8","60",
"23.04.15","4","150343","39","120","Codierung","","0","10-1004: Implementierung PIDT 15.1: CR444fs1-302_AktionAnzeig. Implementation","07:00","16:00","7,5","60",
"23.04.15","4","150051","26","101","PM/Mod/Meetings","","0","S4/DSA overall tasks 2015. PIDT 15.1 resource-planning meeting","","","0,5","0",
"24.04.15","5","150051","26","101","PM/Mod/Meetings","","0","S4/DSA overall tasks 2015. S4/DSA weekly meetings and admin","07:00","16:00","1,5","60",
"24.04.15","5","150343","39","120","Codierung","","0","10-1004: Implementierung PIDT 15.1: CR444fs1-302_AktionAnzeig. implementation","","","6,5","0",
