"02.03.15","1","140685","413","120","Codierung","","0","10-1001: PIDT 15.0 DiPAS: CR444fs3-307_GFS_IPC_Client: Implementierung. Implementierung","07:00","16:00","8","60",
"03.03.15","2","140685","413","120","Codierung","","0","10-1001: PIDT 15.0 DiPAS: CR444fs3-307_GFS_IPC_Client: Implementierung. Implementierung","07:00","16:00","8","60",
"04.03.15","3","140685","413","120","Codierung","","0","10-1001: PIDT 15.0 DiPAS: CR444fs3-307_GFS_IPC_Client: Implementierung. Implementierung","07:00","16:00","8","60",
"05.03.15","4","140685","414","140","Test","","0","10-1001: PIDT 15.0 DiPAS: CR444fs3-307_GFS_IPC_Client: Integrationstests against Simulation. Integrationstests against Simulation","07:00","16:00","8","60",
"06.03.15","5","140685","414","140","Test","","0","10-1001: PIDT 15.0 DiPAS: CR444fs3-307_GFS_IPC_Client: Integrationstests against Simulation. Integrationstests against Simulation","07:00","16:00","6,5","60",
"06.03.15","5","150051","25","101","PM/Mod/Meetings","","0","S4/DSA overall tasks 2015. Meeting/Timesheets","","","1,5","0",
