"30.03.15","1","150023","0","920","Krankheit","","0","Krankheit. Urlaub","07:00","16:00","8","60",
"31.03.15","2","140685","640","182","Fehlerbes. nach Ausl. (Bugzilla)","","0","9999: PIDT 15.0.0 Bug Fixing. Bug 55434","07:00","16:00","8","60",
"01.04.15","3","140685","640","182","Fehlerbes. nach Ausl. (Bugzilla)","","0","9999: PIDT 15.0.0 Bug Fixing. Bug 55434","07:00","16:00","8","60",
"02.04.15","4","150051","25","101","PM/Mod/Meetings","","0","S4/DSA overall tasks 2015. Meeting/Timesheet","07:00","16:00","1,5","60",
"02.04.15","4","140685","640","182","Fehlerbes. nach Ausl. (Bugzilla)","","0","9999: PIDT 15.0.0 Bug Fixing. Bugs 56903, 55434","","","6,5","0",
"03.04.15","5","150023","0","910","Urlaub","","0","Urlaub. Public Holiday","07:00","16:00","8","60",
