"04.05.15","1","150343","44","120","Codierung","","100","10-1004: Implementierung PIDT 15.1: CR444fs1-302_AktionAnzeig. Review fixes","07:00","16:00","8","60",
"05.05.15","2","150343","56","120","Codierung","","0","10-1005:Implementierung PIDT 15.1: CR516fs1-nnn_GFS-FA-Datei_Migr-BR. 10-1005:Implementierung PIDT 15.1: CR516fs1-nnn_GFS-FA-Datei_Migr-BR","07:00","16:00","8","60",
"06.05.15","3","150343","68","104","Test-Spezifikation","","0","10-1005:Testspec PIDT 15.1: CR516fs1-nnn_GFS-FA-Datei_Migr-BR. 10-1005:Testspec PIDT 15.1: CR516fs1-nnn_GFS-FA-Datei_Migr-BR","07:00","16:00","8","60",
"07.05.15","4","150343","56","120","Codierung","","0","10-1005:Implementierung PIDT 15.1: CR516fs1-nnn_GFS-FA-Datei_Migr-BR. 10-1005:Implementierung PIDT 15.1: CR516fs1-nnn_GFS-FA-Datei_Migr-BR","07:00","16:00","8","60",
"08.05.15","5","150051","24","101","PM/Mod/Meetings","","0","S4/DSA overall tasks 2015. S4/DSA overall tasks 2015","07:00","16:00","1,5","60",
"08.05.15","5","150343","139","181","Fehlerbes. vor Ausl. (Bugzilla)","","100","8080: P3 #57687 (normal) Extended Logging starts too late,Applikation. 8080: P3 #57687 (normal) Extended Logging starts too late,Applikation","","","2","0",
"08.05.15","5","150343","92","120","Codierung","","0","10-1004: BF vor CF PIDT 15.1: CR444fs1-302_AktionAnzeig. 10-1004: BF vor CF PIDT 15.1: CR444fs1-302_AktionAnzeig","","","4,5","0",
