"27.04.15","1","150023","0","920","Krankheit","","0","Sick. Sick","07:00","16:00","8","60",
"28.04.15","2","150023","0","920","Krankheit","","0","Sick. Sick","07:00","16:00","8","60",
"29.04.15","3","150051","9","170","Schulung","","0","Training AES 2015. Training in Aachen","07:00","16:00","8","60",
"30.04.15","4","150051","9","170","Schulung","","0","Training AES 2015. Training in Aachen","07:00","16:00","8","60",
"01.05.15","5","150023","0","910","Urlaub","","0","Public Holiday. Public Holiday","07:00","16:00","8","60",
