"18.05.15","1","150389","0","150","Inbetriebnahme","","0","combine Daimler and NISSAN ODX data to one project. combine Daimler and NISSAN ODX data to one project","07:00","16:00","2","60",
"18.05.15","1","130769","0","120","Codierung","","0","EXTRA: bugfixing and building Daimler ODX. EXTRA: bugfixing and building Daimler ODX","","","2","0",
"18.05.15","1","150076","0","182","Fehlerbes. nach Ausl. (Bugzilla)","","0","ASCS 1.8.1 bugfixing. fixing campaign icon","","","1,5","0",
"18.05.15","1","150051","6","170","Schulung","","0","Training AES 2015. Training AES 2015","","","2,5","0",
"19.05.15","2","150051","6","170","Schulung","","0","Training AES 2015. Training AES 2015","07:00","16:00","8","60",
"20.05.15","3","150051","6","170","Schulung","","0","Training AES 2015. Training AES 2015","07:00","16:00","8","60",
"21.05.15","4","150389","0","150","Inbetriebnahme","","0","combine Daimler and NISSAN ODX data to one project. combine Daimler and NISSAN ODX data to one project","07:00","16:00","5","60",
"21.05.15","4","150051","6","170","Schulung","","0","Training AES 2015. Training on creating ODX with Jafto tool","","","3","0",
"22.05.15","5","150051","14","170","Schulung","","0","Weekly tasks AES 2015. Meeting and timesheets","07:00","16:00","1,5","60",
"22.05.15","5","150051","3","101","PM/Mod/Meetings","","0","Management AES 2015. Management AES 2015","","","1","0",
"22.05.15","5","130769","0","150","Inbetriebnahme","","0","EXTRA: bugfixing and building Daimler ODX. EXTRA: bugfixing and building Daimler ODX","","","3,5","0",
"22.05.15","5","150051","6","170","Schulung","","0","Training AES 2015. Traning ODX implementation with Jafto tool","","","2","0",
