"11.05.15","1","150389","0","150","Inbetriebnahme","","0","combine Daimler and NISSAN ODX data to one project. combine Daimler and NISSAN ODX data to one projec Rev 11","07:00","16:00","3","60",
"11.05.15","1","150076","0","182","Fehlerbes. nach Ausl. (Bugzilla)","","0","ASCS-132 - Campaign Support . feature","","","5","0",
"12.05.15","2","150389","0","150","Inbetriebnahme","","0","combine Daimler and NISSAN ODX data to one project. combine Daimler and NISSAN ODX data to one project","07:00","16:00","3","60",
"12.05.15","2","150076","0","182","Fehlerbes. nach Ausl. (Bugzilla)","","0","Bug 57253 - Campaigns: Decoration with campaign-count on the button in VSoH. bugfixing","","","4","0",
"12.05.15","2","150076","0","182","Fehlerbes. nach Ausl. (Bugzilla)","","0","ASCS-132 - Campaign Support . feature","","","1","0",
"13.05.15","3","150389","0","150","Inbetriebnahme","","0","correction and test of the NISSAN ODX Data. correction and test of the NISSAN ODX Data","07:00","16:00","4","60",
"13.05.15","3","150076","0","182","Fehlerbes. nach Ausl. (Bugzilla)","","0","Bug 57253 - Campaigns: Decoration with campaign-count on the button in VSoH. Bugfixing","","","4","0",
"14.05.15","4","150051","6","170","Schulung","","0","Training AES 2015. PDCS","07:00","16:00","8","60",
"15.05.15","5","150051","14","170","Schulung","","0","Weekly tasks AES 2015. Meeting and timesheets","07:00","16:00","1,5","60",
"15.05.15","5","150051","6","170","Schulung","","0","Training AES 2015. PDCS","","","6,5","0",
