"04.05.15","1","150023","0","910","Urlaub","","0","Time Off. Time Off","07:00","16:00","8","60",
"05.05.15","2","150023","0","910","Urlaub","","0","Time Off. Time Off","07:00","16:00","8","60",
"06.05.15","3","150076","0","182","Fehlerbes. nach Ausl. (Bugzilla)","","0","BugFix. Bugfix","07:00","16:00","8","60",
"07.05.15","4","150076","0","182","Fehlerbes. nach Ausl. (Bugzilla)","","0","Bugfix. Bugfixing","07:00","16:00","8","60",
"08.05.15","5","150051","15","170","Schulung","","0","Weekly tasks AES 2015. meetinngs and timesheets","07:00","16:00","1,5","60",
"08.05.15","5","150076","0","182","Fehlerbes. nach Ausl. (Bugzilla)","","0","Bugfix. bugfix","","","6,5","0",
