"19.01.15","1","150051","12","170","Schulung","","0","Training AES 2015. Training ASCS GFS","07:00","16:00","7","60",
"19.01.15","1","150051","20","170","Schulung","","0","Weekly tasks AES 2015. Telco Meeting on ASCS","","","1","0",
"20.01.15","2","150051","12","170","Schulung","","0","Training AES 2014. Modifying the Nissan Toaster SVG Screen","07:00","16:00","6","60",
"20.01.15","2","130056","482","120","Codierung","","0","50_FEAT-4936: ASCS 1.8.0: Guided Diagnos. Rework: Test cases /eda50. 50_FEAT-4936: ASCS 1.8.0: Guided Diagnos. Rework: Test cases /eda50","","","2","0",
"21.01.15","3","130056","482","120","Codierung","","0","50_FEAT-4936: ASCS 1.8.0: Guided Diagnos. Rework: Test cases /eda50. 50_FEAT-4936: ASCS 1.8.0: Guided Diagnos. Rework: Test cases /eda50","07:00","16:00","8","60",
"22.01.15","4","130056","482","120","Codierung","","0","50_FEAT-4936: ASCS 1.8.0: Guided Diagnos. Rework: Test cases /eda50. 50_FEAT-4936: ASCS 1.8.0: Guided Diagnos. Rework: Test cases /eda50","07:00","16:00","6","60",
"22.01.15","4","130056","483","140","Test","","0","from s64: 50_FEAT-4936: ASCS 1.8.0: Guided Diagnos. Rework: Test /eda50. from s64: 50_FEAT-4936: ASCS 1.8.0: Guided Diagnos. Rework: Test /eda50","","","2","0",
"23.01.15","5","130056","483","140","Test","","0","from s64: 50_FEAT-4936: ASCS 1.8.0: Guided Diagnos. Rework: Test /eda50. from s64: 50_FEAT-4936: ASCS 1.8.0: Guided Diagnos. Rework: Test /eda50","07:00","16:00","2,5","60",
"23.01.15","5","150023","0","910","Urlaub","","0","Urlaub. leave","","","4","0",
"23.01.15","5","150051","20","170","Schulung","","0","Weekly tasks AES 2015. Timesheets and meetings","","","1,5","0",
