"18.05.15","1","150389","0","150","Inbetriebnahme","","0","Extra :Creating new requested Nissan Sequences. Creating statistics for AVM ECU.","07:00","16:00","8","60",
"19.05.15","2","150389","0","150","Inbetriebnahme","","0","Extra :Creating new requested Nissan Sequences and simulations. Impementing fixes for CEPC ECU","07:00","16:00","6","60",
"19.05.15","2","150051","10","170","Schulung","","0","Training AES 2015. Training a colleague.","","","2","0",
"20.05.15","3","150389","0","150","Inbetriebnahme","","0","Extra :Creating new requested Nissan Sequences and simulations. Impementing fixes for CEPC ECU","07:00","16:00","6","60",
"20.05.15","3","150051","10","170","Schulung","","0","Training AES 2015. Training","","","2","0",
"21.05.15","4","150389","0","150","Inbetriebnahme","","0","Extra :Creating new requested Nissan Sequences and simulations. Impementing fixes for statistic issues for CEPC_MFA and CRR1 elements.","07:00","16:00","6","60",
"21.05.15","4","150051","10","170","Schulung","","0","Training AES 2015. PDCS Training","","","2","0",
"22.05.15","5","150051","18","170","Schulung","","0","Weekly tasks AES 2015. S4 Meetings and timesheets","07:00","16:00","1,5","60",
"22.05.15","5","150051","10","170","Schulung","","0","Training AES 2015. PDCS Training","","","6,5","0",
