"23.03.15","1","150023","143","910","Urlaub","","0","Urlaub 23.03.-02.04.2015. Urlaub 23.03.-02.04.2015","07:00","16:00","8","60",
"24.03.15","2","150023","143","910","Urlaub","","0","Urlaub 23.03.-02.04.2015. Urlaub 23.03.-02.04.2015","07:00","16:00","8","60",
"25.03.15","3","140023","143","910","Urlaub","","0","Urlaub 23.03.-02.04.2015. Urlaub 23.03.-02.04.2015","07:00","16:00","8","60",
"26.03.15","4","140023","143","910","Urlaub","","0","Urlaub 23.03.-02.04.2015. Urlaub 23.03.-02.04.2015","07:00","16:00","8","60",
"27.03.15","5","150023","143","910","Urlaub","","0","Urlaub 23.03.-02.04.2015. Urlaub 23.03.-02.04.2015","07:00","16:00","8","60",
