"26.01.15","1","150051","18","170","Schulung","","0","Weekly tasks AES 2015. S4 meetings","07:00","16:00","0,5","60",
"26.01.15","1","150051","10","170","Schulung","","0","Training AES 2015. Training.","","","0,5","0",
"26.01.15","1","130769","342","181","Fehlerbes. vor Ausl. (Bugzilla)","","0","10-1035 Bugfixing nach Test in Sunderland. Bugfixing Nissan Sequences.","","","4","0",
"26.01.15","1","130769","341","120","Codierung","","0","12-1214: Release 12: RTB CTS. Verification of implemented sequences based on Nissan ToDo List.","","","3","0",
"27.01.15","2","130060","157","140","Test","","0","30-9340: P.OET: Test OET Master-Installer /pa51. Testing PRODIS.OET Master-Installer.","07:00","16:00","2","60",
"27.01.15","2","130769","342","181","Fehlerbes. vor Ausl. (Bugzilla)","","0","10-1035 Bugfixing nach Test in Sunderland. Testing nissan sequences and bugfixing.","","","4","0",
"27.01.15","2","150051","10","170","Schulung","","0","Training AES 2015. Training a colleague.","","","2","0",
"28.01.15","3","130060","157","140","Test","","0","30-9340: P.OET: Test OET Master-Installer /pa51. Testing PRODIS.OET Master-Installer.","07:00","16:00","3","60",
"28.01.15","3","150051","10","170","Schulung","","0","Training AES 2015. Training a colleague on IDT for GM Zaragoza.","","","5","0",
"29.01.15","4","130060","157","140","Test","","0","30-9340: P.OET: Test OET Master-Installer /pa51. Testing PRODIS.OET","07:00","16:00","3","60",
"29.01.15","4","150051","10","170","Schulung","","0","Training AES 2015. Training a colleague on IDT for GM Zaragoza.","","","5","0",
"30.01.15","5","150051","10","170","Schulung","","0","Training AES 2015. Training.","07:00","16:00","3","60",
"30.01.15","5","130060","156","140","Test","","0"," 30-9340: P.OET: Produkttest /pa51. OET Test","","","4","0",
"30.01.15","5","150051","18","170","Schulung","","0","Weekly tasks AES 2015. S4 meetings and timesheets","","","1","0",
"30.01.15","5","130769","341","120","Codierung","","100","12-1214: Release 12: RTB CTS. closing the task.","","","0","0",
"30.01.15","5","130769","115","120","Codierung","","100","12-1211: Release 12: HLA CTS. closing the task.","","","0","0",
