"23.02.15","1","140074","4","120","Codierung","","0","10-1002: PRODIS.PDCS: IDT Roller /eda10. Implementation of new PDCS roller test","07:00","16:00","6","60",
"23.02.15","1","150051","1","101","PM/Mod/Meetings","","0","General project management / Teamsupport AES 2015. General management + Support","","","2","0",
"24.02.15","2","140074","4","120","Codierung","","0","10-1002: PRODIS.PDCS: IDT Roller /eda10. Implementation of pdcs roller test","07:00","16:00","6","60",
"24.02.15","2","150051","1","101","PM/Mod/Meetings","","0","General project management / Teamsupport AES 2015. General management + support","","","2","0",
"25.02.15","3","140074","4","120","Codierung","","0","10-1002: PRODIS.PDCS: IDT Roller /eda10. Implementation of pdcs roller test","07:00","16:00","6","60",
"25.02.15","3","140074","5","101","PM/Mod/Meetings","","0","00-9120: PRODIS.PDCS: Kickoff meeting and project meetings /eda10. Telco with om and dr","","","1","0",
"25.02.15","3","150051","1","101","PM/Mod/Meetings","","0","General project management / Teamsupport AES 2015. General management + support","","","1","0",
"26.02.15","4","140074","4","120","Codierung","","0","10-1002: PRODIS.PDCS: IDT Roller /eda10. Adding statistics for pdcs roller test","07:00","16:00","4","60",
"26.02.15","4","150051","4","170","Schulung","","0","Training AES 2015. Training new colleague: PDCS concepts","","","1","0",
"26.02.15","4","150051","1","101","PM/Mod/Meetings","","0","General project management / Teamsupport AES 2015. General management + support","","","3","0",
"27.02.15","5","140074","13","120","Codierung","","0","10-1001: PRODIS.PDCS: Update /eda10. Creating new update CTS","07:00","16:00","3","60",
"27.02.15","5","150051","2","101","PM/Mod/Meetings","","0","Management AES 2015. Timesheets + Meetings","","","1","0",
"27.02.15","5","150051","1","101","PM/Mod/Meetings","","0","General project management / Teamsupport AES 2015. General management + support","","","4","0",
