"09.02.15","1","130056","484","120","Codierung","","0","50_FEAT-4957: ASCS 1.8.0: Refactor Actuator Test: Refactor Actuator Test /eda50. Implementing the new changes to Actuator CTS","07:00","16:00","8","60",
"10.02.15","2","150051","11","170","Schulung","","0","Training AES 2015. Training a colleague","07:00","16:00","8","60",
"11.02.15","3","150051","11","170","Schulung","","0","Training AES 2015. Training on Vehicle Configuration and Automatic Coding","07:00","16:00","8","60",
"12.02.15","4","130056","484","120","Codierung","","0","50_FEAT-4957: ASCS 1.8.0: Refactor Actuator Test: Refactor Actuator Test /eda50. Implementing the new changes to Actuator CTS","07:00","16:00","4","60",
"12.02.15","4","130056","465","120","Codierung","","0","50_FEAT-4276: ASCS 1.8.0: Vehicle Config / Autom.Config: Vehicle Config /Auto.Cod.CTS /eda50. (from s64) Implementing the Feat 4276 requirements","","","4","0",
"13.02.15","5","150051","19","170","Schulung","","0","Weekly tasks AES 2015. Timesheets and meetings","07:00","16:00","1,5","60",
"13.02.15","5","150051","11","170","Schulung","","0","Training AES 2015. Training on Vehicle Configuration and Automatic Coding","","","3,5","0",
"13.02.15","5","150051","0","910","Urlaub","","0","Urlaub. Urlaub","","","3","0",
