"15.12.14","1","140023","2849","910","Urlaub","","0","Urlaub 15.12.2014. Urlaub","07:00","16:00","8","60",
"16.12.14","2","140023","2873","910","Urlaub","","0","Public Holiday 15.12.14. Urlaub","07:00","16:00","8","60",
"17.12.14","3","140501","419","120","Codierung","","0","20-1103: PIDT 14.8 DiPAS: CR432da1-294_GUI_Lieferstufe1: Implementierung. Implementierung","07:00","16:00","8","60",
"18.12.14","4","140501","419","120","Codierung","","0","20-1103: PIDT 14.8 DiPAS: CR432da1-294_GUI_Lieferstufe1: Implementierung. Implementierung","07:00","16:00","8","60",
"19.12.14","5","140051","6","101","PM/Mod/Meetings","","0","S4/DSA overall tasks 2014. Meeting/Timesheets","07:00","16:00","1,5","60",
"19.12.14","5","140501","419","120","Codierung","","0","20-1103: PIDT 14.8 DiPAS: CR432da1-294_GUI_Lieferstufe1: Implementierung. Implementierung","","","6,5","0",
