"09.02.15","1","150051","1","101","PM/Mod/Meetings","","0","General project management / Teamsupport AES 2015. General management + Support","07:00","16:00","8","60",
"10.02.15","2","150051","1","101","PM/Mod/Meetings","","0","General project management / Teamsupport AES 2015. General management + support","07:00","16:00","8","60",
"11.02.15","3","150051","1","101","PM/Mod/Meetings","","0","General project management / Teamsupport AES 2015. General management + support","07:00","16:00","8","60",
"12.02.15","4","150051","1","101","PM/Mod/Meetings","","0","General project management / Teamsupport AES 2015. General management + support","07:00","16:00","8","60",
"13.02.15","5","150051","2","101","PM/Mod/Meetings","","0","Management AES 2015. Timesheets + Meetings","07:00","16:00","1","60",
"13.02.15","5","150051","1","101","PM/Mod/Meetings","","0","General project management / Teamsupport AES 2015. General management + support","","","7","0",
