"26.01.15","1","140702","20","181","Fehlerbes. vor Ausl. (Bugzilla)","","0","10-1002: PSA Flash: Bugfixing /eda10. Mods,Bugfixes,Testing with Ralf","07:00","16:00","3","60",
"26.01.15","1","130769","95","181","Fehlerbes. vor Ausl. (Bugzilla)","","100","11-9340: Release 11: Systemintegration+Test: Bugfixing zu Regressionstest. Analyzing Logs sent from Nissan ","","","5","0",
"27.01.15","2","140702","20","181","Fehlerbes. vor Ausl. (Bugzilla)","","0","10-1002: PSA Flash: Bugfixing /eda10. Testing and bugfixing with Ralf","07:00","16:00","8","60",
"28.01.15","3","140702","20","181","Fehlerbes. vor Ausl. (Bugzilla)","","0","10-1002: PSA Flash: Bugfixing /eda10. Testing and bugfixing with Ralf","07:00","16:00","8","60",
"29.01.15","4","140702","20","181","Fehlerbes. vor Ausl. (Bugzilla)","","0","10-1002: PSA Flash: Bugfixing /eda10. Testing and bugfixing with Ralf","07:00","16:00","4","60",
"29.01.15","4","130769","193","120","Codierung","","0","11-9200: Release 11: Flash Framework. Modified CTS based on remarks in the Nissan TODO list for pw","","","4","0",
"30.01.15","5","150051","17","170","Schulung","","0","Weekly tasks AES 2015. Weekly tasks AES 2015","07:00","16:00","1","60",
"30.01.15","5","140702","20","181","Fehlerbes. vor Ausl. (Bugzilla)","","100","10-1002: PSA Flash: Bugfixing /eda10. Testing and bugfixing with Ralf","","","4","0",
"30.01.15","5","130769","193","120","Codierung","","100","11-9200: Release 11: Flash Framework. Additional modification requires - Nissan updated flash data - CTS update required","","","2","0",
"30.01.15","5","150051","9","170","Schulung","","0"," Training AES 2015. Helped colleague with Virtual machine issues","","","1","0",
