"05.01.15","1","150051","12","170","Schulung","","0","Training AES 2015. Training IDT","07:00","16:00","8","60",
"06.01.15","2","150051","12","170","Schulung","","0","Training AES 2015. Training Roller bed Tester","07:00","16:00","8","60",
"07.01.15","3","150051","12","170","Schulung","","0","Training AES 2015. Training Roller bed Tester","07:00","16:00","8","60",
"08.01.15","4","130056","0","120","Codierung","","0","PoC J1939 integration. PoC J1939 integration","07:00","16:00","8","60",
"09.01.15","5","130056","0","120","Codierung","","0","PoC J1939 integration. PoC J1939 integration","07:00","16:00","6,5","60",
"09.01.15","5","150051","20","170","Schulung","","0","Weekly tasks AES 2015. Weekly tasks AES 2015","","","1,5","0",
