"18.05.15","1","130769","412","150","Inbetriebnahme","","0","EXTRA: CRD3 extra diagnostics sequences. Creating CRD3 new  sequences. Implementing new changes to Nissan CTS ","07:00","16:00","8","60",
"19.05.15","2","150051","11","170","Schulung","","0","Training AES 2015. Getting into subject PDCS Example CTS","07:00","16:00","8","60",
"20.05.15","3","130769","412","150","Inbetriebnahme","","0","EXTRA: CRD3 extra diagnostics sequences. Creating CRD3 new  sequences. Fixing Statistics and making changes to Nissan CTSs","07:00","16:00","8","60",
"21.05.15","4","150051","11","170","Schulung","","0","Training AES 2015. Implementation of PDCS example CTS ","07:00","16:00","8","60",
"22.05.15","5","150051","11","170","Schulung","","0","Training AES 2015. Implementation of PDCS example CTS ","07:00","16:00","8","60",
