"02.05.16","1","130216","0","160","Dokumentation","","0","Wabco Authoring training slides. Wabco Authoring training slides","07:00","16:00","8","60",
"03.05.16","2","130216","0","160","Dokumentation","","0","Wabco Authoring training slides. Wabco Authoring training slides","07:00","16:00","8","60",
"04.05.16","3","130216","0","160","Dokumentation","","0","Wabco Authoring training slides. Wabco Authoring training slides","07:00","16:00","8","60",
"05.05.16","4","130216","0","160","Dokumentation","","0","Wabco Authoring training slides. Wabco Authoring training slides","07:00","16:00","8","60",
"06.05.16","5","130216","0","160","Dokumentation","","0","Wabco Authoring training slides. Wabco Authoring training slides","07:00","16:00","8","60",
