"21.03.16","1","160023","0","910","Urlaub","","100","Public Holiday. Public Holiday","07:00","16:00","8","60",
"22.03.16","2","160051","20","101","PM/Mod/Meetings","","0","General project management / Teamsupport AES 2016. General management + support","07:00","16:00","8","60",
"23.03.16","3","160051","20","101","PM/Mod/Meetings","","0","General project management / Teamsupport AES 2016. General management + support","07:00","16:00","8","60",
"24.03.16","4","160051","20","101","PM/Mod/Meetings","","0","General project management / Teamsupport AES 2016. General management + support","07:00","16:00","7","60",
"24.03.16","4","160051","15","101","PM/Mod/Meetings","","0","Management AES 2016. Meetings + Timesheets","","","1","0",
"25.03.16","5","160023","1","910","Urlaub","","100","Good Friday. Public Holiday","07:00","16:00","8","60",
