"19.09.16","1","150791","42","120","Codierung","","0","10-1104: PIDT-507: Implementierung CR631my2-376_VerbeUsabi (8). Implementation","07:00","16:00","8","60",
"20.09.16","2","150791","29","104","Test-Spezifikation","","0","10-1104: PIDT-507: Testspec CR631my2-376_VerbeUsabi (8). Testspec","07:00","16:00","8","60",
"21.09.16","3","150751","0","110","Engineering","","0","Setting Up Development Environment. Setting Up Development Environment","07:00","16:00","8","60",
"22.09.16","4","160051","27","101","PM/Mod/Meetings","","0","S4/DSA overall tasks 2016. Timesheet","07:00","16:00","0,5","60",
"22.09.16","4","150791","29","104","Test-Spezifikation","","0","10-1104: PIDT-507: Testspec CR631my2-376_VerbeUsabi (8). Testspec","","","7,5","0",
"23.09.16","5","160023","0","910","Urlaub","","0","Urlaubsinfo 23.09.2016-25.09.2016. Urlaub","07:00","16:00","8","60",
