"24.10.16","1","150076","208","181","Fehlerbes. vor Ausl. (Bugzilla)","","0","FEAT-6746 - PRODIS.ASCS R04.08 Bugfixing. FEAT-6746 - PRODIS.ASCS R04.08 Bugfixing","07:00","16:00","8","60",
"25.10.16","2","150076","204","181","Fehlerbes. vor Ausl. (Bugzilla)","","0","FEAT-7841 PRODIS.ASCS R04.10 Bugfixing -SYT Bugs. FEAT-7841 PRODIS.ASCS R04.10 Bugfixing -SYT Bugs","07:00","16:00","8","60",
"26.10.16","3","150076","208","181","Fehlerbes. vor Ausl. (Bugzilla)","","0","FEAT-6746 - PRODIS.ASCS R04.08 Bugfixing. FEAT-6746 - PRODIS.ASCS R04.08 Bugfixing","07:00","16:00","8","60",
"27.10.16","4","150076","208","181","Fehlerbes. vor Ausl. (Bugzilla)","","0","FEAT-6746 - PRODIS.ASCS R04.08 Bugfixing. FEAT-6746 - PRODIS.ASCS R04.08 Bugfixing","07:00","16:00","8","60",
"28.10.16","5","150076","196","140","Test","","0","FEAT-6743 - PRODIS.ASCS R04.08 Product Tests. FEAT-6743 - PRODIS.ASCS R04.08 Product Tests","07:00","16:00","7","60",
"28.10.16","5","160051","5","101","PM/Mod/Meetings","","0","Weekly tasks AES 2016. Timesheet and Meetings","","","1","0",
