"31.10.16","1","160025","395","170","Schulung","","0","Training . Training","07:00","16:00","8","60",
"01.11.16","2","160025","395","170","Schulung","","0","Training. Training","07:00","16:00","8","60",
"02.11.16","3","160025","395","170","Schulung","","0","Training. Training","07:00","16:00","8","60",
"03.11.16","4","160025","395","170","Schulung","","0","Screen Factory implementation and Wabco Trailer navigation changes. Screen Factory implementation and Wabco Trailer navigation changes","07:00","16:00","8","60",
"04.11.16","5","160025","395","170","Schulung","","0","Screen Factory Implementation and documentation. Screen Factory Implementation and documentation","07:00","16:00","8","60",
