"11.07.16","1","150074","426","120","Codierung","","0","326_FEAT-4093: PDCS: Generic Rework Tester (Nacharbeit / PSF). Implementing rework tester based on design.","07:00","16:00","8","60",
"12.07.16","2","150074","426","120","Codierung","","0","326_FEAT-4093: PDCS: Generic Rework Tester (Nacharbeit / PSF). Implementing rework tester based on design.","07:00","16:00","8","60",
"13.07.16","3","150074","726","120","Codierung","","0","326_FEAT-4093: PDCS: Generic Rework Tester (Nacharbeit / PSF). Implementing rework design testcases.","07:00","16:00","8","60",
"14.07.16","4","160018","36","101","PM/Mod/Meetings","","0","Waiting for tasks. Waiting for tasks","07:00","16:00","8","60",
"15.07.16","5","160051","16","101","PM/Mod/Meetings","","0","Weekly tasks AES 2016. S4 Meetings and Timesheets","07:00","16:00","1","60",
"15.07.16","5","160018","36","101","PM/Mod/Meetings","","0","Waiting for tasks. Waiting for tasks","","","7","0",
