"05.09.16","1","160051","23","170","Schulung","","0","S4/DSA Training 2016. Training","07:00","16:00","8","60",
"06.09.16","2","160051","23","170","Schulung","","0","S4/DSA Training 2016. Training","07:00","16:00","8","60",
"07.09.16","3","150791","24","101","PM/Mod/Meetings","","0","10-9120: PIDT 16.4 Meetings and Preparation. PIDT 16.4 Pre Estimation","07:00","16:00","1,5","60",
"07.09.16","3","150791","42","120","Codierung","","0","10-1104: PIDT-507: Implementierung CR631my2-376_VerbeUsabi (8). Implementation","","","6,5","0",
"08.09.16","4","150791","42","101","PM/Mod/Meetings","","0","10-1104: PIDT-507: Implementierung CR631my2-376_VerbeUsabi (8). Implementation","07:00","16:00","8","60",
"09.09.16","5","160051","27","101","PM/Mod/Meetings","","0","S4/DSA overall tasks 2016. Meeting/Timesheet","07:00","16:00","1,5","60",
"09.09.16","5","150791","42","120","Codierung","","0","10-1104: PIDT-507: Implementierung CR631my2-376_VerbeUsabi (8). Implementation","","","6,5","0",
