"01.08.16","1","150074","426","120","Codierung","","0","326_FEAT-4093: PDCS: Generic Rework Tester (Nacharbeit / PSF). Creating generic rework sequences","07:00","16:00","8","60",
"02.08.16","2","150646","39","120","Codierung","","0","10-5001 Create CTSs for Brake Test (WiFi IDT interface). Spec Telko, Implemanting resende brake test.","07:00","16:00","4","60",
"02.08.16","2","150074","426","120","Codierung","","0","326_FEAT-4093: PDCS: Generic Rework Tester (Nacharbeit / PSF). Creating generic rework sequences","","","4","0",
"03.08.16","3","160023","0","910","Urlaub","","0","Urlaub. Public Holiday","07:00","16:00","8","60",
"04.08.16","4","150646","39","120","Codierung","","0","10-5001 Create CTSs for Brake Test (WiFi IDT interface). Implemanting resende brake test.","07:00","16:00","8","60",
"05.08.16","5","160051","16","101","PM/Mod/Meetings","","0","Weekly tasks AES 2016. S4 Meetings and Timesheets","07:00","16:00","1","60",
"05.08.16","5","150646","39","120","Codierung","","0","10-5001 Create CTSs for Brake Test (WiFi IDT interface). Implemanting resende brake test.","","","7","0",
