"12.09.16","1","160025","0","404","Internal Training, Project Handover","","0","Training. Training","07:00","18:00","10,5","30",
"13.09.16","2","160025","0","404","Internal Training, Project Handover","","0","Training. Training","07:00","18:00","10,5","30",
"14.09.16","3","160025","0","404","Internal Training, Project Handover","","0","Training. Training","07:00","18:00","10,5","30",
"15.09.16","4","160025","0","404","Internal Training, Project Handover","","0","Training. Training","07:00","17:00","9,5","30",
"16.09.16","5","160025","0","404","Internal Training, Project Handover","","0","Training. Training","07:00","15:00","8","0",
