"11.04.16","1","0","0","110","Engineering","","0","Statistics. PRODIS.Server Statistics request troubleshooting","07:00","16:00","4","60",
"11.04.16","1","150074","340","120","Codierung","","0","324_FEAT-6152: PDCS: Rework Area /pa30. Rework area implementation","","","4","0",
"12.04.16","2","150074","340","120","Codierung","","0","324_FEAT-6152: PDCS: Rework Area /pa30. Creating Rework Area","07:00","16:00","6","60",
"12.04.16","2","160051","20","101","PM/Mod/Meetings","","0","General project management / Teamsupport AES 2016. General management + support","","","2","0",
"13.04.16","3","150074","341","102","Spez: LH/PH/Design","","0","324_FEAT-6152: PDCS: Specification Rework area /pa30. Creating specifications","07:00","16:00","6","60",
"13.04.16","3","160051","20","101","PM/Mod/Meetings","","0","General project management / Teamsupport AES 2016. General management + support","","","2","0",
"14.04.16","4","160051","20","101","PM/Mod/Meetings","","0","General project management / Teamsupport AES 2016. General management + support","07:00","16:00","8","60",
"15.04.16","5","160051","20","101","PM/Mod/Meetings","","0","General project management / Teamsupport AES 2016. General management + support","07:00","16:00","7","60",
"15.04.16","5","160051","15","101","PM/Mod/Meetings","","0","Management AES 2016. Timesheets + Meetings","","","1","0",
