"12.12.16","1","160499","9","181","Fehlerbes. vor Ausl. (Bugzilla)","","0","10-1099: PIDT 17.0: Bugfixing. 10-1099: PIDT 17.0: Bugfixing","07:00","16:30","6","60",
"12.12.16","1","160955","0","140","Test","","0","10-1000: PIDT 16.4LS8: Tests. 10-1000: PIDT 16.4LS8: Tests","","","2,5","0",
"13.12.16","2","160499","9","181","Fehlerbes. vor Ausl. (Bugzilla)","","0","10-1099: PIDT 17.0: Bugfixing. 10-1099: PIDT 17.0: Bugfixing","07:00","16:00","8","60",
"14.12.16","3","160499","9","181","Fehlerbes. vor Ausl. (Bugzilla)","","0","10-1099: PIDT 17.0: Bugfixing. 10-1099: PIDT 17.0: Bugfixing","07:00","17:00","7","60",
"14.12.16","3","150791","0","140","Test","","0","PIDT 16.4.1 Regression Testing. PIDT 16.4.1 Regression Testing","","","2","0",
"15.12.16","4","160022","59","110","Engineering, Projektierung","","0","Weekly tasks DSE 2016. Weekly tasks DSE 2016","07:00","16:00","1,5","60",
"15.12.16","4","Weekly t","0","140","Test","","0","PIDT 16.4.1 Regression Testing. PIDT 16.4.1 Regression Testing","","","6,5","0",
"16.12.16","5","160023","0","910","Urlaub","","0","Public Holiday 16.12.2016-16.12.2016. Public Holiday 16.12.2016-16.12.2016","07:00","16:00","8","60",
