"26.09.16","1","160023","0","910","Urlaub","","0","Urlaub. Time Off","07:00","16:00","8","60",
"27.09.16","2","160023","0","910","Urlaub","","0","Urlaub. Time Off","07:00","16:00","8","60",
"28.09.16","3","160023","0","910","Urlaub","","0","Urlaub. Time Off","07:00","16:00","8","60",
"29.09.16","4","160023","0","910","Urlaub","","0","Urlaub. Time Off","07:00","16:00","8","60",
"30.09.16","5","160023","0","910","Urlaub","","0","Urlaub. Time Off","07:00","16:00","8","60",
