"12.12.16","1","150577","0","180","Fehlerbes. nach Auslieferung (SA, Reparatur)","","0","liebherr sequence bugfix. liebherr sequence bugfix","07:00","16:00","8","60",
"13.12.16","2","150577","0","180","Fehlerbes. nach Auslieferung (SA, Reparatur)","","0","liebherr sequence bugfix. liebherr sequence bugfix","07:00","16:00","7","60",
"13.12.16","2","130216","168","101","PM: Meetings, Orga, Personalführung","","0","WABCO: Meetings. wabco chennai meeting","","","1","0",
"14.12.16","3","150577","0","180","Fehlerbes. nach Auslieferung (SA, Reparatur)","","0","Liebherr Sequence bugfix. liebherr sequence bugfix","07:00","16:00","8","60",
"15.12.16","4","150577","0","180","Fehlerbes. nach Auslieferung (SA, Reparatur)","","0","Liebherr Sequence bugfix. liebherr sequence bugfix","07:00","16:00","7","60",
"15.12.16","4","130216","168","101","PM: Meetings, Orga, Personalführung","","0","WABCO: Meetings. wabco chennai meeting","","","1","0",
"16.12.16","5","160023","0","910","Urlaub","","0","Time Off. Public holiday","07:00","16:00","8","60",
