"19.12.16","1","160499","38","101","PM: Meetings, Orga, Personalführung","","0","10-9120: PIDT 17.0: Meetings and Preparation. 2nd Estimation Meeting","07:00","16:00","1","60",
"19.12.16","1","160051","27","101","PM: Meetings, Orga, Personalführung","","0","S4/DSA overall tasks 2016. Retrospective Meeting","","","2","0",
"19.12.16","1","160499","4","181","Fehlerbes. vor Ausl. (Bugzilla)","","0","10-1099: PIDT 17.0: Bugfixing. Bugfixing","","","5","0",
"20.12.16","2","160499","38","101","PM: Meetings, Orga, Personalführung","","0","10-9120: PIDT 17.0: Meetings and Preparation. 3rd Estimation Meeting","07:00","16:00","1","0",
"20.12.16","2","160051","27","101","PM: Meetings, Orga, Personalführung","","0","S4/DSA overall tasks 2016. Retrospective Meeting","","","1,5","0",
"20.12.16","2","160499","38","101","PM: Meetings, Orga, Personalführung","","0","10-9120: PIDT 17.0: Meetings and Preparation. Retrospective Preperation","","","1,5","0",
"20.12.16","2","160499","4","181","Fehlerbes. vor Ausl. (Bugzilla)","","0","10-1099: PIDT 17.0: Bugfixing. Bugfixing","","","5","0",
"21.12.16","3","160499","4","181","Fehlerbes. vor Ausl. (Bugzilla)","","0","10-1099: PIDT 17.0: Bugfixing. Bugfixing","07:00","16:00","8","60",
"22.12.16","4","160023","2942","910","Urlaub","","0","Urlaubsinfo 22.12.2016-27.12.2016. Urlaub","07:00","16:00","8","60",
"23.12.16","5","160023","2942","910","Urlaub","","0","Urlaubsinfo 22.12.2016-27.12.2016. Urlaub","07:00","16:00","8","60",
