"05.12.16","1","160499","4","181","Fehlerbes. vor Ausl. (Bugzilla)","","0","10-1099: PIDT 17.0: Bugfixing. Bug Fixing","07:00","16:00","8","60",
"06.12.16","2","160499","0","120","Codierung","","0","Implementierung CR631my2-376_VerbeUsabi. Implementation","07:00","16:00","8","60",
"07.12.16","3","160499","0","120","Codierung","","0","Implementierung CR631my2-376_VerbeUsabi. Implementation","07:00","16:00","8","60",
"08.12.16","4","160499","0","120","Codierung","","0","Implementierung CR631my2-376_VerbeUsabi. Implementation","07:00","16:00","7","60",
"08.12.16","4","160499","0","104","Test-Spezifikation","","0","Testspec CR631my2-376_VerbeUsabi. Testspec","","","1","0",
"09.12.16","5","160051","27","101","PM/Mod/Meetings","","0","S4/DSA overall tasks 2016. Meeting/Timesheet","07:00","16:00","1,5","60",
"09.12.16","5","160499","4","181","Fehlerbes. vor Ausl. (Bugzilla)","","0","10-1099: PIDT 17.0: Bugfixing. Bug Fixing","","","6,5","0",
