"02.01.17","1","160023","0","910","Urlaub","","0","Urlaubsinfo 02.01.2017. Public Holiday","07:00","16:00","8","60",
"03.01.17","2","160499","39","120","Entwicklung: Codierung, Schaltplanerstellung, PCB-Layout","","0","10-1013: PIDT-527: Implementierung CR648my2-394_ErmitIstAnderSGs (8). Review and test issues","07:00","16:00","8","60",
"04.01.17","3","160499","39","120","Entwicklung: Codierung, Schaltplanerstellung, PCB-Layout","","0","10-1013: PIDT-527: Implementierung CR648my2-394_ErmitIstAnderSGs (8). Review and test issues","07:00","16:00","8","60",
"05.01.17","4","160499","39","120","Entwicklung: Codierung, Schaltplanerstellung, PCB-Layout","","0","10-1013: PIDT-527: Implementierung CR648my2-394_ErmitIstAnderSGs (8). Review and test issues","07:00","16:00","8","60",
"06.01.17","5","160499","39","120","Entwicklung: Codierung, Schaltplanerstellung, PCB-Layout","","0","10-1013: PIDT-527: Implementierung CR648my2-394_ErmitIstAnderSGs (8). Review and test issues","07:00","16:00","8","60",
