"11.04.16","1","140487","40","120","Codierung","","0","10_ODX-1000: ODX Data for ECM/HCU. 10_ODX-1000: ODX Data for ECM/HCU","07:00","16:00","8","60",
"12.04.16","2","140487","40","120","Codierung","","0","10_ODX-1000: ODX Data for ECM/HCU. 10_ODX-1000: ODX Data for ECM/HCU","07:00","16:00","8","60",
"13.04.16","3","150076","153","181","Fehlerbes. vor Ausl. (Bugzilla)","","0","FEAT-6265 PRODIS.ASCS R04.06 Bugfixing. FEAT-6265 PRODIS.ASCS R04.06 Bugfixing","07:00","16:00","8","60",
"14.04.16","4","160023","0","910","Urlaub","","0","Urlaub. Study Leave","07:00","16:00","8","60",
"15.04.16","5","150076","153","181","Fehlerbes. vor Ausl. (Bugzilla)","","0","FEAT-6265 PRODIS.ASCS R04.06 Bugfixing. FEAT-6265 PRODIS.ASCS R04.06 Bugfixing","07:00","16:00","7,5","60",
"15.04.16","5","160051","5","101","PM/Mod/Meetings","","0","Weekly tasks AES 2016. Timesheet and Meetings","","","0,5","0",
