"20.06.16","1","150731","17","150","Inbetriebnahme","","0","Onsite Support NISSAN 2016. Onsite Support NISSAN 2016","07:00","19:00","11","60",
"21.06.16","2","150731","17","150","Inbetriebnahme","","0","Onsite Support NISSAN 2016. Onsite Support NISSAN 2016","07:00","16:00","8","60",
"22.06.16","3","150731","17","150","Inbetriebnahme","","0","Onsite Support NISSAN 2016. Onsite Support NISSAN 2016","07:00","16:00","8","60",
"23.06.16","4","150731","17","150","Inbetriebnahme","","0","Onsite Support NISSAN 2016. Onsite Support NISSAN 2016","07:00","16:00","8","60",
"24.06.16","5","150731","17","150","Inbetriebnahme","","0","Onsite Support NISSAN 2016. Onsite Support NISSAN 2016","07:00","16:00","8","60",
