"21.11.16","1","160023","0","910","Urlaub","","0","Travel to Germany. Travel to Germany","07:00","16:00","8","60",
"22.11.16","2","150074","533","160","Dokumentation","","100","9999: Updating all test cases. Updating all test cases. Review and finalization","07:00","16:00","2","60",
"22.11.16","2","150074","554","160","Dokumentation","","100","9999: Reviewing and updating Loop Eval test cases. Reviewing and updating Loop Eval test cases. Review and finalization","","","0","0",
"22.11.16","2","150074","552","160","Dokumentation","","100","9999: Updating all test cases. Updating all test cases. Review and finalization","","","0","0",
"22.11.16","2","150074","547","160","Dokumentation","","100","9999: Reviewing and updating Loop Eval test cases. Reviewing and updating Loop Eval test cases. Review and finalization","","","0","0",
"22.11.16","2","160051","32","101","PM/Mod/Meetings","","0","Weekly tasks AES 2016. Caught up with mails and did a tour of the offices and met people.","","","2","0",
"22.11.16","2","160051","32","101","PM/Mod/Meetings","","0","Weekly tasks AES 2016. Had problems with the laptop. Had to wait for it to get connected to the network etc.","","","5","0",
"23.11.16","3","160051","32","101","PM/Mod/Meetings","","0","Weekly tasks AES 2016. General PDCS meeting about deadlines and planning","07:00","16:00","1","60",
"23.11.16","3","150074","0","160","Dokumentation","","0","Updated PDCS documentation from the previous releases. Updated 3.26 and 3.28 change logs as well as release notes.","","","6","0",
"23.11.16","3","160051","32","101","PM/Mod/Meetings","","0","Weekly tasks AES 2016. Had more meetings relating to work quality and improvements that should be made.","","","1","0",
"24.11.16","4","150074","0","160","Dokumentation","","0","Updated PDCS documentation from the previous releases. Updated 3.26 and 3.28 change logs as well as release notes.","07:00","16:00","6","60",
"24.11.16","4","160051","32","101","PM/Mod/Meetings","","0","Weekly tasks AES 2016. Meeting about PDCS and issues","","","1,5","0",
"25.11.16","5","150074","5","160","Dokumentation","","0","Updated PDCS documentation from the previous releases. Updated 3.26 and 3.28 change logs, release notes and PDCS process","07:00","16:00","5","60",
"25.11.16","5","160051","2","101","PM/Mod/Meetings","","0","Weekly tasks AES 2016. Meeting about 3.28, screen handles and performance","","","3","0",
