"03.10.16","1","160217","30","401","Travel","","0","WB / automatisch. Travel PE - ZAR","00:00","19:30","19,5","0",
"04.10.16","2","160214","31","110","Engineering","","0","WB / automatisch. Handbrake test for P1MT","09:00","17:00","4,5","30",
"04.10.16","2","160217","29","140","Test","","0","WB / automatisch. P1MT S/S ","","","3","0",
"05.10.16","3","160217","31","110","Engineering","","0","WB / automatisch. DVT command A/C Compressor","08:00","18:00","3","30",
"05.10.16","3","160217","31","110","Engineering","","0","WB / automatisch. DVT Duration Evaluated NOK ","","","2,5","0",
"05.10.16","3","160217","31","110","Engineering","","0","WB / automatisch. DVT NOK TEST_COM","","","4","0",
"06.10.16","4","160217","29","140","Test","","0","WB / automatisch. MAS vehicle dataset to PRODIS server","08:00","17:45","6","30",
"06.10.16","4","160217","31","110","Engineering","","0","WB / automatisch. MAS_extsoapEnvelope_second_step error","","","3,25","0",
"07.10.16","5","160217","29","140","Test","","0","WB / automatisch. Battery GBFTT Intermittently Reports 0% Battery Charge on Fully Charged Battery","08:00","17:00","3,5","30",
"07.10.16","5","160217","29","140","Test","","0","WB / automatisch. Tool blocked GBFTT08","","","2","0",
"07.10.16","5","160217","31","110","Engineering","","0","WB / automatisch. Statistics Text in Prodis","","","3","0",
