"06.06.16","1","160023","0","910","Urlaub","","0","Personal leave use. Personal leave use","07:00","16:00","4","60",
"06.06.16","1","150080","218","181","Fehlerbes. vor Ausl. (Bugzilla)","","0","10_ORG-9340: Bugfixing Codefreeze. Bugfixing","","","4","0",
"07.06.16","2","150080","218","181","Fehlerbes. vor Ausl. (Bugzilla)","","0","10_ORG-9340: Bugfixing Codefreeze. Bugfixing","07:00","16:00","8","60",
"08.06.16","3","150080","218","181","Fehlerbes. vor Ausl. (Bugzilla)","","0","10_ORG-9340: Bugfixing Codefreeze. Bugfixing","07:00","16:00","8","60",
"09.06.16","4","150080","218","181","Fehlerbes. vor Ausl. (Bugzilla)","","0","10_ORG-9340: Bugfixing Codefreeze. Bugfixing","07:00","16:00","8","60",
"10.06.16","5","160023","0","920","Krankheit","","0","Sick leave use. Sick leave use","07:00","16:00","4","60",
"10.06.16","5","150080","218","181","Fehlerbes. vor Ausl. (Bugzilla)","","0","10_ORG-9340: Bugfixing Codefreeze. Bugfixing","","","4","0",
