"24.10.16","1","160025","473","170","Schulung","","0","Training. Training","07:00","16:00","8","60",
"25.10.16","2","160025","473","170","Schulung","","0","Training. Training","07:00","16:00","8","60",
"26.10.16","3","160025","473","170","Schulung","","0","Training. Training","07:00","16:00","8","60",
"27.10.16","4","160025","473","170","Schulung","","0","Training. Training","07:00","16:00","8","60",
"28.10.16","5","160025","473","170","Schulung","","0","Training. Training","07:00","16:00","8","60",
