"08.08.16","1","160023","609","910","Urlaub","","0","Urlaubsinfo 06.08.2016-09.08.2016. Urlaub","07:00","16:00","8","60",
"09.08.16","2","160023","609","910","Urlaub","","100","Urlaubsinfo 06.08.2016-09.08.2016. Urlaub","07:00","16:00","8","60",
"10.08.16","3","150791","24","101","PM/Mod/Meetings","","0","10-9120: PIDT 16.4 Meetings and Preparation. PIDT 16.4 Initial Estimation Meeting","07:00","16:00","2,5","60",
"10.08.16","3","150791","42","120","Codierung","","0","10-1104: PIDT-507: Implementierung CR631my2-376_VerbeUsabi (8). Implementation","","","5,5","0",
"11.08.16","4","150791","42","120","Codierung","","0","10-1104: PIDT-507: Implementierung CR631my2-376_VerbeUsabi (8). Implementation","07:00","16:00","3","60",
"11.08.16","4","150791","0","140","Test","","0","CETEM Regressionstests PIDT 16.2.1. Testing","","","5","0",
"12.08.16","5","150791","42","120","Codierung","","0","10-1104: PIDT-507: Implementierung CR631my2-376_VerbeUsabi (8). Implementation","07:00","16:00","2,5","60",
"12.08.16","5","160051","27","101","PM/Mod/Meetings","","0","S4/DSA overall tasks 2016. Meeting/Timesheet","","","1,5","0",
"12.08.16","5","150791","0","140","Test","","0","CETEM Regressionstests PIDT 16.2.1. Testing","","","3","0",
"12.08.16","5","150791","0","140","Test","","0","PIDT 16.2.1 Integration tests and Bugfix verification. Bug Fix Verification","","","1","0",
