"12.12.16","1","130216","192","120","Entwicklung: Codierung, Schaltplanerstellung, PCB-Layout","","0","Codierung. WAB HAN, Implementation of Sitemap Mockups","07:00","16:00","8","60",
"13.12.16","2","130216","192","120","Entwicklung: Codierung, Schaltplanerstellung, PCB-Layout","","0","Codierung. WAB HAN, Implementation of Sitemap Mockups","07:00","16:00","8","60",
"14.12.16","3","130216","192","120","Entwicklung: Codierung, Schaltplanerstellung, PCB-Layout","","0","Codierung. WAB HAN, Implementation of Sitemap Mockups","07:00","16:00","8","60",
"15.12.16","4","130216","192","120","Entwicklung: Codierung, Schaltplanerstellung, PCB-Layout","","0","Codierung. WAB HAN, Implementation of Sitemap Mockups","07:00","16:00","8","60",
"16.12.16","5","160023","0","910","Urlaub","","0","Public Holiday. Public Holiday","07:00","16:00","8","60",
