"13.06.16","1","150577","46","120","Codierung","","0","Create security access job, integrate c-dll with DES 56 algorithm and USB dongle. Testing,and minor modifications","07:00","16:00","8","60",
"14.06.16","2","150577","45","120","Codierung","","0","Create ODX-F Files. implementation","07:00","16:00","8","60",
"15.06.16","3","150577","43","120","Codierung","","0","Create VEC and import ODX Data. implementation","07:00","16:00","8","60",
"16.06.16","4","150577","44","120","Codierung","","0","Create Flashjob. Implementation","07:00","16:00","8","60",
"17.06.16","5","150577","44","120","Codierung","","0","Create Flashjob. imlementation","07:00","16:00","8","60",
