"05.12.16","1","160499","39","120","Codierung","","0","10-1013: PIDT 17.0: CR648my2-394_ErmitIstAnderSGs. Implementation","07:00","16:00","8","60",
"06.12.16","2","160499","39","120","Codierung","","0","10-1013: PIDT 17.0: CR648my2-394_ErmitIstAnderSGs. Implementation","07:00","16:00","8","60",
"07.12.16","3","160499","39","120","Codierung","","0","10-1013: PIDT 17.0: CR648my2-394_ErmitIstAnderSGs. Implementation","07:00","16:00","8","60",
"08.12.16","4","160499","39","120","Codierung","","0","10-1013: PIDT 17.0: CR648my2-394_ErmitIstAnderSGs. Implementation","07:00","16:00","8","60",
"09.12.16","5","160499","39","120","Codierung","","0","10-1013: PIDT 17.0: CR648my2-394_ErmitIstAnderSGs. Implementation","07:00","16:00","6,5","60",
"09.12.16","5","160051","29","101","PM/Mod/Meetings","","0","S4/DSA overall tasks 2016. S4/DSA Implementation","","","1,5","0",
