"20.06.16","1","160051","21","101","PM/Mod/Meetings","","0","S4/DSA overall tasks 2016. Meetings","07:00","16:00","2","60",
"20.06.16","1","150790","0","180","Fehlerbes. nach Auslieferung (SA)","","0","Worked on bug 62914. Worked on bug 62914","","","6","0",
"21.06.16","2","150790","0","180","Fehlerbes. nach Auslieferung (SA)","","0","Working on PIDT 16.2 bugs. Working on PIDT 16.2 bugs","07:00","16:00","8","60",
"22.06.16","3","150790","0","180","Fehlerbes. nach Auslieferung (SA)","","0","Working on PIDT 16.2 bugs. Working on PIDT 16.2 bugs","07:00","16:00","4","60",
"22.06.16","3","160023","0","920","Krankheit","","0","Sick Leave. Sick Leave","","","4","0",
"23.06.16","4","160023","0","920","Krankheit","","0","Sick Leave. Sick Leave","07:00","16:00","8","60",
"24.06.16","5","160051","21","101","PM/Mod/Meetings","","0","S4/DSA overall tasks 2016. Meetings and admin","07:00","16:00","1,5","60",
"24.06.16","5","150790","0","180","Fehlerbes. nach Auslieferung (SA)","","0","PIDT 16.2 bugfixing. PIDT 16.2 bugfixing","","","6,5","0",
