"31.10.16","1","160025","0","170","Schulung","","100","Training. Training","07:00","16:00","8","60",
"01.11.16","2","160025","0","170","Schulung","","100","Training. Training","07:00","16:00","8","60",
"02.11.16","3","160025","0","170","Schulung","","100","Training. Training","07:00","16:00","8","60",
"03.11.16","4","160025","0","170","Schulung","","100","Training. Training","07:00","16:00","8","60",
"04.11.16","5","160025","0","170","Schulung","","100","Training. Training","07:00","16:00","8","60",
