"18.07.16","1","150790","0","140","Test","","0","CETEM Regressionstests PIDT 16.2. CupEngine - Aktionen & Setup for tests","07:00","16:00","8","60",
"19.07.16","2","150790","0","140","Test","","0","CETEM Regressionstests PIDT 16.2. CupEngine - Aktionen","07:00","16:00","8","60",
"20.07.16","3","150790","0","140","Test","","0","CETEM Regressionstests PIDT 16.2. CupEngine - Aktionen","07:00","16:00","5","60",
"20.07.16","3","150790","0","140","Test","","0","CETEM Regressionstests PIDT 16.2.  AREVE - Reportverwaltung & Setup for test","","","3","0",
"21.07.16","4","150790","0","140","Test","","0","CETEM Regressionstests PIDT 16.2.  AREVE - Reportverwaltung","07:00","16:00","2","60",
"21.07.16","4","160023","0","920","Krankheit","","0","Off Sick. Off Sick ","","","6","0",
"22.07.16","5","150790","0","140","Test","","0","CETEM Regressionstests PIDT 16.2. Regressionstests","07:00","20:00","10,5","60",
"22.07.16","5","160022","60","110","Engineering","","0","Weekly tasks DSE 2016. Weekly general tasks","","","1,5","0",
