"26.09.16","1","150751","61","140","Test","","0","10-1109: PIDT-511: Integrationstests CR631my6-378_jRTS326 (20). Testing PIDT 16.2.1 merge","07:00","16:00","8","60",
"27.09.16","2","150751","61","140","Test","","0","10-1109: PIDT-511: Integrationstests CR631my6-378_jRTS326 (20). Testing PIDT 16.2.1 merge","07:00","16:00","8","60",
"28.09.16","3","150751","61","140","Test","","0","10-1109: PIDT-511: Integrationstests CR631my6-378_jRTS326 (20). Testing PIDT 16.2.1 merge","07:00","16:00","8","60",
"29.09.16","4","150751","61","140","Test","","0","10-1109: PIDT-511: Integrationstests CR631my6-378_jRTS326 (20). Testing PIDT 16.2.1 merge","07:00","16:00","8","60",
"30.09.16","5","150751","61","140","Test","","0","10-1109: PIDT-511: Integrationstests CR631my6-378_jRTS326 (20). Testing PIDT 16.2.1 merge","07:00","16:00","6,5","60",
"30.09.16","5","160051","21","101","PM/Mod/Meetings","","0","S4/DSA overall tasks 2016. Meetings and admin","","","1,5","0",
