"05.09.16","1","150074","413","120","Codierung","","0","326_FEAT6712: NON-ODX Handling / Communication. Work on ECU handler for CAN, DTC Read","07:00","16:00","6","60",
"05.09.16","1","160051","20","101","PM/Mod/Meetings","","0","General Project Management / Teamsupport AES 2016. General management / Support","","","2","0",
"06.09.16","2","150074","464","120","Codierung","","0","326_FEAT_6721: PDCS: Asynchronous Errors (VCI Disconnect). Work on the re-connection of VCI","07:00","16:00","4","60",
"06.09.16","2","160051","20","101","PM/Mod/Meetings","","0","General Project Management / Teamsupport AES 2016. General management / Support","","","4","0",
"07.09.16","3","150074","441","101","PM/Mod/Meetings","","0","20_ORG-9120: PDCS: Project Management / Meetings. Organizational + Demo with om","07:00","16:00","6","60",
"07.09.16","3","160051","20","101","PM/Mod/Meetings","","0","General Project Management / Teamsupport AES 2016. General management / Support","","","2","0",
"08.09.16","4","150074","409","120","Codierung","","0","326_FEAT__6842: PDCS: Demo Usage CAN Trace Deamon. Further testing on transfer","07:00","16:00","1","60",
"08.09.16","4","150074","443","101","PM/Mod/Meetings","","0","326_ORG_9120: PDCS: Concept / Reviews. Review features and code","","","4","0",
"08.09.16","4","160051","20","101","PM/Mod/Meetings","","0","General Project Management / Teamsupport AES 2016. General management / Support","","","3","0",
"09.09.16","5","150074","438","120","Codierung","","0","326_FEAT_6713: PDCS: Simulation Documentation. Adding XMULTI","07:00","16:00","2","60",
"09.09.16","5","160051","20","101","PM/Mod/Meetings","","0","General Project Management / Teamsupport AES 2016. General management / Support","","","6","0",
