"01.08.16","1","150076","203","120","Codierung","","0","FEAT-6175 - Online Help: IDT Sequences. FEAT-6175 - Online Help: IDT Sequences","07:00","16:00","8","60",
"02.08.16","2","150076","203","120","Codierung","","0","FEAT-6175 - Online Help: IDT Sequences. FEAT-6175 - Online Help: IDT Sequences","07:00","16:00","8","60",
"03.08.16","3","160023","0","910","Urlaub","","0","Urlaub. Public Holiday","07:00","16:00","8","60",
"04.08.16","4","150076","203","120","Codierung","","0","FEAT-6175 - Online Help: IDT Sequences. FEAT-6175 - Online Help: IDT Sequences","07:00","16:00","8","60",
"05.08.16","5","150076","203","120","Codierung","","0","FEAT-6175 - Online Help: IDT Sequences. FEAT-6175 - Online Help: IDT Sequences","07:00","16:00","7","60",
"05.08.16","5","160051","5","101","PM/Mod/Meetings","","0","Weekly tasks AES 2016. Timesheet and Meetings","","","1","0",
