"21.03.16","1","160023","0","910","Urlaub","","0","Urlaub. Urlaub","07:00","16:00","8","60",
"22.03.16","2","150074","327","120","Codierung","","0","324_FEAT-6614: PDCS: Dialog/Overview Rework: Use Signatures. Reworking Screens to have correct font size multipliers and fixing the screen layout","07:00","16:00","8","60",
"23.03.16","3","150074","327","120","Codierung","","0","324_FEAT-6614: PDCS: Dialog/Overview Rework: Use Signatures. Standardizing Dialog CTS parameters to be uniform, fixing screen layouts and testing new changes","07:00","16:00","8","60",
"24.03.16","4","160051","24","170","Schulung","","0","Training AES 2016. PDCS training on code review and reviewing PDCS CTSs","07:00","16:00","7","60",
"24.03.16","4","160051","14","101","PM/Mod/Meetings","","0","Weekly tasks AES 2016. Timesheets and meetings","","","1","0",
"25.03.16","5","160023","0","910","Urlaub","","0","Urlaub. Urlaub","07:00","16:00","8","60",
