"13.06.16","1","150790","0","120","Codierung","","0","9999: CR609my5-358_ODABibli . Implementation","07:00","16:00","8","60",
"14.06.16","2","150790","0","120","Codierung","","0","9999: CR609my5-358_ODABibli . Implementation","07:00","16:00","8","60",
"15.06.16","3","150790","0","120","Codierung","","0","9999: CR609my5-358_ODABibli . Implementation","07:00","16:00","7","60",
"15.06.16","3","160051","29","101","PM/Mod/Meetings","","0","S4/DSA overall tasks 2015. S4/DSA weekly meetings and admin","","","1","0",
"16.06.16","4","160023","0","910","Urlaub","","0","Urlaub 15.06.2016. Public Holiday","07:00","16:00","8","60",
"17.06.16","5","160023","1","910","Urlaub","","0","Urlaub 16.06.2016. Leave","07:00","16:00","8","60",
