"27.06.16","1","150790","153","182","Fehlerbes. nach Ausl. (Bugzilla)","","0","9999: PIDT 16.2.0 Bugfixing. Working on PIDT 16.2 bugs","07:00","16:00","8","60",
"28.06.16","2","150790","153","182","Fehlerbes. nach Ausl. (Bugzilla)","","0","9999: PIDT 16.2.0 Bugfixing. Working on PIDT 16.2 bugs","07:00","16:00","8","60",
"29.06.16","3","150790","135","130","Installation + Konfiguration","","0","10-9330: PIDT 16.2: Review and merge. Reviewing/merging PIDT 16.2 features/bug-fixes","07:00","16:00","8","60",
"30.06.16","4","150790","135","130","Installation + Konfiguration","","0","10-9330: PIDT 16.2: Review and merge. Reviewing/merging PIDT 16.2 features/bug-fixes","07:00","16:00","8","60",
"01.07.16","5","160051","18","101","PM/Mod/Meetings","","0","S4/DSA overall tasks 2016. Weekly general tasks","07:00","16:00","1","60",
"01.07.16","5","150790","153","182","Fehlerbes. nach Ausl. (Bugzilla)","","0","9999: PIDT 16.2.0 Bugfixing. Working on PIDT 16.2 bugs","","","3","0",
"01.07.16","5","150790","135","130","Installation + Konfiguration","","0","10-9330: PIDT 16.2: Review and merge. Reviewing/merging PIDT 16.2 features/bug-fixes","","","4","0",
