"25.07.16","1","150577","0","120","Codierung","","0","Liebherr Forced download. Implementation","07:00","16:00","8","60",
"26.07.16","2","150577","0","120","Codierung","","0","Liebherr training support. support","07:00","16:00","8","60",
"27.07.16","3","150577","0","120","Codierung","","0","Liebherr training support. support","07:00","16:00","8","60",
"28.07.16","4","150577","0","120","Codierung","","0","Liebherr training support. support","07:00","16:00","8","60",
"29.07.16","5","150577","0","120","Codierung","","0","Liebherr ecu upload,dtc,flash progress,measurements. implementation","07:00","16:00","8","60",
