"31.10.16","1","160051","20","101","PM/Mod/Meetings","","0","General project management / Teamsupport AES 2016. General Admin / Support","07:00","16:00","8","60",
"01.11.16","2","160051","20","101","PM/Mod/Meetings","","0","General project management / Teamsupport AES 2016. General Admin / Support","07:00","16:00","8","60",
"02.11.16","3","160051","20","101","PM/Mod/Meetings","","0","General project management / Teamsupport AES 2016. General Admin / Support","07:00","16:00","8","60",
"03.11.16","4","160051","20","101","PM/Mod/Meetings","","0","General project management / Teamsupport AES 2016. General Admin / Support","07:00","16:00","8","60",
"04.11.16","5","160051","20","101","PM/Mod/Meetings","","0","General project management / Teamsupport AES 2016. General Admin / Support","07:00","16:00","8","60",
