"29.02.16","1","150789","10","182","Fehlerbes. nach Ausl. (Bugzilla)","","100","PIDT 16.0: Bugfixing aus Vorrelease. PIDT 16.0: Bugfixing aus Vorrelease","07:00","16:00","8","60",
"01.03.16","2","150789","67","181","Fehlerbes. vor Ausl. (Bugzilla)","","100","10-1107: PIDT-478: Bugfixing CR602my1-349_VerbeCuPLog (13). 10-1107: PIDT-478: Bugfixing CR602my1-349_VerbeCuPLog (13)","07:00","16:00","8","60",
"02.03.16","3","150789","100","140","Test","","100","10-1100: CETEM Regressionstests PIDT 16.0. 10-1100: CETEM Regressionstests PIDT 16.0","07:00","16:00","8","60",
"03.03.16","4","150790","0","110","Engineering","","0","9999: Getting into subject with PIDT 16.2 features. Reading 16.2 feature requirements and getting into subject for 16.2 features","07:00","16:00","8","60",
"04.03.16","5","160051","18","101","PM/Mod/Meetings","","0","S4/DSA overall tasks 2016. Weekly general tasks","07:00","16:00","1,5","60",
"04.03.16","5","150790","0","110","Engineering","","0","9999: Getting into subject with PIDT 16.2 features. Reading 16.2 feature requirements and getting into subject for 16.2 features","","","6,5","0",
