"04.07.16","1","160025","0","404","Internal Training, Project Handover","","0","Training. Training","09:00","16:00","6,5","30",
"05.07.16","2","160025","0","404","Internal Training, Project Handover","","0","Training. Training","09:00","16:00","6,5","30",
"06.07.16","3","160025","0","404","Internal Training, Project Handover","","0","Training. Training","09:00","16:00","6,5","30",
"07.07.16","4","160025","0","404","Internal Training, Project Handover","","0","Training. Training","09:00","16:00","6,5","30",
"08.07.16","5","160025","0","404","Internal Training, Project Handover","","0","Training. Training","09:00","16:00","6,5","30",
