"03.10.16","1","150076","200","140","Test","","0","FEAT-6745 - PRODIS.ASCS R04.08 Test Coverage Increase / Requirements Traceability. FEAT-6745 - PRODIS.ASCS R04.08 Test Coverage Increase / Requirements Traceability","07:00","16:00","8","60",
"04.10.16","2","150076","211","181","Fehlerbes. vor Ausl. (Bugzilla)","","0","FEAT-6746 - PRODIS.ASCS R04.08 Bugfixing. FEAT-6746 - PRODIS.ASCS R04.08 Bugfixing","07:00","16:00","8","60",
"05.10.16","3","150076","211","181","Fehlerbes. vor Ausl. (Bugzilla)","","0","FEAT-6746 - PRODIS.ASCS R04.08 Bugfixing. FEAT-6746 - PRODIS.ASCS R04.08 Bugfixing","07:00","16:00","8","60",
"06.10.16","4","150076","211","181","Fehlerbes. vor Ausl. (Bugzilla)","","0","FEAT-6746 - PRODIS.ASCS R04.08 Bugfixing. FEAT-6746 - PRODIS.ASCS R04.08 Bugfixing","07:00","16:00","8","60",
"07.10.16","5","160051","11","101","PM/Mod/Meetings","","0","Weekly tasks AES 2016. Meeting and timesheets","07:00","16:00","1","60",
"07.10.16","5","160051","2","101","PM/Mod/Meetings","","0","Management AES 2016. Management AES 2016","","","1","0",
"07.10.16","5","150076","200","140","Test","","0","FEAT-6745 - PRODIS.ASCS R04.08 Test Coverage Increase / Requirements Traceability. FEAT-6745 - PRODIS.ASCS R04.08 Test Coverage Increase / Requirements Traceability","","","4","0",
"07.10.16","5","150076","211","181","Fehlerbes. vor Ausl. (Bugzilla)","","0","FEAT-6746 - PRODIS.ASCS R04.08 Bugfixing. FEAT-6746 - PRODIS.ASCS R04.08 Bugfixing","","","2","0",
