"12.12.16","1","160499","39","120","Entwicklung: Codierung, Schaltplanerstellung, PCB-Layout","","0","10-1013: PIDT 17.0: CR648my2-394_ErmitIstAnderSGs. Implementation","07:00","16:00","8","60",
"13.12.16","2","160499","39","120","Entwicklung: Codierung, Schaltplanerstellung, PCB-Layout","","0","10-1013: PIDT 17.0: CR648my2-394_ErmitIstAnderSGs. Implementation","07:00","16:00","4","60",
"13.12.16","2","160023","0","920","Krankheit","","0","13.12.2016-13.12.2016. Sick leave","","","4","0",
"14.12.16","3","160499","39","120","Entwicklung: Codierung, Schaltplanerstellung, PCB-Layout","","0","10-1013: PIDT 17.0: CR648my2-394_ErmitIstAnderSGs. Implementation","07:00","16:00","8","60",
"15.12.16","4","160499","39","120","Entwicklung: Codierung, Schaltplanerstellung, PCB-Layout","","0","10-1013: PIDT 17.0: CR648my2-394_ErmitIstAnderSGs. Implementation","07:00","16:00","6,5","60",
"15.12.16","4","160051","29","101","PM: Meetings, Orga, Personalführung","","0","S4/DSA overall tasks 2016. S4/DSA weekly meetings and admin","","","1,5","0",
"16.12.16","5","160023","0","910","Urlaub","","0","Urlaubsinfo 16.12.2016. Public Holiday","07:00","16:00","8","60",
