"06.06.16","1","150731","17","150","Inbetriebnahme","","0","Onsite Support NISSAN 2016. Onsite Support NISSAN 2016","07:00","16:00","8","60",
"07.06.16","2","150731","17","150","Inbetriebnahme","","0","Onsite Support NISSAN 2016. Onsite Support NISSAN 2016","07:00","16:00","8","60",
"08.06.16","3","150731","17","150","Inbetriebnahme","","0","Onsite Support NISSAN 2016. Onsite Support NISSAN 2016","07:00","16:00","8","60",
"09.06.16","4","150731","17","150","Inbetriebnahme","","0","Onsite Support NISSAN 2016. Onsite Support NISSAN 2016","07:00","16:00","8","60",
"10.06.16","5","150731","17","150","Inbetriebnahme","","0","Onsite Support NISSAN 2016. Onsite Support NISSAN 2016","07:00","16:00","8","60",
