"09.05.16","1","150790","106","120","Codierung","","0"," 	10-1108: PIDT-493: Review and test issues before CF CR609my6-359_SuchFunkt (13). test and review fixes","07:00","16:00","8","60",
"10.05.16","2","150790","65","181","Fehlerbes. vor Ausl. (Bugzilla)","","0","10-1108: PIDT-493: Bugfixing CR609my6-359_SuchFunkt (13). Bug fixing","07:00","16:00","8","60",
"11.05.16","3","150790","65","181","Fehlerbes. vor Ausl. (Bugzilla)","","0","10-1108: PIDT-493: Bugfixing CR609my6-359_SuchFunkt (13). Bug fixing","07:00","16:00","8","60",
"12.05.16","4","150790","0","120","Codierung","","0","#CR617my2-374_NormNamenBZDMappi: Implementierung. Implementation","07:00","16:00","8","60",
"13.05.16","5","150790","0","120","Codierung","","0"," 	#CR617my2-374_NormNamenBZDMappi: Implementierung. Implementation","07:00","16:00","6,5","60",
"13.05.16","5","160051","29","101","PM/Mod/Meetings","","0","S4/DSA overall tasks 2016. S4/DSA Weekly meetings and admin","","","1,5","0",
