"28.11.16","1","160375","35","140","Test","","0","100012: Modultest (MOTR) + Bugfixing. Testing IDT + ECU sequences","07:00","16:00","4","60",
"28.11.16","1","160375","42","120","Codierung","","0","100011: Creation of main Modules executing the single IDT and ECU testmodules. Creating Parallel FAS sequence","","","4","0",
"29.11.16","2","160375","35","140","Test","","0","100012: Modultest (MOTR) + Bugfixing. Testing IDT + ECU sequences","07:00","16:00","4","60",
"29.11.16","2","160375","42","120","Codierung","","0","100011: Creation of main Modules executing the single IDT and ECU testmodules. Creating Parallel FAS sequence","","","4","0",
"30.11.16","3","160375","42","120","Codierung","","0","100011: Creation of main Modules executing the single IDT and ECU testmodules. Creating Parallel FAS sequence","07:00","16:00","8","60",
"01.12.16","4","160375","35","140","Test","","0","100012: Modultest (MOTR) + Bugfixing. Testing IDT + ECU sequences","07:00","16:00","4","60",
"01.12.16","4","160375","42","120","Codierung","","0","100011: Creation of main Modules executing the single IDT and ECU testmodules. Creating Parallel FAS sequence","","","4","0",
"02.12.16","5","160375","35","140","Test","","0","100012: Modultest (MOTR) + Bugfixing. Analyzing BRA factory test logs and bugfixing","07:00","16:00","4","60",
"02.12.16","5","160051","16","101","PM/Mod/Meetings","","0","Weekly tasks AES 2016. Timesheets","","","0,8","0",
"02.12.16","5","160375","27","120","Codierung","","0","100010: HUD calibration Impl. Integrating HUD sequence into parallel FAS sequence","","","3,2","0",
