"17.10.16","1","160375","23","120","Codierung","","0","100003: ACC Calibration Impl.. Implemanting ACC Adjustment sequence","07:00","16:00","8","60",
"18.10.16","2","160375","33","120","Codierung","","0","100004: MFK calibration Impl.. Implemanting MFK Calibration sequence","07:00","16:00","8","60",
"19.10.16","3","160375","43","120","Codierung","","0","100005: Rearview calibration Impl.. Implemanting RV Calibration sequence","07:00","16:00","8","60",
"20.10.16","4","160375","32","120","Codierung","","0","100006: Lane change assistance calibration Impl.. Implemanting SWA Calibration sequence","07:00","16:00","8","60",
"21.10.16","5","160375","44","120","Codierung","","0","100008: Laserscanner calibration Impl.. Implemanting LAS Calibration sequence","07:00","16:00","7","60",
"21.10.16","5","160051","16","101","PM/Mod/Meetings","","0","Weekly tasks AES 2016. Timesheets","","","1","0",
