"15.08.16","1","150074","458","120","Codierung","","0","326_FEAT-6288: PDCS: Simple User Login / User Rights. User Login/User Rights","07:00","16:00","8","60",
"16.08.16","2","150074","458","120","Codierung","","0","326_FEAT-6288: PDCS: Simple User Login / User Rights. User Login/User Rights","07:00","16:00","8","60",
"17.08.16","3","150074","448","120","Codierung","","0","326_FEAT-6841: PDCS: Dialogs: Browser Widget, HTML. Dialogs Feature Requirements","07:00","16:00","4","60",
"17.08.16","3","150074","434","181","Fehlerbes. vor Ausl. (Bugzilla)","","0","326_ORG-9120: PDCS: Bugfixing. Bugfixing","","","4","0",
"18.08.16","4","150074","434","181","Fehlerbes. vor Ausl. (Bugzilla)","","0","326_ORG-9120: PDCS: Bugfixing. Bug fixing","07:00","16:00","7","60",
"18.08.16","4","160051","34","101","PM/Mod/Meetings","","0","Weekly tasks AES 2016. Teleconference Call & Meeting","","","1","0",
"19.08.16","5","150074","434","181","Fehlerbes. vor Ausl. (Bugzilla)","","0","326_ORG-9120: PDCS: Bugfixing. Bug Fixing","07:00","16:00","8","60",
