"28.11.16","1","160499","6","181","Fehlerbes. vor Ausl. (Bugzilla)","","0","10-1099: PIDT 17.0: Bugfixing. PIDT 17.0 Bug fixing","07:00","16:00","7,5","60",
"28.11.16","1","160051","29","101","PM/Mod/Meetings","","0","S4/DSA overall tasks 2016. S4/DSA Weekly meeting","","","0,5","0",
"29.11.16","2","160499","6","181","Fehlerbes. vor Ausl. (Bugzilla)","","0","10-1099: PIDT 17.0: Bugfixing. PIDT 17.0 Bug fixing","07:00","16:00","8","60",
"30.11.16","3","160499","6","181","Fehlerbes. vor Ausl. (Bugzilla)","","0","10-1099: PIDT 17.0: Bugfixing. PIDT 17.0 Bug fixing","07:00","16:00","4","60",
"30.11.16","3","160499","0","101","PM/Mod/Meetings","","0","PIDT 17.0 Meetings and Preparation. PIDT 17.0 Kickoff meeting and preparation","","","4","0",
"01.12.16","4","140499","6","181","Fehlerbes. vor Ausl. (Bugzilla)","","0","10-1099: PIDT 17.0: Bugfixing. PIDT 17.0 Bug fixing","07:00","16:00","4","60",
"01.12.16","4","160499","0","110","Engineering","","0","PIDT 17.0 CR648my2-394_ErmitIstAnderSGs. Getting into subject","","","4","0",
"02.12.16","5","160051","29","101","PM/Mod/Meetings","","0","S4/DSA overall tasks 2016. S4/DSA Weekly meetings and admin","07:00","16:00","1,5","60",
"02.12.16","5","160499","0","120","Codierung","","0","PIDT 17.0 CR648my2-394_ErmitIstAnderSGs. Implementation","","","6,5","0",
