"24.10.16","1","150791","32","181","Fehlerbes. vor Ausl. (Bugzilla)","","0","10-1099: PIDT 16.4: Bugfixing. Bug Fixing","07:00","16:00","8","60",
"25.10.16","2","150791","32","181","Fehlerbes. vor Ausl. (Bugzilla)","","0","10-1099: PIDT 16.4: Bugfixing. Bug fixing","07:00","16:00","8","60",
"26.10.16","3","150791","32","181","Fehlerbes. vor Ausl. (Bugzilla)","","0","10-1099: PIDT 16.4: Bugfixing. Bug Fixing","07:00","16:00","8","60",
"27.10.16","4","150791","32","181","Fehlerbes. vor Ausl. (Bugzilla)","","0","10-1099: PIDT 16.4: Bugfixing. Bug Fixing","07:00","16:00","8","60",
"28.10.16","5","150791","32","181","Fehlerbes. vor Ausl. (Bugzilla)","","0","10-1099: PIDT 16.4: Bugfixing. Bug Fixing","07:00","16:00","6,5","60",
"28.10.16","5","160051","27","101","PM/Mod/Meetings","","0","S4/DSA overall tasks 2016. Meeting/Timesheet","","","1,5","0",
"28.10.16","5","150791","172","120","Codierung","","100","10-1118: PIDT-520: Implementierung CR636my1-387_SamtecPDU64Bit (2). Closing Task","","","0","0",
"28.10.16","5","150791","178","120","Codierung","","100","10-1118: PIDT-520: Review and test issues before CF CR636my1-387_SamtecPDU64Bit (2). Closing Task","","","0","0",
"28.10.16","5","150791","139","120","Codierung","","100","10-1114: PIDT-523: Implementierung CR637my3-388_NutzStatRed (3). Closing Task","","","0","0",
