"04.07.16","1","160051","25","101","PM/Mod/Meetings","","0","Weekly tasks AES 2016. Administration","07:00","16:00","8","60",
"05.07.16","2","160051","25","101","PM/Mod/Meetings","","0","Weekly tasks AES 2016. UK Visa","07:00","16:00","8","60",
"06.07.16","3","160051","25","101","PM/Mod/Meetings","","0","Weekly tasks AES 2016. Getting into Subject Bentley","07:00","16:00","4","60",
"06.07.16","3","160023","0","910","Urlaub","","0","Urlaub. Time Off","","","4","0",
"07.07.16","4","160023","0","910","Urlaub","","0","Urlaub. Time Off","07:00","16:00","5","60",
"07.07.16","4","160051","25","101","PM/Mod/Meetings","","0","Weekly tasks AES 2016. UK Visa","","","3","0",
"08.07.16","5","160023","0","910","Urlaub","","0","Urlaub. Time Off","07:00","16:00","8","60",
