"31.10.16","1","160375","23","120","Codierung","","0","100003: ACC Calibration Impl.. Implementing acc adjustment sequence updates (based on flowchart)","07:00","16:00","4","60",
"31.10.16","1","160375","34","120","Codierung","","0","100007: FrontCornerRadar calibration Impl.. Implementing fer calibraion sequence updates (based on flowchart)","","","4","0",
"01.11.16","2","160023","0","910","Urlaub","","0","Urlaub. Public Holiday","07:00","16:00","8","60",
"02.11.16","3","160375","42","120","Codierung","","0","100011: Creation of main Modules executing the single IDT and ECU testmodules. Implementing FIRAP Connection sequence","07:00","16:00","8","60",
"03.11.16","4","160375","42","120","Codierung","","0","100011: Creation of main Modules executing the single IDT and ECU testmodules. Testing FIRAP Connection sequence and Documenting testcases for the IDT testmodules","07:00","16:00","8","60",
"04.11.16","5","160375","27","120","Codierung","","0","100010: HUD calibration Impl. Implementing HUD calibration sequence updates","07:00","16:00","7","60",
"04.11.16","5","160051","16","101","PM/Mod/Meetings","","0","Weekly tasks AES 2016. Timesheets","","","1","0",
