"25.07.16","1","150074","439","120","Codierung","","0","326_FEAT-6720: PDCS: Re-execution of failed tests in the line. Implementation","07:00","16:00","6","60",
"25.07.16","1","160051","33","170","Schulung","","0","Training AES 2016. Training.","","","2","0",
"26.07.16","2","150074","439","120","Codierung","","0","326_FEAT-6720: PDCS: Re-execution of failed tests in the line. Implementation","07:00","16:00","6","60",
"26.07.16","2","160051","33","170","Schulung","","0","Training AES 2016. Training.","","","2","0",
"27.07.16","3","150074","439","120","Codierung","","0","326_FEAT-6720: PDCS: Re-execution of failed tests in the line. Implementation","07:00","16:00","5","60",
"27.07.16","3","150074","457","101","PM/Mod/Meetings","","0","326_ORG-9120: PDCS: Project Managmeent / Meetings. Discussing the implementation.","","","3","0",
"28.07.16","4","150074","0","910","Urlaub","","0","Holiday.. Took leave.","07:00","16:00","1","60",
"28.07.16","4","150074","457","101","PM/Mod/Meetings","","0","326_ORG-9120: PDCS: Project Managmeent / Meetings. Discussing RCPS change","","","1,5","0",
"29.07.16","5","150074","0","910","Urlaub","","0","Holiday. Taken leave.","07:00","16:00","8","60",
