"23.05.16","1","160051","21","101","PM/Mod/Meetings","","0","S4/DSA overall tasks 2016. Meeting","07:00","16:00","1","60",
"23.05.16","1","150790","92","104","Test-Spezifikation","","100","20-1104: PIDT-486: Testspec CR608my1-363_UpdatECUState (8). Working on test spec","","","7","0",
"24.05.16","2","150790","0","181","Fehlerbes. vor Ausl. (Bugzilla)","","0","PIDT 16.2 bugfixing. PIDT 16.2 bugfixing","07:00","16:00","4","60",
"24.05.16","2","150790","171","130","Installation + Konfiguration","","0","10-9330: PIDT 16.2: Review and merge. Reviewed CR609my3-356_ZugriSchut","","","4","0",
"25.05.16","3","150790","0","181","Fehlerbes. vor Ausl. (Bugzilla)","","0","PIDT 16.2 bugfixing. PIDT 16.2 bugfixing","07:00","16:00","6","60",
"25.05.16","3","160036","132","170","Schulung","","0","Einarbeitung (sae). Helping with OTX","","","2","0",
"26.05.16","4","150790","0","181","Fehlerbes. vor Ausl. (Bugzilla)","","0","PIDT 16.2 bugfixing. PIDT 16.2 bugfixing","07:00","16:00","8","60",
"27.05.16","5","150790","0","181","Fehlerbes. vor Ausl. (Bugzilla)","","0","PIDT 16.2 bugfixing. PIDT 16.2 bugfixing","07:00","16:00","8","60",
