"11.04.16","1","160036","133","170","Schulung","","0","Training: Introduction to PIDT Software /sww_anlrn. Getting into subject for vehicle platform feature.","07:00","16:00","5","60",
"11.04.16","1","160036","133","170","Schulung","","0","Training: Introduction to PIDT Software /sww_anlrn. Training (OTX Testing and bug-fixing)","","","3","0",
"12.04.16","2","160036","133","170","Schulung","","0","Training: Introduction to PIDT Software /sww_anlrn. Training (OTX Testing and bug-fixing)","07:00","16:00","8","60",
"13.04.16","3","150790","122","101","PM/Mod/Meetings","","0","10-9120: PIDT 16.2 Meetings and Preparation. Discussion of upcoming features and change requests - PIDT 16.2","07:00","16:00","2,5","60",
"13.04.16","3","160036","133","170","Schulung","","0","Training: Introduction to PIDT Software /sww_anlrn. Preparation for meeting: learning about vehicle-platform","","","2,5","0",
"13.04.16","3","160036","133","170","Schulung","","0","Training: Introduction to PIDT Software /sww_anlrn. Training (OTX Testing and bug-fixing)","","","3","0",
"14.04.16","4","150790","64","120","Codierung","","0","10-1113: PIDT-495: Implementierung CR609my1-316_VerscVehicPlatf (3). 10-1113: PIDT-495: Implementierung CR609my1-316_VerscVehicPlatf (3)","07:00","16:00","8","60",
"15.04.16","5","160022","59","110","Engineering","","0","Weekly tasks DSE 2016. Weekly tasks DSE 2016","07:00","16:00","1,5","60",
"15.04.16","5","150790","72","104","Test-Spezifikation","","0","10-1113: PIDT-495: Testspec CR609my1-316_VerscVehicPlatf (3). 10-1113: PIDT-495: Testspec CR609my1-316_VerscVehicPlatf (3)","","","6,5","0",
