"21.11.16","1","160051","20","101","PM/Mod/Meetings","","0","General project management / Teamsupport AES 2016. General Admin / Support","07:00","16:00","8","60",
"22.11.16","2","160051","20","101","PM/Mod/Meetings","","0","General project management / Teamsupport AES 2016. General Admin / Support","07:00","16:00","8","60",
"23.11.16","3","160051","20","101","PM/Mod/Meetings","","0","General project management / Teamsupport AES 2016. General Admin / Support","07:00","16:00","8","60",
"24.11.16","4","160051","20","101","PM/Mod/Meetings","","0","General project management / Teamsupport AES 2016. General Admin / Support","07:00","16:00","8","60",
"25.11.16","5","160051","20","101","PM/Mod/Meetings","","0","General project management / Teamsupport AES 2016. General Admin / Support","07:00","16:00","8","60",
