"26.12.16","1","160023","0","910","Urlaub","","0","Public Holiday. Public Holiday","07:00","16:00","8","60",
"27.12.16","2","160023","0","910","Urlaub","","0","Public Holiday. Public Holiday","07:00","16:00","8","60",
"28.12.16","3","160023","0","910","Urlaub","","0","Annual Leave. Annual Leave","07:00","16:00","8","60",
"29.12.16","4","160023","0","910","Urlaub","","0","Annual Leave. Annual Leave","07:00","16:00","8","60",
"30.12.16","5","160023","0","910","Urlaub","","0","Annual Leave. Annual Leave","07:00","16:00","8","60",
