"03.10.16","1","150791","0","110","Engineering","","100","Setting Up Development Environment. Setting Up Development Environment","07:00","16:00","2","60",
"03.10.16","1","150791","131","120","Codierung","","0","10-1113: PIDT-524: Implementierung CR637my4-391_SkipServiExecFAP (5). Working on feature implementation","","","6","0",
"04.10.16","2","150791","131","120","Codierung","","0","10-1113: PIDT-524: Implementierung CR637my4-391_SkipServiExecFAP (5). Working on feature implementation","07:00","16:00","8","60",
"05.10.16","3","150791","131","120","Codierung","","0","10-1113: PIDT-524: Implementierung CR637my4-391_SkipServiExecFAP (5). Working on feature implementation","07:00","16:00","8","60",
"06.10.16","4","160051","18","101","PM/Mod/Meetings","","0","S4/DSA overall tasks 2016. Weekly general tasks","07:00","16:00","1","60",
"06.10.16","4","150791","131","120","Codierung","","0","10-1113: PIDT-524: Implementierung CR637my4-391_SkipServiExecFAP (5). Working on feature implementation","","","7","0",
"07.10.16","5","160023","0","910","Urlaub","","0","Urlaubsinfo 07.10.2016-10.10.2016. Urlaubsinfo 07.10.2016-10.10.2016","07:00","16:00","8","60",
