"18.04.16","1","150075","334","120","Codierung","","0","324_FEAT-6272 PRODIS.LIB - R03.24 (Test sequence development) /pa50. Creating requirements in Polarion","07:00","16:00","4","60",
"18.04.16","1","150075","380","102","Spez: LH/PH/Design","","0","324_ORG-1000: P.Lib: Product Requirement Specification (PDRS) /pa50. (from rt) Creating requirements in Polarion","","","4","0",
"19.04.16","2","150075","380","102","Spez: LH/PH/Design","","0","324_ORG-1000: P.Lib: Product Requirement Specification (PDRS) /pa50. (from rt) Creating requirements in Polarion","07:00","16:00","8","60",
"20.04.16","3","150075","380","102","Spez: LH/PH/Design","","0","324_ORG-1000: P.Lib: Product Requirement Specification (PDRS) /pa50. (from rt) Creating requirements in Polarion","07:00","16:00","8","60",
"21.04.16","4","150075","380","102","Spez: LH/PH/Design","","0","324_ORG-1000: P.Lib: Product Requirement Specification (PDRS) /pa50. (from rt) Creating requirements in Polarion","07:00","16:00","8","60",
"22.04.16","5","150075","380","102","Spez: LH/PH/Design","","0","324_ORG-1000: P.Lib: Product Requirement Specification (PDRS) /pa50	. (from rt) Creating requirements in Polarion","07:00","16:00","8","60",
