"03.10.16","1","160025","0","404","Internal Training, Project Handover","","0","training. training","07:00","16:00","8","60",
"04.10.16","2","160025","0","404","Internal Training, Project Handover","","0","training. training","07:00","16:00","8","60",
"05.10.16","3","160025","0","404","Internal Training, Project Handover","","0","training. training","07:00","16:00","4","60",
"05.10.16","3","150074","507","120","Codierung","","0","326_FEAT-6721: PDCS: Asynchronous Errors (VCI Disconnect, etc). Asynchronous Errors (VCI Disconnect, etc)","","","2","0",
"05.10.16","3","150074","508","120","Codierung","","0"," 326_FEAT-6712: PDCS: NON-ODX Handling / Communication. NON-ODX Handling / Communication","","","2","0",
"06.10.16","4","150074","507","120","Codierung","","100","326_FEAT-6721: PDCS: Asynchronous Errors (VCI Disconnect, etc). Asynchronous Errors (VCI Disconnect, etc)","07:00","16:00","8","60",
"07.10.16","5","150074","508","120","Codierung","","100"," 326_FEAT-6712: PDCS: NON-ODX Handling / Communication. NON-ODX Handling / Communication","07:00","16:00","8","60",
