"15.08.16","1","160025","1","404","Internal Training, Project Handover","","0","Training: Minor changes in ECU_Upload cts in LIEBHERR ws. Training: Minor changes in ECU_Upload cts in LIEBHERR ws","07:00","16:00","8","60",
"16.08.16","2","160025","1","404","Internal Training, Project Handover","","0","Training: ECU job creation training. Training: ECU job creation training","07:00","16:00","8","60",
"17.08.16","3","160025","1","404","Internal Training, Project Handover","","0","Training: ECU job creation training and implementing in runtime. Training: ECU job creation training and implementing in runtime","07:00","16:00","8","60",
"18.08.16","4","160025","1","404","Internal Training, Project Handover","","0","Training: ECU job creation training and implementing. Training: ECU job creation training and implementing","07:00","16:00","8","60",
"19.08.16","5","160025","1","404","Internal Training, Project Handover","","0","Training: Error fixes in LIEBHERR ws. Training: Error fixes in LIEBHERR ws","07:00","16:00","8","60",
