"14.11.16","1","160025","473","170","Schulung","","0","Training. Training","07:00","16:00","8","60",
"15.11.16","2","160025","473","170","Schulung","","0","Training. Training","07:00","16:00","8","60",
"16.11.16","3","160025","473","170","Schulung","","0","Training. Training","07:00","16:00","8","60",
"17.11.16","4","160025","473","170","Schulung","","0","Training. Training","07:00","16:00","8","60",
"18.11.16","5","160025","473","170","Schulung","","0","Training. Training","07:00","16:00","8","60",
