"30.05.16","1","150790","99","120","Codierung","","0","20-1104: PIDT-486: Review and test issues before CF CR608my1-363_UpdatECUState (8). Fixing review problems","07:00","16:00","6","60",
"30.05.16","1","160051","21","101","PM/Mod/Meetings","","0","S4/DSA overall tasks 2016. Workstation setup after office move","","","2","0",
"31.05.16","2","150790","99","120","Codierung","","0","20-1104: PIDT-486: Review and test issues before CF CR608my1-363_UpdatECUState (8). Fixing review problems","07:00","16:00","8","60",
"01.06.16","3","150790","171","130","Installation + Konfiguration","","0","10-9330: PIDT 16.2: Review and merge. Reviewing and merging CR609my3-356_Zugriffschutz","07:00","16:00","8","60",
"02.06.16","4","150790","99","120","Codierung","","0","20-1104: PIDT-486: Review and test issues before CF CR608my1-363_UpdatECUState (8). Working on bugs 65153 and 65165","07:00","16:00","8","60",
"03.06.16","5","160051","21","101","PM/Mod/Meetings","","0","S4/DSA overall tasks 2016. Meetings and admin","07:00","16:00","1,5","60",
"03.06.16","5","150790","99","120","Codierung","","0","20-1104: PIDT-486: Review and test issues before CF CR608my1-363_UpdatECUState (8). Worked on bug 65153","","","6,5","0",
