"29.02.16","1","150076","159","120","Codierung","","0","FEAT-6200 Graphical Customer Actuators. FEAT-6200 Graphical Customer Actuators","07:00","16:00","8","60",
"01.03.16","2","150076","159","120","Codierung","","0","FEAT-6200 Graphical Customer Actuators. FEAT-6200 Graphical Customer Actuators","07:00","16:00","8","60",
"02.03.16","3","150076","159","120","Codierung","","0","FEAT-6200 Graphical Customer Actuators. FEAT-6200 Graphical Customer Actuators","07:00","16:00","8","60",
"03.03.16","4","150076","159","120","Codierung","","0","FEAT-6200 Graphical Customer Actuators. FEAT-6200 Graphical Customer Actuators","07:00","16:00","8","60",
"04.03.16","5","160051","11","101","PM/Mod/Meetings","","0","Weekly tasks AES 2016. Meeting and timesheets","07:00","16:00","1,5","60",
"04.03.16","5","160051","2","101","PM/Mod/Meetings","","0","Management AES 2016. Management AES 2016","","","1","0",
"04.03.16","5","150076","159","120","Codierung","","0","FEAT-6200 Graphical Customer Actuators. FEAT-6200 Graphical Customer Actuators","","","5,5","0",
