"06.06.16","1","150790","0","182","Fehlerbes. nach Ausl. (Bugzilla)","","0","10-1120: OTX Support. OTX Sequence Testing and Bug Fixing","07:00","16:00","8","60",
"07.06.16","2","150790","54","181","Fehlerbes. vor Ausl. (Bugzilla)","","100","10-1113: PIDT-495: Bugfixing CR609my1-316_VerscVehicPlatf (3). 10-1113: PIDT-495: Bugfixing CR609my1-316_VerscVehicPlatf (3)","07:00","16:00","5","60",
"07.06.16","2","150790","0","182","Fehlerbes. nach Ausl. (Bugzilla)","","0","Bugfixing Working on PIDT 16.2 bugs. Bugfixing Working on PIDT 16.2 bugs","","","3","0",
"08.06.16","3","150790","0","182","Fehlerbes. nach Ausl. (Bugzilla)","","0","Bugfixing Working on PIDT 16.2 bugs. Bugfixing Working on PIDT 16.2 bugs","07:00","16:00","8","60",
"09.06.16","4","150790","0","140","Test","","0","PIDT 16.2 Integration tests and Bugfix verification. PIDT 16.2 Integration tests and Bugfix verification","07:00","16:00","8","60",
"10.06.16","5","160022","59","110","Engineering","","0","Weekly tasks DSE 2016. Weekly tasks DSE 2016","07:00","16:00","1,5","60",
"10.06.16","5","150790","0","182","Fehlerbes. nach Ausl. (Bugzilla)","","0","10-1120: OTX Support. Getting in touch with PDUSim","","","6,5","0",
