"20.06.16","1","150074","450","160","Dokumentation","","0","Rules and Regulations. Cleaning up the document","07:00","16:00","7","60",
"20.06.16","1","160051","32","101","PM/Mod/Meetings","","0","Meetings and training. Meetings and training","","","1","0",
"21.06.16","2","150074","420","160","Dokumentation","","0","Rules and regulations. Documentation cleanup","07:00","16:00","8","60",
"22.06.16","3","150074","420","160","Dokumentation","","0","Rules and regulations. Documentation cleanup","07:00","16:00","7","60",
"22.06.16","3","160051","32","101","PM/Mod/Meetings","","0","Meetings and training. Meetings and training","","","1","0",
"23.06.16","4","160051","32","101","PM/Mod/Meetings","","0","Training other guys. Training other guys on team","07:00","16:00","2","60",
"23.06.16","4","150074","420","160","Dokumentation","","0","Rules and regulations. Cleanup documentation","","","6","0",
"24.06.16","5","160051","32","101","PM/Mod/Meetings","","0","Training and meetings. Training and meetings","07:00","16:00","2","60",
"24.06.16","5","150074","420","160","Dokumentation","","0","Rules and Regulations. Cleanup Documentation","","","6","0",
