"22.02.16","1","150731","0","150","Inbetriebnahme","","0","Onsite Support NISSAN 2016. Onsite Support NISSAN 2016","07:00","18:00","10","60",
"23.02.16","2","150731","0","150","Inbetriebnahme","","0","Onsite Support NISSAN 2016. Onsite Support NISSAN 2016","07:00","17:30","9,5","60",
"24.02.16","3","150731","0","150","Inbetriebnahme","","0","Onsite Support NISSAN 2016. Onsite Support NISSAN 2016","07:00","16:00","8","60",
"25.02.16","4","150731","0","150","Inbetriebnahme","","0","Onsite Support NISSAN 2016. Onsite Support NISSAN 2016","07:00","16:00","8","60",
"26.02.16","5","150731","0","150","Inbetriebnahme","","0","Onsite Support NISSAN 2016. Onsite Support NISSAN 2016","07:00","16:00","8","60",
