"18.07.16","1","160025","0","404","Internal Training, Project Handover","","100","PRODIS:Authoring training. Doing tasks for Wabco and self training","07:00","16:00","8","60",
"19.07.16","2","160025","0","404","Internal Training, Project Handover","","100","PRODIS.Authoring training. Doing tasks for Wabco and self training","07:00","16:00","8","60",
"20.07.16","3","160025","0","404","Internal Training, Project Handover","","100","PRODIS.Authoring. Doing tasks for Wabco and self training","07:00","16:00","8","60",
"21.07.16","4","160025","0","404","Internal Training, Project Handover","","100","PRODIS.Authoring. Doing tasks for Wabco and self training","07:00","16:00","8","60",
"22.07.16","5","160025","0","404","Internal Training, Project Handover","","100","PRODIS.Authoring . Doing tasks for Wabco and self training","07:00","16:00","8","60",
