"27.06.16","1","150790","104","140","Test","","100","10-1107: PIDT-487: Integrationstests CR609my9-362_PflegFahrzDaten2 (8). Closing Task","07:00","16:00","0","60",
"27.06.16","1","150790","101","120","Codierung","","100","10-1111: PIDT-490: Implementierung CR609my4-357_ProtoAusAblau (8). Closing Task","","","0","0",
"27.06.16","1","150790","82","104","Test-Spezifikation","","100","10-1111: PIDT-490: Testspec CR609my4-357_ProtoAusAblau (8). Closing Task","","","0","0",
"27.06.16","1","150790","169","182","Fehlerbes. nach Ausl. (Bugzilla)","","0","9999: PIDT 16.2: Bugfixing aus Vorrelease. Bug Fixing","","","8","0",
"28.06.16","2","150790","0","140","Test","","0","PIDT 16.2 Integration tests and Bugfix verification. Bug Verification","07:00","16:00","8","60",
"29.06.16","3","150790","0","140","Test","","0","PIDT 16.2 Integration tests and Bugfix verification. Bug Verification","07:00","16:00","8","60",
"30.06.16","4","150790","0","140","Test","","0","PIDT 16.2 Integration tests and Bugfix verification. Bug Verification","07:00","16:00","8","60",
"01.07.16","5","160051","27","101","PM/Mod/Meetings","","0","S4/DSA overall tasks 2016. Timesheets","07:00","16:00","1","60",
"01.07.16","5","150790","0","140","Test","","0","PIDT 16.2 Integration tests and Bugfix verification. Bug Verification","","","7","0",
