"12.09.16","1","150074","473","120","Codierung","","100","Testsequence Execution Progress Monitoring. Close Task","07:00","16:00","0","60",
"12.09.16","1","150074","440","120","Codierung","","100","Rework: Signatures with variants. Rework code, Close Task","","","4","0",
"12.09.16","1","150074","464","120","Codierung","","0","326_FEAT-6721: PDCS: Asynchronous Errors (VCI Disconnect, etc). Working on re-connection","","","4","0",
"13.09.16","2","150074","438","120","Codierung","","0","326_FEAT-6713: PDCS: Simulation Setup Documentation. Working on documentation","07:00","16:00","8","60",
"14.09.16","3","150074","441","101","PM/Mod/Meetings","","0","326_ORG-9120: PDCS: Project Managmeent / Meetings. Project Management / Meetings","07:00","16:00","8","60",
"15.09.16","4","150074","443","110","Engineering","","0","326_ORG-9120: PDCS: Concept / Reviews. Review of implementations","07:00","16:00","8","60",
"16.09.16","5","150074","441","101","PM/Mod/Meetings","","0","326_ORG-9120: PDCS: Project Managmeent / Meetings. Project management","07:00","16:00","4","60",
"16.09.16","5","160051","20","101","PM/Mod/Meetings","","0","General project management / Teamsupport AES 2016. General management / support","","","4","0",
