"12.12.16","1","160023","0","910","Urlaub","","0","Time off . Time off","07:00","16:00","4","60",
"12.12.16","1","160499","40","120","Entwicklung: Codierung, Schaltplanerstellung, PCB-Layout","","0","10-1011: PIDT 17.0: CR648my5-375_Entfa32Bit. Started removing 32 bit dlls. Working to fix Jenkins build","","","4","0",
"13.12.16","2","160023","0","910","Urlaub","","0","Time off. Time off","07:00","16:00","3","60",
"13.12.16","2","160499","40","120","Entwicklung: Codierung, Schaltplanerstellung, PCB-Layout","","0","10-1011: PIDT 17.0: CR648my5-375_Entfa32Bit. Started removing 32 bit dlls. Working to fix Jenkins build","","","5","0",
"14.12.16","3","160499","3","181","Fehlerbes. vor Ausl. (Bugzilla)","","0","10-1099: PIDT 17.0: Bugfixing. Bugfixing","07:00","16:00","8","60",
"15.12.16","4","160023","0","910","Urlaub","","0","Leave. Holiday","07:00","16:00","8","60",
"16.12.16","5","160023","0","910","Urlaub","","0","Holiday. Time off","07:00","16:00","8","60",
