"21.11.16","1","150791","154","181","Fehlerbes. vor Ausl. (Bugzilla)","","0","10-1098: PIDT 16.4: Bugfixing nach Codefreeze. Bug Fixing","07:00","16:00","8","60",
"22.11.16","2","150791","154","181","Fehlerbes. vor Ausl. (Bugzilla)","","0","10-1098: PIDT 16.4: Bugfixing nach Codefreeze. Bug Fixing","07:00","16:00","8","60",
"23.11.16","3","150791","154","181","Fehlerbes. vor Ausl. (Bugzilla)","","0","10-1098: PIDT 16.4: Bugfixing nach Codefreeze. Bug Fixing","07:00","16:00","8","60",
"24.11.16","4","150791","154","181","Fehlerbes. vor Ausl. (Bugzilla)","","0","10-1098: PIDT 16.4: Bugfixing nach Codefreeze. Bug Fixing","07:00","16:00","8","60",
"25.11.16","5","150791","70","140","Test","","0","10-1080: Verifikation Bugfixes PIDT 16.4. Bug Fix Verification","07:00","16:00","5","60",
"25.11.16","5","160023","0","910","Urlaub","","0","910 Urlaub. PIDT 16.4 Release celebration leave.","","","3","0",
