"21.03.16","1","150731","17","150","Inbetriebnahme","","0","Onsite Support NISSAN 2016. Onsite Support NISSAN 2016","07:00","16:00","8","60",
"22.03.16","2","150731","17","150","Inbetriebnahme","","0","Onsite Support NISSAN 2016. Onsite Support NISSAN 2016","07:00","16:00","8","60",
"23.03.16","3","150731","17","150","Inbetriebnahme","","0","Onsite Support NISSAN 2016. Onsite Support NISSAN 2016","07:00","19:00","11","60",
"24.03.16","4","150731","17","150","Inbetriebnahme","","0","Onsite Support NISSAN 2016. Onsite Support NISSAN 2016","07:00","16:00","8","60",
"25.03.16","5","160023","0","910","Urlaub","","0","Urlaub. Public Holiday","07:00","16:00","8","60",
