"11.04.16","1","0","0","120","Codierung","","0","DSA SYSTEMS: KARMA. Created ecu test functions based on the document","07:00","16:00","8","60",
"12.04.16","2","0","0","120","Codierung","","0","DSA SYSTEMS: KARMA. Created ecu test functions based on the document","07:00","16:00","8","60",
"13.04.16","3","0","0","401","Travel","","0","DSA SYSTEMS: GENERAL. Travling to CPT for VISA","07:00","16:00","8","60",
"14.04.16","4","0","0","401","Travel","","0","DSA SYSTEMS: GENERAL. US VISA Appointment and Travling to PE","07:00","16:00","8","60",
"15.04.16","5","0","0","120","Codierung","","0","DSA SYSTEMS: KARMA. Assembly Check","07:00","16:00","8","60",
