"31.10.16","1","150074","534","120","Codierung","","0","328_FEAT-9999: Screen Integration PRODIS.Lib. Screen Integration Feature Start","07:00","16:00","8","60",
"01.11.16","2","150074","534","120","Codierung","","0","328_FEAT-9999: Screen Integration PRODIS.Lib. Static Dialog Update","07:00","16:00","8","60",
"02.11.16","3","150074","534","120","Codierung","","0","328_FEAT-9999: Screen Integration PRODIS.Lib. Static Dialog Testing","07:00","16:00","8","60",
"03.11.16","4","150074","534","120","Codierung","","0","328_FEAT-9999: Screen Integration PRODIS.Lib. Screen Server & Static Dialog Documentation","07:00","16:00","8","60",
"04.11.16","5","160023","0","910","Urlaub","","0","Time off - Annual Leave. Annual Leave Taken","07:00","16:00","8","60",
