"31.10.16","1","150076","240","181","Fehlerbes. vor Ausl. (Bugzilla)","","0","FEAT-7841 PRODIS.ASCS R04.10 Bugfixing -SYT Bugs. FEAT-7841 PRODIS.ASCS R04.10 Bugfixing -SYT Bugs","07:00","16:00","8","60",
"01.11.16","2","150076","240","181","Fehlerbes. vor Ausl. (Bugzilla)","","0","FEAT-7841 PRODIS.ASCS R04.10 Bugfixing -SYT Bugs. FEAT-7841 PRODIS.ASCS R04.10 Bugfixing -SYT Bugs","07:00","16:00","8","60",
"02.11.16","3","150076","240","181","Fehlerbes. vor Ausl. (Bugzilla)","","0","FEAT-7841 PRODIS.ASCS R04.10 Bugfixing -SYT Bugs. FEAT-7841 PRODIS.ASCS R04.10 Bugfixing -SYT Bugs","07:00","16:00","8","60",
"03.11.16","4","150076","240","181","Fehlerbes. vor Ausl. (Bugzilla)","","0","FEAT-7841 PRODIS.ASCS R04.10 Bugfixing -SYT Bugs. FEAT-7841 PRODIS.ASCS R04.10 Bugfixing -SYT Bugs","07:00","16:00","8","60",
"04.11.16","5","150076","240","181","Fehlerbes. vor Ausl. (Bugzilla)","","0","FEAT-7841 PRODIS.ASCS R04.10 Bugfixing -SYT Bugs. FEAT-7841 PRODIS.ASCS R04.10 Bugfixing -SYT Bugs","07:00","16:00","7","60",
"04.11.16","5","160051","5","101","PM/Mod/Meetings","","0","Weekly tasks AES 2016. Weekly tasks AES 2016","","","1","0",
