"08.08.16","1","160217","30","401","Travel","","0","WB / automatisch. Travel","14:00","23:59","9,98","0",
"09.08.16","2","160023","0","910","Urlaub","","0","Urlaub. Public Holiday","07:00","16:00","8","60",
"10.08.16","3","160217","31","110","Engineering","","0","WB / automatisch. Preparation for KW33 return to Plant","07:00","16:00","8","60",
"11.08.16","4","160217","31","110","Engineering","","0","WB / automatisch. Preparation for KW33 return to Plant","07:00","16:00","8","60",
"12.08.16","5","160217","31","110","Engineering","","0","WB / automatisch. Preparation for KW33 return to Plant","07:00","15:00","7,5","30",
