"05.09.16","1","150751","21","120","Codierung","","0","10-1109: PIDT-511: Implementierung CR631my6-378_jRTS326 (20). 10-1109: PIDT-511: Implementierung CR631my6-378_jRTS326 (20)","07:00","16:00","8","60",
"06.09.16","2","150751","21","120","Codierung","","0","10-1109: PIDT-511: Implementierung CR631my6-378_jRTS326 (20). 10-1109: PIDT-511: Implementierung CR631my6-378_jRTS326 (20)","07:00","16:00","2,5","60",
"06.09.16","2","150751","13","120","Codierung","","0","10-1109: PIDT-511: Review and test issues before CF CR631my6-378_jRTS326 (20). 10-1109: PIDT-511: Review and test issues before CF CR631my6-378_jRTS326 (20)","","","4","0",
"06.09.16","2","150791","16","101","PM/Mod/Meetings","","0","10-9102: PIDT 16.4 Meetings and Preparation. 10-9102: PIDT 16.4 Meetings and Preparation","","","1,5","0",
"07.09.16","3","160023","0","920","Krankheit","","0","krank 09.07.2016-09.07.2016. krank 09.07.2016-09.07.2016","07:00","16:00","3","60",
"07.09.16","3","150751","21","120","Codierung","","0","10-1109: PIDT-511: Review and test issues before CF CR631my6-378_jRTS326 (20). 10-1109: PIDT-511: Review and test issues before CF CR631my6-378_jRTS326 (20)","","","5","0",
"08.09.16","4","160023","0","920","Krankheit","","0","krank 09.08.2016-09.08.2016. krank 09.08.2016-09.08.2016","07:00","16:00","8","60",
"09.09.16","5","160023","0","920","Krankheit","","0","krank 09.09.2016-09.09.2016. krank 09.09.2016-09.09.2016","07:00","16:00","8","60",
