"28.03.16","1","160023","0","910","Urlaub","","0","Urlaub. Urlaub","07:00","16:00","8","60",
"29.03.16","2","150074","327","120","Codierung","","0","324_FEAT-6614: PDCS: Dialog/Overview Rework: Use Signatures. Reworking Screen button sizes as requested by om, testing new changes","07:00","16:00","3","60",
"29.03.16","2","150075","344","140","Test","","0","324_FEAT-6272 PRODIS.LIB - R03.24 (PDTR) /pa50. Creating new requirements in Polarion ","","","5","0",
"30.03.16","3","150075","344","140","Test","","0","324_FEAT-6272 PRODIS.LIB - R03.24 (PDTR) /pa50. Creating new requirements in Polarion ","07:00","16:00","8","60",
"31.03.16","4","160023","0","920","Krankheit","","0","Sick leave. Sick leave","07:00","16:00","8","60",
"01.04.16","5","150075","344","140","Test","","0","324_FEAT-6272 PRODIS.LIB - R03.24 (PDTR) /pa50. Creating  new requirements in Polarion","07:00","16:00","8","60",
