"05.09.16","1","160023","0","910","Urlaub","","100","Urlaub. Time Off","07:00","16:00","8","60",
"06.09.16","2","150076","194","120","Codierung","","0","FEAT-6436 - Integrate LL-Pool (in ConvLib). FEAT-6436 - Integrate LL-Pool (in ConvLib)","07:00","16:00","8","60",
"07.09.16","3","150076","102","120","Codierung","","0","OTX: Import OTX Library to P.Authoring. Import OTX Library  from P.Automation to P.Authoring. (Task Closed) Export/Import to Cluster 15","07:00","16:00","8","60",
"08.09.16","4","150076","102","120","Codierung","","0","OTX: Import OTX Library to P.Authoring. Import OTX Library  from P.Automation to P.Authoring. (Task Closed) Export/Import to Cluster 15","07:00","16:00","4","60",
"08.09.16","4","150076","172","120","Codierung","","0","FEAT-6297 OTX Sample Sequence. (Task closed) FEAT-6297 OTX Sample Sequence","","","4","0",
"09.09.16","5","160051","11","101","PM/Mod/Meetings","","0","Weekly tasks AES 2016. Meeting and timesheets","07:00","16:00","1","60",
"09.09.16","5","160051","2","101","PM/Mod/Meetings","","0","Management AES 2016. Management AES 2016","","","1","0",
"09.09.16","5","150076","172","120","Codierung","","0","FEAT-6297 OTX Sample Sequence. (Task closed) FEAT-6297 OTX Sample Sequence","","","6","0",
