"22.02.16","1","150076","122","120","Codierung","","0","FEAT-6107 Integrate the current PRODIS.Lib in Aftersales. FEAT-6107 Integrate the current PRODIS.Lib in Aftersales","07:00","16:00","2,5","60",
"22.02.16","1","150076","135","120","Codierung","","0","FEAT-6124 ECU-Config Extension: Rule-based coding. FEAT-6124 ECU-Config Extension: Rule-based coding","","","1","0",
"22.02.16","1","150076","138","120","Codierung","","0","FEAT-6196 Enhanced Navigation. FEAT-6196 Enhanced Navigation","","","4,5","0",
"23.02.16","2","150076","138","120","Codierung","","0","FEAT-6196 Enhanced Navigation. FEAT-6196 Enhanced Navigation","07:00","16:00","8","60",
"24.02.16","3","150076","138","120","Codierung","","0","FEAT-6196 Enhanced Navigation. FEAT-6196 Enhanced Navigation","07:00","16:00","8","60",
"25.02.16","4","100369","0","182","Fehlerbes. nach Ausl. (Bugzilla)","","0","Bug 62848 - IUPR Daten, Texte nicht lesbar. bugfixing","07:00","16:00","8","60",
"26.02.16","5","160051","2","101","PM/Mod/Meetings","","0","Management AES 2016. Management AES 2016","07:00","16:00","1","60",
"26.02.16","5","160051","11","101","PM/Mod/Meetings","","0","Weekly tasks AES 2016. Meeting and timesheets","","","1,5","0",
"26.02.16","5","100369","0","182","Fehlerbes. nach Ausl. (Bugzilla)","","100","Bug 62848 - IUPR Daten, Texte nicht lesbar. Bugfixing","","","2","0",
"26.02.16","5","150076","138","120","Codierung","","0","FEAT-6196 Enhanced Navigation. FEAT-6196 Enhanced Navigation","","","3,5","0",
