"11.07.16","1","150074","457","101","PM/Mod/Meetings","","0","Meetings, planning and training. Meetings, planning and training","07:00","16:00","2","60",
"11.07.16","1","150074","439","120","Codierung","","0","Re-execution of failed tests. Development, testing and planning","","","4","0",
"11.07.16","1","0","0","120","Codierung","","0","Worked on other S4 stuff. Worked on other S4 stuff","","","2","0",
"12.07.16","2","150074","457","101","PM/Mod/Meetings","","0","Meetings, training and planning. Meetings, training and planning","07:00","16:00","1","60",
"12.07.16","2","150074","439","120","Codierung","","0","Re-execution of failed tests. Development, testing and planning","","","7","0",
"13.07.16","3","160023","0","910","Urlaub","","0","Took Leave. Took Leave","07:00","16:00","8","60",
"14.07.16","4","150074","439","120","Codierung","","0","Re-execution of faield tests. Development, testing and planning","07:00","16:00","4","60",
"14.07.16","4","0","0","120","Codierung","","0","Worked on other S4 stuff. Worked on other S4 stuff","","","4","0",
"15.07.16","5","0","0","120","Codierung","","0","Worked on other S4 stuff. Worked on other S4 stuff","07:00","16:00","8","60",
