"25.07.16","1","150076","194","120","Codierung","","0","FEAT-6436 - Integrate LL-Pool (in ConvLib). FEAT-6436 - Integrate LL-Pool (in ConvLib)","07:00","16:00","8","60",
"26.07.16","2","160023","0","910","Urlaub","","0","Urlaub. Time-off","07:00","16:00","3","60",
"26.07.16","2","150076","194","120","Codierung","","0","FEAT-6436 - Integrate LL-Pool (in ConvLib). FEAT-6436 - Integrate LL-Pool (in ConvLib)","","","5","0",
"27.07.16","3","150076","194","120","Codierung","","0","FEAT-6436 - Integrate LL-Pool (in ConvLib). FEAT-6436 - Integrate LL-Pool (in ConvLib)","07:00","16:00","8","60",
"28.07.16","4","150076","194","120","Codierung","","0","FEAT-6436 - Integrate LL-Pool (in ConvLib). FEAT-6436 - Integrate LL-Pool (in ConvLib)","07:00","16:00","8","60",
"29.07.16","5","160051","2","101","PM/Mod/Meetings","","0","Management AES 2016. Management AES 2016","07:00","16:00","1","60",
"29.07.16","5","160051","11","101","PM/Mod/Meetings","","0","Weekly tasks AES 2016. Meeting and timesheets","","","1,5","0",
"29.07.16","5","150076","210","120","Codierung","","0","FEAT-6742 - Graphical Customer Actuators S.2. FEAT-6742 - Graphical Customer Actuators S.2","","","2","0",
"29.07.16","5","150074","0","120","Codierung","","100","#RtGenHex service. implemented ODX with genHex service","","","3,5","0",
