"21.11.16","1","150075","483","120","Codierung","","0","328_FEAT-7829 - Visualization. P.Lib Visualisation Implementation","07:00","16:00","8","60",
"22.11.16","2","150075","483","120","Codierung","","0","328_FEAT-7829 - Visualization. Implementation","07:00","16:00","8","60",
"23.11.16","3","150075","483","120","Codierung","","0","328_FEAT-7829 - Visualization. Implementation","07:00","16:00","6,5","60",
"23.11.16","3","160051","34","101","PM/Mod/Meetings","","0","Weekly tasks AES 2016. Teleconference/TeamViewer Code Review","","","1,5","0",
"24.11.16","4","150075","483","120","Codierung","","0","328_FEAT-7829 - Visualization. Implementation & Update Documentation","07:00","16:00","8","60",
"25.11.16","5","150075","483","120","Codierung","","0","328_FEAT-7829 - Visualization. Implementation","07:00","16:00","8","60",
