"19.12.16","1","160735","0","120","Entwicklung: Codierung, Schaltplanerstellung, PCB-Layout","","0","VW BRA. VW BRA Coding","07:00","16:00","8","60",
"20.12.16","2","160735","0","120","Entwicklung: Codierung, Schaltplanerstellung, PCB-Layout","","0","VW BRA. VW BRA Coding","07:00","16:00","8","60",
"21.12.16","3","160735","0","120","Entwicklung: Codierung, Schaltplanerstellung, PCB-Layout","","0","VW BRA. VW BRA Coding","07:00","16:00","8","60",
"22.12.16","4","160735","0","120","Entwicklung: Codierung, Schaltplanerstellung, PCB-Layout","","0","VW BRA. VW BRA Coding","07:00","16:00","8","60",
"23.12.16","5","160051","25","101","PM: Meetings, Orga, Personalführung","","0","Weekly tasks AES 2016. Travel to South Africa","07:00","16:00","8","60",
