"02.05.16","1","160023","0","910","Urlaub","","0","Public Holiday 02.05.2016 - 02.05.2016. Public Holiday 02.05.2016 - 02.05.2016","07:00","16:00","8","60",
"03.05.16","2","160036","139","170","Schulung","","0","Training: Introduction to PIDT Software /smm_anlrn. Training (OTX Testing and bug-fixing)","07:00","16:00","8","60",
"04.05.16","3","160036","139","170","Schulung","","0","Training: Introduction to PIDT Software /smm_anlrn. Training (OTX Testing and bug-fixing)","07:00","16:00","8","60",
"05.05.16","4","160036","139","170","Schulung","","0","Training: Introduction to PIDT Software /smm_anlrn. Training (OTX Testing and bug-fixing)","07:00","16:00","8","60",
"06.05.16","5","160036","139","170","Schulung","","0","Training: Introduction to PIDT Software /smm_anlrn. Training (OTX Testing and bug-fixing)","07:00","16:00","6,5","60",
"06.05.16","5","160022","60","110","Engineering","","0","Weekly tasks DSE 2016. Weekly general tasks","","","1,5","0",
