"31.10.16","1","160023","0","910","Urlaub","","0","Took leave. Took leave","07:00","16:00","8","60",
"01.11.16","2","160023","0","910","Urlaub","","0","Took leave. Took leave","07:00","16:00","8","60",
"02.11.16","3","150074","538","120","Codierung","","0","328_FEAT-9999: LoopEvaluation. Working on requirements, design and test cases.","07:00","16:00","7","60",
"02.11.16","3","160051","32","101","PM/Mod/Meetings","","0","Weekly tasks AES 2016. Meetings related to loop evaluations and upcoming work..","","","1","0",
"03.11.16","4","150074","538","120","Codierung","","0","328_FEAT-9999: LoopEvaluation. Working on requirements, design and test cases.","07:00","16:00","7","60",
"03.11.16","4","160051","32","101","PM/Mod/Meetings","","0","Weekly tasks AES 2016. Meetings related to loop evaluations and upcoming work.","","","1","0",
"04.11.16","5","150074","538","120","Codierung","","0","328_FEAT-9999: LoopEvaluation. Working on requirements, design and test cases.","07:00","16:00","7","60",
"04.11.16","5","160051","32","101","PM/Mod/Meetings","","0","Weekly tasks AES 2016. Meetings related to loop evaluations and upcoming work.","","","1","0",
