"10.10.16","1","150577","74","120","Codierung","","100","9999: Measurements display. Measurements display. Closing Task","07:00","16:00","0","60",
"10.10.16","1","150577","75","120","Codierung","","100","9999: DTC documents. DTC descriptions. Closing Task","","","0","0",
"10.10.16","1","150577","76","120","Codierung","","100","9999: The upload. Closing Task","","","0","0",
"10.10.16","1","150577","80","120","Codierung","","100","Liebherr IOControls, Measurements and Read Failure memory: Impl.. Closing Task","","","0","0",
"10.10.16","1","150577","84","120","Codierung","","100","9999: Liebherr Specific Parameterization. implementation. Closing Task","","","0","0",
"10.10.16","1","150577","82","120","Codierung","","100","9999: ECU replacement. Implementation. Closing Task","","","0","0",
"10.10.16","1","150577","92","120","Codierung","","100","9999: VCILogging. vcilogging through branding. Closing Task","","","0","0",
"10.10.16","1","150577","91","120","Codierung","","100","9999: PST-133 - Comm Parameter Definition. Implementation. Closing Task","","","0","0",
"10.10.16","1","130216","21","185","Service, Telefon-Support","","0","WABCO: Support. (Reopening) Wabco authoring support","","","8","0",
"11.10.16","2","130216","21","185","Service, Telefon-Support","","0","WABCO: Support. (Reopening) Wabco authoring support","07:00","16:00","8","60",
"12.10.16","3","130216","21","185","Service, Telefon-Support","","0","WABCO: Support. (Reopening) Wabco authoring support","07:00","16:00","8","60",
"13.10.16","4","130216","21","185","Service, Telefon-Support","","0","WABCO: Support. (Reopening) Wabco authoring support","07:00","16:00","8","60",
"14.10.16","5","130216","21","185","Service, Telefon-Support","","0","WABCO: Support. (Reopening) Wabco authoring support","07:00","16:00","3","60",
"14.10.16","5","160051","8","101","PM/Mod/Meetings","","0","Weekly tasks AES 2016. meetings and timesheets","","","1,5","0",
"14.10.16","5","150076","196","140","Test","","0","FEAT-6743 - PRODIS.ASCS R04.08 Product Tests. (From s75) Testing ASCS IDT sequences","","","3,5","0",
