"02.05.16","1","160023","0","910","Urlaub","","0","Urlaub. Public Holiday","07:00","16:00","8","60",
"03.05.16","2","100369","9565","182","Fehlerbes. nach Ausl. (Bugzilla)","","0","8080: P3 #64543 (major) OBD-Tester: Functionality restricted: WWHOBD and OBD2: Read DTCs doesn't wor. 8080: P3 #64543 (major) OBD-Tester: Functionality restricted: WWHOBD and OBD2: Read DTCs doesn't wor","07:00","16:00","8","60",
"04.05.16","3","100369","9565","182","Fehlerbes. nach Ausl. (Bugzilla)","","0","8080: P3 #64543 (major) OBD-Tester: Functionality restricted: WWHOBD and OBD2: Read DTCs doesn't wor. 8080: P3 #64543 (major) OBD-Tester: Functionality restricted: WWHOBD and OBD2: Read DTCs doesn't wor","07:00","16:00","8","60",
"05.05.16","4","100369","9565","182","Fehlerbes. nach Ausl. (Bugzilla)","","0","8080: P3 #64543 (major) OBD-Tester: Functionality restricted: WWHOBD and OBD2: Read DTCs doesn't wor. 8080: P3 #64543 (major) OBD-Tester: Functionality restricted: WWHOBD and OBD2: Read DTCs doesn't wor","07:00","16:00","8","60",
"06.05.16","5","160023","0","910","Urlaub","","0","Urlaub. Annual Leave","07:00","16:00","8","60",
