"10.10.16","1","150076","208","181","Fehlerbes. vor Ausl. (Bugzilla)","","0","FEAT-6746 - PRODIS.ASCS R04.08 Bugfixing. FEAT-6746 - PRODIS.ASCS R04.08 Bugfixing","07:00","16:00","8","60",
"11.10.16","2","150076","208","181","Fehlerbes. vor Ausl. (Bugzilla)","","0","FEAT-6746 - PRODIS.ASCS R04.08 Bugfixing. FEAT-6746 - PRODIS.ASCS R04.08 Bugfixing","07:00","16:00","8","60",
"12.10.16","3","150076","208","181","Fehlerbes. vor Ausl. (Bugzilla)","","0","FEAT-6746 - PRODIS.ASCS R04.08 Bugfixing. FEAT-6746 - PRODIS.ASCS R04.08 Bugfixing","07:00","16:00","8","60",
"13.10.16","4","150076","196","140","Test","","0","FEAT-6743 - PRODIS.ASCS R04.08 Product Tests. FEAT-6743 - PRODIS.ASCS R04.08 Product Tests","07:00","16:00","8","60",
"14.10.16","5","150076","196","140","Test","","0","FEAT-6743 - PRODIS.ASCS R04.08 Product Tests. FEAT-6743 - PRODIS.ASCS R04.08 Product Tests","07:00","16:00","7","60",
"14.10.16","5","160051","5","101","PM/Mod/Meetings","","0","Weekly tasks AES 2016. Timesheet and Meetings","","","1","0",
