"10.10.16","1","150791","160","120","Codierung","","0","10-1118: PIDT-520: Implementierung CR636my1-387_SamtecPDU64Bit (2). From sww: Implementation","07:00","16:00","8","60",
"11.10.16","2","150791","160","120","Codierung","","0","10-1118: PIDT-520: Implementierung CR636my1-387_SamtecPDU64Bit (2). From sww: Implementation","07:00","16:00","8","60",
"12.10.16","3","150791","32","181","Fehlerbes. vor Ausl. (Bugzilla)","","0","10-1099: PIDT 16.4: Bugfixing. Bug Fixing","07:00","16:00","8","60",
"13.10.16","4","150791","32","181","Fehlerbes. vor Ausl. (Bugzilla)","","0","10-1099: PIDT 16.4: Bugfixing. Bug Fixing","07:00","16:00","8","60",
"14.10.16","5","160051","27","101","PM/Mod/Meetings","","0","S4/DSA overall tasks 2016. Meeting/Timesheet","07:00","16:00","1,5","60",
"14.10.16","5","150791","155","104","Test-Spezifikation","","0","10-1118: PIDT-520: Testspec CR636my1-387_SamtecPDU64Bit (2). From sww: Testspec","","","6,5","0",
