"18.07.16","1","160023","0","910","Urlaub","","0","Urlaub. Time Off","07:00","16:00","8","60",
"19.07.16","2","160051","25","101","PM/Mod/Meetings","","0","Weekly tasks AES 2016. UK Visa","07:00","16:00","8","60",
"20.07.16","3","140565","0","170","Schulung","","0","WAM cycle time improvement. Getting into Subject","07:00","16:00","8","60",
"21.07.16","4","140565","0","170","Schulung","","0","WAM cycle time improvement. Getting into Subject","07:00","16:00","8","60",
"22.07.16","5","160023","0","910","Urlaub","","0","Urlaub. Time Off","07:00","16:00","8","60",
