"02.01.17","1","160023","0","910","Urlaub","","0","Urlaub. Public Holiday","07:00","16:00","8","60",
"03.01.17","2","160023","0","910","Urlaub","","0","Urlaub. Annual Leave","07:00","16:00","8","60",
"04.01.17","3","160023","0","910","Urlaub","","0","Urlaub. Annual Leave","07:00","16:00","8","60",
"05.01.17","4","160023","0","910","Urlaub","","0","Urlaub. Annual Leave","07:00","16:00","8","60",
"06.01.17","5","160023","0","910","Urlaub","","0","Urlaub. Annual Leave","07:00","16:00","8","60",
