"09.05.16","1","150080","340","120","Codierung","","0","10_FEAT-6225: Pinsight: Login Possibility. User auth module","07:00","16:00","8","60",
"10.05.16","2","150080","340","120","Codierung","","0","10_FEAT-6225: Pinsight: Login Possibility. User auth module","07:00","16:00","8","60",
"11.05.16","3","150080","340","120","Codierung","","0","10_FEAT-6225: Pinsight: Login Possibility. User auth module","07:00","16:00","8","60",
"12.05.16","4","150080","340","120","Codierung","","0","10_FEAT-6225: Pinsight: Login Possibility. User auth module","07:00","16:00","8","60",
"13.05.16","5","150080","340","120","Codierung","","0","10_FEAT-6225: Pinsight: Login Possibility. User auth module","07:00","16:00","8","60",
