"12.09.16","1","130890","343","150","Inbetriebnahme","","0","Wrzesnia Support . Support. Friday Overtime Support","07:00","23:00","1,5","60",
"12.09.16","1","130890","343","150","Inbetriebnahme","","0","Wrzesnia Support . Support. Support","","","13,5","0",
"13.09.16","2","130890","343","150","Inbetriebnahme","","0","Wrzesnia Support . Support. Support","07:00","19:00","11","60",
"14.09.16","3","130890","343","150","Inbetriebnahme","","0","Wrzesnia Support . Support. Support","07:00","16:00","8","60",
"15.09.16","4","130890","343","150","Inbetriebnahme","","0","Wrzesnia Support . Support. Support","07:00","16:00","8","60",
"16.09.16","5","130890","343","150","Inbetriebnahme","","0","Support. Support","07:00","16:00","8","60",
"17.09.16","6","130890","343","150","Inbetriebnahme","","0","Support. Support","07:00","20:00","12","60",
