"26.12.16","1","160023","0","910","Urlaub","","0","Public Holiday 12.26.2016. Public Holiday 12.26.2016","07:00","16:00","8","60",
"27.12.16","2","160023","0","910","Urlaub","","0","Public Holiday 12.27.2016. Public Holiday 12.27.2016","07:00","16:00","8","60",
"28.12.16","3","160023","0","910","Urlaub","","0","Leave - Time Off. Leave - Time Off","07:00","16:00","8","60",
"29.12.16","4","160023","0","910","Urlaub","","0","Leave - Time Off. Leave - Time Off","07:00","16:00","8","60",
"30.12.16","5","160023","0","910","Urlaub","","0","Leave - Time Off. Leave - Time Off","07:00","16:00","8","60",
