"27.06.16","1","160051","15","101","PM/Mod/Meetings","","0","Management AES 2016. General management + support","07:00","16:00","8","60",
"28.06.16","2","150074","441","101","PM/Mod/Meetings","","0","326_ORG-9120: PDCS: Project Managmeent / Meetings. Investigating NetDaemon operation","07:00","16:00","2","60",
"28.06.16","2","160051","15","101","PM/Mod/Meetings","","0","Management AES 2016. General management + support","","","6","0",
"29.06.16","3","150074","464","120","Codierung","","0","326_FEAT-6721: PDCS: Asynchronous Errors (VCI Disconnect, etc). Investigating CLRtsError operation in JRTS","07:00","16:00","4","60",
"29.06.16","3","160051","15","101","PM/Mod/Meetings","","0","Management AES 2016. General management + support","","","4","0",
"30.06.16","4","150074","464","120","Codierung","","0","326_FEAT-6721: PDCS: Asynchronous Errors (VCI Disconnect, etc). Creating design for VCI monitoring","07:00","16:00","2","60",
"30.06.16","4","150074","464","120","Codierung","","0","326_FEAT-6721: PDCS: Asynchronous Errors (VCI Disconnect, etc). Investigating CLRtsError operation in JRTS","","","6","0",
"01.07.16","5","150074","464","120","Codierung","","0","326_FEAT-6721: PDCS: Asynchronous Errors (VCI Disconnect, etc). Creating design for IDT monitoring","07:00","16:00","6","60",
"01.07.16","5","160051","15","101","PM/Mod/Meetings","","0","Management AES 2016. General management + support","","","2","0",
