"02.05.16","1","160023","0","910","Urlaub","","0","Public Holiday 02.04.2016. Public Holiday 02.04.2016","07:00","16:00","8","60",
"03.05.16","2","160036","141","170","Schulung","","0","Training: Introduction to PIDT Software /sae_anlrn. Training: Introduction to PIDT Software /sae_anlrn","07:00","16:00","8","60",
"04.05.16","3","160036","141","170","Schulung","","0","Training: Introduction to PIDT Software /sae_anlrn. Training: Introduction to PIDT Software /sae_anlrn","07:00","16:00","8","60",
"05.05.16","4","160036","141","170","Schulung","","0","Training: Introduction to PIDT Software /sae_anlrn. Training: Introduction to PIDT Software /sae_anlrn","07:00","16:00","8","60",
"06.05.16","5","160036","141","170","Schulung","","0","Training: Introduction to PIDT Software /sae_anlrn. Training: Introduction to PIDT Software /sae_anlrn","07:00","16:00","7","60",
"06.05.16","5","160022","61","110","Engineering","","0","Weekly tasks DSE 2016. Weekly tasks DSE 2016","","","1","0",
