"12.12.16","1","160499","8","181","Fehlerbes. vor Ausl. (Bugzilla)","","0","10-1099: PIDT 17.0: Bugfixing. 10-1099: PIDT 17.0: Bugfixing","07:00","16:00","8","60",
"13.12.16","2","150791","0","181","Fehlerbes. vor Ausl. (Bugzilla)","","0","10-1099: PIDT 16.4.1: Bugfixing. Working on Bug 69329","07:00","16:00","4","60",
"13.12.16","2","150791","241","180","Fehlerbes. nach Auslieferung (SA, Reparatur)","","0","PIDT Diagnoseapplikation: 8080: P1 #69377 (critical) SA649MY1. PIDT Diagnoseapplikation: 8080: P1 #69377 (critical) SA649MY1","","","4","0",
"14.12.16","3","150791","241","180","Fehlerbes. nach Auslieferung (SA, Reparatur)","","100","PIDT Diagnoseapplikation: 8080: P1 #69377 (critical) SA649MY1. PIDT Diagnoseapplikation: 8080: P1 #69377 (critical) SA649MY1","07:00","16:30","8","0",
"14.12.16","3","150791","0","140","Test","","0","PIDT 16.4.1 Bug fix verification. PIDT 16.4.1 Bug fix verification","","","1,5","0",
"15.12.16","4","160051","18","101","PM: Meetings, Orga, Personalführung","","0","S4/DSA overall tasks 2016. Weekly general tasks","07:00","16:00","1,5","60",
"15.12.16","4","150791","0","140","Test","","0","10-1000: PIDT 16.4.1 : Regression Tests. 10-1000: PIDT 16.4.1 : Regression Tests","","","6,5","0",
"16.12.16","5","160023","0","910","Urlaub","","0","Public Holiday. Public Holiday","07:00","16:00","8","60",
