"08.08.16","1","160023","0","910","Urlaub","","0","Urlaub 08.08.2016. Leave","07:00","16:00","8","60",
"09.08.16","2","160023","0","910","Urlaub","","0","Urlaub 09.08.2016. Public Holiday","07:00","16:00","8","60",
"10.08.16","3","150751","8","120","Codierung","","0","10-1109: PIDT-511: Implementierung CR631my6-378_jRTS326 (20). Merging  CR527my2-338_ScreenSkaliPT3G","07:00","16:00","5,5","60",
"10.08.16","3","150791","47","101","PM/Mod/Meetings","","0","10-9120: PIDT 16.4 Meetings and Preparation. 10-9120: PIDT 16.4 estimation meeting and preparation","","","2,5","0",
"11.08.16","4","150751","8","120","Codierung","","0","10-1109: PIDT-511: Implementierung CR631my6-378_jRTS326 (20). Merging  CR527my2-338_ScreenSkaliPT3G","07:00","16:00","8","60",
"12.08.16","5","150751","8","120","Codierung","","0","10-1109: PIDT-511: Implementierung CR631my6-378_jRTS326 (20). Merging  CR527my2-338_ScreenSkaliPT3G","07:00","16:00","6,5","60",
"12.08.16","5","160051","29","101","PM/Mod/Meetings","","0","S4/DSA overall tasks 2016. S4/DSA Weekely meeting and admin","","","1,5","0",
