"17.10.16","1","160051","20","101","PM/Mod/Meetings","","0","General project management / Teamsupport AES 2016. General Admin / Support","07:00","16:00","8","60",
"18.10.16","2","160051","20","101","PM/Mod/Meetings","","0","General project management / Teamsupport AES 2016. General Admin / Support","07:00","16:00","4","60",
"18.10.16","2","160023","0","910","Urlaub","","0","Urlaub. S4 Meeting","","","4","0",
"19.10.16","3","160023","0","910","Urlaub","","100","Urlaub. S4 Meeting","07:00","16:00","4","60",
"19.10.16","3","160051","20","101","PM/Mod/Meetings","","0","General project management / Teamsupport AES 2016. General Admin / Support","","","4","0",
"20.10.16","4","160051","20","101","PM/Mod/Meetings","","0","General project management / Teamsupport AES 2016. General Admin / Support","07:00","16:00","8","60",
"21.10.16","5","160023","1","910","Urlaub","","100","Urlaub. Day Off","07:00","16:00","8","60",
