"05.12.16","1","150080","448","120","Codierung","","0","FEAT-7964 - Insight Workshop UI Tests. Test framework and CDF","07:00","16:00","8","60",
"06.12.16","2","150080","448","120","Codierung","","0","FEAT-7964 - Insight Workshop UI Tests. Test framework and CDF","07:00","16:00","8","60",
"07.12.16","3","150080","448","120","Codierung","","0","FEAT-7964 - Insight Workshop UI Tests. Test framework and CDF","07:00","16:00","8","60",
"08.12.16","4","150080","448","120","Codierung","","0","FEAT-7964 - Insight Workshop UI Tests. Test framework and CDF","07:00","16:00","8","60",
"09.12.16","5","150080","448","120","Codierung","","0","FEAT-7964 - Insight Workshop UI Tests. Test framework and CDF","07:00","16:00","8","60",
