"16.05.16","1","150080","340","120","Codierung","","0","10_FEAT-6225: Pinsight: Login Possibility. User auth module","07:00","16:00","8","60",
"17.05.16","2","150080","340","120","Codierung","","0","10_FEAT-6225: Pinsight: Login Possibility. User auth module","07:00","16:00","8","60",
"18.05.16","3","150080","340","120","Codierung","","0","10_FEAT-6225: Pinsight: Login Possibility. User auth module","07:00","16:00","8","60",
"19.05.16","4","150080","340","120","Codierung","","0","10_FEAT-6225: Pinsight: Login Possibility. User auth module","07:00","16:00","8","60",
"20.05.16","5","150080","340","120","Codierung","","0","10_FEAT-6225: Pinsight: Login Possibility. User auth module","07:00","16:00","8","60",
