"05.12.16","1","150074","580","101","PM/Mod/Meetings","","0","328_FEAT-7920: Project Meetings. PDCS Progress meeting","07:00","16:00","1","60",
"05.12.16","1","160051","32","101","PM/Mod/Meetings","","0","Weekly tasks AES 2016. Meeting with Nico","","","1","0",
"05.12.16","1","160051","0","101","PM/Mod/Meetings","","0","Weekly tasks AES 2016. Testing the data logger with the current PDCS. Wanted tro see if the issues were PDCS related.","","","2","0",
"05.12.16","1","160051","0","101","PM/Mod/Meetings","","0","Weekly tasks AES 2016. Assisted Ralf with a plant configuration issue.","","","1","0",
"05.12.16","1","150074","0","120","Codierung","","0","PDCS Session Log Transfer. making changes to the session log transfer.","","","3","0",
"06.12.16","2","160051","32","101","PM/Mod/Meetings","","0","Weekly tasks AES 2016. Meeting with Nico and did a lot of admin. Emails, feedback etc.","07:00","16:00","2","60",
"06.12.16","2","160051","33","170","Schulung","","0","Training AES 2016. Training on DTCs, text refs, DSA library and some statistics (Edina and Diana).","","","3","0",
"06.12.16","2","150074","589","120","Codierung","","0","328_FEAT-7954: DTC Translation. Started on requirements","","","1,5","0",
"06.12.16","2","150074","576","120","Codierung","","0","328_FEAT-7947: EFPA: Elektronische Fahrzeug-Prüfakte (PRODIS.PDCS). Started on requirements","","","1,5","0",
"07.12.16","3","150074","0","160","Dokumentation","","0","PDCS Presentation. Worked on the PDCS presentation","07:00","16:00","3,5","60",
"07.12.16","3","150074","580","101","PM/Mod/Meetings","","0","328_FEAT-7920: Project Meetings. Discussed requirements with Michael Roth","","","1","0",
"07.12.16","3","160051","32","101","PM/Mod/Meetings","","0","Weekly tasks AES 2016. Meetings, discussions and planning. PDCS, Library and processes.","","","3","0",
"07.12.16","3","130890","0","120","Codierung","","0","WRZ - GDI Log Converter. Made more changes based on new information.","","","0,5","0",
"08.12.16","4","160051","32","101","PM/Mod/Meetings","","0","Weekly tasks AES 2016. Meetings, discussions and planning. PDCS, Library and processes.","07:00","16:00","2","60",
"08.12.16","4","150074","0","101","PM/Mod/Meetings","","0","PDCS - Rework Location. Reviewed test cases and code.","","","1,5","0",
"08.12.16","4","130890","0","120","Codierung","","0","WRZ - GDI Log Converter. Made more changes based on new information.","","","3","0",
"08.12.16","4","160051","33","170","Schulung","","0","Training AES 2016. Started training on PRODIS.Control with Dirk","","","3,5","0",
"09.12.16","5","160051","33","170","Schulung","","0","Training AES 2016. Training on PRODIS.Control with Dirk","07:00","16:00","2,5","60",
"09.12.16","5","160051","32","101","PM/Mod/Meetings","","0","Weekly tasks AES 2016. Meetings, discussions and planning. PDCS, Library and processes.","","","1,5","0",
"09.12.16","5","130890","0","120","Codierung","","0","WRZ - GDI Log Converter. Made more changes based on new information.","","","4","0",
