"18.04.16","1","150076","156","181","Fehlerbes. vor Ausl. (Bugzilla)","","0","FEAT-6265 PRODIS.ASCS R04.06 Bugfixing. FEAT-6265 PRODIS.ASCS R04.06 Bugfixing","07:00","16:00","8","60",
"19.04.16","2","150076","156","181","Fehlerbes. vor Ausl. (Bugzilla)","","0","FEAT-6265 PRODIS.ASCS R04.06 Bugfixing. FEAT-6265 PRODIS.ASCS R04.06 Bugfixing","07:00","16:00","8","60",
"20.04.16","3","150076","156","181","Fehlerbes. vor Ausl. (Bugzilla)","","0","FEAT-6265 PRODIS.ASCS R04.06 Bugfixing. FEAT-6265 PRODIS.ASCS R04.06 Bugfixing","07:00","16:00","8","60",
"21.04.16","4","160051","8","101","PM/Mod/Meetings","","0","Weekly tasks AES 2016. Forext acquisition for german trip","07:00","16:00","2","60",
"21.04.16","4","150076","156","181","Fehlerbes. vor Ausl. (Bugzilla)","","0","FEAT-6265 PRODIS.ASCS R04.06 Bugfixing. FEAT-6265 PRODIS.ASCS R04.06 Bugfixing","","","6","0",
"22.04.16","5","160051","8","101","PM/Mod/Meetings","","0","Weekly tasks AES 2016. Meetings and timesheets","07:00","16:00","1","60",
"22.04.16","5","150076","156","181","Fehlerbes. vor Ausl. (Bugzilla)","","100","FEAT-6265 PRODIS.ASCS R04.06 Bugfixing. FEAT-6265 PRODIS.ASCS R04.06 Bugfixing","","","7","0",
