"27.06.16","1","150577","45","120","Codierung","","0","Create ODX-F Files. Create ODX-F Files","07:00","16:00","8","60",
"28.06.16","2","150577","43","120","Codierung","","0","Create VEC and import ODX Data. Create VEC and import ODX Data","07:00","16:00","4","60",
"28.06.16","2","150577","31","120","Codierung","","0","Liebherr ODX Fix. Fix xvalidation errors. Liebherr ODX Fix. Fix xvalidation errors","","","4","0",
"29.06.16","3","150577","31","120","Codierung","","0","Liebherr ODX Fix. Fix xvalidation errors. Liebherr ODX Fix. Fix xvalidation errors","07:00","16:00","8","60",
"30.06.16","4","150577","47","120","Codierung","","0","Diagnostic application customizing. Diagnostic application customizing","07:00","16:00","8","60",
"01.07.16","5","150577","41","120","Codierung","","0","Branding. Branding","07:00","16:00","8","60",
