"31.10.16","1","130216","160","185","Service, Telefon-Support","","0","WABCO: Support. CTS implementation support","07:00","16:00","8","60",
"01.11.16","2","130216","160","185","Service, Telefon-Support","","0","WABCO: Support. CTS DTC implementation support","07:00","16:00","6,5","60",
"01.11.16","2","130216","168","101","PM/Mod/Meetings","","0","WABCO: Meetings. WABCO: Meetings","","","1,5","0",
"02.11.16","3","130216","160","185","Service, Telefon-Support","","0","WABCO: Support. CTS implementation support","07:00","16:00","8","60",
"03.11.16","4","130216","168","101","PM/Mod/Meetings","","0","WABCO: Meetings. WABCO: Meetings","07:00","16:00","1,5","60",
"03.11.16","4","130216","160","185","Service, Telefon-Support","","0","WABCO: Support. CTC implementation support","","","6,5","0",
"04.11.16","5","130216","160","185","Service, Telefon-Support","","0","WABCO: Support. cts implementation support","07:00","16:00","7","60",
"04.11.16","5","160051","8","101","PM/Mod/Meetings","","0","Weekly tasks AES 2016. India visa application","","","1","0",
