"14.11.16","1","150791","216","140","Test","","0","10-1100: CETEM Regressionstests PIDT 16.4. Regression tests","07:00","16:00","8","60",
"15.11.16","2","150791","216","140","Test","","0","10-1100: CETEM Regressionstests PIDT 16.4. Regression tests","07:00","16:00","8","60",
"16.11.16","3","150791","216","140","Test","","0","10-1100: CETEM Regressionstests PIDT 16.4. Regression tests","07:00","16:00","8","60",
"17.11.16","4","160023","0","910","Urlaub","","0","Holiday. Time off","07:00","16:00","8","60",
"18.11.16","5","160023","0","910","Urlaub","","0","Holiday. Time off","07:00","16:00","8","60",
