"29.08.16","1","150751","10","120","Codierung","","0","Review and test issues before CF CR631my6-378_jRTS326 (20). Fixing Split pane widget","07:00","16:00","8","60",
"30.08.16","2","150751","0","110","Engineering","","0","PIDT-515 - CR632da4-368_TableRowNames. Getting into su bject","07:00","16:00","8","60",
"31.08.16","3","150751","0","120","Codierung","","0","PIDT-515 - CR632da4-368_TableRowNames . Implementation","07:00","16:00","8","60",
"01.09.16","4","150751","10","120","Codierung","","0","Review and test issues before CF CR631my6-378_jRTS326 (20). Review fixes","07:00","16:00","7,5","60",
"01.09.16","4","160051","29","101","PM/Mod/Meetings","","0","S4/DSA overall tasks 2016. S4 Meeting","","","0,5","0",
"02.09.16","5","150751","0","120","Codierung","","0","PIDT-515 - CR632da4-368_TableRowNames. Implementation","07:00","16:00","6,5","60",
"02.09.16","5","160051","29","101","PM/Mod/Meetings","","0","S4/DSA overall tasks 2016. S4/DSA Weekely meeting and admin","","","1,5","0",
