"05.09.16","1","150076","203","120","Codierung","","0","FEAT-6175 - Online Help: IDT Sequences. FEAT-6175 - Online Help: IDT Sequences","07:00","16:00","8","60",
"06.09.16","2","150076","203","120","Codierung","","0","FEAT-6175 - Online Help: IDT Sequences. FEAT-6175 - Online Help: IDT Sequences","07:00","16:00","4","60",
"06.09.16","2","150076","212","120","Codierung","","0","FEAT-6204 - Performance / Refactoring. FEAT-6204 - Performance / Refactoring","","","4","0",
"07.09.16","3","150076","212","120","Codierung","","0","FEAT-6204 - Performance / Refactoring. FEAT-6204 - Performance / Refactoring","07:00","16:00","8","60",
"08.09.16","4","150076","212","120","Codierung","","0","FEAT-6204 - Performance / Refactoring. FEAT-6204 - Performance / Refactoring","07:00","16:00","8","60",
"09.09.16","5","150076","212","120","Codierung","","0","FEAT-6204 - Performance / Refactoring160051. FEAT-6204 - Performance / Refactoring","07:00","16:00","7","60",
"09.09.16","5","160051","5","101","PM/Mod/Meetings","","0","Weekly tasks AES 2016. Timesheet and Meetings","","","1","0",
