"12.12.16","1","160217","31","110","Engineering, Projektierung","","0","WB / automatisch. Tool Blocked 39","08:00","16:30","4","30",
"12.12.16","1","160217","31","110","Engineering, Projektierung","","0","WB / automatisch. DTC Statistics","","","4","0",
"13.12.16","2","160217","29","140","Test","","0","WB / automatisch. Badge & BML Issue","08:00","16:30","3,5","30",
"13.12.16","2","160217","31","110","Engineering, Projektierung","","0","WB / automatisch. CVM:U0126.87-8/m","","","4,5","0",
"14.12.16","3","160217","31","110","Engineering, Projektierung","","0","WB / automatisch. Visio Park startup.ini","08:00","17:00","8,5","30",
"15.12.16","4","160217","29","140","Test","","0","WB / automatisch. CMM Start Stop fail","08:00","16:30","8","30",
"16.12.16","5","160217","30","401","Travel","","0","WB / automatisch. ZAR to PE","09:00","23:59","14,98","0",
