"10.10.16","1","160375","40","120","Codierung","","0","100001: Creating IDT Comfort XML-File from IDT Spec. Creating IDT xml files","07:00","16:00","8","60",
"11.10.16","2","160375","40","120","Codierung","","0","100001: Creating IDT Comfort XML-File from IDT Spec. Creating IDT xml files","07:00","16:00","8","60",
"12.10.16","3","160375","40","120","Codierung","","0","100001: Creating IDT Comfort XML-File from IDT Spec. Creating IDT xml files","07:00","16:00","8","60",
"13.10.16","4","160375","40","120","Codierung","","100","100001: Creating IDT Comfort XML-File from IDT Spec. Fixing translations in created IDT xml files","07:00","16:00","8","60",
"14.10.16","5","160051","16","101","PM/Mod/Meetings","","0","Weekly tasks AES 2016. Timesheets","07:00","16:00","1","60",
"14.10.16","5","160375","42","120","Codierung","","0","100011: Creation of main Modules executing the single IDT and ECU testmodules. Creating IDT service modules","","","7","0",
