"14.11.16","1","160375","0","120","Codierung","","0","VW BRA. DURR Rolling Road Pretest","07:00","17:30","9,5","60",
"15.11.16","2","160375","0","120","Codierung","","0","VW BRA. DURR Rolling Road Pretest","07:00","17:30","9,5","60",
"16.11.16","3","160375","0","120","Codierung","","0","VW BRA. DURR Rolling Road Pretest","07:00","20:30","12,5","60",
"17.11.16","4","160375","0","120","Codierung","","0","VW BRA. DURR Rolling Road Pretest","07:00","20:30","12,5","60",
"18.11.16","5","160375","0","120","Codierung","","0","VW BRA. DURR Rolling Road Pretest","07:00","17:30","9,5","60",
