"14.11.16","1","160023","0","920","Krankheit","","0","sick. sick","07:00","16:00","8","60",
"15.11.16","2","160023","0","920","Krankheit","","0","sick. sick","07:00","16:00","8","60",
"16.11.16","3","160025","0","170","Schulung","","0","training. training","07:00","16:00","8","60",
"17.11.16","4","160025","0","170","Schulung","","0","training. training","07:00","16:00","8","60",
"18.11.16","5","160025","0","170","Schulung","","0","training . training","07:00","16:00","8","60",
