"08.02.16","1","150731","0","150","Inbetriebnahme","","0","Onsite Support NISSAN 2016. Onsite Support NISSAN 2016","07:00","19:00","11","60",
"09.02.16","2","150731","0","150","Inbetriebnahme","","0","Onsite Support NISSAN 2016. Onsite Support NISSAN 2016","07:00","17:30","9,5","60",
"10.02.16","3","150731","0","150","Inbetriebnahme","","0","Onsite Support NISSAN 2016. Onsite Support NISSAN 2016","07:00","19:00","11","60",
"11.02.16","4","150731","0","150","Inbetriebnahme","","0","Onsite Support NISSAN 2016. Onsite Support NISSAN 2016","07:00","16:00","8","60",
"12.02.16","5","150731","0","150","Inbetriebnahme","","0","Onsite Support NISSAN 2016. Onsite Support NISSAN 2016","07:00","19:00","11","60",
"14.02.16","7","150731","0","150","Inbetriebnahme","","0","Onsite Support NISSAN 2016. Onsite Support NISSAN 2016","07:00","16:00","8","60",
