"30.05.16","1","160025","0","404","Internal Training, Project Handover","","0","Production Overview. DSA & End of Line, Test Locations & Related Tasks","09:00","16:00","6,5","30",
"31.05.16","2","160025","0","404","Internal Training, Project Handover","","0","Diagnostic Basics. Explanation of the CAN Bus, Transfer Protocols, installation and use of jLogView","09:00","16:00","6,5","30",
"01.06.16","3","160025","0","404","Internal Training, Project Handover","","0","Prodis Automation Introduction. PDCS Introduction. . Introduction to ODX Data Basics","09:00","16:00","6,5","30",
"02.06.16","4","160025","0","404","Internal Training, Project Handover","","0","Vehicle Diagnostic Specialist Role.. Prodis Automation Training. Introduction to Vehicle Diagnostics.","09:00","16:00","6,5","30",
"03.06.16","5","160025","0","404","Internal Training, Project Handover","","0","Vehicle Diagnostic Specialist Role. Continuation of Prodis Automation Training","09:00","16:00","6,5","30",
