"19.09.16","1","150751","0","110","Engineering","","100","Setting Up Development Environment	. Setting Up Development Environment	","07:00","16:00","8","60",
"20.09.16","2","150751","0","120","Codierung","","0","10-1109: PIDT-511: Review and test issues before CF CR631my6-378_jRTS326 (20). Supporting PIDT merge tasks and bug-fixing","07:00","16:00","8","60",
"21.09.16","3","150751","0","120","Codierung","","0","10-1109: PIDT-511: Review and test issues before CF CR631my6-378_jRTS326 (20). Supporting PIDT merge tasks and bug-fixing	","07:00","16:00","8","60",
"22.09.16","4","150751","0","120","Codierung","","0","10-1109: PIDT-511: Review and test issues before CF CR631my6-378_jRTS326 (20). Supporting PIDT merge tasks and bug-fixing","07:00","16:00","8","60",
"23.09.16","5","160051","18","101","PM/Mod/Meetings","","0","S4/DSA overall tasks 2016. Weekly general tasks","07:00","16:00","1,5","60",
"23.09.16","5","150751","0","120","Codierung","","0","10-1109: PIDT-511: Review and test issues before CF CR631my6-378_jRTS326 (20). Supporting PIDT merge tasks and bug-fixing","","","6,5","0",
