"15.08.16","1","150577","74","120","Codierung","","0","9999: Measurements display. Measurements display. Actuator displaying requirements modification","07:00","16:00","8","60",
"16.08.16","2","150577","74","120","Codierung","","0","9999: Measurements display. Measurements display. Actuator test modification","07:00","16:00","8","60",
"17.08.16","3","150577","74","120","Codierung","","0","9999: Measurements display. Measurements display. Actuator test modification","07:00","16:00","8","60",
"18.08.16","4","150577","74","120","Codierung","","0","9999: Measurements display. Measurements display. Meadurements results modification","07:00","16:00","8","60",
"19.08.16","5","150577","74","120","Codierung","","0","9999: Measurements display. Measurements display. measurements result modification","07:00","16:00","8","60",
