"06.06.16","1","150790","0","182","Fehlerbes. nach Ausl. (Bugzilla)","","0","10-1120: OTX Support . OTX Sequence Testing and Bug Fixing","07:00","16:00","8","60",
"07.06.16","2","150790","0","140","Test","","0","PIDT 16.2 Integration tests and Bugfix verification. PIDT 16.2 Integration tests for features and Bugfix verification.","07:00","16:00","8","60",
"08.06.16","3","150790","0","140","Test","","0","PIDT 16.2 Integration tests and Bugfix verification. PIDT 16.2 Integration tests for features and Bugfix verification.","07:00","16:00","8","60",
"09.06.16","4","150790","0","140","Test","","0","PIDT 16.2 Integration tests and Bugfix verification. PIDT 16.2 Integration tests for features and Bugfix verification.","07:00","16:00","8","60",
"10.06.16","5","150790","0","182","Fehlerbes. nach Ausl. (Bugzilla)","","0","10 - 1120: OTX Support. OTX Sequence Testing and Bug Fixing. Investigate G2 PDU Simulations","07:00","16:00","6,5","60",
"10.06.16","5","160022","60","110","Engineering","","0","Weekly tasks DSE 2016. Weekly general  tasks","","","1,5","0",
