"28.03.16","1","160023","0","910","Urlaub","","0","Urlaub. Public holiday","07:00","16:00","8","60",
"29.03.16","2","160051","17","170","Schulung","","0","Training AES 2016. Combiling code reworks for TF_AssemblyCheck","07:00","16:00","2","60",
"29.03.16","2","150074","295","181","Fehlerbes. vor Ausl. (Bugzilla)","","0","324_FEAT-6269: PDCS: PRODIS.PDCS R3.24 Bugfixing /pa30. TF_LoopEvaluation P.Automation testcases","","","6","0",
"30.03.16","3","160023","0","920","Krankheit","","0","Krankheit. sick leave","07:00","16:00","8","60",
"31.03.16","4","150074","295","181","Fehlerbes. vor Ausl. (Bugzilla)","","0","324_FEAT-6269: PDCS: PRODIS.PDCS R3.24 Bugfixing /pa30. TF_LoopEvaluation bugfixing string compares for services with text refs","07:00","16:00","8","60",
"01.04.16","5","160051","16","101","PM/Mod/Meetings","","0","Weekly tasks AES 2016. S4 Meetings and Timesheets","07:00","16:00","1","60",
"01.04.16","5","150074","295","181","Fehlerbes. vor Ausl. (Bugzilla)","","0","324_FEAT-6269: PDCS: PRODIS.PDCS R3.24 Bugfixing /pa30. TF_LoopEvaluation testcases","","","7","0",
