"14.03.16","1","150790","0","182","Fehlerbes. nach Ausl. (Bugzilla)","","0","PIDT 16.2.0 Bugfixing. PIDT 16.2.0 Bugfixing","07:00","16:00","8","60",
"15.03.16","2","150790","0","182","Fehlerbes. nach Ausl. (Bugzilla)","","0","PIDT 16.2.0 Bugfixing. PIDT 16.2.0 Bugfixing","07:00","16:00","8","60",
"16.03.16","3","150790","0","182","Fehlerbes. nach Ausl. (Bugzilla)","","0","PIDT 16.2.0 Bugfixing. PIDT 16.2.0 Bugfixing","07:00","16:00","8","60",
"17.03.16","4","150790","3","120","Codierung","","0","Impl. CR609my9-362_PflegFahrzDaten2. Working on feature","07:00","16:00","8","60",
"18.03.16","5","160051","18","101","PM/Mod/Meetings","","0","S4/DSA overall tasks 2016. Weekly general tasks","07:00","16:00","3","60",
"18.03.16","5","150790","3","120","Codierung","","0","mpl. CR609my9-362_PflegFahrzDaten2. Working on feature","","","5","0",
