"16.05.16","1","150074","0","140","Test","","0","324_FEAT-6247: PDCS: Test cases Data Logistics /pa30. Creating Data Logistics testcases","07:00","16:00","4","60",
"16.05.16","1","150074","0","181","Fehlerbes. vor Ausl. (Bugzilla)","","0","324_FEAT-6269: PDCS: PRODIS.PDCS R3.24 Bugfixing /pa30. bugfixing and verification: Bug 62645","","","4","0",
"17.05.16","2","150074","0","140","Test","","0","324_FEAT-6247: PDCS: Test cases Data Logistics /pa30. Creating Data Logistics testcases","07:00","16:00","8","60",
"18.05.16","3","150023","0","910","Urlaub","","0","Urlaub. leave","07:00","16:00","4","60",
"18.05.16","3","150074","0","181","Fehlerbes. vor Ausl. (Bugzilla)","","0","324_FEAT-6269: PDCS: PRODIS.PDCS R3.24 Bugfixing /pa30. Bug verification Bug 664905","","","4","0",
"19.05.16","4","150074","0","181","Fehlerbes. vor Ausl. (Bugzilla)","","0","324_FEAT-6269: PDCS: PRODIS.PDCS R3.24 Bugfixing /pa30. Testing and Bugfixing TF_LoopEvaluation changes","07:00","16:00","8","60",
"20.05.16","5","160051","16","101","PM/Mod/Meetings","","0","Weekly tasks AES 2016. S4 Meetings and Timesheets","07:00","16:00","1","60",
"20.05.16","5","150074","0","181","Fehlerbes. vor Ausl. (Bugzilla)","","0","324_FEAT-6269: PDCS: PRODIS.PDCS R3.24 Bugfixing /pa30. Bugfixing and Bug verification: RTS Assessment None Bug","","","7","0",
