"05.12.16","1","160051","15","101","PM/Mod/Meetings","","0","Management AES 2016. General Admin / Support","07:00","16:00","8","60",
"06.12.16","2","160051","15","101","PM/Mod/Meetings","","0","Management AES 2016. General Admin / Support","07:00","16:00","8","60",
"07.12.16","3","160051","15","101","PM/Mod/Meetings","","0","Management AES 2016. General Admin / Support","07:00","16:00","8","60",
"08.12.16","4","160051","15","101","PM/Mod/Meetings","","0","Management AES 2016. General Admin / Support","07:00","16:00","8","60",
"09.12.16","5","160051","15","101","PM/Mod/Meetings","","0","Management AES 2016. General Admin / Support","07:00","16:00","8","60",
