"20.06.16","1","150076","202","120","Codierung","","0","FEAT-6435 - Actuator Test Extensions - Generic CTS. FEAT-6435 - Actuator Test Extensions - Generic CTS","07:00","16:00","8","60",
"21.06.16","2","150076","0","120","Codierung","","0","Enhanced Navigation. Enhanced Navigation","07:00","16:00","8","60",
"22.06.16","3","150076","0","120","Codierung","","0","Enhanced Navigation. Enhanced Navigation","07:00","16:00","8","60",
"23.06.16","4","150076","0","120","Codierung","","0","Enhanced Navigation. Enhanced Navigation","07:00","16:00","8","60",
"24.06.16","5","160051","11","101","PM/Mod/Meetings","","0","Weekly tasks AES 2016. Meeting and timesheets","07:00","16:00","1,5","60",
"24.06.16","5","160051","2","101","PM/Mod/Meetings","","0","Management AES 2016. Management AES 2016","","","1","0",
"24.06.16","5","150076","0","120","Codierung","","0","Enhanced Navigation. Enhanced Navigation","","","5,5","0",
