"21.03.16","1","160023","0","910","Urlaub","","0","Holidays. Holidays","07:00","16:00","8","60",
"22.03.16","2","160023","0","910","Urlaub","","0","Holiday. Holiday","07:00","16:00","8","60",
"23.03.16","3","100369","0","182","Fehlerbes. nach Ausl. (Bugzilla)","","0","ZBRO32 neu generierte ODX - Daten NOK. ZBRO32 neu generierte ODX - Daten NOK","07:00","16:00","4","60",
"23.03.16","3","160051","26","170","Schulung","","0","Training AES 2016. PDCS Training","","","4","0",
"24.03.16","4","100369","0","182","Fehlerbes. nach Ausl. (Bugzilla)","","0","ZBRO32 neu generierte ODX - Daten NOK. ZBRO32 neu generierte ODX - Daten NOK","07:00","16:00","3","60",
"24.03.16","4","160051","26","170","Schulung","","0","Training AES 2016. PDCS Training","","","4","0",
"24.03.16","4","160051","1","101","PM/Mod/Meetings","","0","Weekly tasks AES 2016. Time sheets, Meetings","","","1","0",
"25.03.16","5","160023","0","910","Urlaub","","0","Holiday. Holiday","07:00","16:00","8","60",
