"23.05.16","1","0","0","120","Codierung","","0","DSA SYSTEMS: KARMA. Karma support","07:00","16:00","8","60",
"24.05.16","2","0","0","120","Codierung","","0","DSA SYSTEMS: KARMA. Karma support","07:00","16:00","8","60",
"25.05.16","3","0","0","120","Codierung","","0","DSA SYSTEMS: KARMA . Karma support","07:00","16:00","8","60",
"26.05.16","4","0","0","120","Codierung","","0","DSA SYSTEMS: KARMA . Karma support","07:00","16:00","8","60",
"27.05.16","5","0","0","120","Codierung","","0","DSA SYSTEMS: KARMA. Karma support","07:00","16:00","8","60",
