"14.03.16","1","150074","285","101","PM/Mod/Meetings","","0","324_ORG-9120: PDCS: Project meetings /pa30. PDCS Meeting On ECU/Location Rework","07:00","16:00","1","60",
"14.03.16","1","150074","308","120","Codierung","","0","324_FEAT-6152: PDCS: Rework Area /pa30. (From s66) Implemating ECU/Location Rework sequences","","","7","0",
"15.03.16","2","150074","308","120","Codierung","","0","324_FEAT-6152: PDCS: Rework Area /pa30. (From s66) Implemating ECU/Location Rework sequences","07:00","16:00","8","60",
"16.03.16","3","150074","308","120","Codierung","","0","324_FEAT-6152: PDCS: Rework Area /pa30. (From s66) Implemating ECU/Location Rework sequences","07:00","16:00","8","60",
"17.03.16","4","150074","308","120","Codierung","","0","324_FEAT-6152: PDCS: Rework Area /pa30. (From s66) Implemating ECU/Location Rework sequences","07:00","16:00","7","60",
"17.03.16","4","150074","278","120","Codierung","","0","324_FEAT-6425: PDCS: Implementation VCI Selection Dialog. (Closed task) Rework on VCI Selection Dialog","","","1","0",
"18.03.16","5","160051","16","101","PM/Mod/Meetings","","0","Weekly tasks AES 2016. S4 Meetings and Timesheets","07:00","16:00","1","60",
"18.03.16","5","150074","278","120","Codierung","","0","324_FEAT-6425: PDCS: Implementation VCI Selection Dialog. (Closed task) Rework on VCI Selection Dialog","","","7","0",
