"12.12.16","1","150075","483","120","Entwicklung: Codierung, Schaltplanerstellung, PCB-Layout","","0","328_FEAT-7829 - Visualization. Implementation","07:00","16:00","6,5","60",
"12.12.16","1","160051","34","101","PM: Meetings, Orga, Personalführung","","0","Weekly tasks AES 2016. Telco & Prep","","","1,5","0",
"13.12.16","2","150075","483","120","Entwicklung: Codierung, Schaltplanerstellung, PCB-Layout","","0","328_FEAT-7829 - Visualization. Implementation","07:00","16:00","8","60",
"14.12.16","3","150075","483","120","Entwicklung: Codierung, Schaltplanerstellung, PCB-Layout","","0","328_FEAT-7829 - Visualization. Implementation","07:00","16:00","8","60",
"15.12.16","4","150075","483","120","Entwicklung: Codierung, Schaltplanerstellung, PCB-Layout","","0","328_FEAT-7829 - Visualization. Implementation","07:00","16:00","8","60",
"16.12.16","5","160023","0","910","Urlaub","","0","Public Holiday. Day of Reconciliation","07:00","16:00","8","60",
