"13.06.16","1","160025","0","404","Internal Training, Project Handover","","0","Training. Prodis Server","09:00","16:00","6,5","30",
"14.06.16","2","160025","0","404","Internal Training, Project Handover","","0","Training. Updating and installing prodis","09:00","16:00","6,5","30",
"15.06.16","3","160025","0","404","Internal Training, Project Handover","","0","Training. Linux Basics","09:00","16:00","6,5","30",
"16.06.16","4","160025","0","404","Internal Training, Project Handover","","0","Training. Server Support","09:00","16:00","6,5","30",
"17.06.16","5","160025","0","404","Internal Training, Project Handover","","0","Training. Training","09:00","16:00","6,5","30",
