"12.09.16","1","150577","82","120","Codierung","","0","9999: ECU replacement. Implementation. Implementation","07:00","16:00","8","60",
"13.09.16","2","150577","82","120","Codierung","","0","9999: ECU replacement. Implementation. Implementation","07:00","16:00","8","60",
"14.09.16","3","150577","0","140","Test","","0","LIebherr system. testing ","07:00","16:00","8","60",
"15.09.16","4","150577","0","140","Test","","0","Liebherr system test. testing","07:00","16:00","4","60",
"15.09.16","4","160023","0","910","Urlaub","","0","Time Off. Time Off","","","4","0",
"16.09.16","5","160023","0","910","Urlaub","","0","Time Off. Time Off","07:00","16:00","8","60",
