"14.11.16","1","150791","222","140","Test","","0","10-1100: CETEM Regressionstests PIDT 16.4. 10-1100: CETEM Regressionstests PIDT 16.4","07:00","16:00","8","60",
"15.11.16","2","150791","222","140","Test","","0","10-1100: CETEM Regressionstests PIDT 16.4. 10-1100: CETEM Regressionstests PIDT 16.4","07:00","16:00","8","60",
"16.11.16","3","150791","222","140","Test","","0","10-1100: CETEM Regressionstests PIDT 16.4. 10-1100: CETEM Regressionstests PIDT 16.4","07:00","16:00","8","60",
"17.11.16","4","150791","132","181","Fehlerbes. vor Ausl. (Bugzilla)","","0","10-1098: PIDT 16.4: Bugfixing nach Codefreeze. 10-1098: PIDT 16.4: Bugfixing nach Codefreeze","07:00","16:00","8","60",
"18.11.16","5","160022","61","110","Engineering","","0","Weekly tasks DSE 2016. Weekly tasks DSE 2016","07:00","16:00","1,5","60",
"18.11.16","5","150791","132","181","Fehlerbes. vor Ausl. (Bugzilla)","","0","10-1098: PIDT 16.4: Bugfixing nach Codefreeze. 10-1098: PIDT 16.4: Bugfixing nach Codefreeze","","","6,5","0",
