"30.05.16","1","150790","0","182","Fehlerbes. nach Ausl. (Bugzilla)","","0","10-1120: OTX Support.  Entlueftung_Kuehlkreislauf_2015.09.30:OTX Sequence(Select and Identify Variant):DME 9x1 Simulation","07:00","16:00","8","60",
"31.05.16","2","150790","0","182","Fehlerbes. nach Ausl. (Bugzilla)","","0","10-1120: OTX Support. OTX Sequence Testing and Bug Fixing","07:00","16:00","8","60",
"01.06.16","3","150790","0","182","Fehlerbes. nach Ausl. (Bugzilla)","","0","10-1120: OTX Support. OTX Sequence Testing and Bug Fixing","07:00","16:00","8","60",
"02.06.16","4","150790","0","182","Fehlerbes. nach Ausl. (Bugzilla)","","0","10-1120: OTX Support. OTX Sequence Testing and Bug Fixing","07:00","16:00","8","60",
"03.06.16","5","150790","0","182","Fehlerbes. nach Ausl. (Bugzilla)","","0","10-1120: OTX Support. OTX Sequence Testing and Bug Fixing","07:00","16:00","6,5","60",
"03.06.16","5","160036","139","170","Schulung","","0","Training: Introduction to PIDT Software /smm_anlrn. Training (OTX Testing and bug-fixing)","","","1,5","0",
