"05.09.16","1","160217","31","110","Engineering","","0","WB / automatisch. WDD Update","08:00","18:30","3,5","30",
"05.09.16","1","160217","31","110","Engineering","","0","WB / automatisch. DVT No Cruise Control","","","4","0",
"05.09.16","1","160217","29","140","Test","","0","WB / automatisch. DVT Tests","","","2,5","0",
"06.09.16","2","160217","31","110","Engineering","","0","WB / automatisch. String Resource Translations","08:00","17:00","6","30",
"06.09.16","2","160217","31","110","Engineering","","0","WB / automatisch. DVT Speed Limiter","","","2,5","0",
"07.09.16","3","160217","29","140","Test","","0","WB / automatisch. DVT Speed Limiter tests","08:00","18:00","3","30",
"07.09.16","3","160217","31","110","Engineering","","0","WB / automatisch. WDD Update","","","6,5","0",
"08.09.16","4","160217","31","110","Engineering","","0","WB / automatisch. DVT Statistic Text Error","08:00","22:30","7","30",
"08.09.16","4","160217","31","110","Engineering","","0","WB / automatisch. DVT Cruise Control + Speed Limiter","","","7","0",
"09.09.16","5","160217","29","140","Test","","0","WB / automatisch. DVT Testing","08:00","16:00","7,5","30",
