"28.03.16","1","160023","0","910","Urlaub","","0","Public Holiday 28.03.16. Public Holiday 28.03.16","07:00","16:00","8","60",
"29.03.16","2","150790","0","120","Codierung","","0","CR609my3-356_ZugriSchut - Implementierung. CR609my3-356_ZugriSchut - Implementation","07:00","16:00","8","60",
"30.03.16","3","150790","0","120","Codierung","","0","CR609my3-356_ZugriSchut - Implementierung. CR609my3-356_ZugriSchut - Implementation","07:00","16:00","8","60",
"31.03.16","4","150790","0","120","Codierung","","0","CR609my3-356_ZugriSchut - Implementierung. CR609my3-356_ZugriSchut - Implementation","07:00","16:00","8","60",
"01.04.16","5","150790","0","120","Codierung","","0","CR609my3-356_ZugriSchut - Implementierung. CR609my3-356_ZugriSchut - Implementation","07:00","16:00","6,5","60",
"01.04.16","5","160051","27","101","PM/Mod/Meetings","","0","S4/DSA overall tasks 2016. Meeting/Timesheets","","","1,5","0",
