"29.08.16","1","150075","428","120","Codierung","","0","326_FEAT-7060-Transfer Log Files per Session to Server . Testing transfer of log files per session","07:00","16:00","8","60",
"30.08.16","2","160051","0","130","Installation + Konfiguration","","0","Workstation Maintenance. Installing and setting up new computer","07:00","16:00","8","60",
"31.08.16","3","150075","428","120","Codierung","","0","326_FEAT-7060-Transfer Log Files per Session to Server . Creating NOK testcase and extending plant configurator for Session Logger Tests","07:00","16:00","8","60",
"01.09.16","4","160051","0","130","Installation + Konfiguration","","0","Workstation Maintenanc. Installing and setting up new computer","07:00","16:00","8","60",
"02.09.16","5","160051","14","101","PM/Mod/Meetings","","0","Weekly tasks AES 2016	. Timesheets and meetings","07:00","16:00","2","60",
"02.09.16","5","150075","422","120","Codierung","","0","326_FEAT-7059 - CAN Trace Elements. Creating testcases and extending polarion documentation","","","6","0",
"02.09.16","5","150075","428","120","Codierung","","100","326_FEAT-7060-Transfer Log Files per Session to Server. Closing task","","","0","0",
