"06.06.16","1","150075","391","120","Codierung","","0","9999: FEAT-6527 - Rework: Element Description. . Creating java tool for updating Library elements description","07:00","16:00","8","60",
"07.06.16","2","150075","391","120","Codierung","","0","9999: FEAT-6527 - Rework: Element Description. . Creating java tool for updating Library elements description","07:00","16:00","8","60",
"08.06.16","3","150075","391","120","Codierung","","0","9999: FEAT-6527 - Rework: Element Description.. Creating java tool for updating Library elements description","07:00","16:00","8","60",
"09.06.16","4","150075","391","120","Codierung","","0","9999: FEAT-6527 - Rework: Element Description. . Creating java tool for updating Library elements description","07:00","16:00","8","60",
"10.06.16","5","160051","14","101","PM/Mod/Meetings","","0","Weekly tasks AES 2016. Timesheets and meetings","07:00","16:00","1","60",
"10.06.16","5","150075","391","120","Codierung","","0","9999: FEAT-6527 - Rework: Element Description. . Creating java tool for updating Library elements description","","","3","0",
"10.06.16","5","150075","0","120","Codierung","","0","FEAT-6630 - Ignition/Adaption State on WinRTS. Creating requirements for Ignition and Adpation state using VciMonitor facade","","","4","0",
