"02.05.16","1","160023","0","910","Urlaub","","0","Urlaub 02.05.2016. Public Holiday","07:00","16:00","8","60",
"03.05.16","2","150790","61","120","Codierung","","0"," 	10-1108: PIDT-493: Implementierung CR609my6-359_SuchFunkt (13). implementation fixes","07:00","16:00","8","60",
"04.05.16","3","150790","61","120","Codierung","","0","10-1108: PIDT-493: Implementierung CR609my6-359_SuchFunkt (13). Implementation fixes","07:00","16:00","8","60",
"05.05.16","4","150790","106","120","Codierung","","0","10-1108: PIDT-493: Review and test issues before CF CR609my6-359_SuchFunkt (13). Fixing test issues","07:00","16:00","8","60",
"06.05.16","5","150790","0","110","Engineering","","0","9999: #CR617my2-374_NormNamenBZDMappi. Getting into subject","07:00","16:00","7","60",
"06.05.16","5","160051","29","101","PM/Mod/Meetings","","0","S4/DSA overall tasks 2016. S4/DSA Weekly meetings and admin","","","1","0",
