"26.12.16","1","160023","0","910","Urlaub","","0","Public Holiday. Public Holiday","07:00","16:00","8","60",
"27.12.16","2","160023","0","910","Urlaub","","0","Public Holiday. Public Holiday","07:00","16:00","8","60",
"28.12.16","3","160499","73","120","Entwicklung: Codierung, Schaltplanerstellung, PCB-Layout","","0","10-1014: PIDT-507: Review and test issues before CF CR631my2-376_VerbeUsabi (13). Review Fixes","07:00","16:00","8","60",
"29.12.16","4","160499","61","120","Entwicklung: Codierung, Schaltplanerstellung, PCB-Layout","","0","10-1015: PIDT-528: Implementierung CR648my3-393_DoIPOptim Basic (8). Implementierung","07:00","16:00","8","60",
"30.12.16","5","160499","61","120","Entwicklung: Codierung, Schaltplanerstellung, PCB-Layout","","0","10-1015: PIDT-528: Implementierung CR648my3-393_DoIPOptim Basic (8). Implementierung","07:00","16:00","7","60",
"30.12.16","5","160051","27","101","PM: Meetings, Orga, Personalführung","","0","S4/DSA overall tasks 2016. Timesheet","","","1","0",
