"12.09.16","1","130890","0","150","Inbetriebnahme","","0","Wrzesnia Support . Support. VW support","07:00","22:30","14,5","60",
"13.09.16","2","130890","0","150","Inbetriebnahme","","0","Wrzesnia Support . Support. VW Support","07:00","18:00","10","60",
"14.09.16","3","130890","0","150","Inbetriebnahme","","0","Wrzesnia Support . Support. VW Support","07:00","16:00","8","60",
"15.09.16","4","130890","0","150","Inbetriebnahme","","0","Wrzesnia Support . Support. VW Support","07:00","16:00","8","60",
"16.09.16","5","130890","0","150","Inbetriebnahme","","0","Wrzesnia Support . Support. VW Support","07:00","16:00","8","60",
"17.09.16","6","130890","0","150","Inbetriebnahme","","0","rzesnia Support . SupportW. VW Support ","07:00","20:00","12","60",
"18.09.16","7","130890","375","150","Inbetriebnahme","","0","9999: Wrzesnia Support. VW support","07:00","20:00","12","60",
