"20.06.16","1","150076","208","181","Fehlerbes. vor Ausl. (Bugzilla)","","0","FEAT-6746 - PRODIS.ASCS R04.08 Bugfixing. FEAT-6746 - PRODIS.ASCS R04.08 Bugfixing","07:00","16:00","8","60",
"21.06.16","2","150076","208","181","Fehlerbes. vor Ausl. (Bugzilla)","","0","FEAT-6746 - PRODIS.ASCS R04.08 Bugfixing. FEAT-6746 - PRODIS.ASCS R04.08 Bugfixing","07:00","16:00","8","60",
"22.06.16","3","150076","208","181","Fehlerbes. vor Ausl. (Bugzilla)","","0","FEAT-6746 - PRODIS.ASCS R04.08 Bugfixing. FEAT-6746 - PRODIS.ASCS R04.08 Bugfixing","07:00","16:00","8","60",
"23.06.16","4","150076","208","181","Fehlerbes. vor Ausl. (Bugzilla)","","0","FEAT-6746 - PRODIS.ASCS R04.08 Bugfixing. FEAT-6746 - PRODIS.ASCS R04.08 Bugfixing","07:00","16:00","8","60",
"24.06.16","5","150076","208","181","Fehlerbes. vor Ausl. (Bugzilla)","","0","FEAT-6746 - PRODIS.ASCS R04.08 Bugfixing. FEAT-6746 - PRODIS.ASCS R04.08 Bugfixing","07:00","16:00","6,5","60",
"24.06.16","5","160051","5","101","PM/Mod/Meetings","","0","Weekly tasks AES 2016. Timesheet and Meetings","","","1,5","0",
