"18.07.16","1","150074","0","910","Urlaub","","0","S4 Bug fixing and meetings. S4 Bug fixing and meetings","07:00","16:00","8","60",
"19.07.16","2","150074","0","910","Urlaub","","0","S4 Bug fixing and meetings. S4 Bug fixing and meetings","07:00","16:00","5","60",
"19.07.16","2","150074","457","101","PM/Mod/Meetings","","0","326_ORG-9120: PDCS: Project Managmeent / Meetings. Project meeting","","","2","0",
"19.07.16","2","150074","420","160","Dokumentation","","0","326_ORG-9120: PDCS: Documentation. Worked on documentation.","","","1","0",
"20.07.16","3","160051","33","170","Schulung","","0","Training AES 2016. Training on Tester and MCD","07:00","16:00","8","60",
"21.07.16","4","160051","33","170","Schulung","","0","Training AES 2016. Training on Tester and MCD","07:00","16:00","8","60",
"22.07.16","5","150074","464","120","Codierung","","0","326_FEAT-6721: PDCS: Asynchronous Errors (VCI Disconnect, etc). Helped test the sequence in the tester.","07:00","16:00","2","60",
"22.07.16","5","150074","439","120","Codierung","","0","326_FEAT-6720: PDCS: Re-execution of failed tests in the line. Testing and tweaking the first phase of the feature.","","","6","0",
