"11.07.16","1","150076","203","120","Codierung","","0","Online Help: IDT Sequences. Online Help: IDT Sequences","07:00","16:00","8","60",
"12.07.16","2","150076","208","181","Fehlerbes. vor Ausl. (Bugzilla)","","0","PRODIS.ASCS R04.08 Bugfixing. PRODIS.ASCS R04.08 Bugfixing","07:00","16:00","8","60",
"13.07.16","3","150076","212","120","Codierung","","0","FEAT-6204 - Performance / Refactoring. FEAT-6204 - Performance / Refactoring","07:00","16:00","8","60",
"14.07.16","4","150076","212","120","Codierung","","0","FEAT-6204 - Performance / Refactoring. FEAT-6204 - Performance / Refactoring","07:00","16:00","8","60",
"15.07.16","5","160023","0","910","Urlaub","","0","Study Leave. Study Leave","07:00","16:00","8","60",
