"21.11.16","1","160051","18","101","PM/Mod/Meetings","","0","S4/DSA overall tasks 2016. Weekly general tasks","07:00","16:00","1,5","60",
"21.11.16","1","150791","122","181","Fehlerbes. vor Ausl. (Bugzilla)","","0","10-1098: PIDT 16.4: Bugfixing nach Codefreeze. 10-1098: PIDT 16.4: Bugfixing nach Codefreeze","","","6,5","0",
"22.11.16","2","150791","122","181","Fehlerbes. vor Ausl. (Bugzilla)","","0","10-1098: PIDT 16.4: Bugfixing nach Codefreeze. 10-1098: PIDT 16.4: Bugfixing nach Codefreeze","07:00","16:00","8","60",
"23.11.16","3","150791","122","181","Fehlerbes. vor Ausl. (Bugzilla)","","0","10-1098: PIDT 16.4: Bugfixing nach Codefreeze. 10-1098: PIDT 16.4: Bugfixing nach Codefreeze","07:00","16:00","8","60",
"24.11.16","4","150791","122","181","Fehlerbes. vor Ausl. (Bugzilla)","","0","10-1098: PIDT 16.4: Bugfixing nach Codefreeze. 10-1098: PIDT 16.4: Bugfixing nach Codefreeze","07:00","16:00","8","60",
"25.11.16","5","150791","122","181","Fehlerbes. vor Ausl. (Bugzilla)","","0","10-1098: PIDT 16.4: Bugfixing nach Codefreeze. 10-1098: PIDT 16.4: Bugfixing nach Codefreeze","07:00","16:00","5","60",
"25.11.16","5","160023","0","910","Urlaub","","0","Time off. Time off","","","3","0",
