"05.12.16","1","160499","36","120","Codierung","","0","10-1017: PIDT 17.0: CR637my1-380_ScrolPerWisch. Fixed some scrolling malfunctions. Fixed row selection behaviour to work for swipe scrolling","07:00","16:00","8","60",
"06.12.16","2","160499","40","120","Codierung","","0","10-1011: PIDT 17.0: CR648my5-375_Entfa32Bit. Started removing 32 bit dlls. Removed dlls, changed plugin code and MANIFEST.MF files, 32bit PDXInstaller and MCD-Kernel","07:00","16:00","4","60",
"06.12.16","2","160499","36","120","Codierung","","0","10-1017: PIDT 17.0: CR637my1-380_ScrolPerWisch. Fixed some scrolling malfunctions. Fixed Shift + Click selection in LiveTable","","","4","0",
"07.12.16","3","160499","36","120","Codierung","","0","10-1017: PIDT 17.0: CR637my1-380_ScrolPerWisch. Fixed some scrolling malfunctions. Fixed selection problems in sorted tables and select all problems","07:00","16:00","8","60",
"08.12.16","4","160499","40","120","Codierung","","0","10-1017: PIDT 17.0: CR637my1-380_ScrolPerWisch. Fixed some scrolling malfunctions. Removing entries referring to 32 bit files in setup script and PIDT installer files","07:00","16:00","4","60",
"08.12.16","4","160499","36","120","Codierung","","100","10-1017: PIDT 17.0: CR637my1-380_ScrolPerWisch. Fixed some scrolling malfunctions. Fixed selection problems in sorted tables and select all problems","","","4","0",
"09.12.16","5","160051","21","101","PM/Mod/Meetings","","0","S4/DSA overall tasks 2016. Meetings and admin","07:00","16:00","1,5","60",
"09.12.16","5","160955","0","140","Test","","0","Vergleichstests LS8. Vergleichstests LS8","","","1","0",
"09.12.16","5","160499","0","181","Fehlerbes. vor Ausl. (Bugzilla)","","0","PIDT 17.0.0 Bugfixing. PIDT 17.0.0 Bugfixing","","","5,5","0",
