"12.12.16","1","160375","42","120","Entwicklung: Codierung, Schaltplanerstellung, PCB-Layout","","0","100011: Creation of main Modules executing the single IDT and ECU testmodules. Creating and testing RPS service modules","07:00","16:00","8","60",
"13.12.16","2","160375","42","120","Entwicklung: Codierung, Schaltplanerstellung, PCB-Layout","","0","100011: Creation of main Modules executing the single IDT and ECU testmodules. Creating and testing ALS service modules","07:00","16:00","8","60",
"14.12.16","3","160375","42","120","Entwicklung: Codierung, Schaltplanerstellung, PCB-Layout","","0","100011: Creation of main Modules executing the single IDT and ECU testmodules. Creating testcases and testing RPS service modules","07:00","16:00","8","60",
"15.12.16","4","160051","16","101","PM: Meetings, Orga, Personalführung","","100","Weekly tasks AES 2016. S4 Meetings and Timesheets","07:00","16:00","1,5","60",
"15.12.16","4","160375","42","120","Entwicklung: Codierung, Schaltplanerstellung, PCB-Layout","","0","100011: Creation of main Modules executing the single IDT and ECU testmodules. Creating testcases and testing ALS service modules","","","6,5","0",
"15.12.16","4","160018","36","101","PM: Meetings, Orga, Personalführung","","100","Waiting for tasks. closing task","","","0","0",
"15.12.16","4","160051","17","170","Schulung","","100","Training AES 2016. closing task","","","0","0",
"16.12.16","5","160023","0","910","Urlaub","","0","Urlaub. Public Holiday","07:00","16:00","8","60",
