"25.07.16","1","150080","382","181","Fehlerbes. vor Ausl. (Bugzilla)","","0","9999_PInsight: Bugfixing: DataTable. Fixed table header. Fixed header with column resize bugs","07:00","16:00","8","60",
"26.07.16","2","150080","382","181","Fehlerbes. vor Ausl. (Bugzilla)","","0","9999_PInsight: Bugfixing: DataTable. Fixed table header. Fixed header column resize bugs","07:00","16:00","8","60",
"27.07.16","3","150080","382","181","Fehlerbes. vor Ausl. (Bugzilla)","","0","9999_PInsight: Bugfixing: DataTable. Fixed table header. Fixed header column resize bugs","07:00","16:00","8","60",
"28.07.16","4","150080","382","181","Fehlerbes. vor Ausl. (Bugzilla)","","0","9999_PInsight: Bugfixing: DataTable. Fixed table header. Fixed header bugs","07:00","16:00","8","60",
"29.07.16","5","150080","382","181","Fehlerbes. vor Ausl. (Bugzilla)","","0","9999_PInsight: Bugfixing: DataTable. Fixed table header. Fixed header bugs","07:00","16:00","8","60",
