"09.05.16","1","150074","0","140","Test","","0","Creating and updating test specs. PDCS","07:00","16:00","8","60",
"10.05.16","2","160023","0","920","Krankheit","","0","Family Leave. Family Leave","07:00","16:00","8","60",
"11.05.16","3","150074","0","140","Test","","1","Creating and updating test specs. PDCS ","07:00","16:00","8","60",
"12.05.16","4","150074","0","140","Test","","10","Creating and updating test specs. PDCS","07:00","16:00","8","60",
"13.05.16","5","150074","0","140","Test","","30","Creating and updating test specs. PDCS","07:00","16:00","8","60",
