"13.06.16","1","150790","169","182","Fehlerbes. nach Ausl. (Bugzilla)","","0","9999: PIDT 16.2: Bugfixing aus Vorrelease. Bug Fixing","07:00","16:00","8","60",
"14.06.16","2","150790","169","182","Fehlerbes. nach Ausl. (Bugzilla)","","0","9999: PIDT 16.2: Bugfixing aus Vorrelease. Bug Fixing","07:00","16:00","8","60",
"15.06.16","3","150790","169","182","Fehlerbes. nach Ausl. (Bugzilla)","","0","9999: PIDT 16.2: Bugfixing aus Vorrelease. Bug Fixing","07:00","16:00","7","60",
"15.06.16","3","160051","27","101","PM/Mod/Meetings","","0","S4/DSA overall tasks 2016. Timesheets","","","1","0",
"16.06.16","4","160023","608","910","Urlaub","","0","Urlaubsinfo 16.06.2016-19.06.2016. Urlaub","07:00","16:00","8","60",
"17.06.16","5","160023","608","910","Urlaub","","0","Urlaubsinfo 16.06.2016-19.06.2016. Urlaub","07:00","16:00","8","60",
