"12.09.16","1","150076","194","120","Codierung","","0","FEAT-6436 - Integrate LL-Pool (in ConvLib). FEAT-6436 - Integrate LL-Pool (in ConvLib)","07:00","16:00","8","60",
"13.09.16","2","150076","210","120","Codierung","","0","FEAT-6742 - Graphical Customer Actuators S.2. FEAT-6742 - Graphical Customer Actuators S.2","07:00","16:00","8","60",
"14.09.16","3","150076","212","120","Codierung","","0","(FROM s75)FEAT-6204 - Performance / Refactoring. FEAT-6204 - Performance / Refactoring","07:00","16:00","8","60",
"15.09.16","4","150076","194","120","Codierung","","0","FEAT-6436 - Integrate LL-Pool (in ConvLib). FEAT-6436 - Integrate LL-Pool (in ConvLib)","07:00","16:00","8","60",
"16.09.16","5","160051","11","101","PM/Mod/Meetings","","0","Weekly tasks AES 2016. Meeting and timesheets","07:00","16:00","1","60",
"16.09.16","5","160051","2","101","PM/Mod/Meetings","","0","Management AES 2016. Management AES 2016","","","1","0",
"16.09.16","5","150076","194","120","Codierung","","0","FEAT-6436 - Integrate LL-Pool (in ConvLib). FEAT-6436 - Integrate LL-Pool (in ConvLib)","","","6","0",
