"19.09.16","1","150080","257","120","Codierung","","0","10_FEAT-5612: Pinsight: Dashboard Publishing Implementation. Dashboard interface updates","07:00","16:00","8","60",
"20.09.16","2","150080","257","120","Codierung","","0","10_FEAT-5612: Pinsight: Dashboard Publishing Implementation. Dashboard interface updates","07:00","16:00","8","60",
"21.09.16","3","150080","257","120","Codierung","","0","10_FEAT-5612: Pinsight: Dashboard Publishing Implementation. Dashboard interface updates","07:00","16:00","8","60",
"22.09.16","4","150080","0","120","Codierung","","0","Pinsight: Data Grid Prototype. DevExtreme proof of concept","07:00","16:00","8","60",
"23.09.16","5","150080","0","120","Codierung","","0","Pinsight: Data Grid Prototype. DevExtreme proof of concept","07:00","16:00","8","60",
