"21.03.16","1","160051","0","910","Urlaub","","0","Holiday. Holiday","07:00","16:00","8","60",
"22.03.16","2","160051","0","910","Urlaub","","0","Holiday. Holiday","07:00","16:00","8","60",
"23.03.16","3","160051","0","910","Urlaub","","0","Holiday. Holiday","07:00","16:00","8","60",
"24.03.16","4","160051","0","910","Urlaub","","0","Holiday. Holiday","07:00","16:00","8","60",
"25.03.16","5","160051","0","910","Urlaub","","0","Holiday. Holiday","07:00","16:00","8","60",
