"22.08.16","1","160022","60","110","Engineering","","0","Weekly tasks DSE 2016. Weekly general tasks","07:00","16:00","1","60",
"22.08.16","1","150751","16","120","Codierung","","0","10-1109: PIDT-511: Review and test issues before CF CR631my6-378_jRTS326 (20). 10-1109: PIDT-511: Review and test issues before CF CR631my6-378_jRTS326 (20)","","","7","0",
"23.08.16","2","150751","16","120","Codierung","","0","10-1109: PIDT-511: Review and test issues before CF CR631my6-378_jRTS326 (20). 10-1109: PIDT-511: Review and test issues before CF CR631my6-378_jRTS326 (20)","07:00","16:00","8","60",
"24.08.16","3","150751","16","120","Codierung","","0","10-1109: PIDT-511: Review and test issues before CF CR631my6-378_jRTS326 (20). 10-1109: PIDT-511: Review and test issues before CF CR631my6-378_jRTS326 (20)","07:00","16:00","8","60",
"25.08.16","4","150751","16","120","Codierung","","0","10-1109: PIDT-511: Review and test issues before CF CR631my6-378_jRTS326 (20). 10-1109: PIDT-511: Review and test issues before CF CR631my6-378_jRTS326 (20)","07:00","16:00","8","60",
"26.08.16","5","160022","60","110","Engineering","","0","Weekly tasks DSE 2016. Weekly general tasks","07:00","16:00","1,5","60",
"26.08.16","5","150751","16","120","Codierung","","0","10-1109: PIDT-511: Review and test issues before CF CR631my6-378_jRTS326 (20). 10-1109: PIDT-511: Review and test issues before CF CR631my6-378_jRTS326 (20)","","","6,5","0",
