"30.01.17","1","170025","148","170","Schulung","","0","training. training","07:00","16:00","8","60",
"31.01.17","2","170025","148","170","Schulung","","0","training. training","07:00","16:00","8","60",
"01.02.17","3","170025","148","170","Schulung","","0","training. training","07:00","16:00","8","60",
"02.02.17","4","170025","148","170","Schulung","","0","training. training","07:00","16:00","8","60",
"03.02.17","5","170025","148","170","Schulung","","0","training. training","07:00","16:00","8","60",
