"13.03.17","1","160051","0","401","Travel","","0","Travel. Travelling to Germany","07:00","16:00","8","60",
"14.03.17","2","170018","37","101","PM: Meetings, Orga, Personalführung","","0","Waiting for tasks. Waiting for tasks","07:00","16:00","8","60",
"15.03.17","3","170018","37","101","PM: Meetings, Orga, Personalführung","","0","Waiting for tasks. Waiting for tasks","07:00","16:00","8","60",
"16.03.17","4","170018","37","101","PM: Meetings, Orga, Personalführung","","0","Waiting for tasks. Waiting for tasks while providing MAN support","07:00","16:00","8","60",
"17.03.17","5","170018","10","101","PM: Meetings, Orga, Personalführung","","0","Weekly tasks AES 2017. TImesheets","07:00","16:00","1","60",
"17.03.17","5","170018","37","101","PM: Meetings, Orga, Personalführung","","0","Waiting for tasks. Waiting for tasks while providing MAN support","","","7","0",
