"30.01.17","1","160375","52","120","Entwicklung: Codierung, Schaltplanerstellung, PCB-Layout","","0","VW BRA. VW BRA Coding","07:00","16:00","8","60",
"31.01.17","2","160375","52","120","Entwicklung: Codierung, Schaltplanerstellung, PCB-Layout","","0","VW BRA. VW BRA Coding","07:00","19:00","11","60",
"01.02.17","3","160375","52","120","Entwicklung: Codierung, Schaltplanerstellung, PCB-Layout","","0","VW BRA. VW BRA Coding","07:00","19:00","11","60",
"02.02.17","4","160375","52","120","Entwicklung: Codierung, Schaltplanerstellung, PCB-Layout","","0","VW BRA. VW BRA Coding","07:00","16:00","8","60",
"03.02.17","5","160375","52","120","Entwicklung: Codierung, Schaltplanerstellung, PCB-Layout","","0","VW BRA. VW BRA Coding","07:00","17:30","9,5","60",
"04.02.17","6","160375","52","120","Entwicklung: Codierung, Schaltplanerstellung, PCB-Layout","","0","VW BRA. VW BRA Coding","07:00","20:00","12","60",
