"30.01.17","1","160499","8","182","Fehlerbes. nach Ausl. (Bugzilla)","","0","10-1099: PIDT 17.0: Bugfixing previous Release. 10-1099: PIDT 17.0: Bugfixing previous Release","07:00","16:00","8","60",
"31.01.17","2","160499","103","120","Entwicklung: Codierung, Schaltplanerstellung, PCB-Layout","","0","10-1018: PIDT-531: Implementierung CR650my1-382_UsabiPflegFzgDaten (8). 10-1018: PIDT-531: Implementierung CR650my1-382_UsabiPflegFzgDaten (8)","07:00","16:00","8","60",
"01.02.17","3","160499","103","120","Entwicklung: Codierung, Schaltplanerstellung, PCB-Layout","","0","10-1018: PIDT-531: Implementierung CR650my1-382_UsabiPflegFzgDaten (8). 10-1018: PIDT-531: Implementierung CR650my1-382_UsabiPflegFzgDaten (8)","07:00","16:00","8","60",
"02.02.17","4","160499","103","120","Entwicklung: Codierung, Schaltplanerstellung, PCB-Layout","","0","10-1018: PIDT-531: Implementierung CR650my1-382_UsabiPflegFzgDaten (8). 10-1018: PIDT-531: Implementierung CR650my1-382_UsabiPflegFzgDaten (8)","07:00","16:00","8","60",
"03.02.17","5","170051","28","101","PM: Meetings, Orga, Personalführung","","0","S4/DSA overall tasks 2017. S4/DSA overall tasks 2017","07:00","16:00","1,5","60",
"03.02.17","5","160499","103","120","Entwicklung: Codierung, Schaltplanerstellung, PCB-Layout","","0","10-1018: PIDT-531: Implementierung CR650my1-382_UsabiPflegFzgDaten (8). 10-1018: PIDT-531: Implementierung CR650my1-382_UsabiPflegFzgDaten (8)","","","6,5","0",
