"03.04.17","1","160500","18","182","Fehlerbes. nach Ausl. (Bugzilla)","","0","10-1099: PIDT 17.2: Bugfixing previous Release. Working on PIDT 17.2 bugs","07:00","16:00","8","60",
"04.04.17","2","170051","28","101","PM: Meetings, Orga, Personalführung","","0","S4/DSA overall tasks 2017. Weekly general tasks","07:00","16:00","1,5","60",
"04.04.17","2","160500","18","182","Fehlerbes. nach Ausl. (Bugzilla)","","0","10-1099: PIDT 17.2: Bugfixing previous Release. Working on PIDT 17.2 bugs","","","6,5","0",
"05.04.17","3","160500","18","182","Fehlerbes. nach Ausl. (Bugzilla)","","100","10-1099: PIDT 17.2: Bugfixing previous Release. Working on PIDT 17.2 bugs","07:00","16:00","8","60",
"06.04.17","4","160500","30","101","PM: Meetings, Orga, Personalführung","","0","10-9120: PIDT 17.0: Meetings and Preparation. PIDT 17.2 Feature estimation meeting and preparation ","07:00","16:00","2","60",
"06.04.17","4","170051","35","170","Schulung","","0","S4/DSA Training 2017. Training S(ervice)A(nforderung)","","","1,5","0",
"06.04.17","4","170023","0","910","Urlaub","","0","Time off. Time off","","","1","0",
"06.04.17","4","160500","0","120","Entwicklung: Codierung, Schaltplanerstellung, PCB-Layout","","0","Implementierung CR713my1-379_SchniGFS2. Working on CR713my1-379_SchniGFS2 feature","","","3,5","0",
"07.04.17","5","170023","976","910","Urlaub","","0","Urlaubsinfo 07.04.2017-09.04.2017. Urlaubsinfo 07.04.2017-09.04.2017","07:00","16:00","8","60",
