"30.01.17","1","170023","0","910","Urlaub","","0","Urlaub. Leave","07:00","16:00","8","60",
"31.01.17","2","170018","0","101","PM: Meetings, Orga, Personalführung","","0","9999: Waiting for tasks. Waiting for tasks","07:00","16:00","8","60",
"01.02.17","3","170023","0","910","Urlaub","","0","Urlaub. Leave","07:00","16:00","4,56","60",
"01.02.17","3","170018","9999","101","PM: Meetings, Orga, Personalführung","","0","Waiting for tasks. Waiting for tasks","","","3,44","0",
"02.02.17","4","170018","9999","101","PM: Meetings, Orga, Personalführung","","0","Waiting for tasks. Waiting for tasks","07:00","16:00","8","60",
"03.02.17","5","170051","10","101","PM: Meetings, Orga, Personalführung","","0","Weekly tasks AES 2017. Timesheets","07:00","16:00","1","60",
"03.02.17","5","170018","9999","101","PM: Meetings, Orga, Personalführung","","0","Waiting for tasks. Waiting for tasks","","","7","0",
