"27.03.17","1","150074","664","181","Fehlerbes. vor Ausl. (Bugzilla)","","0","(from sjv) 328_FEAT-7921: Bugfixing. Bug fixing","07:00","16:00","4","60",
"27.03.17","1","170051","2","101","PM: Meetings, Orga, Personalführung","","0","Weekly tasks AES 2017. Meeting with Diana & break down of tasks","","","1","0",
"27.03.17","1","170018","34","101","PM: Meetings, Orga, Personalführung","","0","Waiting for tasks. Waiting for tasks","","","3","0",
"28.03.17","2","150074","664","181","Fehlerbes. vor Ausl. (Bugzilla)","","0","(from sjv) 328_FEAT-7921: Bugfixing. Bug fixing","07:00","16:00","5","60",
"28.03.17","2","170051","2","101","PM: Meetings, Orga, Personalführung","","0","Weekly tasks AES 2017. Meetings","","","0,5","0",
"28.03.17","2","170018","34","101","PM: Meetings, Orga, Personalführung","","0","Waiting for tasks. Waiting for tasks","","","2,5","0",
"29.03.17","3","170018","34","101","PM: Meetings, Orga, Personalführung","","0","Waiting for tasks. Waiting for tasks","07:00","16:00","3,5","60",
"29.03.17","3","150074","664","181","Fehlerbes. vor Ausl. (Bugzilla)","","0","(from sjv) 328_FEAT-7921: Bugfixing. Bug fixing","","","4,5","0",
"30.03.17","4","150074","664","181","Fehlerbes. vor Ausl. (Bugzilla)","","0","(from sjv) 328_FEAT-7921: Bugfixing. Bug fixing & Release Changes","07:00","16:00","3","60",
"30.03.17","4","170018","34","101","PM: Meetings, Orga, Personalführung","","0","Waiting for tasks. Waiting for tasks","","","3","0",
"30.03.17","4","150074","586","160","Dokumentation","","0","(from sjv) 328_FEAT-7880: PDCS R03.28 Documentation. PDCS Documentation & Release Notes","","","2","0",
"31.03.17","5","150074","664","181","Fehlerbes. vor Ausl. (Bugzilla)","","0","(from sjv) 328_FEAT-7921: Bugfixing. Bug fixing & Release Changes","07:00","16:00","1","60",
"31.03.17","5","170018","34","101","PM: Meetings, Orga, Personalführung","","0","Waiting for tasks. Waiting for tasks","","","3","0",
"31.03.17","5","150074","586","160","Dokumentation","","0","(from sjv) 328_FEAT-7880: PDCS R03.28 Documentation. PDCS Integration Documentation","","","4","0",
