"13.02.17","1","150080","488","181","Fehlerbes. vor Ausl. (Bugzilla)","","0","14_FEAT-7855: Bugfixing. Metadata refresh bug","07:00","16:00","4","60",
"13.02.17","1","150080","481","102","Spez: LH/PH/Design","","0","14_FEAT-7931: Restructure Menu entries Support. Assist team member","","","4","0",
"14.02.17","2","150080","508","181","Fehlerbes. vor Ausl. (Bugzilla)","","0","14_FEAT-8043: Bugfixing. dxDataGrid date time data type","07:00","16:00","4","60",
"14.02.17","2","150080","482","120","Entwicklung: Codierung, Schaltplanerstellung, PCB-Layout","","0","14_FEAT-8019: Widget Help Support. Parameter auto-map feature","","","4","0",
"15.02.17","3","150080","457","120","Entwicklung: Codierung, Schaltplanerstellung, PCB-Layout","","0","14_FEAT-8017: Common alert area Support. Application toasts","07:00","16:00","4","60",
"15.02.17","3","150080","501","120","Entwicklung: Codierung, Schaltplanerstellung, PCB-Layout","","0","14_FEAT-8016: Support. Dashboard preview image feature","","","4","0",
"16.02.17","4","150080","457","120","Entwicklung: Codierung, Schaltplanerstellung, PCB-Layout","","0","14_FEAT-8017: Common alert area Support. Application toasts","07:00","16:00","8","60",
"17.02.17","5","150080","457","120","Entwicklung: Codierung, Schaltplanerstellung, PCB-Layout","","0","14_FEAT-8017: Common alert area Support. Application toasts","07:00","16:00","8","60",
