"28.11.16","1","120544","0","120","Entwicklung: Codierung, Schaltplanerstellung, PCB-Layout","","0","Ecos and CP6 tests. Working on single tests","07:45","17:35","9,08","45",
"29.11.16","2","120544","0","120","Entwicklung: Codierung, Schaltplanerstellung, PCB-Layout","","0","Ecos and CP6 tests. Working on single tests","07:15","17:30","9,5","45",
"30.11.16","3","120544","0","120","Entwicklung: Codierung, Schaltplanerstellung, PCB-Layout","","0","Ecos and CP6 tests. Working on single tests","07:15","17:30","10,08","10",
"01.12.16","4","120544","0","120","Entwicklung: Codierung, Schaltplanerstellung, PCB-Layout","","0","Ecos and CP6 tests. Working on single tests","07:15","17:30","9,5","45",
"02.12.16","5","120544","0","120","Entwicklung: Codierung, Schaltplanerstellung, PCB-Layout","","0","Ecos and CP6 tests. Working on single tests","07:15","12:00","4,75","0",
