"03.04.17","1","170025 ","148","170","Schulung","","0","training. training","07:00","16:00","5","60",
"03.04.17","1","170023","0","910","Urlaub","","0","leave . leave","","","3","0",
"04.04.17","2","170025","148","170","Schulung","","0","training. training","07:00","16:00","8","60",
"05.04.17","3","170025","148","170","Schulung","","0","training. training","07:00","16:00","8","60",
"06.04.17","4","170025","148","170","Schulung","","0","training. training","07:00","16:00","8","60",
"07.04.17","5","170025","148","170","Schulung","","0","training. training","07:00","16:00","8","60",
