"20.02.17","1","160499","123","104","Test-Spezifikation","","100","10-1017: PIDT-521: Testspec CR637my1-380_ScrolPerWisch (5). Created test spec.","07:00","16:00","7","60",
"20.02.17","1","170051","27","101","PM: Meetings, Orga, Personalführung","","0","S4/DSA overall tasks 2017. Meetings and admin","","","1","0",
"21.02.17","2","160499","68","120","Entwicklung: Codierung, Schaltplanerstellung, PCB-Layout","","100","10-1017: PIDT-521: Review and test issues before CF CR637my1-380_ScrolPerWisch (5). Review fixes ","07:00","16:00","8","60",
"22.02.17","3","150791","0","140","Test","","0","SA706MY1: PIDT 16.4.3 regression tests. SA706MY1: PIDT 16.4.3 regression tests","07:00","16:00","5","60",
"22.02.17","3","160499","68","120","Entwicklung: Codierung, Schaltplanerstellung, PCB-Layout","","100","10-1017: PIDT-521: Review and test issues before CF CR637my1-380_ScrolPerWisch (5). Review fixes ","","","3","0",
"23.02.17","4","160499","60","120","Entwicklung: Codierung, Schaltplanerstellung, PCB-Layout","","0","10-1015: PIDT-528: Review and test issues before CF CR648my3-393_DoIPOptim (13). Fixing bugs for DoIP before CF","07:00","16:00","3","60",
"23.02.17","4","160499","3","182","Fehlerbes. nach Ausl. (Bugzilla)","","0","10-1099: PIDT 17.0: Bugfixing previous Release. PIDT 17.0.0 bugfixing","","","5","0",
"24.02.17","5","160499","119","120","Entwicklung: Codierung, Schaltplanerstellung, PCB-Layout","","100","10-1016: PIDT-526: Implementierung CR648my1-392_EntwiEreig (13). Closing task","07:00","16:00","0","60",
"24.02.17","5","160499","36","120","Entwicklung: Codierung, Schaltplanerstellung, PCB-Layout","","100","10-1017: PIDT-521: Implementierung CR637my1-380_ScrolPerWisch (5). Closing task","","","0","0",
"24.02.17","5","170051","27","101","PM: Meetings, Orga, Personalführung","","0","S4/DSA overall tasks 2017. Meetings and admin","","","1,5","0",
"24.02.17","5","160499","3","182","Fehlerbes. nach Ausl. (Bugzilla)","","0","10-1099: PIDT 17.0: Bugfixing previous Release. Bugfixing","","","6,5","0",
"24.02.17","5","160499","0","140","Test","","0","Bugfix verifications. Bugfix verifications","","","1","0",
