"27.03.17","1","150074","586","160","Dokumentation","","0","328_FEAT-7880: PDCS R03.28 Documentation. Working on manuals, release documentation and others.","07:00","16:00","8","60",
"28.03.17","2","150074","535","140","Test","","0","328_ORG-9120: Integration PRODIS.System 3.28. Did some integration tests","07:00","16:00","3","60",
"28.03.17","2","150074","580","101","PM: Meetings, Orga, Personalführung","","0","328_FEAT-7920: Project Meetings. Meeting with Diana","","","1","0",
"28.03.17","2","150074","579","140","Test","","0","328_FEAT-7919: Test Management/Test Coverage. Tested some test cases","","","4","0",
"29.03.17","3","150074","574","181","Fehlerbes. vor Ausl. (Bugzilla)","","0","328_FEAT-7921: Bugfixing. Fixing descriptions, parameters, string resources and categorizing.","07:00","23:00","8","60",
"29.03.17","3","150074","579","140","Test","","0","328_FEAT-7919: Test Management/Test Coverage. Testing","","","5","0",
"29.03.17","3","150074","586","160","Dokumentation","","0","(from s41) 9999: PDCS: ECU Handler Template, Test Module Temp. 328_FEAT-7880: PDCS R03.28 Documentation","","","2","0",
"30.03.17","4","150074","579","140","Test","","0","328_FEAT-7919: Test Management/Test Coverage. Did testing and fixing of test cases.","07:00","23:59","8","0",
"30.03.17","4","150074","574","181","Fehlerbes. vor Ausl. (Bugzilla)","","0","328_FEAT-7921: Bugfixing. Fixed bugs relating to test modules and descriptions and string resoucres.","","","9","0",
"31.03.17","5","150074","586","160","Dokumentation","","0","328_FEAT-7880: PDCS R03.28 Documentation. Release documentation","07:00","16:00","2","60",
"31.03.17","5","170051","7","101","PM: Meetings, Orga, Personalführung","","0","Weekly tasks AES 2017. Timesheets","","","1,5","0",
"31.03.17","5","150074","580","101","PM: Meetings, Orga, Personalführung","","0","328_FEAT-7920: Project Meetings. Release meeting.","","","3","0",
"31.03.17","5","150074","574","181","Fehlerbes. vor Ausl. (Bugzilla)","","0","328_FEAT-7921: Bugfixing. Fixed small issues.","","","1,5","0",
