"03.04.17","1","160577","142","182","Fehlerbes. nach Ausl. (Bugzilla)","","0","WABCO OnLane2 bug fixing and testing. WABCO OnLane2 bug fixing and testing","07:00","16:00","4","60",
"03.04.17","1","170023","0","910","Urlaub","","0","Study Leave. Study Leave","","","4","0",
"04.04.17","2","170025","159","170","Schulung","","0","Training. Training","07:00","16:00","8","60",
"05.04.17","3","160577","142","182","Fehlerbes. nach Ausl. (Bugzilla)","","0","WABCO OnLane2 bug fixing and testing. WABCO OnLane2 bug fixing and testing","07:00","16:00","8","60",
"06.04.17","4","160577","142","182","Fehlerbes. nach Ausl. (Bugzilla)","","0","WABCO OnLane2 bug fixing and testing. WABCO OnLane2 bug fixing and testing","07:00","16:00","8","60",
"07.04.17","5","160577","142","182","Fehlerbes. nach Ausl. (Bugzilla)","","0","WABCO OnLane2 bug fixing and testing. WABCO OnLane2 bug fixing and testing","07:00","16:00","4","60",
"07.04.17","5","170023","0","910","Urlaub","","0","Annual Leave. Graduation","","","4","0",
