"13.03.17","1","150080","521","120","Entwicklung: Codierung, Schaltplanerstellung, PCB-Layout","","0","PRODIS.Insight Introduction: Ashley (S4). Finished the Reload All and Reload Layout functionality - Dashboard Layout Editor","07:00","16:00","8","60",
"14.03.17","2","150080","521","120","Entwicklung: Codierung, Schaltplanerstellung, PCB-Layout","","0","PRODIS.Insight Introduction: Ashley (S4). Fxed the Delete Layout functionality and Save All feature - Dashboard Layout Editor","07:00","16:00","8","60",
"15.03.17","3","150080","521","120","Entwicklung: Codierung, Schaltplanerstellung, PCB-Layout","","0","PRODIS.Insight Introduction: Ashley (S4). Finalized and Committed the Dashboard Layout Editor Fix ","07:00","16:00","8","60",
"16.03.17","4","150080","521","120","Entwicklung: Codierung, Schaltplanerstellung, PCB-Layout","","0","PRODIS.Insight Introduction: Ashley (S4). Worked on Help Feature and assisted with the Scroll Bar Bug","07:00","16:00","8","60",
"17.03.17","5","150080","521","120","Entwicklung: Codierung, Schaltplanerstellung, PCB-Layout","","0","PRODIS.Insight Introduction: Ashley (S4). Worked on Help Feature ","07:00","16:00","8","60",
