"17.04.17","1","170023","0","910","Urlaub","","0","Urlaub. Public holiday","07:00","16:00","8","60",
"18.04.17","2","160380","0","120","Entwicklung: Codierung, Schaltplanerstellung, PCB-Layout","","0","Flashstation PreComissioning. Creating Commisioning sequences","07:00","16:00","8","60",
"19.04.17","3","160380","0","120","Entwicklung: Codierung, Schaltplanerstellung, PCB-Layout","","0","Flashstation PreComissioning. Creating Commisioning sequences","07:00","16:00","8","60",
"20.04.17","4","160380","0","120","Entwicklung: Codierung, Schaltplanerstellung, PCB-Layout","","0","Flashstation PreComissioning. Bugfixing flashstation hardware problem and testing sequences","07:00","16:00","8","60",
"21.04.17","5","170051","10","101","PM: Meetings, Orga, Personalführung","","0","Weekly tasks AES 2017. Timesheets","07:00","16:00","1","60",
"21.04.17","5","160380","0","120","Entwicklung: Codierung, Schaltplanerstellung, PCB-Layout","","0","Flashstation PreComissioning. Testing Flashstation PreComissioning sequences","","","7","0",
