"20.02.17","1","170156","6","120","Entwicklung: Codierung, Schaltplanerstellung, PCB-Layout","","0","WAB HAN, Implementation of Sitemap Mockups. WAB HAN, Implementation of Sitemap Mockups","07:00","16:00","8","60",
"21.02.17","2","170156","6","120","Entwicklung: Codierung, Schaltplanerstellung, PCB-Layout","","0","WAB HAN, Implementation of Sitemap Mockups. WAB HAN, Implementation of Sitemap Mockups","07:00","16:00","8","60",
"22.02.17","3","170156","6","120","Entwicklung: Codierung, Schaltplanerstellung, PCB-Layout","","0","WAB HAN, Implementation of Sitemap Mockups. WAB HAN, Implementation of Sitemap Mockups","07:00","16:00","8","60",
"23.02.17","4","170156","6","120","Entwicklung: Codierung, Schaltplanerstellung, PCB-Layout","","0","WAB HAN, Implementation of Sitemap Mockups. WAB HAN, Implementation of Sitemap Mockups","07:00","16:00","8","60",
"24.02.17","5","170156","6","120","Entwicklung: Codierung, Schaltplanerstellung, PCB-Layout","","0","WAB HAN, Implementation of Sitemap Mockups. WAB HAN, Implementation of Sitemap Mockups","07:00","16:00","8","60",
