"20.03.17","1","170023","0","910","Urlaub","","0","Annual Leave. Annual Leave","07:00","16:00","3","60",
"20.03.17","1","170156","6","120","Entwicklung: Codierung, Schaltplanerstellung, PCB-Layout","","0","WABCO OnLane2 Guided Diagnostics Examples created. WABCO OnLane2 Guided Diagnostics Examples created","","","5","0",
"21.03.17","2","170023","0","910","Urlaub","","0","Public holiday. Public holiday","07:00","16:00","8","60",
"22.03.17","3","170156","6","120","Entwicklung: Codierung, Schaltplanerstellung, PCB-Layout","","0","WABCO OnLane2 Guided Diagnostics Examples created. WABCO OnLane2 Guided Diagnostics Examples created","07:00","16:00","4","60",
"22.03.17","3","170025","159","170","Schulung","","0","Training. Training","","","4","0",
"23.03.17","4","170156","6","120","Entwicklung: Codierung, Schaltplanerstellung, PCB-Layout","","0","WABCO OnLane2 Overview SVG Modifications. WABCO OnLane2 Overview SVG Modifications","07:00","16:00","8","60",
"24.03.17","5","170025","159","170","Schulung","","0","Training. Training","07:00","16:00","8","60",
