"13.03.17","1","150577","104","140","Test","","0","Integrationstest mit WTS 4.8.18 -eml(lz). Bug Fixing and Testing","07:00","16:00","8","60",
"14.03.17","2","150577","104","140","Test","","0","Integrationstest mit WTS 4.8.18 -eml(lz). Bug Fixing and Testing","07:00","16:00","8","60",
"15.03.17","3","150577","104","140","Test","","0","Integrationstest mit WTS 4.8.18 -eml(lz). Bug Fixing and Testing","07:00","16:00","8","60",
"16.03.17","4","170155","22","110","Engineering, Projektierung","","0","40: AGU: Code Review Chennai-CTSse (QB5): PAPL /BI-Pos. 2 - 1Review. Reviewing WS and filling review document","07:00","16:00","4","60",
"16.03.17","4","150577","104","140","Test","","0","Integrationstest mit WTS 4.8.18 -eml(lz). Bug Fixing and Testing","","","4","0",
"17.03.17","5","170051","19","101","PM: Meetings, Orga, Personalführung","","0","Weekly tasks AES 2017. Meetings and Timesheet","07:00","16:00","1","60",
"17.03.17","5","150577","104","140","Test","","0","Integrationstest mit WTS 4.8.18 -eml(lz). Bug Fixing and Testing","","","7","0",
