"02.01.17","1","160023","0","910","Urlaub","","0","Public Holiday. Public Holiday","07:00","16:00","8","60",
"03.01.17","2","160499","61","120","Entwicklung: Codierung, Schaltplanerstellung, PCB-Layout","","0","10-1015: PIDT-528: Implementierung CR648my3-393_DoIPOptim Basic (8). Implementierung","07:00","16:00","8","60",
"04.01.17","3","160499","61","120","Entwicklung: Codierung, Schaltplanerstellung, PCB-Layout","","0","10-1015: PIDT-528: Implementierung CR648my3-393_DoIPOptim Basic (8). Implementierung","07:00","16:00","8","60",
"05.01.17","4","160499","61","120","Entwicklung: Codierung, Schaltplanerstellung, PCB-Layout","","0","10-1015: PIDT-528: Implementierung CR648my3-393_DoIPOptim Basic (8). Implementierung","07:00","16:00","8","60",
"06.01.17","5","160499","61","120","Entwicklung: Codierung, Schaltplanerstellung, PCB-Layout","","0","10-1015: PIDT-528: Implementierung CR648my3-393_DoIPOptim Basic (8). Implementierung","07:00","16:00","6,5","60",
"06.01.17","5","170051","31","101","PM: Meetings, Orga, Personalführung","","0","S4/DSA overall tasks 2017. Meeting/Timesheet","","","1,5","0",
"06.01.17","5","160051","27","101","PM: Meetings, Orga, Personalführung","","100","S4/DSA overall tasks 2016. Closing Task","","","0","0",
"06.01.17","5","160051","23","170","Schulung","","100","S4/DSA Training 2016. Closing Task","","","0","0",
"06.01.17","5","160499","49","120","Entwicklung: Codierung, Schaltplanerstellung, PCB-Layout","","100","10-1014: PIDT 17.0: Implementierung CR631my2-376_VerbeUsabi. Closing Task","","","0","0",
"06.01.17","5","160023","2942","910","Urlaub","","100","Urlaubsinfo 22.12.2016-27.12.2016. Closing Task","","","0","0",
