"06.02.17","1","160018","9999","101","PM: Meetings, Orga, Personalführung","","0","''Authoring Server Down''. Authoring Server Down","07:00","16:00","8","60",
"07.02.17","2","160023","0","920","Krankheit","","0","Sick leave. Sick Leave","07:00","16:00","8","60",
"08.02.17","3","160018","9999","101","PM: Meetings, Orga, Personalführung","","0","Authoring Server Down. Authoring Server Down","07:00","16:00","3","60",
"08.02.17","3","160577","80","120","Entwicklung: Codierung, Schaltplanerstellung, PCB-Layout","","0","ECU Programming: Implementierung OnLane2 ECU flashen. ECU Programming: Implementierung OnLane2 ECU flashen","","","5","0",
"09.02.17","4","160577","80","120","Entwicklung: Codierung, Schaltplanerstellung, PCB-Layout","","0","ECU Programming: Implementierung OnLane2 ECU flashen. Trouble shooting job fail - preperation for and doing demo","07:00","18:30","10,5","60",
"10.02.17","5","160577","80","120","Entwicklung: Codierung, Schaltplanerstellung, PCB-Layout","","0","ECU Programming: Implementierung OnLane2 ECU flashen. Bug fixing small issues - Preparing for Customer demo","07:00","16:00","6","60",
"10.02.17","5","170051","11","101","PM: Meetings, Orga, Personalführung","","0","Weekly tasks AES 2017. Meetings and Timesheets","","","2","0",
