"27.03.17","1","150080","501","120","Entwicklung: Codierung, Schaltplanerstellung, PCB-Layout","","0","14_FEAT-8016: Support. Assist team members","07:00","16:00","2","60",
"27.03.17","1","150080","519","120","Entwicklung: Codierung, Schaltplanerstellung, PCB-Layout","","0","PRODIS.Insight Introduction. Auth system","","","6","0",
"28.03.17","2","150080","501","120","Entwicklung: Codierung, Schaltplanerstellung, PCB-Layout","","0","14_FEAT-8016: Support. Assist team members","07:00","16:00","2","60",
"28.03.17","2","150080","519","120","Entwicklung: Codierung, Schaltplanerstellung, PCB-Layout","","0","PRODIS.Insight Introduction. Auth system","","","6","0",
"29.03.17","3","150080","501","120","Entwicklung: Codierung, Schaltplanerstellung, PCB-Layout","","0","14_FEAT-8016: Support. Assist team members","07:00","16:00","2","60",
"29.03.17","3","150080","519","120","Entwicklung: Codierung, Schaltplanerstellung, PCB-Layout","","0","PRODIS.Insight Introduction. Server code","","","4","0",
"29.03.17","3","150080","488","181","Fehlerbes. vor Ausl. (Bugzilla)","","0","14_FEAT-7855: Bugfixing. Client code improvements","","","2","0",
"30.03.17","4","150080","488","181","Fehlerbes. vor Ausl. (Bugzilla)","","0","14_FEAT-7855: Bugfixing. Import export feature","07:00","16:00","4","60",
"30.03.17","4","150080","519","120","Entwicklung: Codierung, Schaltplanerstellung, PCB-Layout","","0","PRODIS.Insight Introduction. Server code and database","","","4","0",
"31.03.17","5","150080","501","120","Entwicklung: Codierung, Schaltplanerstellung, PCB-Layout","","0","14_FEAT-8016: Support. Assist team members","07:00","16:00","4","60",
"31.03.17","5","150080","488","181","Fehlerbes. vor Ausl. (Bugzilla)","","0","14_FEAT-7855: Bugfixing. Import export feature","","","4","0",
