"20.03.17","1","150577","104","140","Test","","0","Integrationstest mit WTS 4.8.18 -eml(lz). BugFixing and Testing","07:00","16:00","8","60",
"21.03.17","2","170023","0","910","Urlaub","","0","Public Holiday. Public Holiday","07:00","16:00","8","60",
"22.03.17","3","150577","104","140","Test","","0","Integrationstest mit WTS 4.8.18 -eml(lz). BugFixing and Testing","07:00","16:00","8","60",
"23.03.17","4","150076","260","181","Fehlerbes. vor Ausl. (Bugzilla)","","0","FEAT-7841 PRODIS.ASCS R04.10 Bugfixing. Enhancement Bugs","07:00","16:00","8","60",
"24.03.17","5","150076","260","181","Fehlerbes. vor Ausl. (Bugzilla)","","0","FEAT-7841 PRODIS.ASCS R04.10 Bugfixing. Enhancement Bugs","07:00","16:00","7","60",
"24.03.17","5","170051","19","101","PM: Meetings, Orga, Personalführung","","0","Weekly tasks AES 2017. Mettings and Timesheets","","","1","0",
