"16.01.17","1","170051","0","170","Schulung","","0","Training 2017. Training","07:00","16:00","8","60",
"17.01.17","2","170051","0","170","Schulung","","0","Training 2017. Training","07:00","16:00","8","60",
"18.01.17","3","170051","0","170","Schulung","","0","Training 2017. Training","07:00","16:00","8","60",
"19.01.17","4","170051","0","170","Schulung","","0","Training 2017. Training","07:00","16:00","8","60",
"20.01.17","5","170051","0","170","Schulung","","0","Training 2017. Training","07:00","16:00","8","60",
