"09.01.17","1","160577","88","102","Spez: LH/PH/Design","","0","ECU Programming: Grobdesign CODG erstellen. ECU Programming: Grobdesign CODG erstellen","07:00","16:00","8","60",
"10.01.17","2","170023","0","910","Urlaub","","0","Leave. Leave","07:00","16:00","8","60",
"11.01.17","3","160577","88","102","Spez: LH/PH/Design","","0","ECU Programming: Grobdesign CODG erstellen. ECU Programming: Grobdesign CODG erstellen","07:00","16:00","8","60",
"12.01.17","4","160577","88","102","Spez: LH/PH/Design","","80","ECU Programming: Grobdesign CODG erstellen. ECU Programming: Grobdesign CODG erstellen","07:00","16:00","4","60",
"12.01.17","4","160577","83","104","Test-Spezifikation","","0","ECU Programming: Testspec  erstellen. ECU Programming: Testspec  erstellen","","","4","0",
"13.01.17","5","160577","83","104","Test-Spezifikation","","70","ECU Programming: Testspec  erstellen. ECU Programming: Testspec  erstellen","07:00","16:00","5","60",
"13.01.17","5","170051","11","101","PM: Meetings, Orga, Personalführung","","0","Weekly tasks AES 2017. Meetings and Timesheets","","","1","0",
"13.01.17","5","160577","88","102","Spez: LH/PH/Design","","80","ECU Programming: Grobdesign CODG erstellen. Design specification Review","","","2","0",
