"06.02.17","1","150074","574","181","Fehlerbes. vor Ausl. (Bugzilla)","","0","328_FEAT-7921: Bugfixing. Investigation into Mike Wells and Mario Haase 3.26 issues.","07:00","16:00","4","60",
"06.02.17","1","170051","6","170","Schulung","","0","Training AES 2017. Figuring out how to do a round trip release and cold start from server.","","","3","0",
"06.02.17","1","170051","7","101","PM: Meetings, Orga, Personalführung","","0","Weekly tasks AES 2017. Helping colleagues and discussing features.","","","1","0",
"07.02.17","2","150074","574","181","Fehlerbes. vor Ausl. (Bugzilla)","","0","328_FEAT-7921: Bugfixing. Fixing and testing workspace issues in the PDCS.","07:00","16:00","6,5","60",
"07.02.17","2","170051","7","101","PM: Meetings, Orga, Personalführung","","0","Weekly tasks AES 2017. Admin, meetings, mails and helping colleagues.","","","1,5","0",
"08.02.17","3","150074","574","181","Fehlerbes. vor Ausl. (Bugzilla)","","0","328_FEAT-7946: Runtime User 328_FEAT-7921: Bugfixing. Fixing and testing workspace issues in the PDCS.","07:00","16:00","3","60",
"08.02.17","3","150074","535","140","Test","","0","328_ORG-9120: Integration PRODIS.System 3.28. Testing releases on Windows tester and MFT3","","","4","0",
"08.02.17","3","150074","578","124","Design, Entwicklung und Test","","0","328_FEAT-7946: Runtime User Administration (PRODIS.PDCS). Finalizing the requirements for the task.","","","1","0",
"09.02.17","4","150074","578","124","Design, Entwicklung und Test","","0","328_FEAT-7946: Runtime User Administration (PRODIS.PDCS). Finalizing the requirements for the task and started PoC.","07:00","16:00","4","60",
"09.02.17","4","170051","7","101","PM: Meetings, Orga, Personalführung","","0","Weekly tasks AES 2017. Admin, ran into some PC issues and helped colleagies","","","2,5","0",
"09.02.17","4","150074","580","101","PM: Meetings, Orga, Personalführung","","0","328_FEAT-7920: Project Meetings. Discussed project progress and issues with Nico and with Diana.","","","1,5","0",
"10.02.17","5","150074","580","101","PM: Meetings, Orga, Personalführung","","0","328_FEAT-7920: Project Meetings. Discussed project progress and issues with Nico.","07:00","16:00","0,5","60",
"10.02.17","5","150074","578","124","Design, Entwicklung und Test","","0","328_FEAT-7946: Runtime User Administration (PRODIS.PDCS). Developing PoC","","","2","0",
"10.02.17","5","170023","0","910","Urlaub","","0","Leave. Leave","","","3,5","0",
"10.02.17","5","170051","7","101","PM: Meetings, Orga, Personalführung","","0","Weekly tasks AES 2017. Timesheets, admin, meetings and helping colleagues.","","","2","0",
