"03.04.17","1","160500","19","120","Entwicklung: Codierung, Schaltplanerstellung, PCB-Layout","","0","10-1016: PIDT-526: Implementierung CR648my1-392_EntwiEreig (13). 10-1016: PIDT-526: Implementierung CR648my1-392_EntwiEreig (13)","07:00","16:00","8","60",
"04.04.17","2","160500","19","120","Entwicklung: Codierung, Schaltplanerstellung, PCB-Layout","","0","10-1016: PIDT-526: Implementierung CR648my1-392_EntwiEreig (13). 10-1016: PIDT-526: Implementierung CR648my1-392_EntwiEreig (13)","07:00","16:00","8","60",
"05.04.17","3","170023","0","920","Krankheit","","0","Sick leave 05.04.2017. Sick leave 05.04.2017","07:00","16:00","8","60",
"06.04.17","4","160500","32","101","PM: Meetings, Orga, Personalführung","","0","10-9120: PIDT 17.0: Meetings and Preparation. Estimation meeting PIDT 17.2 CR390, CR413","07:00","16:00","2","60",
"06.04.17","4","170025","93","170","Schulung","","0","S4/DSA Training 2017. Training S(ervice)A(nforderung)","","","1,5","0",
"06.04.17","4","170022","49","110","Engineering, Projektierung","","0","Weekly tasks DSE 2017. Weekly tasks DSE 2017","","","1,5","0",
"06.04.17","4","160500","19","120","Entwicklung: Codierung, Schaltplanerstellung, PCB-Layout","","0","10-1016: PIDT-526: Implementierung CR648my1-392_EntwiEreig (13). 10-1016: PIDT-526: Implementierung CR648my1-392_EntwiEreig (13)","","","3","0",
"07.04.17","5","170023","0","910","Urlaub","","0","Time off 07.04.2017. Time off 07.04.2017","07:00","16:00","8","60",
