"30.01.17","1","170051","0","170","Schulung","","0","MAN Training. MAN Training","07:00","16:00","8","60",
"31.01.17","2","170051","0","170","Schulung","","0","MAN Training. MAN Training","07:00","16:00","8","60",
"01.02.17","3","170051","0","170","Schulung","","0","MAN Training. MAN Training","07:00","16:00","8","60",
"02.02.17","4","170051","0","170","Schulung","","0","MAN Training. MAN Training","07:00","16:00","8","60",
"03.02.17","5","170051","0","170","Schulung","","0","MAN Training. MAN Training","07:00","16:00","8","60",
