"22.05.17","1","160500","17","182","Fehlerbes. nach Ausl. (Bugzilla)","","0","10-1099: PIDT 17.2: Bugfixing previous Release. 10-1099: PIDT 17.2: Bugfixing previous Release","07:00","16:00","8","60",
"23.05.17","2","160500","17","182","Fehlerbes. nach Ausl. (Bugzilla)","","0","10-1099: PIDT 17.2: Bugfixing previous Release. 10-1099: PIDT 17.2: Bugfixing previous Release","07:00","16:00","8","60",
"24.05.17","3","160500","102","140","Test","","0","10-1080: Verifikation Bugfixes PIDT 17.2. 10-1080: Verifikation Bugfixes PIDT 17.2","07:00","16:00","4","60",
"24.05.17","3","160500","0","140","Test","","0","10-1014: PIDT-595: Integrationstests CR648my1-392_EntwiEreig. 10-1014: PIDT-595: Integrationstests CR648my1-392_EntwiEreig","","","4","0",
"25.05.17","4","160500","102","140","Test","","0","10-1080: Verifikation Bugfixes PIDT 17.2. 10-1080: Verifikation Bugfixes PIDT 17.2","07:00","16:00","6","60",
"25.05.17","4","160500","0","140","Test","","0","10-1014: PIDT-595: Integrationstests CR648my1-392_EntwiEreig. 10-1014: PIDT-595: Integrationstests CR648my1-392_EntwiEreig","","","2","0",
"26.05.17","5","160500","102","140","Test","","0","10-1080: Verifikation Bugfixes PIDT 17.2. 10-1080: Verifikation Bugfixes PIDT 17.2","07:00","16:00","6,5","60",
"26.05.17","5","170022","22","110","Engineering, Projektierung","","0","Weekly tasks DSE 2017. Weekly tasks DSE 2017","","","1,5","0",
