"16.01.17","1","170217","30","401","Travel","","0","WB / automatisch. Travel SA to ZAR","13:30","23:59","10,48","0",
"17.01.17","2","170217","30","401","Travel","","0","WB / automatisch. Travel SA to ZAR","00:00","15:00","15","0",
"18.01.17","3","170217","29","140","Test","","0","WB / automatisch. BYOM - SYSTEM ERROR","08:00","17:00","3,5","30",
"18.01.17","3","170217","31","110","Engineering, Projektierung","","0","WB / automatisch. CONDITION MODE- SYSTEM ERROR - 21TK92","","","5","0",
"19.01.17","4","170217","31","110","Engineering, Projektierung","","0","WB / automatisch. ASSEMBLY CHECK - GBFTT SYSTEM ERROR - GBFTT 19","08:00","17:00","8,5","30",
"20.01.17","5","170217","31","110","Engineering, Projektierung","","0","WB / automatisch. ASSEMBLY CHECK - GBFTT SYSTEM ERROR - GBFTT 19","08:00","16:30","2","30",
"20.01.17","5","170217","29","140","Test","","0","WB / automatisch. TESTs at DVT - BSI mode usine","","","6","0",
