"22.05.17","1","170051","2","101","PM: Meetings, Orga, Personalführung","","0","Weekly tasks AES 2017. P.Lib & PDCS meetings & code review with Edina","07:00","16:00","1,5","60",
"22.05.17","1","150075","537","124","Design, Entwicklung und Test","","100","332_FEAT-8153 - UserInfo Dialog rework with RTS Update Functionality. Close off","","","0","0",
"22.05.17","1","150075","524","182","Fehlerbes. nach Ausl. (Bugzilla)","","0","332_FEAT-8259 - PRODIS.Lib 3.32 - Bugfix. Bug fixing","","","6","0",
"22.05.17","1","150075","538","124","Design, Entwicklung und Test","","0","332_FEAT-8154 - Value loop rework with RTS Update Functionality. Documentation","","","0,5","0",
"23.05.17","2","170018","34","101","PM: Meetings, Orga, Personalführung","","0","Waiting for tasks. Waiting for tasks","07:00","16:00","8","60",
"24.05.17","3","150075","524","182","Fehlerbes. nach Ausl. (Bugzilla)","","0","332_FEAT-8259 - PRODIS.Lib 3.32 - Bugfix. Bug fix completion","07:00","16:00","1","60",
"24.05.17","3","150075","542","124","Design, Entwicklung und Test","","0","332_FEAT-8156 - Visualization: Functions as setters for attributes. Implementation","","","7","0",
"25.05.17","4","150075","542","124","Design, Entwicklung und Test","","0","332_FEAT-8156 - Visualization: Functions as setters for attributes. Implementation & Testing","07:00","16:00","8","60",
"26.05.17","5","170051","2","101","PM: Meetings, Orga, Personalführung","","0","Weekly tasks AES 2017. Meeting with Edina","07:00","16:00","0,5","60",
"26.05.17","5","150075","542","124","Design, Entwicklung und Test","","0","332_FEAT-8156 - Visualization: Functions as setters for attributes. Testing of implementation & Documentation","","","7,5","0",
