"20.03.17","1","170025","145","170","Schulung","","0","Training. Training","07:00","16:00","8","60",
"21.03.17","2","170023","0","910","Urlaub","","0","public holiday. public holiday","07:00","16:00","8","60",
"22.03.17","3","170025","145","170","Schulung","","0","Training. Training","07:00","16:00","8","60",
"23.03.17","4","170025","145","170","Schulung","","0","Training. Training","07:00","16:00","8","60",
"24.03.17","5","170025","145","170","Schulung","","0","Training. Training","07:00","16:00","8","60",
