"17.04.17","1","170023","0","910","Urlaub","","0","Public Holiday - Family Day. Public Holiday","07:00","16:00","8","60",
"18.04.17","2","170018","34","101","PM: Meetings, Orga, Personalführung","","0","Waiting for tasks. Waiting for tasks","07:00","16:00","6,5","60",
"18.04.17","2","150075","537","124","Design, Entwicklung und Test","","0","332_FEAT-8153 - UserInfo Dialog rework with RTS Update Functionality. Implementation","","","1,5","0",
"19.04.17","3","170018","34","101","PM: Meetings, Orga, Personalführung","","0","Waiting for tasks. Waiting for tasks","07:00","16:00","5,5","60",
"19.04.17","3","150075","537","124","Design, Entwicklung und Test","","0","332_FEAT-8153 - UserInfo Dialog rework with RTS Update Functionality. Implementation","","","1,5","0",
"19.04.17","3","170051","2","101","PM: Meetings, Orga, Personalführung","","0","Weekly tasks AES 2017. Weekly Tasks","","","1","0",
"20.04.17","4","170051","2","101","PM: Meetings, Orga, Personalführung","","0","Weekly tasks AES 2017. Weekly Tasks","07:00","16:00","0,5","60",
"20.04.17","4","170018","34","101","PM: Meetings, Orga, Personalführung","","0","Waiting for tasks. Waiting for tasks","","","6","0",
"20.04.17","4","150075","537","124","Design, Entwicklung und Test","","0","332_FEAT-8153 - UserInfo Dialog rework with RTS Update Functionality. Implementation","","","1,5","0",
"21.04.17","5","150075","537","124","Design, Entwicklung und Test","","0","332_FEAT-8153 - UserInfo Dialog rework with RTS Update Functionality. Implementation","07:00","16:00","2","60",
"21.04.17","5","170018","34","101","PM: Meetings, Orga, Personalführung","","0","Waiting for tasks. Waiting for tasks/Feedback","","","6","0",
