"13.02.17","1","170025","145","170","Schulung","","0","Training. Training","07:00","16:00","8","60",
"14.02.17","2","170025","145","170","Schulung","","0","Training. Training","07:00","16:00","8","60",
"15.02.17","3","170025","145","170","Schulung","","0","Training. Training","07:00","16:00","8","60",
"16.02.17","4","170025","145","170","Schulung","","0","Training. Training","07:00","16:00","8","60",
"17.02.17","5","170025","145","170","Schulung","","0","Training. Training","07:00","16:00","8","60",
