"30.01.17","1","150076","256","120","Entwicklung: Codierung, Schaltplanerstellung, PCB-Layout","","0","FEAT-7814 Workflow Examples. FEAT-7814 Workflow Examples","07:00","16:00","8","60",
"31.01.17","2","150076","256","120","Entwicklung: Codierung, Schaltplanerstellung, PCB-Layout","","0","FEAT-7814 Workflow Examples. FEAT-7814 Workflow Examples","07:00","16:00","4","60",
"31.01.17","2","150577","104","140","Test","","0","Integrationstest mit WTS 4.8.18 -eml(lz). Integrationstest mit WTS 4.8.18 -eml(lz)","","","4","0",
"01.02.17","3","170023","0","920","Krankheit","","0","Krankheit. Sick Leave","07:00","16:00","8","60",
"02.02.17","4","150076","260","181","Fehlerbes. vor Ausl. (Bugzilla)","","0","FEAT-7841 PRODIS.ASCS R04.10 Bugfixing. FEAT-7841 PRODIS.ASCS R04.10 Bugfixing","07:00","16:00","8","60",
"03.02.17","5","150076","260","181","Fehlerbes. vor Ausl. (Bugzilla)","","0","FEAT-7841 PRODIS.ASCS R04.10 Bugfixing. FEAT-7841 PRODIS.ASCS R04.10 Bugfixing","07:00","16:00","7","60",
"03.02.17","5","170051","19","101","PM: Meetings, Orga, Personalführung","","0","Weekly tasks AES 2017. Timesheet and Meetings","","","1","0",
