"29.05.17","1","160500","121","140","Test","","0","10-1080: Verifikation Bugfixes PIDT 17.2. 10-1080: Verifikation Bugfixes PIDT 17.2","07:00","16:00","8","60",
"30.05.17","2","160500","121","140","Test","","0","10-1080: Verifikation Bugfixes PIDT 17.2. 10-1080: Verifikation Bugfixes PIDT 17.2","07:00","16:00","3","60",
"30.05.17","2","160500","127","182","Fehlerbes. nach Ausl. (Bugzilla)","","0","10-1099: PIDT 17.2: Bugfixing previous Release. 10-1099: PIDT 17.2: Bugfixing previous Release","","","5","0",
"31.05.17","3","160500","127","182","Fehlerbes. nach Ausl. (Bugzilla)","","0","10-1099: PIDT 17.2: Bugfixing previous Release. 10-1099: PIDT 17.2: Bugfixing previous Release","07:00","16:00","4","60",
"31.05.17","3","160500","0","120","Entwicklung: Codierung, Schaltplanerstellung, PCB-Layout","","0","PIDT-632: Implementierung CR720dma1-415_UpdatJava1.8_131 (3). Getting into subject with feature","","","4","0",
"01.06.17","4","160500","0","120","Entwicklung: Codierung, Schaltplanerstellung, PCB-Layout","","0","PIDT-632: Implementierung CR720dma1-415_UpdatJava1.8_131 (3). PIDT-632: Implementierung CR720dma1-415_UpdatJava1.8_131 (3)","07:00","16:00","8","60",
"02.06.17","5","160500","0","120","Entwicklung: Codierung, Schaltplanerstellung, PCB-Layout","","0","PIDT-632: Implementierung CR720dma1-415_UpdatJava1.8_131 (3). PIDT-632: Implementierung CR720dma1-415_UpdatJava1.8_131 (3)","07:00","16:00","3","60",
"02.06.17","5","170022","49","110","Engineering, Projektierung","","0","Weekly tasks DSE 2017. Weekly tasks DSE 2017","","","1,5","0",
"02.06.17","5","160862","0","140","Test","","0","PIDT 17.0.1LS9 Integration testing. PIDT 17.0.1LS9 Integration testing","","","3,5","0",
