"06.02.17","1","150075","0","120","Entwicklung: Codierung, Schaltplanerstellung, PCB-Layout","","0","9999: Visualization testing in Foshan. Implementing Visualization into Foshan workspace for testing","07:00","16:00","8","60",
"07.02.17","2","150075","0","120","Entwicklung: Codierung, Schaltplanerstellung, PCB-Layout","","0","9999: Visualization testing in Foshan. Implementing Visualization into Foshan workspace for testing","07:00","16:00","8","60",
"08.02.17","3","170018","35","101","PM: Meetings, Orga, Personalführung","","0","Waiting for tasks . Waiting for tasks ","07:00","16:00","8","60",
"09.02.17","4","150074","0","120","Entwicklung: Codierung, Schaltplanerstellung, PCB-Layout","","0","9999  PDCS Dialogs. Updating and importing PDCS dialogs testcases into testlink, executing results","07:00","16:00","8","60",
"10.02.17","5","170051","4","101","PM: Meetings, Orga, Personalführung","","0","Weekly tasks AES 2017. Timesheets","07:00","16:00","1","60",
"10.02.17","5","170018","35","101","PM: Meetings, Orga, Personalführung","","0","Waiting for tasks. Waiting for tasks","","","7","0",
