"13.03.17","1","160499","135","181","Fehlerbes. vor Ausl. (Bugzilla)","","0","10-1098: PIDT 17.0: Bugfixing nach Codefreeze. PIDT 17 bugfixing","07:00","16:00","8","60",
"14.03.17","2","160499","135","181","Fehlerbes. vor Ausl. (Bugzilla)","","0","10-1098: PIDT 17.0: Bugfixing nach Codefreeze. PIDT 17 bugfixing","07:00","16:00","10","60",
"15.03.17","3","160499","135","181","Fehlerbes. vor Ausl. (Bugzilla)","","0","10-1098: PIDT 17.0: Bugfixing nach Codefreeze. PIDT 17 bugfixing","07:00","16:00","11,5","60",
"16.03.17","4","160499","135","181","Fehlerbes. vor Ausl. (Bugzilla)","","0","10-1098: PIDT 17.0: Bugfixing nach Codefreeze. PIDT 17 bugfixing","07:00","16:00","14,5","60",
"17.03.17","5","170051","27","101","PM: Meetings, Orga, Personalführung","","0","S4/DSA overall tasks 2017. Meetings and admin","07:00","16:00","1,5","60",
"17.03.17","5","160499","125","140","Test","","0","10-1080: Verifikation Bugfixes PIDT 17.0. Bugfix verifications","","","8,5","0",
