"16.01.17","1","100369","9593","182","Fehlerbes. nach Ausl. (Bugzilla)","","0","MAN GFS. MAN GFS. MAN GFS. MAN GFS","07:00","16:00","8","60",
"17.01.17","2","100369","9593","182","Fehlerbes. nach Ausl. (Bugzilla)","","0","MAN GFS. MAN GFS. MAN GFS. MAN GFS","07:00","16:00","8","60",
"18.01.17","3","100369","9593","182","Fehlerbes. nach Ausl. (Bugzilla)","","0","MAN GFS. MAN GFS. MAN GFS. MAN GFS","07:00","16:00","6","60",
"18.01.17","3","170051","9","101","PM: Meetings, Orga, Personalführung","","0","Weekly tasks AES 2017. Visa application","","","2","0",
"19.01.17","4","150076","261","120","Entwicklung: Codierung, Schaltplanerstellung, PCB-Layout","","0","FEAT-7816 ASCS Generic Application Templates. (From mc)FEAT-7816 ASCS Generic Application Templates","07:00","16:00","8","60",
"20.01.17","5","170051","9","101","PM: Meetings, Orga, Personalführung","","0","Weekly tasks AES 2017. Meeting and timesheets","07:00","16:00","1","60",
"20.01.17","5","170051","12","101","PM: Meetings, Orga, Personalführung","","0","Management AES 2017. Management AES 2017","","","1","0",
"20.01.17","5","150076","261","120","Entwicklung: Codierung, Schaltplanerstellung, PCB-Layout","","0","FEAT-7816 ASCS Generic Application Templates. (From mc)FEAT-7816 ASCS Generic Application Templates","","","6","0",
