"06.03.17","1","160499","113","140","Test","","0","10-1100: CETEM Regressionstests PIDT 17.0. 10-1100: CETEM Regressionstests PIDT 17.0","07:00","16:00","8","60",
"07.03.17","2","170023","0","920","Krankheit","","0","Sick leave. Sick leave","07:00","16:00","8","60",
"08.03.17","3","170023","0","920","Krankheit","","0","Sick leave. Sick leave","07:00","16:00","8","60",
"09.03.17","4","160499","129","181","Fehlerbes. vor Ausl. (Bugzilla)","","0","10-1098: PIDT 17.0: Bugfixing nach Codefreeze. 10-1098: PIDT 17.0: Bugfixing nach Codefreeze","07:00","16:00","8","60",
"10.03.17","5","170051","28","101","PM: Meetings, Orga, Personalführung","","0","S4/DSA overall tasks 2017	. Weekly general tasks","07:00","16:00","1,5","60",
"10.03.17","5","160499","129","181","Fehlerbes. vor Ausl. (Bugzilla)","","0","10-1098: PIDT 17.0: Bugfixing nach Codefreeze. 10-1098: PIDT 17.0: Bugfixing nach Codefreeze","","","3,5","0",
"10.03.17","5","160499","113","140","Test","","0","10-1100: CETEM Regressionstests PIDT 17.0. 10-1100: CETEM Regressionstests PIDT 17.0","","","3","0",
