"06.02.17","1","150075","483","120","Entwicklung: Codierung, Schaltplanerstellung, PCB-Layout","","0","328_FEAT-7829 - Visualization. Finalizing tasks","07:00","16:00","6,5","60",
"06.02.17","1","170051","2","101","PM: Meetings, Orga, Personalführung","","0","Weekly tasks AES 2017. Meeting with Daniel","","","1,5","0",
"07.02.17","2","150075","483","120","Entwicklung: Codierung, Schaltplanerstellung, PCB-Layout","","0","328_FEAT-7829 - Visualization. Implementation","07:00","16:00","8","60",
"08.02.17","3","170051","1","170","Schulung","","0","Training AES 2017. VISA Appointment prep","07:00","16:00","2","60",
"08.02.17","3","150075","483","120","Entwicklung: Codierung, Schaltplanerstellung, PCB-Layout","","0","328_FEAT-7829 - Visualization. Finalizing tasks","","","6","0",
"09.02.17","4","150075","483","120","Entwicklung: Codierung, Schaltplanerstellung, PCB-Layout","","0","328_FEAT-7829 - Visualization	. Testing & Bug fixing","07:00","16:00","2","60",
"09.02.17","4","160023","2705","920","Krankheit","","0","krank date - 9.02.2017. Sick leave","","","4","0",
"09.02.17","4","170051","1","170","Schulung","","0","Training AES 2017. VISA Appointment","","","2","0",
"10.02.17","5","150075","483","120","Entwicklung: Codierung, Schaltplanerstellung, PCB-Layout","","0","328_FEAT-7829 - Visualization	. Testing & Bug fixing","07:00","16:00","2,5","60",
"10.02.17","5","160023","2705","920","Krankheit","","0","krank date -10.02.2017. Doctors appointment & sick leave","","","5,5","0",
