"12.06.17","1","150075","524","182","Fehlerbes. nach Ausl. (Bugzilla)","","0","332_FEAT-8259 - PRODIS.Lib 3.32 - Bugfix. Bugfixing","07:00","16:00","5","60",
"12.06.17","1","170018","34","101","PM: Meetings, Orga, Personalführung","","0","Waiting for tasks. Waiting for tasks","","","3","0",
"13.06.17","2","150075","524","182","Fehlerbes. nach Ausl. (Bugzilla)","","0","332_FEAT-8259 - PRODIS.Lib 3.32 - Bugfix. Bugfixing","07:00","16:00","3,5","60",
"13.06.17","2","170051","2","101","PM: Meetings, Orga, Personalführung","","0","Weekly tasks AES 2017. Meetings","","","1,5","0",
"13.06.17","2","170018","34","101","PM: Meetings, Orga, Personalführung","","0","Waiting for tasks. Waiting for tasks","","","3","0",
"14.06.17","3","170051","2","101","PM: Meetings, Orga, Personalführung","","0","Weekly tasks AES 2017. Meeting","07:00","16:00","1","60",
"14.06.17","3","150075","548","160","Dokumentation","","0","9999: Dokumentation. Documentation","","","5","0",
"14.06.17","3","170018","34","101","PM: Meetings, Orga, Personalführung","","0","Waiting for tasks. Waiting for tasks","","","2","0",
"15.06.17","4","170018","34","101","PM: Meetings, Orga, Personalführung","","0","Waiting for tasks. Waiting for tasks","07:00","16:00","3,5","60",
"15.06.17","4","150075","524","182","Fehlerbes. nach Ausl. (Bugzilla)","","0","332_FEAT-8259 - PRODIS.Lib 3.32 - Bugfix. Bugfixing","","","1,5","0",
"15.06.17","4","150075","548","160","Dokumentation","","0","9999: Dokumentation. Documentation","","","3","0",
"16.06.17","5","170023","0","910","Urlaub","","0","Public Holiday. Public Holiday - Youth Day","07:00","16:00","8","60",
