"12.06.17","1","170155","0","101","PM: Meetings, Orga, Personalführung","","0","analyze current work in TEBS-F. analyze current work in TEBS-F","07:00","16:00","5","60",
"12.06.17","1","170023","0","910","Urlaub","","0","Study Leave. Study Leave","","","3","0",
"13.06.17","2","170155","0","101","PM: Meetings, Orga, Personalführung","","0","analyze current work in TEBS-F. analyze current work in TEBS-F","07:00","16:00","8","60",
"14.06.17","3","160577","135","120","Entwicklung: Codierung, Schaltplanerstellung, PCB-Layout","","0","OnLane2 Test Spec testing on latest deliverable and updated and fixed. OnLane2 Test Spec testing on latest deliverable and updated and fixed","07:00","16:00","8","60",
"15.06.17","4","160577","135","120","Entwicklung: Codierung, Schaltplanerstellung, PCB-Layout","","0","Onlane2 Test spec NOK cases. Onlane2 Test spec NOK cases","07:00","16:00","8","60",
"16.06.17","5","170023","0","910","Urlaub","","0","Public Holiday. Public Holiday","07:00","16:00","8","60",
