"16.01.17","1","160023","2941","910","Urlaub","","0","Urlaubsinfo 07.01.2017-29.01.2017. Annual leave","07:00","16:00","8","60",
"17.01.17","2","160023","2941","910","Urlaub","","0","Urlaubsinfo 07.01.2017-29.01.2017. Annual leave","07:00","16:00","8","60",
"18.01.17","3","160023","2941","910","Urlaub","","0","Urlaubsinfo 07.01.2017-29.01.2017. Annual leave","07:00","16:00","8","60",
"19.01.17","4","160023","2941","910","Urlaub","","0","Urlaubsinfo 07.01.2017-29.01.2017. Annual leave","07:00","16:00","8","60",
"20.01.17","5","160023","2941","910","Urlaub","","0","Urlaubsinfo 07.01.2017-29.01.2017. Annual leave","07:00","16:00","8","60",
