"19.09.16","1","160217","31","110","Engineering, Projektierung","","0","WB / automatisch. DV6D Oil Pressure Check","07:00","16:00","8","60",
"20.09.16","2","160217","31","110","Engineering, Projektierung","","0","WB / automatisch. Official Release Issue","07:00","16:00","8","60",
"21.09.16","3","160217","31","110","Engineering, Projektierung","","0","WB / automatisch. Official Release Issue","07:00","16:00","8","60",
"22.09.16","4","160217","31","110","Engineering, Projektierung","","0","WB / automatisch. DVT Time","07:00","16:00","8","60",
"23.09.16","5","160217","31","110","Engineering, Projektierung","","0","WB / automatisch. DVT Time Statistic","07:00","15:30","8","30",
