"06.03.17","1","160499","120","140","Test","","0","10-1100: CETEM Regressionstests PIDT 17.0. Testing","07:00","16:00","8","60",
"07.03.17","2","160499","120","140","Test","","0","10-1100: CETEM Regressionstests PIDT 17.0. Testing","07:00","16:00","8","60",
"08.03.17","3","160499","120","140","Test","","0","10-1100: CETEM Regressionstests PIDT 17.0. Testing","07:00","16:00","8","60",
"09.03.17","4","160499","142","181","Fehlerbes. vor Ausl. (Bugzilla)","","0","10-1098: PIDT 17.0: Bugfixing nach Codefreeze. Bug Fixing","07:00","16:00","9","0",
"10.03.17","5","160499","142","181","Fehlerbes. vor Ausl. (Bugzilla)","","0","10-1098: PIDT 17.0: Bugfixing nach Codefreeze. Bug Fixing","07:00","16:00","4,5","60",
"10.03.17","5","170051","31","101","PM: Meetings, Orga, Personalführung","","0","S4/DSA overall tasks 2017. Meeting/Timesheets","","","1,5","0",
"10.03.17","5","170023","0","910","Urlaub","","0","Urlaub. Urlaub","","","2","0",
