"20.03.17","1","150080","520","120","Entwicklung: Codierung, Schaltplanerstellung, PCB-Layout","","0","Produs Workspace Environment Setup Meeting . Produs Workspace Environment Setup Meeting ","07:00","16:00","3","60",
"20.03.17","1","150080","520","120","Entwicklung: Codierung, Schaltplanerstellung, PCB-Layout","","0","Help Feature Menu and Additional Help Options. Added other help options to the menu ","","","2","0",
"20.03.17","1","150080","520","120","Entwicklung: Codierung, Schaltplanerstellung, PCB-Layout","","0","Translation for Help Features. Began work on translations for text in help feature","","","3","0",
"21.03.17","2","170023","0","910","Urlaub","","0","Public Holiday. Public Holiday","07:00","16:00","8","60",
"22.03.17","3","150080","520","120","Entwicklung: Codierung, Schaltplanerstellung, PCB-Layout","","0","Skylyze training meeting. Skylyze training meeting","07:00","16:00","3","60",
"22.03.17","3","150080","520","120","Entwicklung: Codierung, Schaltplanerstellung, PCB-Layout","","0","Completed translation functionality. Completed translation functionality for help feature","","","3","0",
"22.03.17","3","150080","520","120","Entwicklung: Codierung, Schaltplanerstellung, PCB-Layout","","0","Re-ordered widgets in the help feature menu. fixed ordered widget list that resulted from translations","","","2","0",
"23.03.17","4","150080","520","120","Entwicklung: Codierung, Schaltplanerstellung, PCB-Layout","","0","Committed completed help and translation and worked on environment setup. Continued attempt to fix environment problems and committed finalized help and translation feature","07:00","16:00","8","60",
"24.03.17","5","150080","520","120","Entwicklung: Codierung, Schaltplanerstellung, PCB-Layout","","0","Continued setting up environment. Continued with environment setup","07:00","16:00","3","60",
"24.03.17","5","150080","520","120","Entwicklung: Codierung, Schaltplanerstellung, PCB-Layout","","0","began looking through back-end code and began work on bug 66598. began looking through back-end code and began work on bug 66598","","","5","0",
