"06.03.17","1","170051","13","101","PM: Meetings, Orga, Personalführung","","0","General project management / Teamsupport AES 2017. General Admin / Support","07:00","16:00","8","60",
"07.03.17","2","170051","13","101","PM: Meetings, Orga, Personalführung","","0","General project management / Teamsupport AES 2017. General Admin / Support","07:00","16:00","8","60",
"08.03.17","3","170051","13","101","PM: Meetings, Orga, Personalführung","","0","General project management / Teamsupport AES 2017. General Admin / Support","07:00","16:00","8","60",
"09.03.17","4","170051","13","101","PM: Meetings, Orga, Personalführung","","0","General project management / Teamsupport AES 2017. General Admin / Support","07:00","16:00","8","60",
"10.03.17","5","170051","13","101","PM: Meetings, Orga, Personalführung","","0","General project management / Teamsupport AES 2017. General Admin / Support","07:00","16:00","8","60",
"11.03.17","6","160577","9999","120","Entwicklung: Codierung, Schaltplanerstellung, PCB-Layout","","0","Wabco OnLane2 Dialogs. Creation of UserInfo Dialog elements","06:30","18:30","12","0",
"12.03.17","7","160577","9999","120","Entwicklung: Codierung, Schaltplanerstellung, PCB-Layout","","0","Wabco OnLane2 Dialogs. UserIfno integration and testing + other Dialog integration","07:00","18:30","11,5","0",
