"13.02.17","1","160499","8","182","Fehlerbes. nach Ausl. (Bugzilla)","","0","10-1099: PIDT 17.0: Bugfixing previous Release. Working on PIDT 17.0 bugs","07:00","16:00","8","60",
"14.02.17","2","160499","8","182","Fehlerbes. nach Ausl. (Bugzilla)","","0","10-1099: PIDT 17.0: Bugfixing previous Release. Working on PIDT 17.0 bugs","07:00","16:00","8","60",
"15.02.17","3","160499","101","104","Test-Spezifikation","","0","10-1018: PIDT-531: Testspec CR650my1-382_UsabiPflegFzgDaten (8). Working on test cases for feature","07:00","16:00","5","60",
"15.02.17","3","160499","93","130","Konfiguration, Setup, Distribution, Prototypenbau","","0","9330: PIDT 17.0 Review und Merge. Reviewing/merging PIDT 17.0 bug fixes","","","3","0",
"16.02.17","4","160499","93","130","Konfiguration, Setup, Distribution, Prototypenbau","","0","9330: PIDT 17.0 Review und Merge. Reviewing/merging PIDT 17.0 bug fixes","07:00","16:00","4","60",
"16.02.17","4","160499","102","120","Entwicklung: Codierung, Schaltplanerstellung, PCB-Layout","","0","10-1018: PIDT-531: Review and test issues before CF CR650my1-382_UsabiPflegFzgDaten (8). Fixing minor issues found in implemenatation","","","2,5","0",
"16.02.17","4","170051","28","101","PM: Meetings, Orga, Personalführung","","0","S4/DSA overall tasks 2017. Weekly general tasks","","","1,5","0",
"17.02.17","5","170023","519","910","Urlaub","","100","Urlaubsinfo 17.02.2017-19.02.2017. Urlaubsinfo 17.02.2017-19.02.2017","07:00","16:00","8","60",
