"06.02.17","1","170051","0","170","Schulung","","0","IDT Training. IDT Training","07:00","16:00","8","60",
"07.02.17","2","170051","0","170","Schulung","","0","IDT Training. IDT Training","07:00","16:00","8","60",
"08.02.17","3","170023","0","920","Krankheit","","0","Sick. Allergic Reaction","07:00","16:00","8","60",
"09.02.17","4","170051","0","170","Schulung","","0","IDT Training. IDT Training","07:00","16:00","8","60",
"10.02.17","5","170051","0","170","Schulung","","0","IDT Training. IDT Training","07:00","16:00","8","60",
