"06.03.17","1","170156","6","120","Entwicklung: Codierung, Schaltplanerstellung, PCB-Layout","","0","WAB HAN, Implementation of Sitemap Mockups. WAB HAN, Implementation of Sitemap Mockups","07:00","16:00","8","60",
"07.03.17","2","170156","6","120","Entwicklung: Codierung, Schaltplanerstellung, PCB-Layout","","0","WAB HAN, Implementation of Sitemap Mockups. WAB HAN, Implementation of Sitemap Mockups","07:00","16:00","8","60",
"08.03.17","3","170156","6","120","Entwicklung: Codierung, Schaltplanerstellung, PCB-Layout","","0","WAB HAN, Implementation of Sitemap Mockups. WAB HAN, Implementation of Sitemap Mockups","07:00","16:00","8","60",
"09.03.17","4","170156","6","120","Entwicklung: Codierung, Schaltplanerstellung, PCB-Layout","","0","WAB HAN, Implementation of Sitemap Mockups. WAB HAN, Implementation of Sitemap Mockups","07:00","16:00","8","60",
"10.03.17","5","170156","6","120","Entwicklung: Codierung, Schaltplanerstellung, PCB-Layout","","0","WAB HAN, Implementation of Sitemap Mockups. WAB HAN, Implementation of Sitemap Mockups","07:00","16:00","8","60",
"11.03.17","6","160577","9999","120","Entwicklung: Codierung, Schaltplanerstellung, PCB-Layout","","0","OnLane2 Dialogs Implementation . Implemented and tested Information, Error, VisualCheck and ListSelection dialogs","08:00","17:00","9","0",
"12.03.17","7","160577","9999","120","Entwicklung: Codierung, Schaltplanerstellung, PCB-Layout","","0","OnLane2 Dialogs Implementation . Implemented and tested ListSelection, Please wait and LiveTable dialogs","09:00","18:00","9","0",
