"22.05.17","1","0","0","120","Entwicklung: Codierung, Schaltplanerstellung, PCB-Layout","","0","DSA Systems. DSA Systems","07:00","16:00","8","60",
"23.05.17","2","0","0","120","Entwicklung: Codierung, Schaltplanerstellung, PCB-Layout","","0","DSA Systems. DSA Systems","07:00","16:00","4","60",
"23.05.17","2","170023","0","910","Urlaub","","0","Urlaub. Half Day","","","4","0",
"24.05.17","3","0","0","120","Entwicklung: Codierung, Schaltplanerstellung, PCB-Layout","","0","DSA Systems. DSA Systems","07:00","16:00","8","60",
"25.05.17","4","0","0","120","Entwicklung: Codierung, Schaltplanerstellung, PCB-Layout","","0","DSA Systems. DSA Systems","07:00","16:00","8","60",
"26.05.17","5","0","0","120","Entwicklung: Codierung, Schaltplanerstellung, PCB-Layout","","0","DSA Systems. DSA Systems","07:00","16:00","8","60",
