"08.05.17","1","160500","90","120","Entwicklung: Codierung, Schaltplanerstellung, PCB-Layout","","0","10-1012: PIDT-594: Implementierung CR713dma2-369_ErSollAusAblauf (8). Implementation","07:00","16:00","8","60",
"09.05.17","2","160500","90","120","Entwicklung: Codierung, Schaltplanerstellung, PCB-Layout","","0","10-1012: PIDT-594: Implementierung CR713dma2-369_ErSollAusAblauf (8). Implementation","07:00","16:00","8","60",
"10.05.17","3","160500","90","120","Entwicklung: Codierung, Schaltplanerstellung, PCB-Layout","","0","10-1012: PIDT-594: Implementierung CR713dma2-369_ErSollAusAblauf (8). Implementation","07:00","16:00","2","60",
"10.05.17","3","170023","0","920","Krankheit","","0","Sick leave 10.05.2017 - 11.05.2017. Sick leave","","","6","0",
"11.05.17","4","170023","0","920","Krankheit","","0","Sick leave 10.05.2017 - 11.05.2017. Sick leave","07:00","16:00","8","60",
"12.05.17","5","160500","90","120","Entwicklung: Codierung, Schaltplanerstellung, PCB-Layout","","0","10-1012: PIDT-594: Implementierung CR713dma2-369_ErSollAusAblauf (8). Implementation","07:00","16:00","6,5","60",
"12.05.17","5","170051","25","101","PM: Meetings, Orga, Personalführung","","0","S4/DSA Training 2017. S4/DSA Meetings and admin","","","1,5","0",
