"09.01.17","1","170051","13","101","PM: Meetings, Orga, Personalführung","","0","General project management / Teamsupport AES 2017. General Admin / Support","07:00","16:00","8","60",
"10.01.17","2","170051","13","101","PM: Meetings, Orga, Personalführung","","0","General project management / Teamsupport AES 2017. General Admin / Support","07:00","16:00","8","60",
"11.01.17","3","170051","13","101","PM: Meetings, Orga, Personalführung","","0","General project management / Teamsupport AES 2017. General Admin / Support","07:00","16:00","8","60",
"12.01.17","4","160577","70","102","Spez: LH/PH/Design","","0","(from s64) Workshop Calibration: Grobdesign CODG erstellen. Creation of specification","07:00","16:00","5","60",
"12.01.17","4","160577","85","104","Test-Spezifikation","","0","(from s64) Workshop Calibration: Testspec  erstellen. Started creation of Test Spec","","","1","0",
"12.01.17","4","170051","13","101","PM: Meetings, Orga, Personalführung","","0","General project management / Teamsupport AES 2017. General Admin / Support","","","2","0",
"13.01.17","5","170051","13","101","PM: Meetings, Orga, Personalführung","","0","General project management / Teamsupport AES 2017. General Admin / Support","07:00","16:00","4","60",
"13.01.17","5","170023","0","910","Urlaub","","0","Urlaub. Day Off","","","4","0",
