"29.05.17","1","160577","135","120","Entwicklung: Codierung, Schaltplanerstellung, PCB-Layout","","0","WABCO Onlane2 Guided Diagnostics changes and deliverables, DTC's added to VCI simulation. WABCO Onlane2 Guided Diagnostics changes and deliverables, DTC's added to VCI simulation","07:00","16:00","6","60",
"29.05.17","1","160577","135","120","Entwicklung: Codierung, Schaltplanerstellung, PCB-Layout","","0","WABCO OnLane2 Test Spec. WABCO OnLane2 Test Spec","","","2","0",
"30.05.17","2","170023","0","910","Urlaub","","0","Annual Leave. Annual Leave","07:00","16:00","8","60",
"31.05.17","3","170023","0","910","Urlaub","","0","Study Leave. Study Leave","07:00","16:00","8","60",
"01.06.17","4","160577","135","120","Entwicklung: Codierung, Schaltplanerstellung, PCB-Layout","","0","WABCO OnLane2 Test Spec. WABCO OnLane2 Test Spec","07:00","16:00","6,5","60",
"01.06.17","4","160577","135","120","Entwicklung: Codierung, Schaltplanerstellung, PCB-Layout","","0","OnLane2 Actuator SVGs made with new Images and exchanged in doc refs. OnLane2 Actuator SVGs made with new Images and exchanged in doc refs","","","1,5","0",
"02.06.17","5","160577","135","120","Entwicklung: Codierung, Schaltplanerstellung, PCB-Layout","","0","WABCO OnLane2 Test Spec. WABCO OnLane2 Test Spec","07:00","16:00","8","60",
