"15.05.17","1","170025","145","170","Schulung","","0","Training. Training","07:00","16:00","8","60",
"16.05.17","2","170025","145","170","Schulung","","0","Training. Training","07:00","16:00","8","60",
"17.05.17","3","170025","145","170","Schulung","","0","Training. Training","07:00","16:00","8","60",
"18.05.17","4","170025","145","170","Schulung","","0","Training. Training","07:00","16:00","8","60",
"19.05.17","5","170025","145","170","Schulung","","0","Training. Training","07:00","16:00","4","60",
"19.05.17","5","170023","0","910","Urlaub","","0","Leave. Leave","","","4","0",
