"03.04.17","1","130890","589","150","Inbetriebnahme, Installation","","0","Wrzesnia Support. Wrzesnia Support","07:00","16:00","8","60",
"04.04.17","2","130890","589","150","Inbetriebnahme, Installation","","0","Wrzesnia Support. Wrzesnia Support","07:00","16:00","8","60",
"05.04.17","3","130890","589","150","Inbetriebnahme, Installation","","0","Wrzesnia Support. Wrzesnia Support","07:00","16:00","8","60",
"06.04.17","4","130890","589","150","Inbetriebnahme, Installation","","0","Wrzesnia Support. Wrzesnia Support","07:00","16:00","8","60",
"07.04.17","5","130890","589","150","Inbetriebnahme, Installation","","0","Wrzesnia Support. Wrzesnia Support","07:00","16:00","8","60",
