"06.02.17","1","170156","0","120","Entwicklung: Codierung, Schaltplanerstellung, PCB-Layout","","0","WAB HAN, Implementation of Sitemap Mockups. WAB HAN, Implementation of Sitemap Mockups","07:00","16:00","8","60",
"07.02.17","2","170156","0","120","Entwicklung: Codierung, Schaltplanerstellung, PCB-Layout","","0","WAB HAN, Implementation of Sitemap Mockups. WAB HAN, Implementation of Sitemap Mockups","07:00","16:00","8","60",
"08.02.17","3","170156","0","120","Entwicklung: Codierung, Schaltplanerstellung, PCB-Layout","","0","WABCO Support, Overview sequence designed and implemented for OnLane2. WABCO Support, Overview sequence designed and implemented for OnLane2","07:00","16:00","8","60",
"09.02.17","4","170156","0","120","Entwicklung: Codierung, Schaltplanerstellung, PCB-Layout","","0","WABCO Support, OnLane2 actuator test modifications and fixes. WABCO Support, OnLane2 actuator test modifications and fixes","07:00","16:00","8","60",
"10.02.17","5","170156","0","120","Entwicklung: Codierung, Schaltplanerstellung, PCB-Layout","","0","WABCO Support, OnLane2 actuator test modifications and fixes. WABCO Support, OnLane2 actuator test modifications and fixes","07:00","16:00","8","60",
