"13.02.17","1","150080","520","120","Entwicklung: Codierung, Schaltplanerstellung, PCB-Layout","","0","PRODIS.Insight Introduction Meggan (S4). Auto-map parameter feature","07:00","16:00","8","60",
"14.02.17","2","150080","520","120","Entwicklung: Codierung, Schaltplanerstellung, PCB-Layout","","0","PRODIS.Insight Introduction Meggan (S4). Materials for md-toast implementation","07:00","16:00","8","60",
"15.02.17","3","150080","520","120","Entwicklung: Codierung, Schaltplanerstellung, PCB-Layout","","0","PRODIS.Insight Introduction Meggan (S4). FEAT-8017 - Common Alert Info Box","07:00","16:00","8","60",
"16.02.17","4","150080","520","120","Entwicklung: Codierung, Schaltplanerstellung, PCB-Layout","","0","PRODIS.Insight Introduction Meggan (S4). FEAT-8017 - Common Alert Info Box Toast","07:00","16:00","8","60",
"17.02.17","5","150080","520","120","Entwicklung: Codierung, Schaltplanerstellung, PCB-Layout","","0","PRODIS.Insight Introduction Meggan (S4). Toast and feedback for Bug 68378 ","07:00","16:00","8","60",
