"20.02.17","1","150076","247","120","Entwicklung: Codierung, Schaltplanerstellung, PCB-Layout","","0","FEAT-7817 Parameter Server: Config Sequence. Getting into the subject","07:00","16:00","4","60",
"20.02.17","1","150076","260","181","Fehlerbes. vor Ausl. (Bugzilla)","","0","FEAT-7841 PRODIS.ASCS R04.10 Bugfixing. Implementing MAN OBD fixes to ASCS OBD","","","4","0",
"21.02.17","2","150076","260","181","Fehlerbes. vor Ausl. (Bugzilla)","","0","FEAT-7841 PRODIS.ASCS R04.10 Bugfixing. Implementing MAN OBD fixes to ASCS OBD","07:00","16:00","8","60",
"22.02.17","3","150076","260","181","Fehlerbes. vor Ausl. (Bugzilla)","","0","FEAT-7841 PRODIS.ASCS R04.10 Bugfixing. Implementing MAN OBD fixes to ASCS OBD","07:00","16:00","8","60",
"23.02.17","4","150076","260","181","Fehlerbes. vor Ausl. (Bugzilla)","","0","FEAT-7841 PRODIS.ASCS R04.10 Bugfixing. Implementing MAN OBD fixes to ASCS OBD and creating the test report and test protocol","07:00","16:00","8","60",
"24.02.17","5","150076","260","181","Fehlerbes. vor Ausl. (Bugzilla)","","0","FEAT-7841 PRODIS.ASCS R04.10 Bugfixing. ASCS Enhancement bugs ","07:00","16:00","7","60",
"24.02.17","5","170051","19","101","PM: Meetings, Orga, Personalführung","","0","Weekly tasks AES 2017. Timesheets and meeting","","","1","0",
