"20.03.17","1","170023","0","910","Urlaub","","0","Urlaub. Leave","07:00","16:00","8","60",
"21.03.17","2","170023","0","910","Urlaub","","0","Urlaub. Public Holiday","07:00","16:00","8","60",
"22.03.17","3","160217","31","110","Engineering, Projektierung","","0","WB / automatisch. DVT Brake Pressure Values","07:00","16:00","2","60",
"22.03.17","3","160217","29","140","Test","","0","WB / automatisch. Not Received DataSet for 89TS8B","","","6","0",
"23.03.17","4","160217","31","110","Engineering, Projektierung","","0","WB / automatisch. DVT test - UNDF-NOT state","07:00","16:00","4","60",
"23.03.17","4","160217","31","110","Engineering, Projektierung","","0","WB / automatisch. START STOP VALUES","","","4","0",
"24.03.17","5","160217","31","110","Engineering, Projektierung","","0","WB / automatisch. DataSet 91TNSH","07:00","15:30","8","30",
