"22.05.17","1","150577","104","140","Test","","0","Integrationstest mit WTS 4.8.18 -eml(lz). Liebherr Application Bugfixing and testing","07:00","16:00","8","60",
"23.05.17","2","150577","104","140","Test","","0","Integrationstest mit WTS 4.8.18 -eml(lz). Liebherr Application Bugfixing and testing","07:00","16:00","8","60",
"24.05.17","3","150577","104","140","Test","","0","Integrationstest mit WTS 4.8.18 -eml(lz). Liebherr Application Bugfixing and testing","07:00","16:00","8","60",
"25.05.17","4","170018","0","101","PM: Meetings, Orga, Personalführung","","0","Waiting for tasks. Waiting for tasks","07:00","16:00","8","60",
"26.05.17","5","170018","0","101","PM: Meetings, Orga, Personalführung","","0","Waiting for tasks. Waiting for tasks","07:00","16:00","7","60",
"26.05.17","5","170051","19","101","PM: Meetings, Orga, Personalführung","","0","Weekly tasks AES 2017. Meetings and timesheets","","","1","0",
