"22.05.17","1","170023","0","920","Krankheit","","0","Krankheit. Sick leave","07:00","16:00","8","60",
"23.05.17","2","150646","0","185","Service, Telefon-Support","","0","Support MAN Resende. Supporting MAN Resende","07:00","16:00","8","60",
"24.05.17","3","150646","0","185","Service, Telefon-Support","","0","Support MAN Resende. Supporting MAN Resende","07:00","16:00","8","60",
"25.05.17","4","170023","0","910","Urlaub","","0","Urlaub. Public Holiday","07:00","16:00","8","60",
"26.05.17","5","170051","10","101","PM: Meetings, Orga, Personalführung","","0","Weekly tasks AES 2017. Timesheets and weekly meetings","07:00","16:00","1","60",
"26.05.17","5","150075","0","182","Fehlerbes. nach Ausl. (Bugzilla)","","0","Bug #73165 Reading of MTS config xml. Bugfixing bug #73165","","","7","0",
