"20.03.17","1","160500","0","120","Entwicklung: Codierung, Schaltplanerstellung, PCB-Layout","","0","PIDT-526: Implementierung CR648my1-392_EntwiEreig (13). PIDT-526: Implementierung CR648my1-392_EntwiEreig (13)","07:00","16:00","5","60",
"20.03.17","1","160499","9","182","Fehlerbes. nach Ausl. (Bugzilla)","","100","10-1099: PIDT 17.0: Bugfixing previous Release. 10-1099: PIDT 17.0: Bugfixing previous Release","","","0","0",
"20.03.17","1","160499","115","181","Fehlerbes. vor Ausl. (Bugzilla)","","100","10-1098: PIDT 17.0: Bugfixing nach Codefreeze. 10-1098: PIDT 17.0: Bugfixing nach Codefreeze","","","0","0",
"20.03.17","1","160499","121","140","Test","","100","10-1100: CETEM Regressionstests PIDT 17.0. 10-1100: CETEM Regressionstests PIDT 17.0","","","0","0",
"20.03.17","1","160499","137","140","Test","","100","10-1080: Verifikation Bugfixes PIDT 17.0. 10-1080: Verifikation Bugfixes PIDT 17.0","","","0","0",
"20.03.17","1","160499","30","101","PM: Meetings, Orga, Personalführung","","100","10-9120: PIDT 17.0: Meetings and Preparation. 10-9120: PIDT 17.0: Meetings and Preparation","","","0","0",
"20.03.17","1","170023","0","910","Urlaub","","0","Time off. Time off","","","3","0",
"21.03.17","2","170023","0","910","Urlaub","","0","Public holiday. 21.03.2017. Public holiday. 21.03.2017","07:00","16:00","8","60",
"22.03.17","3","170023","0","920","Krankheit","","0","Sick leave. 22.03.2017. Sick leave. 22.03.2017","07:00","16:00","8","60",
"23.03.17","4","160500","0","120","Entwicklung: Codierung, Schaltplanerstellung, PCB-Layout","","0","PIDT-526: Implementierung CR648my1-392_EntwiEreig (13). PIDT-526: Implementierung CR648my1-392_EntwiEreig (13)","07:00","16:00","8","60",
"24.03.17","5","170022","49","110","Engineering, Projektierung","","0","Weekly tasks DSE 2017. Weekly tasks DSE 2017","07:00","16:00","1,5","60",
"24.03.17","5","160500","0","120","Entwicklung: Codierung, Schaltplanerstellung, PCB-Layout","","0","PIDT-526: Implementierung CR648my1-392_EntwiEreig (13). PIDT-526: Implementierung CR648my1-392_EntwiEreig (13)","","","6,5","0",
