"30.01.17","1","170023","0","920","Krankheit","","0","Sick leave. Sick leave","07:00","16:00","8","60",
"31.01.17","2","160499","60","120","Entwicklung: Codierung, Schaltplanerstellung, PCB-Layout","","0","10-1015: PIDT-528: Review and test issues before CF CR648my3-393_DoIPOptim (13). Fixing review issues","07:00","16:00","8","60",
"01.02.17","3","160499","36","120","Entwicklung: Codierung, Schaltplanerstellung, PCB-Layout","","0","10-1017: PIDT-521: Implementierung CR637my1-380_ScrolPerWisch (5). Investigating table wiggle bug","07:00","16:00","8","60",
"02.02.17","4","160499","3","182","Fehlerbes. nach Ausl. (Bugzilla)","","0","10-1099: PIDT 17.0: Bugfixing previous Release. Working on bugs","07:00","16:00","8","60",
"03.02.17","5","170051","27","101","PM: Meetings, Orga, Personalführung","","0","S4/DSA overall tasks 2017. Meetings and admin","07:00","16:00","1,5","60",
"03.02.17","5","160499","36","120","Entwicklung: Codierung, Schaltplanerstellung, PCB-Layout","","0","10-1017: PIDT-521: Implementierung CR637my1-380_ScrolPerWisch (5). Investigating table wiggle bug","","","6,5","0",
