"27.02.17","1","160499","3","182","Fehlerbes. nach Ausl. (Bugzilla)","","0","10-1099: PIDT 17.0: Bugfixing previous Release. Working on testspec bugs","07:00","16:00","8","60",
"28.02.17","2","160499","3","182","Fehlerbes. nach Ausl. (Bugzilla)","","0","10-1099: PIDT 17.0: Bugfixing previous Release. Working on testspec bugs","07:00","16:00","8","60",
"01.03.17","3","160499","104","140","Test","","0","10-1100: CETEM Regressionstests PIDT 17.0. Regression testing","07:00","16:00","8","60",
"02.03.17","4","160499","104","140","Test","","0","10-1100: CETEM Regressionstests PIDT 17.0. Regression testing","07:00","16:00","8","60",
"03.03.17","5","160499","104","140","Test","","0","10-1100: CETEM Regressionstests PIDT 17.0. Regression testing","07:00","16:00","6,5","60",
"03.03.17","5","170051","27","101","PM: Meetings, Orga, Personalführung","","0","S4/DSA overall tasks 2017. Meetings and admin","","","1,5","0",
