"01.05.17","1","170023","0","910","Urlaub","","100","Urlaud. Public holiday","07:00","16:00","8","60",
"02.05.17","2","150076","258","181","Fehlerbes. vor Ausl. (Bugzilla)","","0","FEAT-7841 PRODIS.ASCS R04.10 Bugfixing. FEAT-7841 PRODIS.ASCS R04.10 Bugfixing","07:00","16:00","8","60",
"03.05.17","3","150076","258","181","Fehlerbes. vor Ausl. (Bugzilla)","","0","FEAT-7841 PRODIS.ASCS R04.10 Bugfixing. FEAT-7841 PRODIS.ASCS R04.10 Bugfixing","07:00","16:00","8","60",
"04.05.17","4","150076","258","181","Fehlerbes. vor Ausl. (Bugzilla)","","0","FEAT-7841 PRODIS.ASCS R04.10 Bugfixing. FEAT-7841 PRODIS.ASCS R04.10 Bugfixing","07:00","16:00","8","60",
"05.05.17","5","150076","258","181","Fehlerbes. vor Ausl. (Bugzilla)","","0","FEAT-7841 PRODIS.ASCS R04.10 Bugfixing. FEAT-7841 PRODIS.ASCS R04.10 Bugfixing","07:00","16:00","6","60",
"05.05.17","5","170051","9","101","PM: Meetings, Orga, Personalführung","","0","Weekly tasks AES 2017. Weekly tasks","","","1","0",
"05.05.17","5","170051","12","101","PM: Meetings, Orga, Personalführung","","0","Management AES 2017. Management AES 2017","","","1","0",
