"28.11.16","1","160051","8","101","PM: Meetings, Orga, Personalführung","","0","Weekly tasks AES 2016. Wabco chennai traveling","07:00","16:00","8","60",
"29.11.16","2","160051","8","101","PM: Meetings, Orga, Personalführung","","0","Weekly tasks AES 2016. Wabco chennai traveling","07:00","16:00","8","60",
"30.11.16","3","130216","195","120","Entwicklung: Codierung, Schaltplanerstellung, PCB-Layout","","0","9999: Trainings Support. Training docs. Chennai training","07:00","16:00","8","60",
"01.12.16","4","130216","195","120","Entwicklung: Codierung, Schaltplanerstellung, PCB-Layout","","0","9999: Trainings Support. Training docs. Chennai training","07:00","16:00","8","60",
"02.12.16","5","130216","195","120","Entwicklung: Codierung, Schaltplanerstellung, PCB-Layout","","0","9999: Trainings Support. Training docs. Chennai training","07:00","16:00","8","60",
