"24.10.16","1","160217","31","110","Engineering, Projektierung","","0","WB / automatisch. Visio Park Calibration: P1MO NAC + UVP","08:00","17:15","5,25","30",
"24.10.16","1","160217","29","140","Test","","0","WB / automatisch. Tool blocked: after coding","","","3,5","0",
"25.10.16","2","160217","29","140","Test","","0","WB / automatisch. Speed limiter active DVT","08:00","18:00","2","30",
"25.10.16","2","160217","31","110","Engineering, Projektierung","","0","WB / automatisch. Speed limiter active DVT implementation","","","4,5","0",
"25.10.16","2","160217","31","110","Engineering, Projektierung","","0","WB / automatisch. Trace data MCM","","","3","0",
"26.10.16","3","160217","31","110","Engineering, Projektierung","","0","WB / automatisch. Exhaust Flap down brake test","08:00","16:30","3","30",
"26.10.16","3","160217","29","140","Test","","0","WB / automatisch. DVT not execute if Flash is NOK","","","5","0",
"27.10.16","4","160217","29","140","Test","","0","WB / automatisch. Release MD files","08:00","17:30","5","30",
"27.10.16","4","160217","31","110","Engineering, Projektierung","","0","WB / automatisch. BTA3R - ICCID number","","","4","0",
"28.10.16","5","160217","30","401","Travel","","0","WB / automatisch. ZAR to Aachen","08:00","16:30","8","30",
