"06.02.17","1","160375","52","120","Entwicklung: Codierung, Schaltplanerstellung, PCB-Layout","","0","VW BRA. VW BRA Coding","07:00","19:00","11","60",
"07.02.17","2","160375","52","120","Entwicklung: Codierung, Schaltplanerstellung, PCB-Layout","","0","VW BRA. VW BRA Coding","07:00","20:30","12,5","60",
"08.02.17","3","160375","52","120","Entwicklung: Codierung, Schaltplanerstellung, PCB-Layout","","0","VW BRA. VW BRA Coding","07:00","20:30","12,5","60",
"09.02.17","4","160375","52","120","Entwicklung: Codierung, Schaltplanerstellung, PCB-Layout","","0","VW BRA. VW BRA Coding","07:00","19:00","11","60",
"10.02.17","5","160375","52","120","Entwicklung: Codierung, Schaltplanerstellung, PCB-Layout","","0","VW BRA. VW BRA Coding","07:00","20:30","12,5","60",
"11.02.17","6","160375","52","120","Entwicklung: Codierung, Schaltplanerstellung, PCB-Layout","","0","VW BRA. VW BRA Coding","07:00","20:00","12","60",
"12.02.17","7","160375","52","120","Entwicklung: Codierung, Schaltplanerstellung, PCB-Layout","","0","VW BRA. VW BRA Coding","07:00","18:00","10","60",
