"05.06.17","1","170023","0","910","Urlaub","","0","Urlaub. Urlaub","07:00","16:00","8","60",
"06.06.17","2","170023","0","910","Urlaub","","0","Urlaub. Urlaub","07:00","16:00","8","60",
"07.06.17","3","170023","0","910","Urlaub","","0","Urlaub. Urlaub","07:00","16:00","8","60",
"08.06.17","4","170018","35","101","PM: Meetings, Orga, Personalführung","","0","Waiting for tasks. Waiting for tasks","07:00","16:00","8","60",
"09.06.17","5","170018","35","101","PM: Meetings, Orga, Personalführung","","0","Waiting for tasks. Waiting for tasks","07:00","16:00","8","60",
