"24.04.17","1","150075","537","124","Design, Entwicklung und Test","","0","332_FEAT-8153 - UserInfo Dialog rework with RTS Update Functionality. Implementation","07:00","16:00","5","60",
"24.04.17","1","170018","34","101","PM: Meetings, Orga, Personalführung","","0","Waiting for tasks. Waiting for tasks","","","3","0",
"25.04.17","2","150075","524","182","Fehlerbes. nach Ausl. (Bugzilla)","","0","332_FEAT-7785 - PRODIS.Lib 3.32 - Bugfix. Bug fixing","07:00","16:00","1,5","60",
"25.04.17","2","170051","2","101","PM: Meetings, Orga, Personalführung","","0","Weekly tasks AES 2017. Discussion of tasks","","","0,5","0",
"25.04.17","2","150075","537","124","Design, Entwicklung und Test","","0","332_FEAT-8153 - UserInfo Dialog rework with RTS Update Functionality. Implementation","","","4,5","0",
"25.04.17","2","170018","34","101","PM: Meetings, Orga, Personalführung","","0","Waiting for tasks. Waiting for tasks","","","1,5","0",
"26.04.17","3","170051","2","101","PM: Meetings, Orga, Personalführung","","0","Weekly tasks AES 2017. Meeting with Edina & Planning","07:00","16:00","1","60",
"26.04.17","3","150075","537","124","Design, Entwicklung und Test","","0","332_FEAT-8153 - UserInfo Dialog rework with RTS Update Functionality. Implementation","","","7","0",
"27.04.17","4","170023","0","910","Urlaub","","0","Public Holiday. Public Holiday - Freedom Day","07:00","16:00","8","60",
"28.04.17","5","170023","0","910","Urlaub","","0","Time off - Annual Leave. Time off - Annual Leave","07:00","16:00","8","60",
