"01.05.17","1","170023","0","910","Urlaub","","0","Public Holiday 01.05.2017. Public Holiday 01.05.2017","07:00","16:00","8","60",
"02.05.17","2","160500","53","120","Entwicklung: Codierung, Schaltplanerstellung, PCB-Layout","","0","	9999: working on CR713dma1-395_DiagOhneZuend. 	9999: working on CR713dma1-395_DiagOhneZuend","07:00","16:00","8","60",
"03.05.17","3","160500","53","120","Entwicklung: Codierung, Schaltplanerstellung, PCB-Layout","","0","	9999: testspec for CR713dma1-395_DiagOhneZuend. 	9999: testspec for CR713dma1-395_DiagOhneZuend","07:00","16:00","8","60",
"04.05.17","4","160500","17","182","Fehlerbes. nach Ausl. (Bugzilla)","","0","10-1099: PIDT 17.2: Bugfixing previous Release. 10-1099: PIDT 17.2: Bugfixing previous Release","07:00","16:00","8","60",
"05.05.17","5","170022","22","110","Engineering, Projektierung","","0","Weekly tasks DSE 2017. Weekly tasks DSE 2017","07:00","16:00","1,5","60",
"05.05.17","5","160500","17","182","Fehlerbes. nach Ausl. (Bugzilla)","","0","10-1099: PIDT 17.2: Bugfixing previous Release. 10-1099: PIDT 17.2: Bugfixing previous Release","","","6,5","0",
