"13.03.17","1","150075","524","182","Fehlerbes. nach Ausl. (Bugzilla)","","0","332_FEAT-7785 - PRODIS.Lib 3.32 - Bugfix. Bug fixing","07:00","16:00","5","60",
"13.03.17","1","170051","2","101","PM: Meetings, Orga, Personalführung","","0","Weekly tasks AES 2017. Meeting about tasks & Guiding Colleague","","","1,5","0",
"13.03.17","1","170018","34","101","PM: Meetings, Orga, Personalführung","","0","Waiting for tasks. Waiting for tasks","","","1,5","0",
"14.03.17","2","150075","524","182","Fehlerbes. nach Ausl. (Bugzilla)","","0","332_FEAT-7785 - PRODIS.Lib 3.32 - Bugfix. Bug fixing & Testing","07:00","16:00","3","60",
"14.03.17","2","160023","3123","910","Urlaub","","100","Urlaub. Leave Closed","","","0","0",
"14.03.17","2","170018","34","101","PM: Meetings, Orga, Personalführung","","0","Waiting for tasks. Waiting for tasks & Feedback","","","5","0",
"15.03.17","3","170018","34","101","PM: Meetings, Orga, Personalführung","","0","Waiting for tasks. Waiting for tasks","07:00","16:00","3,5","60",
"15.03.17","3","150074","586","160","Dokumentation","","0","(from sjv) 328_FEAT-7880: PDCS R03.28 Documentation. PDCS MAN Documentation & Review","","","1,5","0",
"15.03.17","3","150074","535","140","Test","","0","(from sjv) 328_ORG-9120: Integration PRODIS.System 3.28. Integration Test with PDCS in MAN Workspace & Error Diagnosing","","","3","0",
"16.03.17","4","150074","574","181","Fehlerbes. vor Ausl. (Bugzilla)","","0","328_FEAT-7921: Bugfixing. Bug fixing reviews & Testing","07:00","16:00","5","60",
"16.03.17","4","170018","34","101","PM: Meetings, Orga, Personalführung","","0","Waiting for tasks. Waiting for tasks","","","3","0",
"17.03.17","5","170018","34","101","PM: Meetings, Orga, Personalführung","","0","Waiting for tasks. Waiting for tasks","07:00","16:00","2","60",
"17.03.17","5","150074","579","140","Test","","0","(from sjv) 328_FEAT-7919: Test Management/Test Coverage. Test Cases Review & Fixing","","","6","0",
