"30.01.17","1","160577","93","102","Spez: LH/PH/Design","","100","Camera Installation: Grobdesign CODG erstellen. Close","07:00","16:00","0","60",
"30.01.17","1","160577","83","104","Test-Spezifikation","","100","ECU Programming: Testspec  erstellen. Close","","","0","0",
"30.01.17","1","160577","79","104","Test-Spezifikation","","100","Camera Installation: Testspec  erstellen. Close","","","0","0",
"30.01.17","1","160577","80","120","Entwicklung: Codierung, Schaltplanerstellung, PCB-Layout","","0","ECU Programming: Implementierung OnLane2 ECU flashen. Waiting for Server update","","","8","0",
"31.01.17","2","160577","80","120","Entwicklung: Codierung, Schaltplanerstellung, PCB-Layout","","0","ECU Programming: Implementierung OnLane2 ECU flashen. Implementation","07:00","16:00","8","60",
"01.02.17","3","160577","80","120","Entwicklung: Codierung, Schaltplanerstellung, PCB-Layout","","0","ECU Programming: Implementierung OnLane2 ECU flashen. Implementation","07:00","16:00","8","60",
"02.02.17","4","160577","80","120","Entwicklung: Codierung, Schaltplanerstellung, PCB-Layout","","0","ECU Programming: Implementierung OnLane2 ECU flashen. Implementation","07:00","16:00","5","60",
"02.02.17","4","160577","80","120","Entwicklung: Codierung, Schaltplanerstellung, PCB-Layout","","0","ECU Programming: Implementierung OnLane2 ECU flashen. Waiting for Server fix issue","","","3","0",
"03.02.17","5","160577","80","120","Entwicklung: Codierung, Schaltplanerstellung, PCB-Layout","","0","ECU Programming: Implementierung OnLane2 ECU flashen. Implementation","07:00","16:00","7","60",
"03.02.17","5","170051","11","101","PM: Meetings, Orga, Personalführung","","0","Weekly tasks AES 2017. Meetings/Timesheets","","","1","0",
