"03.04.17","1","160577","147","182","Fehlerbes. nach Ausl. (Bugzilla)","","0","Fehlerbes. nach Ausl. (Bugzilla). Fehlerbes. nach Ausl. (Bugzilla)","07:00","16:00","8","60",
"04.04.17","2","160577","147","182","Fehlerbes. nach Ausl. (Bugzilla)","","0","Fehlerbes. nach Ausl. (Bugzilla). Fehlerbes. nach Ausl. (Bugzilla)","07:00","16:00","8","60",
"05.04.17","3","160577","147","182","Fehlerbes. nach Ausl. (Bugzilla)","","0","Fehlerbes. nach Ausl. (Bugzilla). Fehlerbes. nach Ausl. (Bugzilla)","07:00","16:00","8","60",
"06.04.17","4","160577","147","182","Fehlerbes. nach Ausl. (Bugzilla)","","0","Fehlerbes. nach Ausl. (Bugzilla). Fehlerbes. nach Ausl. (Bugzilla)","07:00","16:00","8","60",
"07.04.17","5","170023","0","910","Urlaub","","0","Urlaub. Urlaub","07:00","16:00","8","60",
