"12.06.17","1","170018","0","101","PM: Meetings, Orga, Personalführung","","0","Waiting for tasks. Waiting for tasks","07:00","16:00","8","60",
"13.06.17","2","170018","0","101","PM: Meetings, Orga, Personalführung","","0","Waiting for tasks. Waiting for tasks","07:00","16:00","8","60",
"14.06.17","3","170018","0","101","PM: Meetings, Orga, Personalführung","","0","Waiting for tasks. Waiting for tasks","07:00","16:00","8","60",
"15.06.17","4","170018","0","101","PM: Meetings, Orga, Personalführung","","0","Waiting for tasks. Waiting for tasks","07:00","16:00","8","60",
"16.06.17","5","170023","0","910","Urlaub","","0","Public Holiday. Public Holiday","07:00","16:00","8","60",
