"03.04.17","1","160577","0","182","Fehlerbes. nach Ausl. (Bugzilla)","","0","Wabco onlane 2 bugfix. Wabco onlane 2 bugfix","07:00","20:00","11","60",
"03.04.17","1","170155","14","185","Service, Telefon-Support","","0","WABCO Support Team HAN + Chennai. WABCO Support Team HAN + Chennai","","","1","0",
"04.04.17","2","160577","0","182","Fehlerbes. nach Ausl. (Bugzilla)","","0","Wabco onlane 2 bugfix. Wabco onlane 2 bugfix","07:00","16:00","8","60",
"05.04.17","3","160577","0","182","Fehlerbes. nach Ausl. (Bugzilla)","","0","Wabco onlane 2 bugfix. Wabco onlane 2 bugfix","07:00","16:00","7","60",
"05.04.17","3","170155","14","185","Service, Telefon-Support","","0","WABCO Support Team HAN + Chennai. WABCO Support Team HAN + Chennai","","","1","0",
"06.04.17","4","160577","0","182","Fehlerbes. nach Ausl. (Bugzilla)","","0","Wabco onlane 2 bugfix. Wabco onlane 2 bugfix","07:00","16:00","8","60",
"07.04.17","5","160577","0","182","Fehlerbes. nach Ausl. (Bugzilla)","","0","Wabco onlane 2 bugfix. Wabco onlane 2 bugfix","07:00","16:00","6,5","60",
"07.04.17","5","170051","20","101","PM: Meetings, Orga, Personalführung","","0","Weekly tasks AES 2017. Weekly tasks AES 2017","","","1,5","0",
