"17.04.17","1","170023","0","910","Urlaub","","0","Public Holiday. Public Holiday","07:00","16:00","8","60",
"18.04.17","2","160500","0","120","Entwicklung: Codierung, Schaltplanerstellung, PCB-Layout","","0","Implementierung CR713my1-379_SchniGFS2. Working on CR713my1-379_SchniGFS2 feature","07:00","16:00","8","60",
"19.04.17","3","160500","0","120","Entwicklung: Codierung, Schaltplanerstellung, PCB-Layout","","0","Implementierung CR713my1-379_SchniGFS2. Working on CR713my1-379_SchniGFS2 feature","07:00","16:00","8","60",
"20.04.17","4","160500","0","120","Entwicklung: Codierung, Schaltplanerstellung, PCB-Layout","","100","Implementierung CR713my1-379_SchniGFS2. Working on CR713my1-379_SchniGFS2 feature","07:00","16:00","8","60",
"21.04.17","5","170051","28","101","PM: Meetings, Orga, Personalführung","","0","S4/DSA overall tasks 2017. Weekly general tasks","07:00","16:00","1,5","60",
"21.04.17","5","160500","1","104","Test-Spezifikation","","0","Testspec: CR713my1-379_SchniGFS2. Working on test cases for feature","","","6,5","0",
