"20.02.17","1","160499","57","120","Entwicklung: Codierung, Schaltplanerstellung, PCB-Layout","","0","10-1012: PIDT-529: Review and test issues before CF CR648my4-396_SchniMesst (3). 10-1012: PIDT-529: Review and test issues before CF CR648my4-396_SchniMesst (3)","07:00","16:00","8","60",
"21.02.17","2","160499","121","140","Test","","0","10-1100: CETEM Regressionstests PIDT 17.0. Vergleichstests PIDT 17.0","07:00","16:00","8","60",
"22.02.17","3","160499","155","140","Test","","0","10-1013: PIDT-527: Integrationstests CR648my2-394_ErmitIstAnderSGs (8). From s72: 10-1013: PIDT-527: Integrationstests CR648my2-394_ErmitIstAnderSGs (8)","07:00","16:00","8","60",
"23.02.17","4","160499","0","140","Test","","0","PIDT 17.0 Integration tests. PIDT 17.0 Integration tests","07:00","16:30","4,5","60",
"23.02.17","4","160499","9","182","Fehlerbes. nach Ausl. (Bugzilla)","","0","10-1099: PIDT 17.0: Bugfixing previous Release. Implementing new IPC Client version","","","4","0",
"24.02.17","5","170022","49","110","Engineering, Projektierung","","0","Weekly tasks DSE 2017. Weekly tasks DSE 2017","07:00","18:00","1,5","0",
"24.02.17","5","160499","137","140","Test","","0","10-1080: Verifikation Bugfixes PIDT 17.0. 10-1080: Verifikation Bugfixes PIDT 17.0","","","9,5","0",
