"13.02.17","1","150577","104","140","Test","","0","Integrationstest mit WTS 4.8.18 -eml(lz). Bug Fixing","07:00","16:00","4","60",
"13.02.17","1","170023","0","920","Krankheit","","0","Krankheit. Sick Leave","","","4","0",
"14.02.17","2","150577","104","140","Test","","0","Integrationstest mit WTS 4.8.18 -eml(lz). Bug Fixing","07:00","16:00","8","60",
"15.02.17","3","150577","104","140","Test","","0","Integrationstest mit WTS 4.8.18 -eml(lz). Bug Fixing and testing","07:00","16:00","8","60",
"16.02.17","4","150577","104","140","Test","","0","Integrationstest mit WTS 4.8.18 -eml(lz). Bug Fixing, testing and making test protocol","07:00","16:00","8","60",
"17.02.17","5","150076","247","120","Entwicklung: Codierung, Schaltplanerstellung, PCB-Layout","","0","FEAT-7817 Parameter Server: Config Sequence. Getting into the subject","07:00","16:00","7","60",
"17.02.17","5","170051","19","101","PM: Meetings, Orga, Personalführung","","0","Weekly tasks AES 2017. Meetings and Timesheets","","","1","0",
