"27.02.17","1","120544","0","120","Entwicklung: Codierung, Schaltplanerstellung, PCB-Layout","","0","CP6 and ECOS Tests. CP6 and ECOS Tests","07:30","17:00","8,5","60",
"28.02.17","2","120544","0","120","Entwicklung: Codierung, Schaltplanerstellung, PCB-Layout","","0","CP6 and ECOS Tests. CP6 and ECOS Tests","07:30","17:00","8,5","60",
"01.03.17","3","120544","0","120","Entwicklung: Codierung, Schaltplanerstellung, PCB-Layout","","0","CP6 and ECOS Tests. CP6 and ECOS Tests","07:30","17:00","8,5","60",
"02.03.17","4","120544","0","120","Entwicklung: Codierung, Schaltplanerstellung, PCB-Layout","","0","CP6 and ECOS Tests. CP6 and ECOS Tests","07:30","17:00","8,5","60",
"03.03.17","5","120544","0","120","Entwicklung: Codierung, Schaltplanerstellung, PCB-Layout","","0","CP6 and ECOS Tests. CP6 and ECOS Tests","07:30","14:00","6,08","25",
