"06.02.17","1","170051","0","170","Schulung","","0","Dynamic Menu Structure . Worked on the dynamic structure based on the roles","07:00","16:00","8","60",
"07.02.17","2","170051","0","170","Schulung","","0","Functionality of Menu items. Restructured the menu and moved items from menu settings","07:00","16:00","8","60",
"08.02.17","3","170051","0","170","Schulung","","0","Functionality of Menu Items. Ensured 'new' items in the menu worked correctly","07:00","16:00","8","60",
"09.02.17","4","170051","0","170","Schulung","","0","Upload of preview Image. began work on preview image upload","07:00","16:00","8","60",
"10.02.17","5","170051","0","170","Schulung","","0","Database access and menu correction. Set up access to the database and worked on menu corrections","07:00","16:00","8","60",
