"22.05.17","1","170051","13","101","PM: Meetings, Orga, Personalführung","","0","General project management / Teamsupport AES 2017. General Admin / Support","07:00","16:00","8","60",
"23.05.17","2","170051","13","101","PM: Meetings, Orga, Personalführung","","0","General project management / Teamsupport AES 2017. General Admin / Support","07:00","16:00","8","60",
"24.05.17","3","170051","13","101","PM: Meetings, Orga, Personalführung","","0","General project management / Teamsupport AES 2017. General Admin / Support","07:00","16:00","8","60",
"25.05.17","4","170051","13","101","PM: Meetings, Orga, Personalführung","","0","General project management / Teamsupport AES 2017. General Admin / Support","07:00","16:00","8","60",
"26.05.17","5","170051","13","101","PM: Meetings, Orga, Personalführung","","0","General project management / Teamsupport AES 2017. General Admin / Support","07:00","16:00","8","60",
