"15.05.17","1","160577","147","182","Fehlerbes. nach Ausl. (Bugzilla)","","0","Fehlerbes. nach Ausl. (Bugzilla). Fehlerbes. nach Ausl. (Bugzilla)","07:00","16:00","8","60",
"16.05.17","2","160577","147","182","Fehlerbes. nach Ausl. (Bugzilla)","","0","Fehlerbes. nach Ausl. (Bugzilla). Fehlerbes. nach Ausl. (Bugzilla)","07:00","16:00","8","60",
"17.05.17","3","160577","147","182","Fehlerbes. nach Ausl. (Bugzilla)","","0","Fehlerbes. nach Ausl. (Bugzilla). Fehlerbes. nach Ausl. (Bugzilla)","07:00","16:00","8","60",
"18.05.17","4","160577","147","182","Fehlerbes. nach Ausl. (Bugzilla)","","0","Fehlerbes. nach Ausl. (Bugzilla). Fehlerbes. nach Ausl. (Bugzilla)","07:00","16:00","8","60",
"19.05.17","5","160577","147","182","Fehlerbes. nach Ausl. (Bugzilla)","","0","Fehlerbes. nach Ausl. (Bugzilla). Fehlerbes. nach Ausl. (Bugzilla)","07:00","16:00","8","60",
