"08.05.17","1","150076","258","181","Fehlerbes. vor Ausl. (Bugzilla)","","0","FEAT-7841 PRODIS.ASCS R04.10 Bugfixing . FEAT-7841 PRODIS.ASCS R04.10 Bugfixing ","07:00","16:00","8","60",
"09.05.17","2","150076","258","181","Fehlerbes. vor Ausl. (Bugzilla)","","0","FEAT-7841 PRODIS.ASCS R04.10 Bugfixing . FEAT-7841 PRODIS.ASCS R04.10 Bugfixing ","07:00","16:00","8","60",
"10.05.17","3","150076","258","181","Fehlerbes. vor Ausl. (Bugzilla)","","0","FEAT-7841 PRODIS.ASCS R04.10 Bugfixing . FEAT-7841 PRODIS.ASCS R04.10 Bugfixing ","07:00","16:00","8","60",
"11.05.17","4","150076","258","181","Fehlerbes. vor Ausl. (Bugzilla)","","0","FEAT-7841 PRODIS.ASCS R04.10 Bugfixing . FEAT-7841 PRODIS.ASCS R04.10 Bugfixing ","07:00","16:00","8","60",
"12.05.17","5","170051","12","101","PM: Meetings, Orga, Personalführung","","0","Management AES 2017. Management AES 2017","07:00","16:00","1","60",
"12.05.17","5","170051","9","101","PM: Meetings, Orga, Personalführung","","0","Weekly tasks AES 2017. Meetings and timesheets","","","1","0",
"12.05.17","5","150076","258","181","Fehlerbes. vor Ausl. (Bugzilla)","","0","FEAT-7841 PRODIS.ASCS R04.10 Bugfixing . FEAT-7841 PRODIS.ASCS R04.10 Bugfixing ","","","6","0",
