"24.04.17","1","170051","16","101","PM: Meetings, Orga, Personalführung","","0","Management AES 2017. General Admin / Support","07:00","16:00","8","60",
"25.04.17","2","170051","16","101","PM: Meetings, Orga, Personalführung","","0","Management AES 2017. General Admin / Support","07:00","16:00","8","60",
"26.04.17","3","170051","16","101","PM: Meetings, Orga, Personalführung","","0","Management AES 2017. General Admin / Support","07:00","16:00","8","60",
"27.04.17","4","170023","9999","910","Urlaub","","0","Urlaub. Holiday","07:00","16:00","8","60",
"28.04.17","5","170023","9999","910","Urlaub","","0","Urlaub. Holiday","07:00","16:00","8","60",
