"30.01.17","1","160499","56","120","Entwicklung: Codierung, Schaltplanerstellung, PCB-Layout","","0","10-1013: PIDT-527: Review and test issues before CF CR648my2-394_ErmitIstAnderSGs (8). ERI integration","07:00","16:00","8","60",
"31.01.17","2","160499","56","120","Entwicklung: Codierung, Schaltplanerstellung, PCB-Layout","","0","10-1013: PIDT-527: Review and test issues before CF CR648my2-394_ErmitIstAnderSGs (8). ERI integration and Tests","07:00","16:00","8","60",
"01.02.17","3","160499","56","120","Entwicklung: Codierung, Schaltplanerstellung, PCB-Layout","","0","10-1013: PIDT-527: Review and test issues before CF CR648my2-394_ErmitIstAnderSGs (8). ERI integration fixes","07:00","16:00","8","60",
"02.02.17","4","160499","58","104","Test-Spezifikation","","0","10-1013: PIDT-527: Testspec CR648my2-394_ErmitIstAnderSGs (8). Test spec","07:00","16:00","6","60",
"02.02.17","4","160499","0","140","Test","","0","10-1012: PIDT-529: Integrationstests CR648my4-396_SchniMesst (3). CR648my4-396_SchniMesst integration test (from sae)","","","2","0",
"03.02.17","5","170051","25","101","PM: Meetings, Orga, Personalführung","","0","S4/DSA overall tasks 2017. S4?DSA Weekly meetings and admin","07:00","16:00","1,5","60",
"03.02.17","5","160499","139","120","Entwicklung: Codierung, Schaltplanerstellung, PCB-Layout","","0","10-1016: PIDT-526: Implementierung CR648my1-392_EntwiEreig (13) (from sww). Getting into subject","","","6,5","0",
