"01.05.17","1","170023","0","910","Urlaub","","0","Urlaub. Urlaub","07:00","16:00","8","60",
"02.05.17","2","170051","4","101","PM: Meetings, Orga, Personalführung","","0","Weekly tasks AES 2017. Traveling to Port Elizabeth","07:00","16:00","8","60",
"03.05.17","3","170051","4","101","PM: Meetings, Orga, Personalführung","","0","Weekly tasks AES 2017. Traveling to Port Elizabeth","07:00","16:00","8","60",
"04.05.17","4","170023","0","910","Urlaub","","0","Urlaub. Urlaub","07:00","16:00","8","60",
"05.05.17","5","170018","35","101","PM: Meetings, Orga, Personalführung","","0","Waiting for tasks. Waiting for tasks","07:00","16:00","8","60",
