"30.01.17","1","170023","455","920","Krankheit","","0","krank 30.01.2017-31.01.2017. Sick","07:00","16:00","8","60",
"31.01.17","2","170023","455","920","Krankheit","","100","krank 30.01.2017-31.01.2017. Sick","07:00","16:00","8","60",
"01.02.17","3","170051","1","170","Schulung","","0","Training AES 2017. Training on tasks","07:00","16:00","2,5","60",
"01.02.17","3","170051","2","101","PM: Meetings, Orga, Personalführung","","0","Weekly tasks AES 2017. Meeting to discuss outstanding tasks","","","1,5","0",
"01.02.17","3","150075","483","120","Entwicklung: Codierung, Schaltplanerstellung, PCB-Layout","","0","328_FEAT-7829 - Visualization. Test Cases","","","4","0",
"02.02.17","4","170018","34","101","PM: Meetings, Orga, Personalführung","","0","Waiting for tasks. Waiting on Feedback","07:00","16:00","4","60",
"02.02.17","4","150075","483","120","Entwicklung: Codierung, Schaltplanerstellung, PCB-Layout","","0","328_FEAT-7829 - Visualization. Documentation","","","4","0",
"03.02.17","5","170018","34","101","PM: Meetings, Orga, Personalführung","","0","Waiting for tasks. Waiting on Feedback","07:00","16:00","3","60",
"03.02.17","5","170051","1","170","Schulung","","0","Training AES 2017. Training on task","","","2","0",
"03.02.17","5","150075","483","120","Entwicklung: Codierung, Schaltplanerstellung, PCB-Layout","","0","328_FEAT-7829 - Visualization. Documentation & Finalization of handover","","","3","0",
