"20.02.17","1","170018","37","101","PM: Meetings, Orga, Personalführung","","0","Waiting for tasks. Waiting for tasks","07:00","16:00","8","60",
"21.02.17","2","170018","37","101","PM: Meetings, Orga, Personalführung","","0","Waiting for tasks. Waiting for tasks","07:00","16:00","8","60",
"22.02.17","3","170051","14","170","Schulung","","0","Training AES 2017. Training on AE review procedures","07:00","16:00","1","60",
"22.02.17","3","170018","37","101","PM: Meetings, Orga, Personalführung","","0","Waiting for tasks. Waiting for tasks","","","7","0",
"23.02.17","4","170018","37","101","PM: Meetings, Orga, Personalführung","","0","Waiting for tasks. Waiting for tasks","07:00","16:00","8","60",
"24.02.17","5","170018","37","101","PM: Meetings, Orga, Personalführung","","0","Waiting for tasks. Waiting for tasks","07:00","16:00","6","60",
"24.02.17","5","170051","10","101","PM: Meetings, Orga, Personalführung","","0","Weekly tasks AES 2017. Timesheets, VISA applications","","","2","0",
