"13.02.17","1","120544","0","120","Entwicklung: Codierung, Schaltplanerstellung, PCB-Layout","","0","CP6 and VP2. Working on single tests for CP6 and VP2","07:30","17:30","9,25","45",
"14.02.17","2","120544","0","120","Entwicklung: Codierung, Schaltplanerstellung, PCB-Layout","","0","CP6 and VP2. Working on single tests for CP6 and VP2","07:30","17:30","9,25","45",
"15.02.17","3","120544","0","120","Entwicklung: Codierung, Schaltplanerstellung, PCB-Layout","","0","CP6 and VP2. Working on single tests for CP6 and VP2","07:30","17:30","9,25","45",
"16.02.17","4","120544","0","120","Entwicklung: Codierung, Schaltplanerstellung, PCB-Layout","","0","CP6 and VP2. Tests for VP2 on VFF","07:30","17:30","9,25","45",
"17.02.17","5","120544","0","120","Entwicklung: Codierung, Schaltplanerstellung, PCB-Layout","","0","CP6 and VP2. Tests for VP2 on VFF","07:30","12:00","4","30",
