"13.03.17","1","170025","148","170","Schulung","","0","training. training","07:00","16:00","8","60",
"14.03.17","2","170025","148","170","Schulung","","0","training. training","07:00","16:00","8","60",
"15.03.17","3","170025","148","170","Schulung","","0","training. training","07:00","16:00","8","60",
"16.03.17","4","170025","148","170","Schulung","","0","training. training`","07:00","16:00","8","60",
"17.03.17","5","170025","148","170","Schulung","","0","training. training","07:00","16:00","8","60",
