"24.04.17","1","150076","258","181","Fehlerbes. vor Ausl. (Bugzilla)","","0","FEAT-7841 PRODIS.ASCS R04.10 Bugfixing. FEAT-7841 PRODIS.ASCS R04.10 Bugfixing","07:00","16:00","8","60",
"25.04.17","2","150076","258","181","Fehlerbes. vor Ausl. (Bugzilla)","","0","FEAT-7841 PRODIS.ASCS R04.10 Bugfixing. FEAT-7841 PRODIS.ASCS R04.10 Bugfixing","07:00","16:00","8","60",
"26.04.17","3","170051","9","101","PM: Meetings, Orga, Personalführung","","0","Weekly tasks AES 2017. Weekly tasks","07:00","16:00","1","60",
"26.04.17","3","170051","12","101","PM: Meetings, Orga, Personalführung","","0","Management AES 2017. Management AES 2017","","","1","0",
"26.04.17","3","150076","258","181","Fehlerbes. vor Ausl. (Bugzilla)","","0","FEAT-7841 PRODIS.ASCS R04.10 Bugfixing. FEAT-7841 PRODIS.ASCS R04.10 Bugfixing","","","6","0",
"27.04.17","4","170023","0","910","Urlaub","","0","Urlaub. Public holiday","07:00","16:00","8","60",
"28.04.17","5","170023","0","910","Urlaub","","0","Urlaub. Time off","07:00","16:00","8","60",
