"27.02.17","1","170025","148","170","Schulung","","0","training. training","07:00","16:00","8","60",
"28.02.17","2","170025","148","170","Schulung","","0","training. training","07:00","16:00","8","60",
"01.03.17","3","170025","148","170","Schulung","","0","training . training ","07:00","16:00","8","60",
"02.03.17","4","170025","148","170","Schulung","","0","training . training","07:00","16:00","8","60",
"03.03.17","5","170025","148","170","Schulung","","0","training . training","07:00","16:00","8","60",
