"09.01.17","1","130216","160","185","Service, Telefon-Support","","0","WABCO: Support. Cts implementation supportwabco india/hannover","07:00","16:00","5","60",
"09.01.17","1","160577","100","102","Spez: LH/PH/Design","","0","Pattern Calibration: Grobdesign CODG erstellen. Implementation","","","3","0",
"10.01.17","2","130216","160","185","Service, Telefon-Support","","0","WABCO: Support. Cts implementation supportwabco india/hannover","07:00","16:00","3","60",
"10.01.17","2","130216","168","101","PM: Meetings, Orga, Personalführung","","0","WABCO: Meetings. bi weekly meeting","","","3","0",
"10.01.17","2","160577","100","102","Spez: LH/PH/Design","","0","Pattern Calibration: Grobdesign CODG erstellen. Implementation","","","2","0",
"11.01.17","3","130216","168","185","Service, Telefon-Support","","0","WABCO: Support. Cts implelementation","07:00","16:00","4","60",
"11.01.17","3","160577","100","102","Spez: LH/PH/Design","","0","Pattern Calibration: Grobdesign CODG erstellen. implementation","","","4","0",
"12.01.17","4","130216","168","101","PM: Meetings, Orga, Personalführung","","0","WABCO: Meetings. Bi weekly meeting","07:00","16:00","2","60",
"12.01.17","4","160577","100","102","Spez: LH/PH/Design","","0","Pattern Calibration: Grobdesign CODG erstellen. Implementation","","","6","0",
"13.01.17","5","130216","160","185","Service, Telefon-Support","","0","WABCO: Support. cts implememntation","07:00","16:00","2","60",
"13.01.17","5","170051","20","101","PM: Meetings, Orga, Personalführung","","0","Weekly tasks AES 2017. meetings and timesheets","","","1,5","0",
"13.01.17","5","160577","102","104","Test-Spezifikation","","0","Pattern Calibration: Testspec  erstellen. Implementation","","","4,5","0",
