"23.01.17","1","170023","0","910","Urlaub","","0","Urlaub. Urlaub","07:00","16:00","8","60",
"24.01.17","2","150074","604","120","Entwicklung: Codierung, Schaltplanerstellung, PCB-Layout","","0","9999: PDCS Dialog Testcases. Creating testcases for PDCS Dialogs. Creating testcases for PDCS Dialogs","07:00","16:00","8","60",
"25.01.17","3","170023","0","910","Urlaub","","0","Urlaub. Urlaub","07:00","16:00","1","60",
"25.01.17","3","170018","9999","101","PM: Meetings, Orga, Personalführung","","0","Waiting for tasks. Waiting for tasks","","","7","0",
"26.01.17","4","170018","9999","101","PM: Meetings, Orga, Personalführung","","0","Waiting for tasks. Waiting for tasks","07:00","16:00","8","60",
"27.01.17","5","170018","9999","101","PM: Meetings, Orga, Personalführung","","0","Waiting for tasks. Waiting for tasks","07:00","16:00","4","60",
