"13.02.17","1","160850","9999","185","Service, Telefon-Support","","0","MAN RES Support. MAN RES Support","07:00","16:00","8","60",
"14.02.17","2","160850","9999","185","Service, Telefon-Support","","0","MAN RES Support. MAN RES Support","07:00","16:00","8","60",
"15.02.17","3","160850","9999","185","Service, Telefon-Support","","0","MAN RES Support. MAN RES Support","07:00","16:00","8","60",
"16.02.17","4","160850","9999","185","Service, Telefon-Support","","0","MAN RES Support. MAN RES Support","07:00","16:00","8","60",
"17.02.17","5","160850","9999","185","Service, Telefon-Support","","0","MAN RES Support. MAN RES Support","07:00","16:00","8","60",
